Sample name,Ref Gene name,test Gene name,name match,Gene found,Ref gene length (AA),Test gene length (AA),Notes
MRSA_r9_sup_10,dnaA,dnaA,1,1,453,453,flye
MRSA_r9_sup_10,dnaN,dnaN,1,1,377,377,flye
MRSA_r9_sup_10,recF,recF,1,1,370,370,flye
MRSA_r9_sup_10,gyrB,gyrB,1,1,644,644,flye
MRSA_r9_sup_10,gyrA,gyrA,1,1,886,886,flye
MRSA_r9_sup_10,nnrD,,0,0,270,0,flye
MRSA_r9_sup_10,hutH,hutH,1,1,504,504,flye
MRSA_r9_sup_10,serS,serS,1,1,428,428,flye
MRSA_r9_sup_10,metXA,metXA,1,1,322,322,flye
MRSA_r9_sup_10,gdpP,gdpP,1,1,655,655,flye
MRSA_r9_sup_10,rplI,rplI,1,1,148,148,flye
MRSA_r9_sup_10,dnaC,dnaC,1,1,466,466,flye
MRSA_r9_sup_10,purA,purA,1,1,427,427,flye
MRSA_r9_sup_10,walR,,0,0,233,0,flye
MRSA_r9_sup_10,walK,walK,1,1,608,608,flye
MRSA_r9_sup_10,yycI,yycI,1,1,262,262,flye
MRSA_r9_sup_10,yycJ,,0,0,263,0,flye
MRSA_r9_sup_10,rlmH,rlmH,1,1,159,159,flye
MRSA_r9_sup_10,ble,,0,0,134,0,flye
MRSA_r9_sup_10,knt,knt,1,1,247,247,flye
MRSA_r9_sup_10,ugpQ,,0,0,247,0,flye
MRSA_r9_sup_10,mecA_1,,0,0,668,0,flye
MRSA_r9_sup_10,mecR1,mecR1,1,1,585,585,flye
MRSA_r9_sup_10,mecI,mecI,1,1,114,114,flye
MRSA_r9_sup_10,nagC,nagC,1,1,369,369,flye
MRSA_r9_sup_10,glpE_1,glpE_2,0,1,101,101,flye
MRSA_r9_sup_10,gloB,,0,0,312,0,flye
MRSA_r9_sup_10,glpE_2,,0,0,354,0,flye
MRSA_r9_sup_10,COQ5_3,COQ5_1,0,1,220,220,flye
MRSA_r9_sup_10,ermA1_2,ermA1_2,1,1,243,243,flye
MRSA_r9_sup_10,ant1_2,ant1_1,0,1,260,260,flye
MRSA_r9_sup_10,xerC_6,,0,0,630,0,flye
MRSA_r9_sup_10,xerC_7,xerC_8,0,1,361,361,flye
MRSA_r9_sup_10,kdpE_1,kdpE_2,0,1,231,231,flye
MRSA_r9_sup_10,kdpD_1,,0,0,889,0,flye
MRSA_r9_sup_10,kdpA_1,kdpA_3,0,1,558,558,flye
MRSA_r9_sup_10,kdpB_1,kdpB_2,0,1,673,673,flye
MRSA_r9_sup_10,kdpC_1,,0,0,120,0,flye
MRSA_r9_sup_10,kdpC_2,kdpC_2,1,1,65,65,flye
MRSA_r9_sup_10,mcrC,mcrC,1,1,346,346,flye
MRSA_r9_sup_10,farB_1,farB_2,0,1,442,442,flye
MRSA_r9_sup_10,dus,dus,1,1,328,328,flye
MRSA_r9_sup_10,plc,,0,0,328,0,flye
MRSA_r9_sup_10,rhaS_1,rhaS_2,0,1,745,745,flye
MRSA_r9_sup_10,scmP_1,scmP_4,0,1,392,392,flye
MRSA_r9_sup_10,norB_1,,0,0,462,0,flye
MRSA_r9_sup_10,lctP_1,lctP_2,0,1,530,530,flye
MRSA_r9_sup_10,spa,,0,0,516,0,flye
MRSA_r9_sup_10,sarS,,0,0,250,0,flye
MRSA_r9_sup_10,yfhA,yfhA_2,0,1,332,332,flye
MRSA_r9_sup_10,yfiZ_1,yfiZ_2,0,1,331,331,flye
MRSA_r9_sup_10,yfiY,,0,0,330,0,flye
MRSA_r9_sup_10,sbnA,sbnA,1,1,326,326,flye
MRSA_r9_sup_10,sbnB,sbnB,1,1,336,336,flye
MRSA_r9_sup_10,sbnC,sbnC,1,1,584,584,flye
MRSA_r9_sup_10,sbnD,,0,0,418,0,flye
MRSA_r9_sup_10,sbnE,sbnE_2,0,1,578,578,flye
MRSA_r9_sup_10,sbnF,sbnF,1,1,592,592,flye
MRSA_r9_sup_10,garL,garL,1,1,258,258,flye
MRSA_r9_sup_10,sbnH,sbnH,1,1,400,400,flye
MRSA_r9_sup_10,sbnI,sbnI,1,1,254,254,flye
MRSA_r9_sup_10,butA,butA,1,1,258,258,flye
MRSA_r9_sup_10,wbgU,wbgU,1,1,323,323,flye
MRSA_r9_sup_10,wbnH,wbnH,1,1,388,388,flye
MRSA_r9_sup_10,sodM,sodM,1,1,199,199,flye
MRSA_r9_sup_10,deoD,deoD,1,1,235,235,flye
MRSA_r9_sup_10,tet(38),tet(38),1,1,452,452,flye
MRSA_r9_sup_10,deoC1,deoC1,1,1,220,220,flye
MRSA_r9_sup_10,deoB,deoB,1,1,392,392,flye
MRSA_r9_sup_10,phnE_1,phnE_2,0,1,271,271,flye
MRSA_r9_sup_10,phnE_2,phnE_1,0,1,266,266,flye
MRSA_r9_sup_10,glnQ,glnQ,1,1,257,257,flye
MRSA_r9_sup_10,phnD2,phnD2,1,1,318,318,flye
MRSA_r9_sup_10,yfkN,yfkN,1,1,511,511,flye
MRSA_r9_sup_10,adhE,adhE,1,1,869,869,flye
MRSA_r9_sup_10,cap8A_1,,0,0,222,0,flye
MRSA_r9_sup_10,ywqD_1,ywqD_1,1,1,228,228,flye
MRSA_r9_sup_10,ywqE_1,,0,0,254,0,flye
MRSA_r9_sup_10,pglF,pglF,1,1,607,607,flye
MRSA_r9_sup_10,capD,capD,1,1,342,342,flye
MRSA_r9_sup_10,wbjC,wbjC,1,1,369,369,flye
MRSA_r9_sup_10,wbpI,wbpI,1,1,374,374,flye
MRSA_r9_sup_10,dapH_1,dapH_2,0,1,185,185,flye
MRSA_r9_sup_10,epsL,,0,0,185,0,flye
MRSA_r9_sup_10,fcl,fcl,1,1,295,295,flye
MRSA_r9_sup_10,wecC,wecC,1,1,420,420,flye
MRSA_r9_sup_10,mnaA_1,mnaA_3,0,1,381,381,flye
MRSA_r9_sup_10,isdI,isdI,1,1,108,108,flye
MRSA_r9_sup_10,ybaN,ybaN,1,1,127,127,flye
MRSA_r9_sup_10,aldA,aldA,1,1,495,495,flye
MRSA_r9_sup_10,czcD_1,czcD_2,0,1,319,319,flye
MRSA_r9_sup_10,nrtD,nrtD,1,1,246,246,flye
MRSA_r9_sup_10,ssuC,ssuC,1,1,253,253,flye
MRSA_r9_sup_10,mdrP,mdrP,1,1,416,416,flye
MRSA_r9_sup_10,dltA_1,,0,0,2391,0,flye
MRSA_r9_sup_10,yagU,yagU,1,1,164,164,flye
MRSA_r9_sup_10,argB,argB,1,1,256,256,flye
MRSA_r9_sup_10,argJ,argJ,1,1,413,413,flye
MRSA_r9_sup_10,argC,argC,1,1,344,344,flye
MRSA_r9_sup_10,rocD2_1,,0,0,394,0,flye
MRSA_r9_sup_10,brnQ_1,brnQ_4,0,1,451,451,flye
MRSA_r9_sup_10,yecD,,0,0,185,0,flye
MRSA_r9_sup_10,ipdC,ipdC,1,1,546,546,flye
MRSA_r9_sup_10,ptsG_1,ptsG_3,0,1,681,681,flye
MRSA_r9_sup_10,murQ,murQ,1,1,298,298,flye
MRSA_r9_sup_10,ybbH_1,ybbH_3,0,1,292,292,flye
MRSA_r9_sup_10,hsdR,hsdR,1,1,929,929,flye
MRSA_r9_sup_10,gsiA,gsiA,1,1,530,530,flye
MRSA_r9_sup_10,ggt,,0,0,668,0,flye
MRSA_r9_sup_10,azoR,azoR,1,1,208,208,flye
MRSA_r9_sup_10,msmX,msmX,1,1,365,365,flye
MRSA_r9_sup_10,cycB,cycB,1,1,423,423,flye
MRSA_r9_sup_10,malG,malG,1,1,279,279,flye
MRSA_r9_sup_10,gfo,gfo,1,1,358,358,flye
MRSA_r9_sup_10,iolG,iolG,1,1,346,346,flye
MRSA_r9_sup_10,uhpT,uhpT,1,1,459,459,flye
MRSA_r9_sup_10,pflB,pflB,1,1,749,749,flye
MRSA_r9_sup_10,pflA,,0,0,251,0,flye
MRSA_r9_sup_10,scn_1,scn_3,0,1,114,114,flye
MRSA_r9_sup_10,fadA,fadA,1,1,394,394,flye
MRSA_r9_sup_10,fadN,,0,0,753,0,flye
MRSA_r9_sup_10,caiA,caiA,1,1,403,403,flye
MRSA_r9_sup_10,lcfB,lcfB,1,1,501,501,flye
MRSA_r9_sup_10,carA_1,carA_2,0,1,520,520,flye
MRSA_r9_sup_10,nikA,,0,0,491,0,flye
MRSA_r9_sup_10,hmp,hmp,1,1,381,381,flye
MRSA_r9_sup_10,ldh1,ldh1,1,1,317,317,flye
MRSA_r9_sup_10,ptsG_2,ptsG_2,1,1,509,509,flye
MRSA_r9_sup_10,rihA,rihA,1,1,311,311,flye
MRSA_r9_sup_10,gatA_1,gatA_2,0,1,155,155,flye
MRSA_r9_sup_10,gatB_1,gatB_2,0,1,92,92,flye
MRSA_r9_sup_10,gatC_1,gatC_2,0,1,419,419,flye
MRSA_r9_sup_10,gatD_1,gatD_2,0,1,347,347,flye
MRSA_r9_sup_10,tarI2,tarI2,1,1,238,238,flye
MRSA_r9_sup_10,tarJ',tarJ',1,1,341,341,flye
MRSA_r9_sup_10,tarK,,0,0,564,0,flye
MRSA_r9_sup_10,tarF,tarF,1,1,389,389,flye
MRSA_r9_sup_10,tarI1,tarI1,1,1,238,238,flye
MRSA_r9_sup_10,tarJ,tarJ,1,1,341,341,flye
MRSA_r9_sup_10,tarL,tarL,1,1,562,562,flye
MRSA_r9_sup_10,tarS,tarS,1,1,574,574,flye
MRSA_r9_sup_10,scdA,scdA,1,1,224,224,flye
MRSA_r9_sup_10,ypdA,,0,0,584,0,flye
MRSA_r9_sup_10,lytR,lytR,1,1,246,246,flye
MRSA_r9_sup_10,lrgA,lrgA,1,1,145,145,flye
MRSA_r9_sup_10,lrgB,lrgB,1,1,233,233,flye
MRSA_r9_sup_10,yydK,yydK,1,1,234,234,flye
MRSA_r9_sup_10,ptsG_3,ptsG_1,0,1,263,263,flye
MRSA_r9_sup_10,bglA,bglA,1,1,478,478,flye
MRSA_r9_sup_10,COQ5_2,COQ5_2,1,1,253,253,flye
MRSA_r9_sup_10,rbsK,rbsK,1,1,304,304,flye
MRSA_r9_sup_10,rbsD,rbsD,1,1,134,134,flye
MRSA_r9_sup_10,glcU_1,glcU_2,0,1,293,293,flye
MRSA_r9_sup_10,degA,degA,1,1,332,332,flye
MRSA_r9_sup_10,norB_2,norB_3,0,1,458,458,flye
MRSA_r9_sup_10,yxeI,yxeI,1,1,330,330,flye
MRSA_r9_sup_10,lytM,lytM,1,1,316,316,flye
MRSA_r9_sup_10,lnrL_1,lnrL_3,0,1,219,219,flye
MRSA_r9_sup_10,esxA,esxA,1,1,97,97,flye
MRSA_r9_sup_10,esaA,esaA,1,1,1009,1009,flye
MRSA_r9_sup_10,esaB,esaB,1,1,80,80,flye
MRSA_r9_sup_10,essB,essB,1,1,444,444,flye
MRSA_r9_sup_10,essC,,0,0,1482,0,flye
MRSA_r9_sup_10,essG_1,essG_4,0,1,166,166,flye
MRSA_r9_sup_10,essG_2,essG_3,0,1,166,166,flye
MRSA_r9_sup_10,essG_3,,0,0,118,0,flye
MRSA_r9_sup_10,essG_4,essG_1,0,1,90,90,flye
MRSA_r9_sup_10,focA,focA,1,1,274,274,flye
MRSA_r9_sup_10,brnQ_2,,0,0,435,0,flye
MRSA_r9_sup_10,hel,hel,1,1,296,296,flye
MRSA_r9_sup_10,hrtA_1,,0,0,225,0,flye
MRSA_r9_sup_10,RBKS,RBKS,1,1,372,372,flye
MRSA_r9_sup_10,psuG,psuG,1,1,307,307,flye
MRSA_r9_sup_10,nupC_1,nupC_2,0,1,406,406,flye
MRSA_r9_sup_10,sglT,sglT,1,1,510,510,flye
MRSA_r9_sup_10,nanA,nanA,1,1,293,293,flye
MRSA_r9_sup_10,bglK,bglK,1,1,286,286,flye
MRSA_r9_sup_10,ybbH_2,ybbH_2,1,1,266,266,flye
MRSA_r9_sup_10,nanE,nanE,1,1,222,222,flye
MRSA_r9_sup_10,lip2,lip2,1,1,691,691,flye
MRSA_r9_sup_10,ulaA,ulaA,1,1,448,448,flye
MRSA_r9_sup_10,cmtB,cmtB,1,1,147,147,flye
MRSA_r9_sup_10,slyA_1,slyA_2,0,1,139,139,flye
MRSA_r9_sup_10,mepA,mepA,1,1,451,451,flye
MRSA_r9_sup_10,glpT,,0,0,452,0,flye
MRSA_r9_sup_10,mhqA_1,mhqA_3,0,1,308,308,flye
MRSA_r9_sup_10,luxA,,0,0,353,0,flye
MRSA_r9_sup_10,ydaF,ydaF,1,1,181,181,flye
MRSA_r9_sup_10,efeM,efeM,1,1,284,284,flye
MRSA_r9_sup_10,efeN,,0,0,409,0,flye
MRSA_r9_sup_10,tatC2,,0,0,233,0,flye
MRSA_r9_sup_10,tatAy,tatAy,1,1,71,71,flye
MRSA_r9_sup_10,btuD_1,,0,0,280,0,flye
MRSA_r9_sup_10,metE,,0,0,742,0,flye
MRSA_r9_sup_10,yitJ,yitJ,1,1,613,613,flye
MRSA_r9_sup_10,metC,metC,1,1,386,386,flye
MRSA_r9_sup_10,metI,metI,1,1,367,367,flye
MRSA_r9_sup_10,spo0J,spo0J,1,1,281,281,flye
MRSA_r9_sup_10,mscS,mscS,1,1,293,293,flye
MRSA_r9_sup_10,ychF,ychF,1,1,365,365,flye
MRSA_r9_sup_10,rpsF,rpsF,1,1,98,98,flye
MRSA_r9_sup_10,ssbA_1,ssbA_3,0,1,167,167,flye
MRSA_r9_sup_10,rpsR,rpsR,1,1,80,80,flye
MRSA_r9_sup_10,xerC_3,xerC_7,0,1,404,404,flye
MRSA_r9_sup_10,gpmA_1,gpmA_2,0,1,193,193,flye
MRSA_r9_sup_10,ahpF,ahpF,1,1,507,507,flye
MRSA_r9_sup_10,ahpC,ahpC,1,1,189,189,flye
MRSA_r9_sup_10,nfrA,nfrA,1,1,251,251,flye
MRSA_r9_sup_10,tcyP,tcyP,1,1,462,462,flye
MRSA_r9_sup_10,xpt,xpt,1,1,192,192,flye
MRSA_r9_sup_10,pucK,pucK,1,1,422,422,flye
MRSA_r9_sup_10,guaB,guaB,1,1,488,488,flye
MRSA_r9_sup_10,guaA,guaA,1,1,513,513,flye
MRSA_r9_sup_10,qorB,qorB,1,1,281,281,flye
MRSA_r9_sup_10,ssl1,ssl1,1,1,226,226,flye
MRSA_r9_sup_10,ssl4_1,ssl4_2,0,1,233,233,flye
MRSA_r9_sup_10,ssl4_2,ssl4_1,0,1,343,343,flye
MRSA_r9_sup_10,ssl3,ssl3,1,1,306,306,flye
MRSA_r9_sup_10,ssl5_1,,0,0,234,0,flye
MRSA_r9_sup_10,ssl7_1,ssl7_2,0,1,231,231,flye
MRSA_r9_sup_10,ssl7_2,ssl7_1,0,1,232,232,flye
MRSA_r9_sup_10,hsdM,,0,0,518,0,flye
MRSA_r9_sup_10,ssl5_2,ssl5_1,0,1,232,232,flye
MRSA_r9_sup_10,lpl2_1,lpl2_6,0,1,270,270,flye
MRSA_r9_sup_10,lpl2_2,,0,0,257,0,flye
MRSA_r9_sup_10,lpl2_3,,0,0,136,0,flye
MRSA_r9_sup_10,lpl2_4,,0,0,123,0,flye
MRSA_r9_sup_10,lpl2_5,,0,0,256,0,flye
MRSA_r9_sup_10,lpl2_6,lpl2_1,0,1,267,267,flye
MRSA_r9_sup_10,yciC_1,yciC_2,0,1,400,400,flye
MRSA_r9_sup_10,ndhB,ndhB,1,1,494,494,flye
MRSA_r9_sup_10,est_1,est_2,0,1,244,244,flye
MRSA_r9_sup_10,mccA,,0,0,311,0,flye
MRSA_r9_sup_10,mccB,mccB,1,1,380,380,flye
MRSA_r9_sup_10,metN,metN,1,1,341,341,flye
MRSA_r9_sup_10,metP_1,metP_2,0,1,219,219,flye
MRSA_r9_sup_10,metQ_1,metQ_2,0,1,280,280,flye
MRSA_r9_sup_10,sle1,,0,0,341,0,flye
MRSA_r9_sup_10,hdfR_1,hdfR_2,0,1,294,294,flye
MRSA_r9_sup_10,gltA,,0,0,1499,0,flye
MRSA_r9_sup_10,gltB,,0,0,487,0,flye
MRSA_r9_sup_10,treP_1,,0,0,475,0,flye
MRSA_r9_sup_10,treA,treA,1,1,546,546,flye
MRSA_r9_sup_10,treR_1,,0,0,242,0,flye
MRSA_r9_sup_10,ruvB_1,ruvB_2,0,1,565,565,flye
MRSA_r9_sup_10,recR,,0,0,198,0,flye
MRSA_r9_sup_10,speA,speA,1,1,445,445,flye
MRSA_r9_sup_10,tmk,tmk,1,1,205,205,flye
MRSA_r9_sup_10,darA,darA,1,1,109,109,flye
MRSA_r9_sup_10,yabA,yabA,1,1,115,115,flye
MRSA_r9_sup_10,yfiC,yfiC,1,1,241,241,flye
MRSA_r9_sup_10,rsmI,rsmI,1,1,279,279,flye
MRSA_r9_sup_10,metG,,0,0,657,0,flye
MRSA_r9_sup_10,dtd3,dtd3,1,1,257,257,flye
MRSA_r9_sup_10,rnmV_1,rnmV,0,1,178,178,flye
MRSA_r9_sup_10,rsmA,,0,0,297,0,flye
MRSA_r9_sup_10,veg,veg,1,1,87,87,flye
MRSA_r9_sup_10,ispE,ispE,1,1,282,282,flye
MRSA_r9_sup_10,purR,purR,1,1,274,274,flye
MRSA_r9_sup_10,yabJ,yabJ,1,1,126,126,flye
MRSA_r9_sup_10,spoVG,,0,0,100,0,flye
MRSA_r9_sup_10,glmU,glmU,1,1,450,450,flye
MRSA_r9_sup_10,prs,prs,1,1,321,321,flye
MRSA_r9_sup_10,rplY,rplY,1,1,217,217,flye
MRSA_r9_sup_10,pth,pth,1,1,190,190,flye
MRSA_r9_sup_10,mfd,mfd,1,1,1168,1168,flye
MRSA_r9_sup_10,divIC,divIC,1,1,130,130,flye
MRSA_r9_sup_10,pnp_1,pnp_2,0,1,133,133,flye
MRSA_r9_sup_10,tilS,tilS,1,1,431,431,flye
MRSA_r9_sup_10,hpt,hpt,1,1,179,179,flye
MRSA_r9_sup_10,ftsH,ftsH,1,1,697,697,flye
MRSA_r9_sup_10,hslO,hslO,1,1,293,293,flye
MRSA_r9_sup_10,cysK,cysK,1,1,310,310,flye
MRSA_r9_sup_10,folP,folP,1,1,267,267,flye
MRSA_r9_sup_10,folB,folB,1,1,121,121,flye
MRSA_r9_sup_10,folK,folK,1,1,158,158,flye
MRSA_r9_sup_10,lysS,lysS,1,1,495,495,flye
MRSA_r9_sup_10,gabR,,0,0,460,0,flye
MRSA_r9_sup_10,pdxS,,0,0,295,0,flye
MRSA_r9_sup_10,pdxT,pdxT,1,1,186,186,flye
MRSA_r9_sup_10,nupC_2,,0,0,404,0,flye
MRSA_r9_sup_10,ctsR,ctsR,1,1,156,156,flye
MRSA_r9_sup_10,mcsA,mcsA,1,1,188,188,flye
MRSA_r9_sup_10,mcsB,mcsB,1,1,336,336,flye
MRSA_r9_sup_10,clpC,,0,0,818,0,flye
MRSA_r9_sup_10,radA,radA,1,1,454,454,flye
MRSA_r9_sup_10,yacL,,0,0,357,0,flye
MRSA_r9_sup_10,gltX,,0,0,484,0,flye
MRSA_r9_sup_10,cysE,cysE,1,1,226,226,flye
MRSA_r9_sup_10,cysS,cysS,1,1,466,466,flye
MRSA_r9_sup_10,mrnC,mrnC,1,1,134,134,flye
MRSA_r9_sup_10,yacP,,0,0,174,0,flye
MRSA_r9_sup_10,secE,secE,1,1,60,60,flye
MRSA_r9_sup_10,nusG,nusG,1,1,182,182,flye
MRSA_r9_sup_10,rplK,rplK,1,1,140,140,flye
MRSA_r9_sup_10,rplA,rplA,1,1,229,229,flye
MRSA_r9_sup_10,rplJ,rplJ,1,1,166,166,flye
MRSA_r9_sup_10,rplL,rplL,1,1,122,122,flye
MRSA_r9_sup_10,rsmC,rsmC,1,1,202,202,flye
MRSA_r9_sup_10,rpoB,rpoB,1,1,1183,1183,flye
MRSA_r9_sup_10,rpoC,,0,0,1207,0,flye
MRSA_r9_sup_10,rplGB,rplGB,1,1,84,84,flye
MRSA_r9_sup_10,rpsL,rpsL,1,1,137,137,flye
MRSA_r9_sup_10,rpsG,rpsG,1,1,156,156,flye
MRSA_r9_sup_10,fusA,fusA,1,1,693,693,flye
MRSA_r9_sup_10,tuf,tuf,1,1,394,394,flye
MRSA_r9_sup_10,scmP_2,scmP_3,0,1,391,391,flye
MRSA_r9_sup_10,hchA,hchA,1,1,292,292,flye
MRSA_r9_sup_10,araB,araB,1,1,545,545,flye
MRSA_r9_sup_10,ilvE,ilvE,1,1,358,358,flye
MRSA_r9_sup_10,ppaX_1,ppaX_2,0,1,227,227,flye
MRSA_r9_sup_10,dck,dck,1,1,220,220,flye
MRSA_r9_sup_10,dgk,dgk,1,1,205,205,flye
MRSA_r9_sup_10,tadA_1,tadA_2,0,1,156,156,flye
MRSA_r9_sup_10,ywtE_1,ywtE_2,0,1,289,289,flye
MRSA_r9_sup_10,azo1,azo1,1,1,188,188,flye
MRSA_r9_sup_10,bbp,,0,0,1137,0,flye
MRSA_r9_sup_10,gtfA_1,gtfA_2,0,1,490,490,flye
MRSA_r9_sup_10,gtfA_2,gtfA_1,0,1,496,496,flye
MRSA_r9_sup_10,folE2,folE2,1,1,292,292,flye
MRSA_r9_sup_10,bshB2,bshB2,1,1,221,221,flye
MRSA_r9_sup_10,yojF,yojF,1,1,120,120,flye
MRSA_r9_sup_10,nagB_1,nagB_2,0,1,252,252,flye
MRSA_r9_sup_10,hxlB,hxlB,1,1,182,182,flye
MRSA_r9_sup_10,gph,gph,1,1,215,215,flye
MRSA_r9_sup_10,proP,proP,1,1,466,466,flye
MRSA_r9_sup_10,menE_1,,0,0,458,0,flye
MRSA_r9_sup_10,yhfS,yhfS,1,1,379,379,flye
MRSA_r9_sup_10,pdxK,pdxK,1,1,276,276,flye
MRSA_r9_sup_10,ung,,0,0,218,0,flye
MRSA_r9_sup_10,pta,pta,1,1,328,328,flye
MRSA_r9_sup_10,lipL,lipL,1,1,278,278,flye
MRSA_r9_sup_10,galK,galK,1,1,306,306,flye
MRSA_r9_sup_10,rclA,rclA,1,1,440,440,flye
MRSA_r9_sup_10,iolS,iolS,1,1,312,312,flye
MRSA_r9_sup_10,ywqN,ywqN,1,1,178,178,flye
MRSA_r9_sup_10,adh,adh,1,1,336,336,flye
MRSA_r9_sup_10,ywiB,ywiB,1,1,138,138,flye
MRSA_r9_sup_10,argS,argS,1,1,553,553,flye
MRSA_r9_sup_10,nth_1,nth_2,0,1,211,211,flye
MRSA_r9_sup_10,btuF,btuF,1,1,295,295,flye
MRSA_r9_sup_10,hdl IVa,hdl IVa,1,1,239,239,flye
MRSA_r9_sup_10,pip,pip,1,1,262,262,flye
MRSA_r9_sup_10,sarA,sarA,1,1,124,124,flye
MRSA_r9_sup_10,xerD_1,xerD_3,0,1,186,186,flye
MRSA_r9_sup_10,mrpA,,0,0,800,0,flye
MRSA_r9_sup_10,mrpB,mrpB,1,1,141,141,flye
MRSA_r9_sup_10,mnhC1_1,,0,0,114,0,flye
MRSA_r9_sup_10,mnhD1_1,,0,0,498,0,flye
MRSA_r9_sup_10,mrpE,mrpE,1,1,160,160,flye
MRSA_r9_sup_10,mrpF,mrpF,1,1,100,100,flye
MRSA_r9_sup_10,mrpG,,0,0,120,0,flye
MRSA_r9_sup_10,nhaK_1,nhaK_2,0,1,680,680,flye
MRSA_r9_sup_10,pbuE_1,pbuE_2,0,1,382,382,flye
MRSA_r9_sup_10,ppaX_2,ppaX_1,0,1,82,82,flye
MRSA_r9_sup_10,mntA,,0,0,309,0,flye
MRSA_r9_sup_10,mntB,mntB,1,1,278,278,flye
MRSA_r9_sup_10,scaC,scaC,1,1,247,247,flye
MRSA_r9_sup_10,mntR,mntR,1,1,214,214,flye
MRSA_r9_sup_10,tarA,tarA,1,1,254,254,flye
MRSA_r9_sup_10,tagH_1,tagH_2,0,1,264,264,flye
MRSA_r9_sup_10,tagG,,0,0,270,0,flye
MRSA_r9_sup_10,tarB,tarB,1,1,367,367,flye
MRSA_r9_sup_10,tagX,tagX,1,1,353,353,flye
MRSA_r9_sup_10,tarD,tarD,1,1,132,132,flye
MRSA_r9_sup_10,bmrA,bmrA,1,1,575,575,flye
MRSA_r9_sup_10,nupG,nupG,1,1,409,409,flye
MRSA_r9_sup_10,fepC,,0,0,265,0,flye
MRSA_r9_sup_10,feuB,feuB,1,1,334,334,flye
MRSA_r9_sup_10,feuC,,0,0,338,0,flye
MRSA_r9_sup_10,dhaK,,0,0,322,0,flye
MRSA_r9_sup_10,dhaL,dhaL,1,1,194,194,flye
MRSA_r9_sup_10,dhaM,dhaM,1,1,120,120,flye
MRSA_r9_sup_10,aes,aes,1,1,347,347,flye
MRSA_r9_sup_10,graR_1,,0,0,224,0,flye
MRSA_r9_sup_10,graS_1,,0,0,346,0,flye
MRSA_r9_sup_10,bceA_1,bceA_1,1,1,253,253,flye
MRSA_r9_sup_10,bceB_1,,0,0,629,0,flye
MRSA_r9_sup_10,rhaR,,0,0,647,0,flye
MRSA_r9_sup_10,sarX,,0,0,141,0,flye
MRSA_r9_sup_10,oxyR,oxyR,1,1,288,288,flye
MRSA_r9_sup_10,setC,,0,0,430,0,flye
MRSA_r9_sup_10,bin3,,0,0,105,0,flye
MRSA_r9_sup_10,sdpR,sdpR,1,1,104,104,flye
MRSA_r9_sup_10,arsB_1,arsB_2,0,1,429,429,flye
MRSA_r9_sup_10,arsC,arsC,1,1,131,131,flye
MRSA_r9_sup_10,pre,pre_1,0,1,108,108,flye
MRSA_r9_sup_10,bcrR,bcrR,1,1,113,113,flye
MRSA_r9_sup_10,cysL,cysL,1,1,273,273,flye
MRSA_r9_sup_10,hin_1,hin_2,0,1,191,191,flye
MRSA_r9_sup_10,copB,copB,1,1,681,681,flye
MRSA_r9_sup_10,mco,mco,1,1,477,477,flye
MRSA_r9_sup_10,cadA,cadA,1,1,726,726,flye
MRSA_r9_sup_10,cadC,cadC,1,1,121,121,flye
MRSA_r9_sup_10,uppP,uppP,1,1,291,291,flye
MRSA_r9_sup_10,cydD,,0,0,543,0,flye
MRSA_r9_sup_10,mgrA,mgrA,1,1,147,147,flye
MRSA_r9_sup_10,yciC_2,yciC_1,0,1,308,308,flye
MRSA_r9_sup_10,ydhF,ydhF,1,1,302,302,flye
MRSA_r9_sup_10,phrB,,0,0,457,0,flye
MRSA_r9_sup_10,tetA,tetA,1,1,388,388,flye
MRSA_r9_sup_10,ybaK,ybaK,1,1,160,160,flye
MRSA_r9_sup_10,ydjF,,0,0,254,0,flye
MRSA_r9_sup_10,lacC_1,lacC_2,0,1,306,306,flye
MRSA_r9_sup_10,fruA,,0,0,652,0,flye
MRSA_r9_sup_10,nagA,nagA,1,1,393,393,flye
MRSA_r9_sup_10,csbB,csbB,1,1,327,327,flye
MRSA_r9_sup_10,saeS,saeS,1,1,351,351,flye
MRSA_r9_sup_10,saeR,saeR,1,1,228,228,flye
MRSA_r9_sup_10,queE,,0,0,237,0,flye
MRSA_r9_sup_10,queD,queD,1,1,139,139,flye
MRSA_r9_sup_10,queC,queC,1,1,222,222,flye
MRSA_r9_sup_10,trpG_1,trpG,0,1,197,197,flye
MRSA_r9_sup_10,menF,menF_3,0,1,383,383,flye
MRSA_r9_sup_10,pxpB_1,pxpB,0,1,236,236,flye
MRSA_r9_sup_10,pxpC_1,,0,0,334,0,flye
MRSA_r9_sup_10,ltaS,,0,0,646,0,flye
MRSA_r9_sup_10,ettA,ettA,1,1,625,625,flye
MRSA_r9_sup_10,recQ_1,,0,0,593,0,flye
MRSA_r9_sup_10,btuD_2,btuD_4,0,1,325,325,flye
MRSA_r9_sup_10,hisC_1,hisC_2,0,1,352,352,flye
MRSA_r9_sup_10,dtpT,dtpT,1,1,501,501,flye
MRSA_r9_sup_10,queF,queF,1,1,166,166,flye
MRSA_r9_sup_10,cntI,cntI,1,1,288,288,flye
MRSA_r9_sup_10,nrdI,nrdI,1,1,132,132,flye
MRSA_r9_sup_10,nrdE,nrdE,1,1,701,701,flye
MRSA_r9_sup_10,nrdF,,0,0,323,0,flye
MRSA_r9_sup_10,yclN,yclN,1,1,323,323,flye
MRSA_r9_sup_10,yclO,,0,0,318,0,flye
MRSA_r9_sup_10,yclP,yclP,1,1,253,253,flye
MRSA_r9_sup_10,yclQ,yclQ,1,1,342,342,flye
MRSA_r9_sup_10,murB,murB,1,1,307,307,flye
MRSA_r9_sup_10,garK_1,,0,0,374,0,flye
MRSA_r9_sup_10,pepT_1,pepT,0,1,408,408,flye
MRSA_r9_sup_10,yjjP,yjjP,1,1,253,253,flye
MRSA_r9_sup_10,tagO,,0,0,351,0,flye
MRSA_r9_sup_10,comFA,comFA,1,1,360,360,flye
MRSA_r9_sup_10,hpf,hpf,1,1,190,190,flye
MRSA_r9_sup_10,secA1_1,secA1,0,1,843,843,flye
MRSA_r9_sup_10,prfB,,0,0,330,0,flye
MRSA_r9_sup_10,yfbR,yfbR,1,1,216,216,flye
MRSA_r9_sup_10,uvrB_1,uvrB,0,1,661,661,flye
MRSA_r9_sup_10,uvrA,uvrA,1,1,948,948,flye
MRSA_r9_sup_10,hprK,hprK,1,1,310,310,flye
MRSA_r9_sup_10,lgt,lgt,1,1,280,280,flye
MRSA_r9_sup_10,maa,maa,1,1,161,161,flye
MRSA_r9_sup_10,trxB,trxB,1,1,311,311,flye
MRSA_r9_sup_10,whiA,,0,0,314,0,flye
MRSA_r9_sup_10,clpP_1,clpP_3,0,1,195,195,flye
MRSA_r9_sup_10,mleS,,0,0,544,0,flye
MRSA_r9_sup_10,cggR,cggR,1,1,337,337,flye
MRSA_r9_sup_10,gapA1,gapA1,1,1,336,336,flye
MRSA_r9_sup_10,pgk,,0,0,396,0,flye
MRSA_r9_sup_10,tpiA,,0,0,253,0,flye
MRSA_r9_sup_10,gpmI,gpmI,1,1,505,505,flye
MRSA_r9_sup_10,eno,,0,0,434,0,flye
MRSA_r9_sup_10,secG,secG,1,1,77,77,flye
MRSA_r9_sup_10,est_2,,0,0,246,0,flye
MRSA_r9_sup_10,rnr,,0,0,790,0,flye
MRSA_r9_sup_10,smpB,,0,0,154,0,flye
MRSA_r9_sup_10,ssp,ssp,1,1,341,341,flye
MRSA_r9_sup_10,nuc,nuc,1,1,228,228,flye
MRSA_r9_sup_10,cspA_1,cspA_2,0,1,66,66,flye
MRSA_r9_sup_10,pspB,pspB,1,1,194,194,flye
MRSA_r9_sup_10,argO_1,argO_2,0,1,205,205,flye
MRSA_r9_sup_10,aroD,aroD,1,1,238,238,flye
MRSA_r9_sup_10,ydbP,ydbP,1,1,106,106,flye
MRSA_r9_sup_10,mgsR,mgsR,1,1,118,118,flye
MRSA_r9_sup_10,gcvH,gcvH,1,1,126,126,flye
MRSA_r9_sup_10,rnmV_2,,0,0,129,0,flye
MRSA_r9_sup_10,metN2,metN2,1,1,341,341,flye
MRSA_r9_sup_10,metP_2,metP_1,0,1,231,231,flye
MRSA_r9_sup_10,metQ_2,metQ_1,0,1,273,273,flye
MRSA_r9_sup_10,sufC,sufC,1,1,253,253,flye
MRSA_r9_sup_10,csd,csd,1,1,413,413,flye
MRSA_r9_sup_10,sufU,sufU,1,1,154,154,flye
MRSA_r9_sup_10,pnoA,pnoA,1,1,355,355,flye
MRSA_r9_sup_10,lipA_1,,0,0,305,0,flye
MRSA_r9_sup_10,yutF,yutF,1,1,259,259,flye
MRSA_r9_sup_10,ghrB_1,ghrB_2,0,1,319,319,flye
MRSA_r9_sup_10,dltA_2,dltA_1,0,1,485,485,flye
MRSA_r9_sup_10,patA,patA,1,1,404,404,flye
MRSA_r9_sup_10,dltC,dltC,1,1,78,78,flye
MRSA_r9_sup_10,dltD,dltD,1,1,391,391,flye
MRSA_r9_sup_10,nfuA,nfuA,1,1,80,80,flye
MRSA_r9_sup_10,yjlD,yjlD,1,1,354,354,flye
MRSA_r9_sup_10,pepA_1,pepA_2,0,1,491,491,flye
MRSA_r9_sup_10,mnhG1,mnhG1,1,1,118,118,flye
MRSA_r9_sup_10,mnhF1,mnhF1,1,1,97,97,flye
MRSA_r9_sup_10,mnhE1,mnhE1,1,1,159,159,flye
MRSA_r9_sup_10,mnhD1_2,mnhD1_1,0,1,498,498,flye
MRSA_r9_sup_10,mnhC1_2,mnhC1,0,1,113,113,flye
MRSA_r9_sup_10,mnhB1,mnhB1,1,1,142,142,flye
MRSA_r9_sup_10,mnhA1,mnhA1,1,1,801,801,flye
MRSA_r9_sup_10,kapB,kapB,1,1,127,127,flye
MRSA_r9_sup_10,yugI,yugI,1,1,125,125,flye
MRSA_r9_sup_10,rocD2_2,rocD2_1,0,1,396,396,flye
MRSA_r9_sup_10,gluD,gluD,1,1,414,414,flye
MRSA_r9_sup_10,glpQ_1,glpQ_2,0,1,309,309,flye
MRSA_r9_sup_10,argH,argH,1,1,459,459,flye
MRSA_r9_sup_10,argG,argG,1,1,401,401,flye
MRSA_r9_sup_10,pgi,pgi,1,1,443,443,flye
MRSA_r9_sup_10,ydjZ,ydjZ,1,1,191,191,flye
MRSA_r9_sup_10,spsB_1,spsB_2,0,1,174,174,flye
MRSA_r9_sup_10,spsB_2,spsB_1,0,1,191,191,flye
MRSA_r9_sup_10,addB,,0,0,1158,0,flye
MRSA_r9_sup_10,addA,,0,0,1217,0,flye
MRSA_r9_sup_10,cdr,cdr,1,1,438,438,flye
MRSA_r9_sup_10,yitU,yitU,1,1,274,274,flye
MRSA_r9_sup_10,sufT,sufT,1,1,102,102,flye
MRSA_r9_sup_10,oatA_1,oatA_2,0,1,604,604,flye
MRSA_r9_sup_10,clpB,clpB,1,1,869,869,flye
MRSA_r9_sup_10,ampR,,0,0,289,0,flye
MRSA_r9_sup_10,leuA_1,,0,0,381,0,flye
MRSA_r9_sup_10,map_1,map_4,0,1,144,144,flye
MRSA_r9_sup_10,fabH,fabH,1,1,313,313,flye
MRSA_r9_sup_10,fabF,fabF,1,1,414,414,flye
MRSA_r9_sup_10,oppB,oppB,1,1,308,308,flye
MRSA_r9_sup_10,oppC,oppC,1,1,356,356,flye
MRSA_r9_sup_10,oppD_1,,0,0,360,0,flye
MRSA_r9_sup_10,oppF_1,oppF_2,0,1,313,313,flye
MRSA_r9_sup_10,dppE,dppE,1,1,551,551,flye
MRSA_r9_sup_10,appA,,0,0,451,0,flye
MRSA_r9_sup_10,oppD_2,oppD_1,0,1,328,328,flye
MRSA_r9_sup_10,oppF_2,,0,0,326,0,flye
MRSA_r9_sup_10,dppC,dppC,1,1,293,293,flye
MRSA_r9_sup_10,trpS,trpS,1,1,329,329,flye
MRSA_r9_sup_10,spxA,spxA,1,1,131,131,flye
MRSA_r9_sup_10,mecA_2,mecA,0,1,239,239,flye
MRSA_r9_sup_10,pepF1_1,pepF1_3,0,1,602,602,flye
MRSA_r9_sup_10,yjbI,,0,0,121,0,flye
MRSA_r9_sup_10,yjbK,,0,0,197,0,flye
MRSA_r9_sup_10,yjbM,yjbM,1,1,211,211,flye
MRSA_r9_sup_10,nadK,,0,0,269,0,flye
MRSA_r9_sup_10,mgtE,mgtE,1,1,461,461,flye
MRSA_r9_sup_10,kefB,kefB,1,1,614,614,flye
MRSA_r9_sup_10,fabI,fabI,1,1,256,256,flye
MRSA_r9_sup_10,acp,acp,1,1,522,522,flye
MRSA_r9_sup_10,ltaA,,0,0,396,0,flye
MRSA_r9_sup_10,ugtP,ugtP,1,1,391,391,flye
MRSA_r9_sup_10,murE,murE,1,1,494,494,flye
MRSA_r9_sup_10,prfC,prfC,1,1,520,520,flye
MRSA_r9_sup_10,ktrB_1,,0,0,452,0,flye
MRSA_r9_sup_10,tarM,,0,0,493,0,flye
MRSA_r9_sup_10,catD,,0,0,118,0,flye
MRSA_r9_sup_10,yfmC_1,yfmC_2,0,1,319,319,flye
MRSA_r9_sup_10,menA,menA,1,1,312,312,flye
MRSA_r9_sup_10,pchA,,0,0,453,0,flye
MRSA_r9_sup_10,menD,,0,0,557,0,flye
MRSA_r9_sup_10,menH,menH,1,1,267,267,flye
MRSA_r9_sup_10,menB,menB,1,1,273,273,flye
MRSA_r9_sup_10,sspC,sspC,1,1,109,109,flye
MRSA_r9_sup_10,sspB,sspB,1,1,393,393,flye
MRSA_r9_sup_10,sspA,,0,0,357,0,flye
MRSA_r9_sup_10,dapX,,0,0,384,0,flye
MRSA_r9_sup_10,slyA_2,slyA_1,0,1,139,139,flye
MRSA_r9_sup_10,atl_1,,0,0,1257,0,flye
MRSA_r9_sup_10,tagU_1,tagU_2,0,1,408,408,flye
MRSA_r9_sup_10,fmtA,fmtA,1,1,397,397,flye
MRSA_r9_sup_10,qoxD,qoxD,1,1,96,96,flye
MRSA_r9_sup_10,qoxC,qoxC,1,1,201,201,flye
MRSA_r9_sup_10,qoxB,,0,0,662,0,flye
MRSA_r9_sup_10,qoxA,qoxA,1,1,366,366,flye
MRSA_r9_sup_10,folD,,0,0,286,0,flye
MRSA_r9_sup_10,purE,purE,1,1,160,160,flye
MRSA_r9_sup_10,purK,purK,1,1,374,374,flye
MRSA_r9_sup_10,purC,purC,1,1,234,234,flye
MRSA_r9_sup_10,purS,purS,1,1,87,87,flye
MRSA_r9_sup_10,purQ,purQ,1,1,223,223,flye
MRSA_r9_sup_10,purL,,0,0,729,0,flye
MRSA_r9_sup_10,purF,purF,1,1,494,494,flye
MRSA_r9_sup_10,purM,,0,0,342,0,flye
MRSA_r9_sup_10,purN,purN,1,1,188,188,flye
MRSA_r9_sup_10,purH,purH,1,1,492,492,flye
MRSA_r9_sup_10,purD,purD,1,1,415,415,flye
MRSA_r9_sup_10,ecfT_1,ecfT_2,0,1,268,268,flye
MRSA_r9_sup_10,ykoD_1,,0,0,466,0,flye
MRSA_r9_sup_10,ykoE,ykoE,1,1,191,191,flye
MRSA_r9_sup_10,rlmI,rlmI,1,1,390,390,flye
MRSA_r9_sup_10,ptsH,,0,0,88,0,flye
MRSA_r9_sup_10,ptsI,,0,0,572,0,flye
MRSA_r9_sup_10,ythA,,0,0,453,0,flye
MRSA_r9_sup_10,ythB,,0,0,339,0,flye
MRSA_r9_sup_10,ktrA,,0,0,220,0,flye
MRSA_r9_sup_10,rnj1,,0,0,565,0,flye
MRSA_r9_sup_10,def,,0,0,183,0,flye
MRSA_r9_sup_10,pdhA,pdhA,1,1,370,370,flye
MRSA_r9_sup_10,pdhB,pdhB,1,1,325,325,flye
MRSA_r9_sup_10,pdhC_1,pdhC,0,1,430,430,flye
MRSA_r9_sup_10,pdhD,pdhD,1,1,468,468,flye
MRSA_r9_sup_10,potA,,0,0,364,0,flye
MRSA_r9_sup_10,potB,potB,1,1,265,265,flye
MRSA_r9_sup_10,ydcV,,0,0,269,0,flye
MRSA_r9_sup_10,potD,potD,1,1,357,357,flye
MRSA_r9_sup_10,mntH_1,mntH_2,0,1,450,450,flye
MRSA_r9_sup_10,suhB,suhB,1,1,275,275,flye
MRSA_r9_sup_10,typA,typA,1,1,615,615,flye
MRSA_r9_sup_10,ftsW,,0,0,408,0,flye
MRSA_r9_sup_10,pycA,,0,0,1150,0,flye
MRSA_r9_sup_10,ctaA,ctaA,1,1,306,306,flye
MRSA_r9_sup_10,ctaB2,ctaB2,1,1,303,303,flye
MRSA_r9_sup_10,rsmD,rsmD,1,1,180,180,flye
MRSA_r9_sup_10,coaD,coaD,1,1,160,160,flye
MRSA_r9_sup_10,tmcAL,tmcAL,1,1,379,379,flye
MRSA_r9_sup_10,rpmF,,0,0,57,0,flye
MRSA_r9_sup_10,isdB,isdB,1,1,652,652,flye
MRSA_r9_sup_10,isdA,isdA,1,1,354,354,flye
MRSA_r9_sup_10,isdC,isdC,1,1,227,227,flye
MRSA_r9_sup_10,isdE,isdE,1,1,292,292,flye
MRSA_r9_sup_10,isdF,isdF,1,1,322,322,flye
MRSA_r9_sup_10,srtB,srtB,1,1,244,244,flye
MRSA_r9_sup_10,isdG_1,isdG_2,0,1,107,107,flye
MRSA_r9_sup_10,pheS,pheS,1,1,352,352,flye
MRSA_r9_sup_10,pheT,pheT,1,1,800,800,flye
MRSA_r9_sup_10,rnhC,rnhC,1,1,329,329,flye
MRSA_r9_sup_10,zapA,zapA,1,1,88,88,flye
MRSA_r9_sup_10,polX,,0,0,570,0,flye
MRSA_r9_sup_10,mutS2,mutS2,1,1,782,782,flye
MRSA_r9_sup_10,trxA,trxA,1,1,104,104,flye
MRSA_r9_sup_10,uvrC,,0,0,593,0,flye
MRSA_r9_sup_10,sdhC,sdhC,1,1,204,204,flye
MRSA_r9_sup_10,frdA,,0,0,588,0,flye
MRSA_r9_sup_10,frdB,frdB,1,1,271,271,flye
MRSA_r9_sup_10,murI,murI,1,1,266,266,flye
MRSA_r9_sup_10,fib,fib,1,1,165,165,flye
MRSA_r9_sup_10,scn_2,scn_2,1,1,116,116,flye
MRSA_r9_sup_10,hly_1,hly_2,0,1,206,206,flye
MRSA_r9_sup_10,hly_2,hly_1,0,1,112,112,flye
MRSA_r9_sup_10,argF,,0,0,333,0,flye
MRSA_r9_sup_10,arcC1,arcC1,1,1,311,311,flye
MRSA_r9_sup_10,yfnB,,0,0,228,0,flye
MRSA_r9_sup_10,bshC,,0,0,537,0,flye
MRSA_r9_sup_10,mraZ,mraZ,1,1,143,143,flye
MRSA_r9_sup_10,rsmH_1,rsmH_2,0,1,311,311,flye
MRSA_r9_sup_10,ftsL,,0,0,133,0,flye
MRSA_r9_sup_10,pbpB,,0,0,744,0,flye
MRSA_r9_sup_10,mraY,mraY,1,1,321,321,flye
MRSA_r9_sup_10,murD,,0,0,449,0,flye
MRSA_r9_sup_10,divIB,,0,0,439,0,flye
MRSA_r9_sup_10,ftsA,,0,0,468,0,flye
MRSA_r9_sup_10,ftsZ,ftsZ,1,1,390,390,flye
MRSA_r9_sup_10,yggS,,0,0,222,0,flye
MRSA_r9_sup_10,sepF,,0,0,187,0,flye
MRSA_r9_sup_10,divIVA,,0,0,198,0,flye
MRSA_r9_sup_10,ileS,ileS,1,1,917,917,flye
MRSA_r9_sup_10,catE_1,catE_2,0,1,265,265,flye
MRSA_r9_sup_10,lspA,lspA,1,1,163,163,flye
MRSA_r9_sup_10,rluD_1,,0,0,305,0,flye
MRSA_r9_sup_10,pyrR,,0,0,175,0,flye
MRSA_r9_sup_10,pyrP,pyrP,1,1,435,435,flye
MRSA_r9_sup_10,pyrB,pyrB,1,1,293,293,flye
MRSA_r9_sup_10,pyrC,,0,0,425,0,flye
MRSA_r9_sup_10,carA_2,,0,0,366,0,flye
MRSA_r9_sup_10,carB,,0,0,1057,0,flye
MRSA_r9_sup_10,pyrF,,0,0,230,0,flye
MRSA_r9_sup_10,pyrE,pyrE,1,1,203,203,flye
MRSA_r9_sup_10,rqcH,,0,0,565,0,flye
MRSA_r9_sup_10,gmk,,0,0,207,0,flye
MRSA_r9_sup_10,rpoZ,,0,0,72,0,flye
MRSA_r9_sup_10,coaBC,coaBC,1,1,399,399,flye
MRSA_r9_sup_10,priA,,0,0,802,0,flye
MRSA_r9_sup_10,def1,def1,1,1,162,162,flye
MRSA_r9_sup_10,fmt,fmt,1,1,311,311,flye
MRSA_r9_sup_10,rsmB,,0,0,435,0,flye
MRSA_r9_sup_10,rlmN,,0,0,364,0,flye
MRSA_r9_sup_10,stp,stp,1,1,247,247,flye
MRSA_r9_sup_10,prkC,prkC,1,1,664,664,flye
MRSA_r9_sup_10,rsgA,,0,0,291,0,flye
MRSA_r9_sup_10,rpe,rpe,1,1,214,214,flye
MRSA_r9_sup_10,thiN,,0,0,213,0,flye
MRSA_r9_sup_10,rpmB,rpmB,1,1,62,62,flye
MRSA_r9_sup_10,recG,,0,0,686,0,flye
MRSA_r9_sup_10,fapR,,0,0,185,0,flye
MRSA_r9_sup_10,plsX,,0,0,328,0,flye
MRSA_r9_sup_10,fabD,fabD,1,1,308,308,flye
MRSA_r9_sup_10,fabG,fabG,1,1,244,244,flye
MRSA_r9_sup_10,acpP,,0,0,77,0,flye
MRSA_r9_sup_10,rnc,rnc,1,1,243,243,flye
MRSA_r9_sup_10,smc_1,,0,0,1188,0,flye
MRSA_r9_sup_10,ftsY,,0,0,416,0,flye
MRSA_r9_sup_10,ffh,ffh,1,1,455,455,flye
MRSA_r9_sup_10,rpsP,,0,0,91,0,flye
MRSA_r9_sup_10,rimM,rimM,1,1,167,167,flye
MRSA_r9_sup_10,trmD,trmD,1,1,245,245,flye
MRSA_r9_sup_10,rplS,rplS,1,1,116,116,flye
MRSA_r9_sup_10,rbgA,,0,0,294,0,flye
MRSA_r9_sup_10,rnhB,,0,0,255,0,flye
MRSA_r9_sup_10,sucC,,0,0,388,0,flye
MRSA_r9_sup_10,sucD,,0,0,302,0,flye
MRSA_r9_sup_10,lytN,,0,0,372,0,flye
MRSA_r9_sup_10,femA_1,,0,0,414,0,flye
MRSA_r9_sup_10,topA,,0,0,691,0,flye
MRSA_r9_sup_10,trmFO,,0,0,435,0,flye
MRSA_r9_sup_10,xerC_4,,0,0,298,0,flye
MRSA_r9_sup_10,hslV,,0,0,181,0,flye
MRSA_r9_sup_10,hslU,,0,0,467,0,flye
MRSA_r9_sup_10,codY,codY,1,1,257,257,flye
MRSA_r9_sup_10,rpsB,rpsB,1,1,255,255,flye
MRSA_r9_sup_10,tsf,tsf,1,1,293,293,flye
MRSA_r9_sup_10,pyrH,pyrH,1,1,240,240,flye
MRSA_r9_sup_10,frr,frr,1,1,184,184,flye
MRSA_r9_sup_10,uppS,,0,0,256,0,flye
MRSA_r9_sup_10,proS,,0,0,567,0,flye
MRSA_r9_sup_10,polC,polC,1,1,1438,1438,flye
MRSA_r9_sup_10,rimP,rimP,1,1,155,155,flye
MRSA_r9_sup_10,nusA,nusA,1,1,391,391,flye
MRSA_r9_sup_10,rplGA,rplGA,1,1,105,105,flye
MRSA_r9_sup_10,infB_1,infB,0,1,705,705,flye
MRSA_r9_sup_10,rbfA,rbfA,1,1,116,116,flye
MRSA_r9_sup_10,truB,,0,0,305,0,flye
MRSA_r9_sup_10,ribF,ribF,1,1,323,323,flye
MRSA_r9_sup_10,rpsO,,0,0,89,0,flye
MRSA_r9_sup_10,pnp_2,pnp_1,0,1,698,698,flye
MRSA_r9_sup_10,rnj2,,0,0,557,0,flye
MRSA_r9_sup_10,ftsK,,0,0,789,0,flye
MRSA_r9_sup_10,gamR,gamR,1,1,237,237,flye
MRSA_r9_sup_10,phaB,phaB,1,1,234,234,flye
MRSA_r9_sup_10,pgsA,pgsA,1,1,192,192,flye
MRSA_r9_sup_10,cinA,cinA,1,1,383,383,flye
MRSA_r9_sup_10,recA,recA,1,1,347,347,flye
MRSA_r9_sup_10,rny,,0,0,519,0,flye
MRSA_r9_sup_10,ymdB,,0,0,265,0,flye
MRSA_r9_sup_10,miaB,,0,0,514,0,flye
MRSA_r9_sup_10,ymcA,ymcA,1,1,121,121,flye
MRSA_r9_sup_10,mutS_1,mutS_2,0,1,872,872,flye
MRSA_r9_sup_10,mutL,,0,0,669,0,flye
MRSA_r9_sup_10,glpP,,0,0,177,0,flye
MRSA_r9_sup_10,glpF,,0,0,272,0,flye
MRSA_r9_sup_10,glpK,glpK,1,1,498,498,flye
MRSA_r9_sup_10,glpD,,0,0,557,0,flye
MRSA_r9_sup_10,miaA,miaA,1,1,311,311,flye
MRSA_r9_sup_10,hfq,hfq,1,1,77,77,flye
MRSA_r9_sup_10,bsaA_1,,0,0,158,0,flye
MRSA_r9_sup_10,hflX,,0,0,412,0,flye
MRSA_r9_sup_10,glnR,glnR,1,1,122,122,flye
MRSA_r9_sup_10,glnA,,0,0,446,0,flye
MRSA_r9_sup_10,infB_2,,0,0,615,0,flye
MRSA_r9_sup_10,ltaE,ltaE,1,1,341,341,flye
MRSA_r9_sup_10,cls_1,,0,0,493,0,flye
MRSA_r9_sup_10,btuD_3,btuD_3,1,1,299,299,flye
MRSA_r9_sup_10,desR,desR,1,1,168,168,flye
MRSA_r9_sup_10,nucH,,0,0,177,0,flye
MRSA_r9_sup_10,yclM,,0,0,460,0,flye
MRSA_r9_sup_10,thrC,,0,0,353,0,flye
MRSA_r9_sup_10,thrB,thrB,1,1,304,304,flye
MRSA_r9_sup_10,lysP_1,,0,0,484,0,flye
MRSA_r9_sup_10,katA,,0,0,505,0,flye
MRSA_r9_sup_10,rpmG2_1,rpmG2_2,0,1,49,49,flye
MRSA_r9_sup_10,rpsN2,rpsN2,1,1,89,89,flye
MRSA_r9_sup_10,guaC,guaC,1,1,325,325,flye
MRSA_r9_sup_10,lexA_1,,0,0,207,0,flye
MRSA_r9_sup_10,tkt,,0,0,662,0,flye
MRSA_r9_sup_10,sbcD,sbcD,1,1,373,373,flye
MRSA_r9_sup_10,sbcC,,0,0,1009,0,flye
MRSA_r9_sup_10,mscL,mscL,1,1,120,120,flye
MRSA_r9_sup_10,opuD_1,opuD_3,0,1,548,548,flye
MRSA_r9_sup_10,acnA,acnA,1,1,901,901,flye
MRSA_r9_sup_10,plsY,,0,0,202,0,flye
MRSA_r9_sup_10,parE,,0,0,663,0,flye
MRSA_r9_sup_10,parC,parC,1,1,800,800,flye
MRSA_r9_sup_10,alsT,,0,0,486,0,flye
MRSA_r9_sup_10,glcT,,0,0,283,0,flye
MRSA_r9_sup_10,mprF,,0,0,840,0,flye
MRSA_r9_sup_10,msrA1,,0,0,169,0,flye
MRSA_r9_sup_10,msrR,,0,0,327,0,flye
MRSA_r9_sup_10,umuC,,0,0,420,0,flye
MRSA_r9_sup_10,ysdC_1,,0,0,343,0,flye
MRSA_r9_sup_10,trpE,,0,0,468,0,flye
MRSA_r9_sup_10,trpG_2,,0,0,188,0,flye
MRSA_r9_sup_10,trpD2,,0,0,257,0,flye
MRSA_r9_sup_10,trpC,trpC,1,1,260,260,flye
MRSA_r9_sup_10,trpF,,0,0,211,0,flye
MRSA_r9_sup_10,trpB,,0,0,404,0,flye
MRSA_r9_sup_10,trpA,,0,0,242,0,flye
MRSA_r9_sup_10,femA_2,,0,0,420,0,flye
MRSA_r9_sup_10,femB,femB_1,0,1,419,419,flye
MRSA_r9_sup_10,nikE,nikE,1,1,233,233,flye
MRSA_r9_sup_10,nikD,nikD,1,1,257,257,flye
MRSA_r9_sup_10,nikC,,0,0,276,0,flye
MRSA_r9_sup_10,nikB,nikB,1,1,328,328,flye
MRSA_r9_sup_10,pepF1_2,,0,0,604,0,flye
MRSA_r9_sup_10,phoU,,0,0,213,0,flye
MRSA_r9_sup_10,pstB3,,0,0,283,0,flye
MRSA_r9_sup_10,pstA,,0,0,305,0,flye
MRSA_r9_sup_10,pstS,pstS,1,1,327,327,flye
MRSA_r9_sup_10,cvfB,,0,0,300,0,flye
MRSA_r9_sup_10,ybiT,,0,0,533,0,flye
MRSA_r9_sup_10,lysC,,0,0,401,0,flye
MRSA_r9_sup_10,asd,,0,0,329,0,flye
MRSA_r9_sup_10,dapA,,0,0,295,0,flye
MRSA_r9_sup_10,dapB,dapB,1,1,240,240,flye
MRSA_r9_sup_10,dapH_2,dapH_1,0,1,239,239,flye
MRSA_r9_sup_10,scmP_3,scmP_2,0,1,383,383,flye
MRSA_r9_sup_10,alr1_1,alr1_2,0,1,361,361,flye
MRSA_r9_sup_10,lysA,,0,0,421,0,flye
MRSA_r9_sup_10,cspA_2,cspA_1,0,1,66,66,flye
MRSA_r9_sup_10,yccX,yccX,1,1,89,89,flye
MRSA_r9_sup_10,brnQ_3,brnQ_1,0,1,447,447,flye
MRSA_r9_sup_10,nirQ,nirQ,1,1,263,263,flye
MRSA_r9_sup_10,mhqA_2,mhqA_2,1,1,269,269,flye
MRSA_r9_sup_10,odhB,odhB,1,1,423,423,flye
MRSA_r9_sup_10,odhA,,0,0,932,0,flye
MRSA_r9_sup_10,arlS,,0,0,451,0,flye
MRSA_r9_sup_10,arlR,arlR,1,1,219,219,flye
MRSA_r9_sup_10,murG,murG,1,1,356,356,flye
MRSA_r9_sup_10,crr,crr,1,1,166,166,flye
MRSA_r9_sup_10,msrB,msrB,1,1,142,142,flye
MRSA_r9_sup_10,msrA2,msrA2,1,1,177,177,flye
MRSA_r9_sup_10,folA,folA,1,1,159,159,flye
MRSA_r9_sup_10,thyA,thyA,1,1,318,318,flye
MRSA_r9_sup_10,rnhA,rnhA,1,1,133,133,flye
MRSA_r9_sup_10,ebh,,0,0,10746,0,flye
MRSA_r9_sup_10,norB_3,norB_2,0,1,463,463,flye
MRSA_r9_sup_10,steT,,0,0,440,0,flye
MRSA_r9_sup_10,tdcB,tdcB,1,1,346,346,flye
MRSA_r9_sup_10,ald1,ald1,1,1,372,372,flye
MRSA_r9_sup_10,ypcP,ypcP,1,1,292,292,flye
MRSA_r9_sup_10,der_1,,0,0,1146,0,flye
MRSA_r9_sup_10,rlmL,rlmL,1,1,381,381,flye
MRSA_r9_sup_10,gpsB,gpsB,1,1,114,114,flye
MRSA_r9_sup_10,recU,,0,0,208,0,flye
MRSA_r9_sup_10,ponA,ponA,1,1,716,716,flye
MRSA_r9_sup_10,nth_2,nth_1,0,1,219,219,flye
MRSA_r9_sup_10,dnaD,dnaD,1,1,228,228,flye
MRSA_r9_sup_10,asnS,asnS,1,1,430,430,flye
MRSA_r9_sup_10,dinG_1,,0,0,897,0,flye
MRSA_r9_sup_10,birA,birA,1,1,323,323,flye
MRSA_r9_sup_10,cca,cca,1,1,400,400,flye
MRSA_r9_sup_10,bshA,bshA,1,1,380,380,flye
MRSA_r9_sup_10,ypjD,ypjD,1,1,105,105,flye
MRSA_r9_sup_10,bepA,bepA,1,1,414,414,flye
MRSA_r9_sup_10,aroA_1,aroA_2,0,1,432,432,flye
MRSA_r9_sup_10,aroB,aroB,1,1,354,354,flye
MRSA_r9_sup_10,aroC,,0,0,388,0,flye
MRSA_r9_sup_10,ndk,ndk,1,1,149,149,flye
MRSA_r9_sup_10,hepT,hepT,1,1,319,319,flye
MRSA_r9_sup_10,menG,,0,0,241,0,flye
MRSA_r9_sup_10,hup,hup,1,1,90,90,flye
MRSA_r9_sup_10,gpsA,gpsA,1,1,332,332,flye
MRSA_r9_sup_10,der_2,der_1,0,1,436,436,flye
MRSA_r9_sup_10,rpsA,rpsA,1,1,391,391,flye
MRSA_r9_sup_10,cmk,cmk,1,1,219,219,flye
MRSA_r9_sup_10,ansA,,0,0,322,0,flye
MRSA_r9_sup_10,ebpS,,0,0,486,0,flye
MRSA_r9_sup_10,recQ_2,recQ_1,0,1,459,459,flye
MRSA_r9_sup_10,ribU,ribU,1,1,181,181,flye
MRSA_r9_sup_10,smc_2,,0,0,2066,0,flye
MRSA_r9_sup_10,clpP_2,clpP_2,1,1,257,257,flye
MRSA_r9_sup_10,xerC_5,,0,0,401,0,flye
MRSA_r9_sup_10,srrB,,0,0,583,0,flye
MRSA_r9_sup_10,srrA,srrA,1,1,241,241,flye
MRSA_r9_sup_10,rluB,,0,0,245,0,flye
MRSA_r9_sup_10,scpB,,0,0,180,0,flye
MRSA_r9_sup_10,scpA,scpA,1,1,251,251,flye
MRSA_r9_sup_10,xerD_2,,0,0,295,0,flye
MRSA_r9_sup_10,fur,,0,0,149,0,flye
MRSA_r9_sup_10,nudF,nudF,1,1,180,180,flye
MRSA_r9_sup_10,yajO,,0,0,302,0,flye
MRSA_r9_sup_10,proC,proC,1,1,271,271,flye
MRSA_r9_sup_10,rnz,,0,0,306,0,flye
MRSA_r9_sup_10,zwf,,0,0,494,0,flye
MRSA_r9_sup_10,malL,,0,0,549,0,flye
MRSA_r9_sup_10,malR,,0,0,339,0,flye
MRSA_r9_sup_10,psuK,,0,0,299,0,flye
MRSA_r9_sup_10,entS,,0,0,369,0,flye
MRSA_r9_sup_10,gnd,,0,0,468,0,flye
MRSA_r9_sup_10,pepT_2,,0,0,377,0,flye
MRSA_r9_sup_10,pdhC_2,,0,0,424,0,flye
MRSA_r9_sup_10,bfmBAB,,0,0,327,0,flye
MRSA_r9_sup_10,bfmBAA,,0,0,330,0,flye
MRSA_r9_sup_10,recN,,0,0,559,0,flye
MRSA_r9_sup_10,argR_1,,0,0,150,0,flye
MRSA_r9_sup_10,xseB,,0,0,76,0,flye
MRSA_r9_sup_10,xseA,,0,0,445,0,flye
MRSA_r9_sup_10,nusB,,0,0,129,0,flye
MRSA_r9_sup_10,cfiB,,0,0,451,0,flye
MRSA_r9_sup_10,accB_1,,0,0,154,0,flye
MRSA_r9_sup_10,efp,,0,0,185,0,flye
MRSA_r9_sup_10,ypdF,,0,0,353,0,flye
MRSA_r9_sup_10,lipM,,0,0,276,0,flye
MRSA_r9_sup_10,yibN,,0,0,128,0,flye
MRSA_r9_sup_10,gcvPB,,0,0,490,0,flye
MRSA_r9_sup_10,gcvPA,,0,0,448,0,flye
MRSA_r9_sup_10,gcvT,,0,0,363,0,flye
MRSA_r9_sup_10,aroK,,0,0,174,0,flye
MRSA_r9_sup_10,comGC,,0,0,103,0,flye
MRSA_r9_sup_10,comGA,,0,0,324,0,flye
MRSA_r9_sup_10,glcK,,0,0,328,0,flye
MRSA_r9_sup_10,gluP,,0,0,487,0,flye
MRSA_r9_sup_10,yqgN,yqgN,1,1,197,197,flye
MRSA_r9_sup_10,rpmG2_2,rpmG2_1,0,1,49,49,flye
MRSA_r9_sup_10,pbpH,,0,0,691,0,flye
MRSA_r9_sup_10,sodA,sodA,1,1,199,199,flye
MRSA_r9_sup_10,zur,,0,0,136,0,flye
MRSA_r9_sup_10,znuB,,0,0,290,0,flye
MRSA_r9_sup_10,btuD_4,btuD_1,0,1,261,261,flye
MRSA_r9_sup_10,nfo,nfo,1,1,296,296,flye
MRSA_r9_sup_10,cshB,cshB,1,1,448,448,flye
MRSA_r9_sup_10,trmK,trmK,1,1,225,225,flye
MRSA_r9_sup_10,sigA,sigA,1,1,368,368,flye
MRSA_r9_sup_10,dnaG,,0,0,599,0,flye
MRSA_r9_sup_10,yqfL,,0,0,272,0,flye
MRSA_r9_sup_10,ccpN,,0,0,179,0,flye
MRSA_r9_sup_10,glyQS,glyQS,1,1,463,463,flye
MRSA_r9_sup_10,recO,,0,0,248,0,flye
MRSA_r9_sup_10,era,era,1,1,299,299,flye
MRSA_r9_sup_10,cdd,cdd,1,1,134,134,flye
MRSA_r9_sup_10,dgkA,dgkA,1,1,114,114,flye
MRSA_r9_sup_10,ybeY,ybeY,1,1,155,155,flye
MRSA_r9_sup_10,rpsU,rpsU,1,1,58,58,flye
MRSA_r9_sup_10,mtaB,mtaB,1,1,448,448,flye
MRSA_r9_sup_10,rsmE,,0,0,250,0,flye
MRSA_r9_sup_10,prmA,prmA,1,1,312,312,flye
MRSA_r9_sup_10,dnaJ,dnaJ,1,1,379,379,flye
MRSA_r9_sup_10,dnaK,dnaK,1,1,610,610,flye
MRSA_r9_sup_10,grpE,grpE,1,1,208,208,flye
MRSA_r9_sup_10,hrcA,,0,0,325,0,flye
MRSA_r9_sup_10,hemW,,0,0,385,0,flye
MRSA_r9_sup_10,lepA,,0,0,607,0,flye
MRSA_r9_sup_10,rpsT,rpsT,1,1,83,83,flye
MRSA_r9_sup_10,yqeN,,0,0,324,0,flye
MRSA_r9_sup_10,comEC,,0,0,733,0,flye
MRSA_r9_sup_10,tadA_2,,0,0,143,0,flye
MRSA_r9_sup_10,comEA,comEA,1,1,225,225,flye
MRSA_r9_sup_10,tam,,0,0,238,0,flye
MRSA_r9_sup_10,rsfS,,0,0,117,0,flye
MRSA_r9_sup_10,nadD,nadD,1,1,189,189,flye
MRSA_r9_sup_10,yhbY,yhbY,1,1,96,96,flye
MRSA_r9_sup_10,aroE,,0,0,268,0,flye
MRSA_r9_sup_10,yqeH,yqeH,1,1,366,366,flye
MRSA_r9_sup_10,mtnN,mtnN,1,1,228,228,flye
MRSA_r9_sup_10,entA_1,,0,0,62,0,flye
MRSA_r9_sup_10,entA_2,entA_2,1,1,167,167,flye
MRSA_r9_sup_10,mntH_2,mntH_1,0,1,410,410,flye
MRSA_r9_sup_10,pxpA,pxpA,1,1,250,250,flye
MRSA_r9_sup_10,accC,,0,0,453,0,flye
MRSA_r9_sup_10,accB_2,,0,0,149,0,flye
MRSA_r9_sup_10,pxpC_2,,0,0,336,0,flye
MRSA_r9_sup_10,pxpB_2,,0,0,244,0,flye
MRSA_r9_sup_10,greA,,0,0,158,0,flye
MRSA_r9_sup_10,udk,,0,0,207,0,flye
MRSA_r9_sup_10,rlhA,,0,0,307,0,flye
MRSA_r9_sup_10,trmR,,0,0,212,0,flye
MRSA_r9_sup_10,yrrK,yrrK,1,1,142,142,flye
MRSA_r9_sup_10,alaS,,0,0,877,0,flye
MRSA_r9_sup_10,recD2,,0,0,825,0,flye
MRSA_r9_sup_10,yrrB,,0,0,222,0,flye
MRSA_r9_sup_10,mnmA,mnmA,1,1,372,372,flye
MRSA_r9_sup_10,iscS_1,iscS_1,1,1,380,380,flye
MRSA_r9_sup_10,cymR,,0,0,140,0,flye
MRSA_r9_sup_10,aspS,,0,0,588,0,flye
MRSA_r9_sup_10,hisS,,0,0,420,0,flye
MRSA_r9_sup_10,dtd,,0,0,150,0,flye
MRSA_r9_sup_10,relA,,0,0,736,0,flye
MRSA_r9_sup_10,apt,apt,1,1,172,172,flye
MRSA_r9_sup_10,secDF,secDF,1,1,759,759,flye
MRSA_r9_sup_10,yajC,yajC,1,1,86,86,flye
MRSA_r9_sup_10,tgt,,0,0,379,0,flye
MRSA_r9_sup_10,queA,queA,1,1,341,341,flye
MRSA_r9_sup_10,ruvB_2,ruvB_1,0,1,334,334,flye
MRSA_r9_sup_10,ruvA,ruvA,1,1,200,200,flye
MRSA_r9_sup_10,obg,,0,0,430,0,flye
MRSA_r9_sup_10,rpmA,rpmA,1,1,94,94,flye
MRSA_r9_sup_10,rplU,,0,0,102,0,flye
MRSA_r9_sup_10,mreC,mreC,1,1,280,280,flye
MRSA_r9_sup_10,comC,,0,0,235,0,flye
MRSA_r9_sup_10,fpgS,fpgS,1,1,423,423,flye
MRSA_r9_sup_10,valS,,0,0,876,0,flye
MRSA_r9_sup_10,tag,,0,0,186,0,flye
MRSA_r9_sup_10,hemL1,hemL1,1,1,428,428,flye
MRSA_r9_sup_10,hemB,hemB,1,1,324,324,flye
MRSA_r9_sup_10,hemC,hemC,1,1,308,308,flye
MRSA_r9_sup_10,hemA,,0,0,448,0,flye
MRSA_r9_sup_10,engB,engB,1,1,196,196,flye
MRSA_r9_sup_10,clpX,,0,0,420,0,flye
MRSA_r9_sup_10,tig,,0,0,433,0,flye
MRSA_r9_sup_10,rplT,rplT,1,1,118,118,flye
MRSA_r9_sup_10,rpmI,rpmI,1,1,66,66,flye
MRSA_r9_sup_10,infC,infC,1,1,186,186,flye
MRSA_r9_sup_10,lysP_2,lysP_1,0,1,497,497,flye
MRSA_r9_sup_10,thrS,,0,0,645,0,flye
MRSA_r9_sup_10,dnaI,,0,0,306,0,flye
MRSA_r9_sup_10,dnaB,dnaB,1,1,466,466,flye
MRSA_r9_sup_10,nrdR,nrdR,1,1,156,156,flye
MRSA_r9_sup_10,gapA2,gapA2,1,1,341,341,flye
MRSA_r9_sup_10,coaE,,0,0,207,0,flye
MRSA_r9_sup_10,mutM,mutM,1,1,290,290,flye
MRSA_r9_sup_10,polA,,0,0,876,0,flye
MRSA_r9_sup_10,sasA,sasA,1,1,554,554,flye
MRSA_r9_sup_10,phoP,phoP,1,1,233,233,flye
MRSA_r9_sup_10,icd,icd,1,1,422,422,flye
MRSA_r9_sup_10,citZ,,0,0,373,0,flye
MRSA_r9_sup_10,cycA_1,cycA_1,1,1,453,453,flye
MRSA_r9_sup_10,pyk,,0,0,585,0,flye
MRSA_r9_sup_10,pfkA,pfkA,1,1,322,322,flye
MRSA_r9_sup_10,accA,accA,1,1,314,314,flye
MRSA_r9_sup_10,accD,,0,0,285,0,flye
MRSA_r9_sup_10,dnaE,,0,0,1065,0,flye
MRSA_r9_sup_10,nrnA,,0,0,313,0,flye
MRSA_r9_sup_10,IMPDH,IMPDH,1,1,432,432,flye
MRSA_r9_sup_10,ald2,ald2,1,1,372,372,flye
MRSA_r9_sup_10,ackA,ackA,1,1,400,400,flye
MRSA_r9_sup_10,tpx,tpx,1,1,164,164,flye
MRSA_r9_sup_10,yfcA,yfcA,1,1,256,256,flye
MRSA_r9_sup_10,thiI,thiI,1,1,407,407,flye
MRSA_r9_sup_10,iscS_2,,0,0,388,0,flye
MRSA_r9_sup_10,ezrA,,0,0,564,0,flye
MRSA_r9_sup_10,msrC,msrC,1,1,154,154,flye
MRSA_r9_sup_10,rpsD,,0,0,200,0,flye
MRSA_r9_sup_10,glpQ_2,,0,0,247,0,flye
MRSA_r9_sup_10,serA,serA,1,1,534,534,flye
MRSA_r9_sup_10,nagP,nagP,1,1,488,488,flye
MRSA_r9_sup_10,plsC,plsC,1,1,205,205,flye
MRSA_r9_sup_10,tyrS,tyrS,1,1,420,420,flye
MRSA_r9_sup_10,mrcA,,0,0,301,0,flye
MRSA_r9_sup_10,isdH_1,isdH_1,1,1,535,535,flye
MRSA_r9_sup_10,isdH_2,,0,0,278,0,flye
MRSA_r9_sup_10,fhs,fhs,1,1,555,555,flye
MRSA_r9_sup_10,acsA_1,,0,0,568,0,flye
MRSA_r9_sup_10,acuA,acuA,1,1,210,210,flye
MRSA_r9_sup_10,acuC,acuC,1,1,389,389,flye
MRSA_r9_sup_10,ccpA,ccpA,1,1,329,329,flye
MRSA_r9_sup_10,aroA_2,aroA_1,0,1,363,363,flye
MRSA_r9_sup_10,murC,,0,0,437,0,flye
MRSA_r9_sup_10,ytpP,,0,0,103,0,flye
MRSA_r9_sup_10,pepA_2,,0,0,358,0,flye
MRSA_r9_sup_10,ytnP,,0,0,280,0,flye
MRSA_r9_sup_10,hin_2,,0,0,197,0,flye
MRSA_r9_sup_10,blaI,,0,0,126,0,flye
MRSA_r9_sup_10,blaR1,,0,0,585,0,flye
MRSA_r9_sup_10,blaZ,,0,0,281,0,flye
MRSA_r9_sup_10,trmB,,0,0,214,0,flye
MRSA_r9_sup_10,dat,dat,1,1,282,282,flye
MRSA_r9_sup_10,rsuA,,0,0,231,0,flye
MRSA_r9_sup_10,murJ,,0,0,553,0,flye
MRSA_r9_sup_10,leuS,leuS,1,1,805,805,flye
MRSA_r9_sup_10,mdtH,mdtH,1,1,393,393,flye
MRSA_r9_sup_10,rsmH_2,,0,0,187,0,flye
MRSA_r9_sup_10,rot,rot,1,1,133,133,flye
MRSA_r9_sup_10,ytpA,ytpA,1,1,275,275,flye
MRSA_r9_sup_10,putB,putB,1,1,333,333,flye
MRSA_r9_sup_10,ribH,ribH,1,1,154,154,flye
MRSA_r9_sup_10,ribBA,,0,0,393,0,flye
MRSA_r9_sup_10,ribE,ribE,1,1,210,210,flye
MRSA_r9_sup_10,ribD,ribD,1,1,347,347,flye
MRSA_r9_sup_10,arsB_2,arsB_1,0,1,430,430,flye
MRSA_r9_sup_10,atl_2,atl_1,0,1,284,284,flye
MRSA_r9_sup_10,sigS,sigS,1,1,156,156,flye
MRSA_r9_sup_10,tal,tal,1,1,237,237,flye
MRSA_r9_sup_10,crcB_1,crcB_1,1,1,121,121,flye
MRSA_r9_sup_10,crcB_2,crcB_2,1,1,117,117,flye
MRSA_r9_sup_10,yvgN,yvgN,1,1,277,277,flye
MRSA_r9_sup_10,metK,metK,1,1,397,397,flye
MRSA_r9_sup_10,pckA,,0,0,530,0,flye
MRSA_r9_sup_10,ytkD,ytkD,1,1,159,159,flye
MRSA_r9_sup_10,menC,,0,0,333,0,flye
MRSA_r9_sup_10,menE_2,,0,0,492,0,flye
MRSA_r9_sup_10,hylB,,0,0,806,0,flye
MRSA_r9_sup_10,prmC_1,,0,0,518,0,flye
MRSA_r9_sup_10,splF_1,splF_1,1,1,183,183,flye
MRSA_r9_sup_10,splF_2,splF_2,1,1,41,41,flye
MRSA_r9_sup_10,splE_1,splE_1,1,1,238,238,flye
MRSA_r9_sup_10,splB_1,,0,0,74,0,flye
MRSA_r9_sup_10,splE_2,splE_2,1,1,113,113,flye
MRSA_r9_sup_10,splE_3,splE_3,1,1,238,238,flye
MRSA_r9_sup_10,splC,,0,0,239,0,flye
MRSA_r9_sup_10,splB_2,splB,0,1,54,54,flye
MRSA_r9_sup_10,entG,,0,0,258,0,flye
MRSA_r9_sup_10,entA_3,,0,0,251,0,flye
MRSA_r9_sup_10,entB,,0,0,261,0,flye
MRSA_r9_sup_10,entE,,0,0,254,0,flye
MRSA_r9_sup_10,ydeN,ydeN,1,1,184,184,flye
MRSA_r9_sup_10,hemY,,0,0,466,0,flye
MRSA_r9_sup_10,hemH,,0,0,307,0,flye
MRSA_r9_sup_10,hemE,hemE,1,1,345,345,flye
MRSA_r9_sup_10,traP,traP,1,1,167,167,flye
MRSA_r9_sup_10,ecsA,ecsA,1,1,246,246,flye
MRSA_r9_sup_10,hit,hit,1,1,140,140,flye
MRSA_r9_sup_10,prsA,,0,0,320,0,flye
MRSA_r9_sup_10,yhaM,yhaM,1,1,313,313,flye
MRSA_r9_sup_10,cpdA_1,cpdA_1,1,1,398,398,flye
MRSA_r9_sup_10,liaR,liaR,1,1,207,207,flye
MRSA_r9_sup_10,rluD_2,rluD_1,0,1,273,273,flye
MRSA_r9_sup_10,fumC,fumC,1,1,461,461,flye
MRSA_r9_sup_10,nagB_2,nagB_1,0,1,199,199,flye
MRSA_r9_sup_10,trmL,,0,0,156,0,flye
MRSA_r9_sup_10,queG,,0,0,375,0,flye
MRSA_r9_sup_10,tcyC_1,tcyC_1,1,1,242,242,flye
MRSA_r9_sup_10,mltF,mltF,1,1,485,485,flye
MRSA_r9_sup_10,perR,perR,1,1,148,148,flye
MRSA_r9_sup_10,ghrB_2,,0,0,319,0,flye
MRSA_r9_sup_10,bcp,,0,0,151,0,flye
MRSA_r9_sup_10,hemL2,,0,0,429,0,flye
MRSA_r9_sup_10,mutY,mutY,1,1,345,345,flye
MRSA_r9_sup_10,yfhP,yfhP,1,1,325,325,flye
MRSA_r9_sup_10,tagH_2,,0,0,505,0,flye
MRSA_r9_sup_10,yfhH,yfhH,1,1,104,104,flye
MRSA_r9_sup_10,recX,recX,1,1,272,272,flye
MRSA_r9_sup_10,mgt,,0,0,269,0,flye
MRSA_r9_sup_10,pepS,pepS,1,1,415,415,flye
MRSA_r9_sup_10,ptpA,ptpA,1,1,154,154,flye
MRSA_r9_sup_10,vraR,vraR,1,1,209,209,flye
MRSA_r9_sup_10,vraS,vraS,1,1,347,347,flye
MRSA_r9_sup_10,map_2,map_1,0,1,252,252,flye
MRSA_r9_sup_10,gatD_2,gatD_1,0,1,243,243,flye
MRSA_r9_sup_10,murT,murT,1,1,437,437,flye
MRSA_r9_sup_10,ftnA,ftnA,1,1,166,166,flye
MRSA_r9_sup_10,dinB,dinB_1,0,1,356,356,flye
MRSA_r9_sup_10,rlmCD,rlmCD,1,1,453,453,flye
MRSA_r9_sup_10,dagK,dagK,1,1,315,315,flye
MRSA_r9_sup_10,gatB_2,gatB_1,0,1,475,475,flye
MRSA_r9_sup_10,gatA_2,gatA_1,0,1,485,485,flye
MRSA_r9_sup_10,gatC_2,gatC_1,0,1,100,100,flye
MRSA_r9_sup_10,putP,putP,1,1,512,512,flye
MRSA_r9_sup_10,ligA,ligA,1,1,667,667,flye
MRSA_r9_sup_10,pcrA,,0,0,730,0,flye
MRSA_r9_sup_10,pcrB,pcrB,1,1,230,230,flye
MRSA_r9_sup_10,purB,purB,1,1,431,431,flye
MRSA_r9_sup_10,sspP,sspP,1,1,388,388,flye
MRSA_r9_sup_10,nadE,,0,0,273,0,flye
MRSA_r9_sup_10,pncB2,pncB2,1,1,489,489,flye
MRSA_r9_sup_10,nos,,0,0,358,0,flye
MRSA_r9_sup_10,pheA,pheA,1,1,264,264,flye
MRSA_r9_sup_10,sdcS,sdcS,1,1,520,520,flye
MRSA_r9_sup_10,rutB,rutB,1,1,186,186,flye
MRSA_r9_sup_10,ppaC,,0,0,309,0,flye
MRSA_r9_sup_10,aldH1,aldH1,1,1,459,459,flye
MRSA_r9_sup_10,bcrA_1,,0,0,290,0,flye
MRSA_r9_sup_10,btuD_5,,0,0,298,0,flye
MRSA_r9_sup_10,ytrA,ytrA,1,1,126,126,flye
MRSA_r9_sup_10,hisC_2,hisC_1,0,1,428,428,flye
MRSA_r9_sup_10,map_3,map_2,0,1,689,689,flye
MRSA_r9_sup_10,hlb_1,,0,0,66,0,flye
MRSA_r9_sup_10,scn_3,scn_1,0,1,116,116,flye
MRSA_r9_sup_10,chp,,0,0,149,0,flye
MRSA_r9_sup_10,sak,sak,1,1,163,163,flye
MRSA_r9_sup_10,entA_4,,0,0,257,0,flye
MRSA_r9_sup_10,clpP_3,,0,0,245,0,flye
MRSA_r9_sup_10,dut,dut,1,1,180,180,flye
MRSA_r9_sup_10,ssbA_2,ssbA_1,0,1,156,156,flye
MRSA_r9_sup_10,lexA_2,lexA_1,0,1,237,237,flye
MRSA_r9_sup_10,dinG_2,dinG_1,0,1,310,310,flye
MRSA_r9_sup_10,xerC_8,,0,0,345,0,flye
MRSA_r9_sup_10,hlb_2,hlb,0,1,231,231,flye
MRSA_r9_sup_10,dapE,dapE,1,1,407,407,flye
MRSA_r9_sup_10,ktrB_2,ktrB_1,0,1,435,435,flye
MRSA_r9_sup_10,groL,,0,0,538,0,flye
MRSA_r9_sup_10,groS,groS,1,1,94,94,flye
MRSA_r9_sup_10,MroQ,MroQ,1,1,247,247,flye
MRSA_r9_sup_10,yafV,yafV,1,1,261,261,flye
MRSA_r9_sup_10,agrB,agrB,1,1,205,205,flye
MRSA_r9_sup_10,agrA,agrA,1,1,238,238,flye
MRSA_r9_sup_10,scrK,scrK,1,1,319,319,flye
MRSA_r9_sup_10,scrB,scrB,1,1,497,497,flye
MRSA_r9_sup_10,treR_2,treR_1,0,1,316,316,flye
MRSA_r9_sup_10,nrgA,nrgA,1,1,416,416,flye
MRSA_r9_sup_10,yeeD,yeeD,1,1,74,74,flye
MRSA_r9_sup_10,rex,rex,1,1,211,211,flye
MRSA_r9_sup_10,yheS,yheS,1,1,642,642,flye
MRSA_r9_sup_10,mutS_2,,0,0,536,0,flye
MRSA_r9_sup_10,tsaD,tsaD,1,1,341,341,flye
MRSA_r9_sup_10,rimI,rimI,1,1,154,154,flye
MRSA_r9_sup_10,tsaB,tsaB,1,1,220,220,flye
MRSA_r9_sup_10,tsaE,tsaE,1,1,164,164,flye
MRSA_r9_sup_10,ilvD,ilvD,1,1,562,562,flye
MRSA_r9_sup_10,ilvB,,0,0,589,0,flye
MRSA_r9_sup_10,ilvC,ilvC,1,1,334,334,flye
MRSA_r9_sup_10,leuA_2,leuA_1,0,1,509,509,flye
MRSA_r9_sup_10,leuB,leuB,1,1,348,348,flye
MRSA_r9_sup_10,leuC,leuC,1,1,455,455,flye
MRSA_r9_sup_10,leuD,,0,0,190,0,flye
MRSA_r9_sup_10,ilvA,ilvA,1,1,422,422,flye
MRSA_r9_sup_10,yhgF,,0,0,712,0,flye
MRSA_r9_sup_10,sigB,sigB,1,1,256,256,flye
MRSA_r9_sup_10,rsbW,rsbW,1,1,159,159,flye
MRSA_r9_sup_10,rsbV,rsbV,1,1,108,108,flye
MRSA_r9_sup_10,rsbU,rsbU,1,1,333,333,flye
MRSA_r9_sup_10,mazF,,0,0,120,0,flye
MRSA_r9_sup_10,mazE,mazE,1,1,56,56,flye
MRSA_r9_sup_10,alr1_2,alr1_1,0,1,382,382,flye
MRSA_r9_sup_10,acpS,acpS,1,1,119,119,flye
MRSA_r9_sup_10,kdpC_3,kdpC_1,0,1,186,186,flye
MRSA_r9_sup_10,kdpB_2,kdpB_1,0,1,675,675,flye
MRSA_r9_sup_10,kdpA_2,,0,0,558,0,flye
MRSA_r9_sup_10,kdpD_2,,0,0,885,0,flye
MRSA_r9_sup_10,kdpE_2,kdpE_1,0,1,231,231,flye
MRSA_r9_sup_10,cshA,cshA,1,1,506,506,flye
MRSA_r9_sup_10,murF,murF,1,1,452,452,flye
MRSA_r9_sup_10,ddl,ddl,1,1,356,356,flye
MRSA_r9_sup_10,rodA,rodA,1,1,400,400,flye
MRSA_r9_sup_10,cls_2,cls_1,0,1,494,494,flye
MRSA_r9_sup_10,yedJ,yedJ,1,1,215,215,flye
MRSA_r9_sup_10,yidC,,0,0,290,0,flye
MRSA_r9_sup_10,thiE,,0,0,213,0,flye
MRSA_r9_sup_10,thiM,thiM,1,1,263,263,flye
MRSA_r9_sup_10,thiD,thiD,1,1,276,276,flye
MRSA_r9_sup_10,tenA,,0,0,229,0,flye
MRSA_r9_sup_10,sceD,sceD,1,1,231,231,flye
MRSA_r9_sup_10,ssbA_3,ssbA_2,0,1,131,131,flye
MRSA_r9_sup_10,fabZ,fabZ,1,1,146,146,flye
MRSA_r9_sup_10,murA1,murA1,1,1,421,421,flye
MRSA_r9_sup_10,atpC,atpC,1,1,134,134,flye
MRSA_r9_sup_10,atpD,atpD,1,1,470,470,flye
MRSA_r9_sup_10,atpG,,0,0,288,0,flye
MRSA_r9_sup_10,atpA,,0,0,502,0,flye
MRSA_r9_sup_10,atpH,atpH,1,1,179,179,flye
MRSA_r9_sup_10,atpF,atpF,1,1,173,173,flye
MRSA_r9_sup_10,atpE,atpE,1,1,70,70,flye
MRSA_r9_sup_10,atpB,atpB,1,1,242,242,flye
MRSA_r9_sup_10,mnaA_2,,0,0,376,0,flye
MRSA_r9_sup_10,upp,upp,1,1,209,209,flye
MRSA_r9_sup_10,glyA,glyA,1,1,412,412,flye
MRSA_r9_sup_10,ptpB,ptpB,1,1,139,139,flye
MRSA_r9_sup_10,ywlC,,0,0,348,0,flye
MRSA_r9_sup_10,prmC_2,prmC_1,0,1,278,278,flye
MRSA_r9_sup_10,prfA,prfA,1,1,358,358,flye
MRSA_r9_sup_10,tdk,tdk,1,1,199,199,flye
MRSA_r9_sup_10,rpmE2,rpmE2,1,1,84,84,flye
MRSA_r9_sup_10,rho,,0,0,438,0,flye
MRSA_r9_sup_10,yodB,yodB,1,1,111,111,flye
MRSA_r9_sup_10,murA2,murA2,1,1,419,419,flye
MRSA_r9_sup_10,fba,fba,1,1,286,286,flye
MRSA_r9_sup_10,pyrG,pyrG,1,1,536,536,flye
MRSA_r9_sup_10,rpoE,rpoE,1,1,176,176,flye
MRSA_r9_sup_10,coaW,,0,0,267,0,flye
MRSA_r9_sup_10,abgB,,0,0,394,0,flye
MRSA_r9_sup_10,luxS,luxS,1,1,156,156,flye
MRSA_r9_sup_10,pdp,pdp,1,1,433,433,flye
MRSA_r9_sup_10,deoC2,deoC2,1,1,220,220,flye
MRSA_r9_sup_10,deoD1,deoD1,1,1,236,236,flye
MRSA_r9_sup_10,dps,dps,1,1,147,147,flye
MRSA_r9_sup_10,gmuF,,0,0,312,0,flye
MRSA_r9_sup_10,yhfK,yhfK,1,1,221,221,flye
MRSA_r9_sup_10,czrA,czrA,1,1,106,106,flye
MRSA_r9_sup_10,czcD_2,czcD_1,0,1,326,326,flye
MRSA_r9_sup_10,ywtE_2,ywtE_1,0,1,285,285,flye
MRSA_r9_sup_10,ylmA,ylmA,1,1,260,260,flye
MRSA_r9_sup_10,glmS,,0,0,601,0,flye
MRSA_r9_sup_10,mtlA,,0,0,512,0,flye
MRSA_r9_sup_10,mtlF,mtlF,1,1,144,144,flye
MRSA_r9_sup_10,mtlD,mtlD,1,1,368,368,flye
MRSA_r9_sup_10,glmM,,0,0,451,0,flye
MRSA_r9_sup_10,cdaR,,0,0,310,0,flye
MRSA_r9_sup_10,cdaA,,0,0,269,0,flye
MRSA_r9_sup_10,arg,,0,0,302,0,flye
MRSA_r9_sup_10,salA,,0,0,354,0,flye
MRSA_r9_sup_10,emrY,,0,0,362,0,flye
MRSA_r9_sup_10,ribZ,,0,0,131,0,flye
MRSA_r9_sup_10,sepA,,0,0,155,0,flye
MRSA_r9_sup_10,sdrM,,0,0,447,0,flye
MRSA_r9_sup_10,ydjM,,0,0,171,0,flye
MRSA_r9_sup_10,fecD,,0,0,322,0,flye
MRSA_r9_sup_10,yfiZ_2,,0,0,343,0,flye
MRSA_r9_sup_10,yfmC_2,yfmC_1,0,1,327,327,flye
MRSA_r9_sup_10,orr,,0,0,356,0,flye
MRSA_r9_sup_10,opuD_2,,0,0,520,0,flye
MRSA_r9_sup_10,yfmJ,yfmJ,1,1,334,334,flye
MRSA_r9_sup_10,lacG,,0,0,470,0,flye
MRSA_r9_sup_10,lacE,lacE,1,1,570,570,flye
MRSA_r9_sup_10,lacF,,0,0,103,0,flye
MRSA_r9_sup_10,lacD,lacD,1,1,326,326,flye
MRSA_r9_sup_10,lacC_2,lacC_1,0,1,310,310,flye
MRSA_r9_sup_10,lacB,lacB,1,1,171,171,flye
MRSA_r9_sup_10,lacA,lacA,1,1,142,142,flye
MRSA_r9_sup_10,lacR,lacR,1,1,251,251,flye
MRSA_r9_sup_10,cobB,,0,0,246,0,flye
MRSA_r9_sup_10,adhR,adhR,1,1,138,138,flye
MRSA_r9_sup_10,map_4,map_3,0,1,141,141,flye
MRSA_r9_sup_10,aldC_1,aldC_1,1,1,234,234,flye
MRSA_r9_sup_10,alsS,alsS,1,1,554,554,flye
MRSA_r9_sup_10,rpsI,rpsI,1,1,132,132,flye
MRSA_r9_sup_10,rplM,rplM,1,1,145,145,flye
MRSA_r9_sup_10,truA,truA,1,1,264,264,flye
MRSA_r9_sup_10,ecfT_2,ecfT_1,0,1,268,268,flye
MRSA_r9_sup_10,ecfA2,ecfA2,1,1,286,286,flye
MRSA_r9_sup_10,ecfA1,ecfA1,1,1,269,269,flye
MRSA_r9_sup_10,rplQ,rplQ,1,1,122,122,flye
MRSA_r9_sup_10,rpoA,rpoA,1,1,314,314,flye
MRSA_r9_sup_10,rpsK,rpsK,1,1,129,129,flye
MRSA_r9_sup_10,rpsM,rpsM,1,1,121,121,flye
MRSA_r9_sup_10,rpmJ,rpmJ,1,1,37,37,flye
MRSA_r9_sup_10,infA,infA,1,1,72,72,flye
MRSA_r9_sup_10,adk,adk,1,1,215,215,flye
MRSA_r9_sup_10,secY_1,secY_1,1,1,430,430,flye
MRSA_r9_sup_10,rplO,rplO,1,1,146,146,flye
MRSA_r9_sup_10,rpmD,rpmD,1,1,59,59,flye
MRSA_r9_sup_10,rpsE,rpsE,1,1,166,166,flye
MRSA_r9_sup_10,rplR,rplR,1,1,119,119,flye
MRSA_r9_sup_10,rplF,rplF,1,1,178,178,flye
MRSA_r9_sup_10,rpsH,rpsH,1,1,132,132,flye
MRSA_r9_sup_10,rpsZ,rpsZ,1,1,61,61,flye
MRSA_r9_sup_10,rplE,,0,0,179,0,flye
MRSA_r9_sup_10,rplX,rplX,1,1,105,105,flye
MRSA_r9_sup_10,rplN,rplN,1,1,122,122,flye
MRSA_r9_sup_10,rpsQ,,0,0,87,0,flye
MRSA_r9_sup_10,rpmC,rpmC,1,1,69,69,flye
MRSA_r9_sup_10,rplP,rplP,1,1,144,144,flye
MRSA_r9_sup_10,rpsC,rpsC,1,1,217,217,flye
MRSA_r9_sup_10,rplV,rplV,1,1,117,117,flye
MRSA_r9_sup_10,rpsS,rpsS,1,1,92,92,flye
MRSA_r9_sup_10,rplB,rplB,1,1,277,277,flye
MRSA_r9_sup_10,rplW,rplW,1,1,91,91,flye
MRSA_r9_sup_10,rplD,,0,0,207,0,flye
MRSA_r9_sup_10,rplC,,0,0,220,0,flye
MRSA_r9_sup_10,rpsJ,rpsJ,1,1,102,102,flye
MRSA_r9_sup_10,pbuG,pbuG,1,1,444,444,flye
MRSA_r9_sup_10,topB,topB,1,1,711,711,flye
MRSA_r9_sup_10,glcU_2,glcU_1,0,1,287,287,flye
MRSA_r9_sup_10,swrC,swrC,1,1,1055,1055,flye
MRSA_r9_sup_10,femX,femX,1,1,421,421,flye
MRSA_r9_sup_10,yfcJ,yfcJ,1,1,403,403,flye
MRSA_r9_sup_10,sarV,,0,0,116,0,flye
MRSA_r9_sup_10,moaA,,0,0,340,0,flye
MRSA_r9_sup_10,mobA,mobA,1,1,199,199,flye
MRSA_r9_sup_10,moaD,moaD,1,1,77,77,flye
MRSA_r9_sup_10,moaE,moaE,1,1,148,148,flye
MRSA_r9_sup_10,moeA,moeA,1,1,419,419,flye
MRSA_r9_sup_10,moaC,moaC,1,1,164,164,flye
MRSA_r9_sup_10,moaB,moaB,1,1,168,168,flye
MRSA_r9_sup_10,cysA,cysA,1,1,201,201,flye
MRSA_r9_sup_10,modB,modB,1,1,223,223,flye
MRSA_r9_sup_10,modA,modA,1,1,260,260,flye
MRSA_r9_sup_10,fdhD,fdhD,1,1,265,265,flye
MRSA_r9_sup_10,bioY,bioY,1,1,184,184,flye
MRSA_r9_sup_10,rihB,rihB,1,1,313,313,flye
MRSA_r9_sup_10,fhuD,fhuD,1,1,302,302,flye
MRSA_r9_sup_10,ydbM,ydbM,1,1,390,390,flye
MRSA_r9_sup_10,ureA,ureA,1,1,100,100,flye
MRSA_r9_sup_10,ureB,,0,0,136,0,flye
MRSA_r9_sup_10,ureC,ureC,1,1,571,571,flye
MRSA_r9_sup_10,ureE,ureE,1,1,150,150,flye
MRSA_r9_sup_10,ureF,ureF,1,1,229,229,flye
MRSA_r9_sup_10,ureG,ureG,1,1,204,204,flye
MRSA_r9_sup_10,ureD1,ureD1,1,1,278,278,flye
MRSA_r9_sup_10,sarR,,0,0,115,0,flye
MRSA_r9_sup_10,rhaS_2,rhaS_1,0,1,651,651,flye
MRSA_r9_sup_10,ssaA2,ssaA2,1,1,269,269,flye
MRSA_r9_sup_10,mleN_1,mleN_1,1,1,465,465,flye
MRSA_r9_sup_10,odh,odh,1,1,360,360,flye
MRSA_r9_sup_10,auaG,auaG,1,1,374,374,flye
MRSA_r9_sup_10,atl_3,atl_2,0,1,258,258,flye
MRSA_r9_sup_10,tagU_2,tagU_1,0,1,315,315,flye
MRSA_r9_sup_10,cysQ,cysQ,1,1,265,265,flye
MRSA_r9_sup_10,ybbH_3,,0,0,290,0,flye
MRSA_r9_sup_10,yifK,yifK,1,1,459,459,flye
MRSA_r9_sup_10,panS_1,panS_1,1,1,113,113,flye
MRSA_r9_sup_10,panS_2,panS_2,1,1,178,178,flye
MRSA_r9_sup_10,malP,malP,1,1,534,534,flye
MRSA_r9_sup_10,glvR,glvR,1,1,254,254,flye
MRSA_r9_sup_10,mleN_2,mleN_2,1,1,436,436,flye
MRSA_r9_sup_10,yghA,,0,0,293,0,flye
MRSA_r9_sup_10,scmP_4,,0,0,302,0,flye
MRSA_r9_sup_10,hutI,hutI,1,1,412,412,flye
MRSA_r9_sup_10,hutU,,0,0,553,0,flye
MRSA_r9_sup_10,hdfR_2,,0,0,294,0,flye
MRSA_r9_sup_10,fosB,fosB,1,1,139,139,flye
MRSA_r9_sup_10,hutG,hutG,1,1,311,311,flye
MRSA_r9_sup_10,lyrA,,0,0,419,0,flye
MRSA_r9_sup_10,rpiA,rpiA,1,1,228,228,flye
MRSA_r9_sup_10,yiiM,yiiM,1,1,217,217,flye
MRSA_r9_sup_10,mro,,0,0,339,0,flye
MRSA_r9_sup_10,yhaP,,0,0,410,0,flye
MRSA_r9_sup_10,lnrL_2,lnrL_1,0,1,299,299,flye
MRSA_r9_sup_10,gltS,gltS,1,1,402,402,flye
MRSA_r9_sup_10,fni,fni,1,1,349,349,flye
MRSA_r9_sup_10,zntB,,0,0,315,0,flye
MRSA_r9_sup_10,mdtD,mdtD,1,1,645,645,flye
MRSA_r9_sup_10,aaeA,aaeA,1,1,215,215,flye
MRSA_r9_sup_10,bcr_1,bcr_1,1,1,402,402,flye
MRSA_r9_sup_10,tcaA,tcaA,1,1,460,460,flye
MRSA_r9_sup_10,tcaR,tcaR,1,1,151,151,flye
MRSA_r9_sup_10,hrtA_2,hrtA,0,1,221,221,flye
MRSA_r9_sup_10,hssR,hssR,1,1,224,224,flye
MRSA_r9_sup_10,hssS,hssS,1,1,457,457,flye
MRSA_r9_sup_10,lnrL_3,lnrL_2,0,1,242,242,flye
MRSA_r9_sup_10,ybhR,ybhR,1,1,360,360,flye
MRSA_r9_sup_10,mqo1,mqo1,1,1,492,492,flye
MRSA_r9_sup_10,lctP_2,,0,0,532,0,flye
MRSA_r9_sup_10,paiA,,0,0,171,0,flye
MRSA_r9_sup_10,yhfP,yhfP,1,1,334,334,flye
MRSA_r9_sup_10,treP_2,,0,0,480,0,flye
MRSA_r9_sup_10,ydaG,ydaG,1,1,140,140,flye
MRSA_r9_sup_10,gltT,,0,0,425,0,flye
MRSA_r9_sup_10,sarZ,sarZ,1,1,148,148,flye
MRSA_r9_sup_10,narT,narT,1,1,389,389,flye
MRSA_r9_sup_10,mta,mta,1,1,95,95,flye
MRSA_r9_sup_10,nreC,nreC,1,1,217,217,flye
MRSA_r9_sup_10,nreB,,0,0,344,0,flye
MRSA_r9_sup_10,narX,narX,1,1,225,225,flye
MRSA_r9_sup_10,narH,,0,0,519,0,flye
MRSA_r9_sup_10,narG,,0,0,1229,0,flye
MRSA_r9_sup_10,cysG,cysG,1,1,325,325,flye
MRSA_r9_sup_10,nasE,nasE,1,1,104,104,flye
MRSA_r9_sup_10,nasD,,0,0,801,0,flye
MRSA_r9_sup_10,sirB,,0,0,250,0,flye
MRSA_r9_sup_10,ytmI,ytmI,1,1,178,178,flye
MRSA_r9_sup_10,nirC,nirC,1,1,274,274,flye
MRSA_r9_sup_10,yoeB,yoeB,1,1,88,88,flye
MRSA_r9_sup_10,yefM,yefM,1,1,83,83,flye
MRSA_r9_sup_10,bdbD,bdbD,1,1,199,199,flye
MRSA_r9_sup_10,femA_3,femA_1,0,1,416,416,flye
MRSA_r9_sup_10,tcyC_2,tcyC_2,1,1,243,243,flye
MRSA_r9_sup_10,tcyB,,0,0,242,0,flye
MRSA_r9_sup_10,farB_2,farB_1,0,1,479,479,flye
MRSA_r9_sup_10,gpmA_2,gpmA_1,0,1,228,228,flye
MRSA_r9_sup_10,mneS,mneS,1,1,288,288,flye
MRSA_r9_sup_10,sbi,sbi,1,1,437,437,flye
MRSA_r9_sup_10,hlgA,,0,0,321,0,flye
MRSA_r9_sup_10,hlgC,hlgC,1,1,315,315,flye
MRSA_r9_sup_10,hlgB,hlgB,1,1,325,325,flye
MRSA_r9_sup_10,bioW,bioW,1,1,230,230,flye
MRSA_r9_sup_10,bioB,bioB,1,1,335,335,flye
MRSA_r9_sup_10,bioK,bioK,1,1,452,452,flye
MRSA_r9_sup_10,bioD,bioD,1,1,228,228,flye
MRSA_r9_sup_10,garK_2,garK_1,0,1,380,380,flye
MRSA_r9_sup_10,bcr_2,bcr_2,1,1,403,403,flye
MRSA_r9_sup_10,cpdA_2,,0,0,268,0,flye
MRSA_r9_sup_10,cycA_2,cycA_2,1,1,469,469,flye
MRSA_r9_sup_10,nhaK_2,nhaK_1,0,1,692,692,flye
MRSA_r9_sup_10,kimA,,0,0,609,0,flye
MRSA_r9_sup_10,flp,flp,1,1,499,499,flye
MRSA_r9_sup_10,hldD,hldD,1,1,283,283,flye
MRSA_r9_sup_10,panE,panE,1,1,311,311,flye
MRSA_r9_sup_10,norB_4,norB_1,0,1,466,466,flye
MRSA_r9_sup_10,opuCD,opuCD,1,1,231,231,flye
MRSA_r9_sup_10,opuCC,opuCC,1,1,313,313,flye
MRSA_r9_sup_10,opuCB,opuCB,1,1,211,211,flye
MRSA_r9_sup_10,opuCA,,0,0,408,0,flye
MRSA_r9_sup_10,yveA,yveA,1,1,545,545,flye
MRSA_r9_sup_10,pnbA,,0,0,450,0,flye
MRSA_r9_sup_10,pbuE_2,pbuE_1,0,1,395,395,flye
MRSA_r9_sup_10,fetB,fetB,1,1,258,258,flye
MRSA_r9_sup_10,fetA,fetA,1,1,220,220,flye
MRSA_r9_sup_10,ysdC_2,ysdC_2,1,1,358,358,flye
MRSA_r9_sup_10,yehR,yehR,1,1,151,151,flye
MRSA_r9_sup_10,cntE,,0,0,397,0,flye
MRSA_r9_sup_10,cntF,cntF,1,1,249,249,flye
MRSA_r9_sup_10,cntD,cntD,1,1,271,271,flye
MRSA_r9_sup_10,cntC,cntC,1,1,289,289,flye
MRSA_r9_sup_10,cntB,cntB,1,1,311,311,flye
MRSA_r9_sup_10,cntA,cntA,1,1,532,532,flye
MRSA_r9_sup_10,cntM,cntM,1,1,433,433,flye
MRSA_r9_sup_10,cntL,cntL,1,1,272,272,flye
MRSA_r9_sup_10,cntK,cntK,1,1,273,273,flye
MRSA_r9_sup_10,bacC,bacC,1,1,272,272,flye
MRSA_r9_sup_10,abgT,,0,0,512,0,flye
MRSA_r9_sup_10,uvrB_2,,0,0,953,0,flye
MRSA_r9_sup_10,nudG,nudG,1,1,130,130,flye
MRSA_r9_sup_10,pgcA,pgcA,1,1,545,545,flye
MRSA_r9_sup_10,gtaB,gtaB,1,1,288,288,flye
MRSA_r9_sup_10,fnbA,,0,0,965,0,flye
MRSA_r9_sup_10,gntT,,0,0,452,0,flye
MRSA_r9_sup_10,xylB,xylB,1,1,517,517,flye
MRSA_r9_sup_10,ywaC,,0,0,230,0,flye
MRSA_r9_sup_10,sauU,sauU,1,1,425,425,flye
MRSA_r9_sup_10,argO_2,,0,0,205,0,flye
MRSA_r9_sup_10,norG,,0,0,470,0,flye
MRSA_r9_sup_10,bcrA_2,bcrA_2,1,1,231,231,flye
MRSA_r9_sup_10,fbp,fbp,1,1,654,654,flye
MRSA_r9_sup_10,mhqD,mhqD,1,1,197,197,flye
MRSA_r9_sup_10,mhqA_3,mhqA_1,0,1,322,322,flye
MRSA_r9_sup_10,mhqR,mhqR,1,1,144,144,flye
MRSA_r9_sup_10,yjdJ,yjdJ,1,1,94,94,flye
MRSA_r9_sup_10,catE_2,catE_1,0,1,268,268,flye
MRSA_r9_sup_10,ldhD_1,ldhD_1,1,1,330,330,flye
MRSA_r9_sup_10,ybjI,ybjI,1,1,266,266,flye
MRSA_r9_sup_10,srtA,srtA,1,1,206,206,flye
MRSA_r9_sup_10,pitA,pitA,1,1,163,163,flye
MRSA_r9_sup_10,sdhA,sdhA,1,1,299,299,flye
MRSA_r9_sup_10,yicL,yicL,1,1,307,307,flye
MRSA_r9_sup_10,glcB,,0,0,707,0,flye
MRSA_r9_sup_10,ydaP,ydaP,1,1,579,579,flye
MRSA_r9_sup_10,cidB,cidB,1,1,229,229,flye
MRSA_r9_sup_10,cidA,cidA,1,1,131,131,flye
MRSA_r9_sup_10,cynR,cynR,1,1,287,287,flye
MRSA_r9_sup_10,mvaA,mvaA,1,1,426,426,flye
MRSA_r9_sup_10,mvaS,mvaS,1,1,388,388,flye
MRSA_r9_sup_10,ogt,ogt,1,1,173,173,flye
MRSA_r9_sup_10,clpL,clpL,1,1,701,701,flye
MRSA_r9_sup_10,feoB,feoB,1,1,664,664,flye
MRSA_r9_sup_10,ydfJ,ydfJ,1,1,829,829,flye
MRSA_r9_sup_10,rocA,rocA,1,1,514,514,flye
MRSA_r9_sup_10,copA,,0,0,802,0,flye
MRSA_r9_sup_10,copZ,copZ,1,1,68,68,flye
MRSA_r9_sup_10,ldhD_2,ldhD_2,1,1,342,342,flye
MRSA_r9_sup_10,bacF,bacF,1,1,384,384,flye
MRSA_r9_sup_10,crtN,crtN,1,1,502,502,flye
MRSA_r9_sup_10,crtM_1,crtM_1,1,1,169,169,flye
MRSA_r9_sup_10,crtM_2,crtM_2,1,1,94,94,flye
MRSA_r9_sup_10,crtQ,crtQ,1,1,375,375,flye
MRSA_r9_sup_10,crtP,crtP,1,1,497,497,flye
MRSA_r9_sup_10,ssaA,ssaA,1,1,255,255,flye
MRSA_r9_sup_10,oatA_2,oatA_1,0,1,603,603,flye
MRSA_r9_sup_10,isaA,isaA,1,1,233,233,flye
MRSA_r9_sup_10,cpnA,cpnA,1,1,234,234,flye
MRSA_r9_sup_10,pyrD,pyrD,1,1,354,354,flye
MRSA_r9_sup_10,queH,queH,1,1,240,240,flye
MRSA_r9_sup_10,cocE,cocE,1,1,560,560,flye
MRSA_r9_sup_10,panD,panD,1,1,127,127,flye
MRSA_r9_sup_10,panC,panC,1,1,283,283,flye
MRSA_r9_sup_10,panB,,0,0,272,0,flye
MRSA_r9_sup_10,aldC_2,,0,0,234,0,flye
MRSA_r9_sup_10,ldh2,ldh2,1,1,319,319,flye
MRSA_r9_sup_10,yhdG,yhdG,1,1,482,482,flye
MRSA_r9_sup_10,fda,,0,0,296,0,flye
MRSA_r9_sup_10,mqo2,mqo2,1,1,498,498,flye
MRSA_r9_sup_10,acsA_2,acsA_3,0,1,539,539,flye
MRSA_r9_sup_10,isdG_2,isdG_1,0,1,147,147,flye
MRSA_r9_sup_10,betA,betA,1,1,569,569,flye
MRSA_r9_sup_10,gbsA,gbsA,1,1,496,496,flye
MRSA_r9_sup_10,opcR,,0,0,187,0,flye
MRSA_r9_sup_10,opuD_3,,0,0,540,0,flye
MRSA_r9_sup_10,nrdD,nrdD,1,1,616,616,flye
MRSA_r9_sup_10,citN,,0,0,456,0,flye
MRSA_r9_sup_10,sirC,sirC,1,1,202,202,flye
MRSA_r9_sup_10,cysJ,,0,0,626,0,flye
MRSA_r9_sup_10,bsaA_2,bsaA_1,0,1,165,165,flye
MRSA_r9_sup_10,bceB_2,,0,0,666,0,flye
MRSA_r9_sup_10,yxdL,,0,0,251,0,flye
MRSA_r9_sup_10,graS_2,,0,0,295,0,flye
MRSA_r9_sup_10,graR_2,,0,0,221,0,flye
MRSA_r9_sup_10,phoB,,0,0,457,0,flye
MRSA_r9_sup_10,clfB,,0,0,873,0,flye
MRSA_r9_sup_10,arcR,,0,0,234,0,flye
MRSA_r9_sup_10,arcC2,,0,0,313,0,flye
MRSA_r9_sup_10,arcD,,0,0,476,0,flye
MRSA_r9_sup_10,arcB,arcB,1,1,336,336,flye
MRSA_r9_sup_10,arcA,,0,0,411,0,flye
MRSA_r9_sup_10,argR_2,argR,0,1,149,149,flye
MRSA_r9_sup_10,aur,aur,1,1,509,509,flye
MRSA_r9_sup_10,isaB,,0,0,175,0,flye
MRSA_r9_sup_10,manR,manR,1,1,624,624,flye
MRSA_r9_sup_10,manP,manP,1,1,650,650,flye
MRSA_r9_sup_10,yvyI,yvyI,1,1,312,312,flye
MRSA_r9_sup_10,gtfB,gtfB,1,1,452,452,flye
MRSA_r9_sup_10,gtfA_3,gtfA_3,1,1,502,502,flye
MRSA_r9_sup_10,secA1_2,,0,0,796,0,flye
MRSA_r9_sup_10,asp2,asp2,1,1,523,523,flye
MRSA_r9_sup_10,asp1,asp1,1,1,452,452,flye
MRSA_r9_sup_10,secY_2,secY_2,1,1,403,403,flye
MRSA_r9_sup_10,sraP,,0,0,1351,0,flye
MRSA_r9_sup_10,msrAB,msrAB,1,1,158,158,flye
MRSA_r9_sup_10,ywqE_2,ywqE_2,1,1,255,255,flye
MRSA_r9_sup_10,ywqD_2,ywqD_2,1,1,230,230,flye
MRSA_r9_sup_10,cap8A_2,cap8A_2,1,1,220,220,flye
MRSA_r9_sup_10,icaR,,0,0,186,0,flye
MRSA_r9_sup_10,icaA,,0,0,412,0,flye
MRSA_r9_sup_10,icaD,icaD,1,1,101,101,flye
MRSA_r9_sup_10,icaB,,0,0,290,0,flye
MRSA_r9_sup_10,icaC,,0,0,350,0,flye
MRSA_r9_sup_10,lipA_2,lipA_2,1,1,681,681,flye
MRSA_r9_sup_10,hisI,,0,0,210,0,flye
MRSA_r9_sup_10,hisF,,0,0,252,0,flye
MRSA_r9_sup_10,hisA,hisA,1,1,234,234,flye
MRSA_r9_sup_10,hisH,,0,0,192,0,flye
MRSA_r9_sup_10,hisB,,0,0,192,0,flye
MRSA_r9_sup_10,hisC_3,hisC_3,1,1,337,337,flye
MRSA_r9_sup_10,hisD,,0,0,416,0,flye
MRSA_r9_sup_10,hisG,hisG,1,1,204,204,flye
MRSA_r9_sup_10,hisZ,,0,0,272,0,flye
MRSA_r9_sup_10,ykoC,ykoC,1,1,277,277,flye
MRSA_r9_sup_10,ykoD_2,ykoD_2,1,1,570,570,flye
MRSA_r9_sup_10,salL,salL,1,1,282,282,flye
MRSA_r9_sup_10,pcp,,0,0,212,0,flye
MRSA_r9_sup_10,cna,cna,1,1,1183,1183,flye
MRSA_r9_sup_10,yflS,yflS,1,1,472,472,flye
MRSA_r9_sup_10,rarD,rarD,1,1,302,302,flye
MRSA_r9_sup_10,nixA,,0,0,338,0,flye
MRSA_r9_sup_10,nhoA,nhoA,1,1,266,266,flye
MRSA_r9_sup_10,bceA_2,bceA_2,1,1,252,252,flye
MRSA_r9_sup_10,bceB_3,bceB_3,1,1,626,626,flye
MRSA_r9_sup_10,cspLA,cspLA,1,1,66,66,flye
MRSA_r9_sup_10,noc,noc,1,1,279,279,flye
MRSA_r9_sup_10,rsmG,rsmG,1,1,239,239,flye
MRSA_r9_sup_10,mnmG,mnmG,1,1,625,625,flye
MRSA_r9_sup_10,mnmE,mnmE,1,1,459,459,flye
MRSA_r9_sup_10,rnpA,,0,0,115,0,flye
MRSA_r9_sup_10,rpmH,rpmH,1,1,45,45,flye
