Sample name,Ref Gene name,test Gene name,name match,Gene found,Ref gene length (AA),Test gene length (AA),Notes
MRSA_r10_100,dnaA,dnaA,1,1,453,453,flye
MRSA_r10_100,dnaN,dnaN,1,1,377,377,flye
MRSA_r10_100,recF,recF,1,1,370,370,flye
MRSA_r10_100,gyrB,gyrB,1,1,644,644,flye
MRSA_r10_100,gyrA,gyrA,1,1,886,886,flye
MRSA_r10_100,nnrD,nnrD,1,1,270,270,flye
MRSA_r10_100,hutH,hutH,1,1,504,504,flye
MRSA_r10_100,serS,serS,1,1,428,428,flye
MRSA_r10_100,metXA,metXA,1,1,322,322,flye
MRSA_r10_100,gdpP,gdpP,1,1,655,655,flye
MRSA_r10_100,rplI,rplI,1,1,148,148,flye
MRSA_r10_100,dnaC,,0,0,466,0,flye
MRSA_r10_100,purA,purA,1,1,427,427,flye
MRSA_r10_100,walR,walR,1,1,233,233,flye
MRSA_r10_100,walK,,0,0,608,0,flye
MRSA_r10_100,yycI,yycI,1,1,262,262,flye
MRSA_r10_100,yycJ,yycJ,1,1,263,263,flye
MRSA_r10_100,rlmH,rlmH,1,1,159,159,flye
MRSA_r10_100,ble,ble,1,1,134,134,flye
MRSA_r10_100,knt,knt,1,1,247,247,flye
MRSA_r10_100,ugpQ,ugpQ,1,1,247,247,flye
MRSA_r10_100,mecA_1,mecA_2,0,1,668,668,flye
MRSA_r10_100,mecR1,mecR1,1,1,585,585,flye
MRSA_r10_100,mecI,mecI,1,1,114,114,flye
MRSA_r10_100,nagC,nagC,1,1,369,369,flye
MRSA_r10_100,glpE_1,glpE_1,1,1,101,101,flye
MRSA_r10_100,gloB,gloB,1,1,312,312,flye
MRSA_r10_100,glpE_2,glpE_2,1,1,354,354,flye
MRSA_r10_100,COQ5_3,COQ5_2,0,1,220,220,flye
MRSA_r10_100,ermA1_2,ermA1_2,1,1,243,243,flye
MRSA_r10_100,ant1_2,ant1_2,1,1,260,260,flye
MRSA_r10_100,xerC_6,xerC_6,1,1,630,630,flye
MRSA_r10_100,xerC_7,xerC_7,1,1,361,361,flye
MRSA_r10_100,kdpE_1,kdpE_2,0,1,231,231,flye
MRSA_r10_100,kdpD_1,kdpD_2,0,1,889,889,flye
MRSA_r10_100,kdpA_1,kdpA_2,0,1,558,558,flye
MRSA_r10_100,kdpB_1,kdpB_2,0,1,673,673,flye
MRSA_r10_100,kdpC_1,kdpC_2,0,1,120,120,flye
MRSA_r10_100,kdpC_2,kdpC_3,0,1,65,65,flye
MRSA_r10_100,mcrC,mcrC,1,1,346,346,flye
MRSA_r10_100,farB_1,farB_2,0,1,442,442,flye
MRSA_r10_100,dus,dus,1,1,328,328,flye
MRSA_r10_100,plc,plc,1,1,328,328,flye
MRSA_r10_100,rhaS_1,rhaS_2,0,1,745,745,flye
MRSA_r10_100,scmP_1,scmP_4,0,1,392,392,flye
MRSA_r10_100,norB_1,norB_3,0,1,462,462,flye
MRSA_r10_100,lctP_1,lctP_2,0,1,530,530,flye
MRSA_r10_100,spa,spa,1,1,516,516,flye
MRSA_r10_100,sarS,sarS,1,1,250,250,flye
MRSA_r10_100,yfhA,yfhA,1,1,332,332,flye
MRSA_r10_100,yfiZ_1,yfiZ_2,0,1,331,331,flye
MRSA_r10_100,yfiY,yfiY,1,1,330,330,flye
MRSA_r10_100,sbnA,sbnA,1,1,326,326,flye
MRSA_r10_100,sbnB,sbnB,1,1,336,336,flye
MRSA_r10_100,sbnC,sbnC,1,1,584,584,flye
MRSA_r10_100,sbnD,sbnD,1,1,418,418,flye
MRSA_r10_100,sbnE,sbnE,1,1,578,578,flye
MRSA_r10_100,sbnF,sbnF,1,1,592,592,flye
MRSA_r10_100,garL,garL,1,1,258,258,flye
MRSA_r10_100,sbnH,sbnH,1,1,400,400,flye
MRSA_r10_100,sbnI,sbnI,1,1,254,254,flye
MRSA_r10_100,butA,butA,1,1,258,258,flye
MRSA_r10_100,wbgU,wbgU,1,1,323,323,flye
MRSA_r10_100,wbnH,wbnH,1,1,388,388,flye
MRSA_r10_100,sodM,sodM,1,1,199,199,flye
MRSA_r10_100,deoD,deoD,1,1,235,235,flye
MRSA_r10_100,tet(38),tet(38),1,1,452,452,flye
MRSA_r10_100,deoC1,deoC1,1,1,220,220,flye
MRSA_r10_100,deoB,deoB,1,1,392,392,flye
MRSA_r10_100,phnE_1,phnE_1,1,1,271,271,flye
MRSA_r10_100,phnE_2,phnE_2,1,1,266,266,flye
MRSA_r10_100,glnQ,glnQ,1,1,257,257,flye
MRSA_r10_100,phnD2,phnD2,1,1,318,318,flye
MRSA_r10_100,yfkN,yfkN,1,1,511,511,flye
MRSA_r10_100,adhE,adhE,1,1,869,869,flye
MRSA_r10_100,cap8A_1,cap8A_2,0,1,222,222,flye
MRSA_r10_100,ywqD_1,ywqD_2,0,1,228,228,flye
MRSA_r10_100,ywqE_1,ywqE_2,0,1,254,254,flye
MRSA_r10_100,pglF,pglF,1,1,607,607,flye
MRSA_r10_100,capD,capD,1,1,342,342,flye
MRSA_r10_100,wbjC,wbjC,1,1,369,369,flye
MRSA_r10_100,wbpI,wbpI,1,1,374,374,flye
MRSA_r10_100,dapH_1,dapH_2,0,1,185,185,flye
MRSA_r10_100,epsL,epsL,1,1,185,185,flye
MRSA_r10_100,fcl,fcl,1,1,295,295,flye
MRSA_r10_100,wecC,wecC,1,1,420,420,flye
MRSA_r10_100,mnaA_1,mnaA_2,0,1,381,381,flye
MRSA_r10_100,isdI,isdI,1,1,108,108,flye
MRSA_r10_100,ybaN,ybaN,1,1,127,127,flye
MRSA_r10_100,aldA,aldA,1,1,495,495,flye
MRSA_r10_100,czcD_1,czcD_2,0,1,319,319,flye
MRSA_r10_100,nrtD,nrtD,1,1,246,246,flye
MRSA_r10_100,ssuC,ssuC,1,1,253,253,flye
MRSA_r10_100,mdrP,mdrP,1,1,416,416,flye
MRSA_r10_100,dltA_1,dltA_2,0,1,2391,2391,flye
MRSA_r10_100,yagU,yagU,1,1,164,164,flye
MRSA_r10_100,argB,argB,1,1,256,256,flye
MRSA_r10_100,argJ,argJ,1,1,413,413,flye
MRSA_r10_100,argC,argC,1,1,344,344,flye
MRSA_r10_100,rocD2_1,rocD2_2,0,1,394,394,flye
MRSA_r10_100,brnQ_1,brnQ_2,0,1,451,451,flye
MRSA_r10_100,yecD,yecD,1,1,185,185,flye
MRSA_r10_100,ipdC,ipdC,1,1,546,546,flye
MRSA_r10_100,ptsG_1,ptsG_1,1,1,681,681,flye
MRSA_r10_100,murQ,murQ,1,1,298,298,flye
MRSA_r10_100,ybbH_1,ybbH_2,0,1,292,292,flye
MRSA_r10_100,hsdR,hsdR,1,1,929,929,flye
MRSA_r10_100,gsiA,gsiA,1,1,530,530,flye
MRSA_r10_100,ggt,ggt,1,1,668,668,flye
MRSA_r10_100,azoR,azoR,1,1,208,208,flye
MRSA_r10_100,msmX,msmX,1,1,365,365,flye
MRSA_r10_100,cycB,cycB,1,1,423,423,flye
MRSA_r10_100,malG,malG,1,1,279,279,flye
MRSA_r10_100,gfo,gfo,1,1,358,358,flye
MRSA_r10_100,iolG,iolG,1,1,346,346,flye
MRSA_r10_100,uhpT,uhpT,1,1,459,459,flye
MRSA_r10_100,pflB,pflB,1,1,749,749,flye
MRSA_r10_100,pflA,pflA,1,1,251,251,flye
MRSA_r10_100,scn_1,scn_3,0,1,114,114,flye
MRSA_r10_100,fadA,fadA,1,1,394,394,flye
MRSA_r10_100,fadN,fadN,1,1,753,753,flye
MRSA_r10_100,caiA,caiA,1,1,403,403,flye
MRSA_r10_100,lcfB,lcfB,1,1,501,501,flye
MRSA_r10_100,carA_1,carA_2,0,1,520,520,flye
MRSA_r10_100,nikA,nikA,1,1,491,491,flye
MRSA_r10_100,hmp,hmp,1,1,381,381,flye
MRSA_r10_100,ldh1,ldh1,1,1,317,317,flye
MRSA_r10_100,ptsG_2,ptsG_2,1,1,509,509,flye
MRSA_r10_100,rihA,rihA,1,1,311,311,flye
MRSA_r10_100,gatA_1,gatA_2,0,1,155,155,flye
MRSA_r10_100,gatB_1,gatB_2,0,1,92,92,flye
MRSA_r10_100,gatC_1,gatC_2,0,1,419,419,flye
MRSA_r10_100,gatD_1,gatD_2,0,1,347,347,flye
MRSA_r10_100,tarI2,tarI2,1,1,238,238,flye
MRSA_r10_100,tarJ',tarJ',1,1,341,341,flye
MRSA_r10_100,tarK,tarK,1,1,564,564,flye
MRSA_r10_100,tarF,tarF,1,1,389,389,flye
MRSA_r10_100,tarI1,tarI1,1,1,238,238,flye
MRSA_r10_100,tarJ,tarJ,1,1,341,341,flye
MRSA_r10_100,tarL,tarL,1,1,562,562,flye
MRSA_r10_100,tarS,tarS,1,1,574,574,flye
MRSA_r10_100,scdA,scdA,1,1,224,224,flye
MRSA_r10_100,ypdA,ypdA,1,1,584,584,flye
MRSA_r10_100,lytR,lytR,1,1,246,246,flye
MRSA_r10_100,lrgA,lrgA,1,1,145,145,flye
MRSA_r10_100,lrgB,lrgB,1,1,233,233,flye
MRSA_r10_100,yydK,yydK,1,1,234,234,flye
MRSA_r10_100,ptsG_3,ptsG_3,1,1,263,263,flye
MRSA_r10_100,bglA,bglA,1,1,478,478,flye
MRSA_r10_100,COQ5_2,COQ5_3,0,1,253,253,flye
MRSA_r10_100,rbsK,rbsK,1,1,304,304,flye
MRSA_r10_100,rbsD,rbsD,1,1,134,134,flye
MRSA_r10_100,glcU_1,glcU_2,0,1,293,293,flye
MRSA_r10_100,degA,degA,1,1,332,332,flye
MRSA_r10_100,norB_2,norB_4,0,1,458,458,flye
MRSA_r10_100,yxeI,yxeI,1,1,330,330,flye
MRSA_r10_100,lytM,lytM,1,1,316,316,flye
MRSA_r10_100,lnrL_1,lnrL_3,0,1,219,219,flye
MRSA_r10_100,esxA,esxA,1,1,97,97,flye
MRSA_r10_100,esaA,esaA,1,1,1009,1009,flye
MRSA_r10_100,esaB,esaB,1,1,80,80,flye
MRSA_r10_100,essB,essB,1,1,444,444,flye
MRSA_r10_100,essC,essC,1,1,1482,1482,flye
MRSA_r10_100,essG_1,essG_1,1,1,166,166,flye
MRSA_r10_100,essG_2,essG_2,1,1,166,166,flye
MRSA_r10_100,essG_3,essG_3,1,1,118,118,flye
MRSA_r10_100,essG_4,essG_4,1,1,90,90,flye
MRSA_r10_100,focA,focA,1,1,274,274,flye
MRSA_r10_100,brnQ_2,brnQ_3,0,1,435,435,flye
MRSA_r10_100,hel,hel,1,1,296,296,flye
MRSA_r10_100,hrtA_1,hrtA_2,0,1,225,225,flye
MRSA_r10_100,RBKS,RBKS,1,1,372,372,flye
MRSA_r10_100,psuG,psuG,1,1,307,307,flye
MRSA_r10_100,nupC_1,nupC_2,0,1,406,406,flye
MRSA_r10_100,sglT,sglT,1,1,510,510,flye
MRSA_r10_100,nanA,nanA,1,1,293,293,flye
MRSA_r10_100,bglK,bglK,1,1,286,286,flye
MRSA_r10_100,ybbH_2,ybbH_3,0,1,266,266,flye
MRSA_r10_100,nanE,nanE,1,1,222,222,flye
MRSA_r10_100,lip2,lip2,1,1,691,691,flye
MRSA_r10_100,ulaA,ulaA,1,1,448,448,flye
MRSA_r10_100,cmtB,cmtB,1,1,147,147,flye
MRSA_r10_100,slyA_1,slyA_2,0,1,139,139,flye
MRSA_r10_100,mepA,mepA,1,1,451,451,flye
MRSA_r10_100,glpT,,0,0,452,0,flye
MRSA_r10_100,mhqA_1,mhqA_3,0,1,308,308,flye
MRSA_r10_100,luxA,luxA,1,1,353,353,flye
MRSA_r10_100,ydaF,ydaF,1,1,181,181,flye
MRSA_r10_100,efeM,efeM,1,1,284,284,flye
MRSA_r10_100,efeN,efeN,1,1,409,409,flye
MRSA_r10_100,tatC2,tatC2,1,1,233,233,flye
MRSA_r10_100,tatAy,tatAy,1,1,71,71,flye
MRSA_r10_100,btuD_1,btuD_5,0,1,280,280,flye
MRSA_r10_100,metE,metE,1,1,742,742,flye
MRSA_r10_100,yitJ,yitJ,1,1,613,613,flye
MRSA_r10_100,metC,metC,1,1,386,386,flye
MRSA_r10_100,metI,metI,1,1,367,367,flye
MRSA_r10_100,spo0J,spo0J,1,1,281,281,flye
MRSA_r10_100,mscS,mscS,1,1,293,293,flye
MRSA_r10_100,ychF,ychF,1,1,365,365,flye
MRSA_r10_100,rpsF,rpsF,1,1,98,98,flye
MRSA_r10_100,ssbA_1,ssbA_3,0,1,167,167,flye
MRSA_r10_100,rpsR,rpsR,1,1,80,80,flye
MRSA_r10_100,xerC_3,xerC_8,0,1,404,404,flye
MRSA_r10_100,gpmA_1,gpmA_2,0,1,193,193,flye
MRSA_r10_100,ahpF,ahpF,1,1,507,507,flye
MRSA_r10_100,ahpC,ahpC,1,1,189,189,flye
MRSA_r10_100,nfrA,nfrA,1,1,251,251,flye
MRSA_r10_100,tcyP,tcyP,1,1,462,462,flye
MRSA_r10_100,xpt,xpt,1,1,192,192,flye
MRSA_r10_100,pucK,pucK,1,1,422,422,flye
MRSA_r10_100,guaB,guaB,1,1,488,488,flye
MRSA_r10_100,guaA,guaA,1,1,513,513,flye
MRSA_r10_100,qorB,qorB,1,1,281,281,flye
MRSA_r10_100,ssl1,ssl1,1,1,226,226,flye
MRSA_r10_100,ssl4_1,ssl4_1,1,1,233,233,flye
MRSA_r10_100,ssl4_2,ssl4_2,1,1,343,343,flye
MRSA_r10_100,ssl3,ssl3,1,1,306,306,flye
MRSA_r10_100,ssl5_1,ssl5_1,1,1,234,234,flye
MRSA_r10_100,ssl7_1,ssl7_1,1,1,231,231,flye
MRSA_r10_100,ssl7_2,ssl7_2,1,1,232,232,flye
MRSA_r10_100,hsdM,hsdM,1,1,518,518,flye
MRSA_r10_100,ssl5_2,ssl5_2,1,1,232,232,flye
MRSA_r10_100,lpl2_1,lpl2_1,1,1,270,270,flye
MRSA_r10_100,lpl2_2,lpl2_2,1,1,257,257,flye
MRSA_r10_100,lpl2_3,lpl2_3,1,1,136,136,flye
MRSA_r10_100,lpl2_4,lpl2_4,1,1,123,123,flye
MRSA_r10_100,lpl2_5,lpl2_5,1,1,256,256,flye
MRSA_r10_100,lpl2_6,lpl2_6,1,1,267,267,flye
MRSA_r10_100,yciC_1,yciC_2,0,1,400,400,flye
MRSA_r10_100,ndhB,ndhB,1,1,494,494,flye
MRSA_r10_100,est_1,est_2,0,1,244,244,flye
MRSA_r10_100,mccA,,0,0,311,0,flye
MRSA_r10_100,mccB,mccB,1,1,380,380,flye
MRSA_r10_100,metN,metN,1,1,341,341,flye
MRSA_r10_100,metP_1,metP_2,0,1,219,219,flye
MRSA_r10_100,metQ_1,metQ_2,0,1,280,280,flye
MRSA_r10_100,sle1,sle1,1,1,341,341,flye
MRSA_r10_100,hdfR_1,hdfR_2,0,1,294,294,flye
MRSA_r10_100,gltA,gltA,1,1,1499,1499,flye
MRSA_r10_100,gltB,gltB,1,1,487,487,flye
MRSA_r10_100,treP_1,treP_2,0,1,475,475,flye
MRSA_r10_100,treA,treA,1,1,546,546,flye
MRSA_r10_100,treR_1,treR_2,0,1,242,242,flye
MRSA_r10_100,ruvB_1,ruvB_2,0,1,565,565,flye
MRSA_r10_100,recR,recR,1,1,198,198,flye
MRSA_r10_100,speA,speA,1,1,445,445,flye
MRSA_r10_100,tmk,tmk,1,1,205,205,flye
MRSA_r10_100,darA,darA,1,1,109,109,flye
MRSA_r10_100,yabA,yabA,1,1,115,115,flye
MRSA_r10_100,yfiC,yfiC,1,1,241,241,flye
MRSA_r10_100,rsmI,rsmI,1,1,279,279,flye
MRSA_r10_100,metG,metG,1,1,657,657,flye
MRSA_r10_100,dtd3,dtd3,1,1,257,257,flye
MRSA_r10_100,rnmV_1,rnmV_2,0,1,178,178,flye
MRSA_r10_100,rsmA,rsmA,1,1,297,297,flye
MRSA_r10_100,veg,veg,1,1,87,87,flye
MRSA_r10_100,ispE,ispE,1,1,282,282,flye
MRSA_r10_100,purR,purR,1,1,274,274,flye
MRSA_r10_100,yabJ,yabJ,1,1,126,126,flye
MRSA_r10_100,spoVG,spoVG,1,1,100,100,flye
MRSA_r10_100,glmU,glmU,1,1,450,450,flye
MRSA_r10_100,prs,prs,1,1,321,321,flye
MRSA_r10_100,rplY,rplY,1,1,217,217,flye
MRSA_r10_100,pth,pth,1,1,190,190,flye
MRSA_r10_100,mfd,,0,0,1168,0,flye
MRSA_r10_100,divIC,divIC,1,1,130,130,flye
MRSA_r10_100,pnp_1,pnp_2,0,1,133,133,flye
MRSA_r10_100,tilS,tilS,1,1,431,431,flye
MRSA_r10_100,hpt,hpt,1,1,179,179,flye
MRSA_r10_100,ftsH,ftsH,1,1,697,697,flye
MRSA_r10_100,hslO,hslO,1,1,293,293,flye
MRSA_r10_100,cysK,cysK,1,1,310,310,flye
MRSA_r10_100,folP,folP,1,1,267,267,flye
MRSA_r10_100,folB,folB,1,1,121,121,flye
MRSA_r10_100,folK,folK,1,1,158,158,flye
MRSA_r10_100,lysS,lysS,1,1,495,495,flye
MRSA_r10_100,gabR,gabR,1,1,460,460,flye
MRSA_r10_100,pdxS,pdxS,1,1,295,295,flye
MRSA_r10_100,pdxT,pdxT,1,1,186,186,flye
MRSA_r10_100,nupC_2,nupC_1,0,1,404,404,flye
MRSA_r10_100,ctsR,ctsR,1,1,156,156,flye
MRSA_r10_100,mcsA,mcsA,1,1,188,188,flye
MRSA_r10_100,mcsB,mcsB,1,1,336,336,flye
MRSA_r10_100,clpC,clpC,1,1,818,818,flye
MRSA_r10_100,radA,radA,1,1,454,454,flye
MRSA_r10_100,yacL,yacL,1,1,357,357,flye
MRSA_r10_100,gltX,gltX,1,1,484,484,flye
MRSA_r10_100,cysE,cysE,1,1,226,226,flye
MRSA_r10_100,cysS,cysS,1,1,466,466,flye
MRSA_r10_100,mrnC,mrnC,1,1,134,134,flye
MRSA_r10_100,yacP,yacP,1,1,174,174,flye
MRSA_r10_100,secE,secE,1,1,60,60,flye
MRSA_r10_100,nusG,nusG,1,1,182,182,flye
MRSA_r10_100,rplK,rplK,1,1,140,140,flye
MRSA_r10_100,rplA,rplA,1,1,229,229,flye
MRSA_r10_100,rplJ,rplJ,1,1,166,166,flye
MRSA_r10_100,rplL,rplL,1,1,122,122,flye
MRSA_r10_100,rsmC,rsmC,1,1,202,202,flye
MRSA_r10_100,rpoB,rpoB,1,1,1183,1183,flye
MRSA_r10_100,rpoC,rpoC,1,1,1207,1207,flye
MRSA_r10_100,rplGB,rplGB,1,1,84,84,flye
MRSA_r10_100,rpsL,rpsL,1,1,137,137,flye
MRSA_r10_100,rpsG,rpsG,1,1,156,156,flye
MRSA_r10_100,fusA,fusA,1,1,693,693,flye
MRSA_r10_100,tuf,tuf,1,1,394,394,flye
MRSA_r10_100,scmP_2,scmP_1,0,1,391,391,flye
MRSA_r10_100,hchA,hchA,1,1,292,292,flye
MRSA_r10_100,araB,araB,1,1,545,545,flye
MRSA_r10_100,ilvE,ilvE,1,1,358,358,flye
MRSA_r10_100,ppaX_1,ppaX_1,1,1,227,227,flye
MRSA_r10_100,dck,dck,1,1,220,220,flye
MRSA_r10_100,dgk,dgk,1,1,205,205,flye
MRSA_r10_100,tadA_1,tadA_1,1,1,156,156,flye
MRSA_r10_100,ywtE_1,ywtE_1,1,1,289,289,flye
MRSA_r10_100,azo1,azo1,1,1,188,188,flye
MRSA_r10_100,bbp,bbp,1,1,1137,1137,flye
MRSA_r10_100,gtfA_1,gtfA_1,1,1,490,490,flye
MRSA_r10_100,gtfA_2,gtfA_2,1,1,496,496,flye
MRSA_r10_100,folE2,folE2,1,1,292,292,flye
MRSA_r10_100,bshB2,bshB2,1,1,221,221,flye
MRSA_r10_100,yojF,yojF,1,1,120,120,flye
MRSA_r10_100,nagB_1,nagB_1,1,1,252,252,flye
MRSA_r10_100,hxlB,hxlB,1,1,182,182,flye
MRSA_r10_100,gph,gph,1,1,215,215,flye
MRSA_r10_100,proP,proP,1,1,466,466,flye
MRSA_r10_100,menE_1,menE_1,1,1,458,458,flye
MRSA_r10_100,yhfS,yhfS,1,1,379,379,flye
MRSA_r10_100,pdxK,pdxK,1,1,276,276,flye
MRSA_r10_100,ung,ung,1,1,218,218,flye
MRSA_r10_100,pta,pta,1,1,328,328,flye
MRSA_r10_100,lipL,lipL,1,1,278,278,flye
MRSA_r10_100,galK,galK,1,1,306,306,flye
MRSA_r10_100,rclA,rclA,1,1,440,440,flye
MRSA_r10_100,iolS,iolS,1,1,312,312,flye
MRSA_r10_100,ywqN,ywqN,1,1,178,178,flye
MRSA_r10_100,adh,adh,1,1,336,336,flye
MRSA_r10_100,ywiB,ywiB,1,1,138,138,flye
MRSA_r10_100,argS,argS,1,1,553,553,flye
MRSA_r10_100,nth_1,nth_1,1,1,211,211,flye
MRSA_r10_100,btuF,btuF,1,1,295,295,flye
MRSA_r10_100,hdl IVa,hdl IVa,1,1,239,239,flye
MRSA_r10_100,pip,pip,1,1,262,262,flye
MRSA_r10_100,sarA,sarA,1,1,124,124,flye
MRSA_r10_100,xerD_1,xerD_1,1,1,186,186,flye
MRSA_r10_100,mrpA,mrpA,1,1,800,800,flye
MRSA_r10_100,mrpB,mrpB,1,1,141,141,flye
MRSA_r10_100,mnhC1_1,mnhC1_1,1,1,114,114,flye
MRSA_r10_100,mnhD1_1,mnhD1_1,1,1,498,498,flye
MRSA_r10_100,mrpE,mrpE,1,1,160,160,flye
MRSA_r10_100,mrpF,mrpF,1,1,100,100,flye
MRSA_r10_100,mrpG,mrpG,1,1,120,120,flye
MRSA_r10_100,nhaK_1,nhaK_1,1,1,680,680,flye
MRSA_r10_100,pbuE_1,pbuE_1,1,1,382,382,flye
MRSA_r10_100,ppaX_2,ppaX_2,1,1,82,82,flye
MRSA_r10_100,mntA,mntA,1,1,309,309,flye
MRSA_r10_100,mntB,mntB,1,1,278,278,flye
MRSA_r10_100,scaC,scaC,1,1,247,247,flye
MRSA_r10_100,mntR,mntR,1,1,214,214,flye
MRSA_r10_100,tarA,tarA,1,1,254,254,flye
MRSA_r10_100,tagH_1,tagH_1,1,1,264,264,flye
MRSA_r10_100,tagG,tagG,1,1,270,270,flye
MRSA_r10_100,tarB,tarB,1,1,367,367,flye
MRSA_r10_100,tagX,tagX,1,1,353,353,flye
MRSA_r10_100,tarD,tarD,1,1,132,132,flye
MRSA_r10_100,bmrA,bmrA,1,1,575,575,flye
MRSA_r10_100,nupG,nupG,1,1,409,409,flye
MRSA_r10_100,fepC,fepC,1,1,265,265,flye
MRSA_r10_100,feuB,feuB,1,1,334,334,flye
MRSA_r10_100,feuC,feuC,1,1,338,338,flye
MRSA_r10_100,dhaK,dhaK,1,1,322,322,flye
MRSA_r10_100,dhaL,dhaL,1,1,194,194,flye
MRSA_r10_100,dhaM,dhaM,1,1,120,120,flye
MRSA_r10_100,aes,aes,1,1,347,347,flye
MRSA_r10_100,graR_1,graR_1,1,1,224,224,flye
MRSA_r10_100,graS_1,graS_1,1,1,346,346,flye
MRSA_r10_100,bceA_1,bceA_1,1,1,253,253,flye
MRSA_r10_100,bceB_1,bceB_1,1,1,629,629,flye
MRSA_r10_100,rhaR,rhaR,1,1,647,647,flye
MRSA_r10_100,sarX,sarX,1,1,141,141,flye
MRSA_r10_100,oxyR,oxyR,1,1,288,288,flye
MRSA_r10_100,setC,setC,1,1,430,430,flye
MRSA_r10_100,bin3,bin3,1,1,105,105,flye
MRSA_r10_100,sdpR,sdpR,1,1,104,104,flye
MRSA_r10_100,arsB_1,arsB_1,1,1,429,429,flye
MRSA_r10_100,arsC,arsC,1,1,131,131,flye
MRSA_r10_100,pre,pre,1,1,108,108,flye
MRSA_r10_100,bcrR,bcrR,1,1,113,113,flye
MRSA_r10_100,cysL,cysL,1,1,273,273,flye
MRSA_r10_100,hin_1,hin_1,1,1,191,191,flye
MRSA_r10_100,copB,copB,1,1,681,681,flye
MRSA_r10_100,mco,mco,1,1,477,477,flye
MRSA_r10_100,cadA,cadA,1,1,726,726,flye
MRSA_r10_100,cadC,cadC,1,1,121,121,flye
MRSA_r10_100,uppP,uppP,1,1,291,291,flye
MRSA_r10_100,cydD,cydD,1,1,543,543,flye
MRSA_r10_100,mgrA,mgrA,1,1,147,147,flye
MRSA_r10_100,yciC_2,yciC_1,0,1,308,308,flye
MRSA_r10_100,ydhF,ydhF,1,1,302,302,flye
MRSA_r10_100,phrB,phrB,1,1,457,457,flye
MRSA_r10_100,tetA,tetA,1,1,388,388,flye
MRSA_r10_100,ybaK,ybaK,1,1,160,160,flye
MRSA_r10_100,ydjF,ydjF,1,1,254,254,flye
MRSA_r10_100,lacC_1,lacC_1,1,1,306,306,flye
MRSA_r10_100,fruA,fruA,1,1,652,652,flye
MRSA_r10_100,nagA,nagA,1,1,393,393,flye
MRSA_r10_100,csbB,csbB,1,1,327,327,flye
MRSA_r10_100,saeS,saeS,1,1,351,351,flye
MRSA_r10_100,saeR,saeR,1,1,228,228,flye
MRSA_r10_100,queE,queE,1,1,237,237,flye
MRSA_r10_100,queD,queD,1,1,139,139,flye
MRSA_r10_100,queC,queC,1,1,222,222,flye
MRSA_r10_100,trpG_1,trpG_1,1,1,197,197,flye
MRSA_r10_100,menF,menF,1,1,383,383,flye
MRSA_r10_100,pxpB_1,pxpB_1,1,1,236,236,flye
MRSA_r10_100,pxpC_1,pxpC_1,1,1,334,334,flye
MRSA_r10_100,ltaS,ltaS,1,1,646,646,flye
MRSA_r10_100,ettA,ettA,1,1,625,625,flye
MRSA_r10_100,recQ_1,recQ_1,1,1,593,593,flye
MRSA_r10_100,btuD_2,btuD_1,0,1,325,325,flye
MRSA_r10_100,hisC_1,hisC_1,1,1,352,352,flye
MRSA_r10_100,dtpT,dtpT,1,1,501,501,flye
MRSA_r10_100,queF,queF,1,1,166,166,flye
MRSA_r10_100,cntI,cntI,1,1,288,288,flye
MRSA_r10_100,nrdI,nrdI,1,1,132,132,flye
MRSA_r10_100,nrdE,nrdE,1,1,701,701,flye
MRSA_r10_100,nrdF,nrdF,1,1,323,323,flye
MRSA_r10_100,yclN,yclN,1,1,323,323,flye
MRSA_r10_100,yclO,yclO,1,1,318,318,flye
MRSA_r10_100,yclP,yclP,1,1,253,253,flye
MRSA_r10_100,yclQ,yclQ,1,1,342,342,flye
MRSA_r10_100,murB,murB,1,1,307,307,flye
MRSA_r10_100,garK_1,garK_1,1,1,374,374,flye
MRSA_r10_100,pepT_1,pepT_1,1,1,408,408,flye
MRSA_r10_100,yjjP,yjjP,1,1,253,253,flye
MRSA_r10_100,tagO,tagO,1,1,351,351,flye
MRSA_r10_100,comFA,comFA,1,1,360,360,flye
MRSA_r10_100,hpf,hpf,1,1,190,190,flye
MRSA_r10_100,secA1_1,secA1_1,1,1,843,843,flye
MRSA_r10_100,prfB,prfB,1,1,330,330,flye
MRSA_r10_100,yfbR,yfbR,1,1,216,216,flye
MRSA_r10_100,uvrB_1,uvrB_1,1,1,661,661,flye
MRSA_r10_100,uvrA,uvrA,1,1,948,948,flye
MRSA_r10_100,hprK,hprK,1,1,310,310,flye
MRSA_r10_100,lgt,lgt,1,1,280,280,flye
MRSA_r10_100,maa,maa,1,1,161,161,flye
MRSA_r10_100,trxB,trxB,1,1,311,311,flye
MRSA_r10_100,whiA,whiA,1,1,314,314,flye
MRSA_r10_100,clpP_1,clpP_1,1,1,195,195,flye
MRSA_r10_100,mleS,mleS,1,1,544,544,flye
MRSA_r10_100,cggR,cggR,1,1,337,337,flye
MRSA_r10_100,gapA1,gapA1,1,1,336,336,flye
MRSA_r10_100,pgk,pgk,1,1,396,396,flye
MRSA_r10_100,tpiA,tpiA,1,1,253,253,flye
MRSA_r10_100,gpmI,gpmI,1,1,505,505,flye
MRSA_r10_100,eno,eno,1,1,434,434,flye
MRSA_r10_100,secG,secG,1,1,77,77,flye
MRSA_r10_100,est_2,est_1,0,1,246,246,flye
MRSA_r10_100,rnr,rnr,1,1,790,790,flye
MRSA_r10_100,smpB,smpB,1,1,154,154,flye
MRSA_r10_100,ssp,ssp,1,1,341,341,flye
MRSA_r10_100,nuc,nuc,1,1,228,228,flye
MRSA_r10_100,cspA_1,cspA_1,1,1,66,66,flye
MRSA_r10_100,pspB,pspB,1,1,194,194,flye
MRSA_r10_100,argO_1,argO_1,1,1,205,205,flye
MRSA_r10_100,aroD,aroD,1,1,238,238,flye
MRSA_r10_100,ydbP,ydbP,1,1,106,106,flye
MRSA_r10_100,mgsR,mgsR,1,1,118,118,flye
MRSA_r10_100,gcvH,gcvH,1,1,126,126,flye
MRSA_r10_100,rnmV_2,rnmV_1,0,1,129,129,flye
MRSA_r10_100,metN2,metN2,1,1,341,341,flye
MRSA_r10_100,metP_2,metP_1,0,1,231,231,flye
MRSA_r10_100,metQ_2,metQ_1,0,1,273,273,flye
MRSA_r10_100,sufC,sufC,1,1,253,253,flye
MRSA_r10_100,csd,csd,1,1,413,413,flye
MRSA_r10_100,sufU,sufU,1,1,154,154,flye
MRSA_r10_100,pnoA,pnoA,1,1,355,355,flye
MRSA_r10_100,lipA_1,lipA_1,1,1,305,305,flye
MRSA_r10_100,yutF,yutF,1,1,259,259,flye
MRSA_r10_100,ghrB_1,ghrB_1,1,1,319,319,flye
MRSA_r10_100,dltA_2,dltA_1,0,1,485,485,flye
MRSA_r10_100,patA,patA,1,1,404,404,flye
MRSA_r10_100,dltC,dltC,1,1,78,78,flye
MRSA_r10_100,dltD,dltD,1,1,391,391,flye
MRSA_r10_100,nfuA,nfuA,1,1,80,80,flye
MRSA_r10_100,yjlD,yjlD,1,1,354,354,flye
MRSA_r10_100,pepA_1,pepA_1,1,1,491,491,flye
MRSA_r10_100,mnhG1,mnhG1,1,1,118,118,flye
MRSA_r10_100,mnhF1,mnhF1,1,1,97,97,flye
MRSA_r10_100,mnhE1,mnhE1,1,1,159,159,flye
MRSA_r10_100,mnhD1_2,mnhD1_2,1,1,498,498,flye
MRSA_r10_100,mnhC1_2,mnhC1_2,1,1,113,113,flye
MRSA_r10_100,mnhB1,mnhB1,1,1,142,142,flye
MRSA_r10_100,mnhA1,mnhA1,1,1,801,801,flye
MRSA_r10_100,kapB,kapB,1,1,127,127,flye
MRSA_r10_100,yugI,yugI,1,1,125,125,flye
MRSA_r10_100,rocD2_2,rocD2_1,0,1,396,396,flye
MRSA_r10_100,gluD,gluD,1,1,414,414,flye
MRSA_r10_100,glpQ_1,glpQ_1,1,1,309,309,flye
MRSA_r10_100,argH,argH,1,1,459,459,flye
MRSA_r10_100,argG,argG,1,1,401,401,flye
MRSA_r10_100,pgi,pgi,1,1,443,443,flye
MRSA_r10_100,ydjZ,ydjZ,1,1,191,191,flye
MRSA_r10_100,spsB_1,spsB_1,1,1,174,174,flye
MRSA_r10_100,spsB_2,spsB_2,1,1,191,191,flye
MRSA_r10_100,addB,addB,1,1,1158,1158,flye
MRSA_r10_100,addA,addA,1,1,1217,1217,flye
MRSA_r10_100,cdr,cdr,1,1,438,438,flye
MRSA_r10_100,yitU,yitU,1,1,274,274,flye
MRSA_r10_100,sufT,sufT,1,1,102,102,flye
MRSA_r10_100,oatA_1,oatA_1,1,1,604,604,flye
MRSA_r10_100,clpB,clpB,1,1,869,869,flye
MRSA_r10_100,ampR,ampR,1,1,289,289,flye
MRSA_r10_100,leuA_1,leuA_1,1,1,381,381,flye
MRSA_r10_100,map_1,map_1,1,1,144,144,flye
MRSA_r10_100,fabH,fabH,1,1,313,313,flye
MRSA_r10_100,fabF,fabF,1,1,414,414,flye
MRSA_r10_100,oppB,oppB,1,1,308,308,flye
MRSA_r10_100,oppC,oppC,1,1,356,356,flye
MRSA_r10_100,oppD_1,oppD_1,1,1,360,360,flye
MRSA_r10_100,oppF_1,oppF_1,1,1,313,313,flye
MRSA_r10_100,dppE,dppE,1,1,551,551,flye
MRSA_r10_100,appA,appA,1,1,451,451,flye
MRSA_r10_100,oppD_2,oppD_2,1,1,328,328,flye
MRSA_r10_100,oppF_2,oppF_2,1,1,326,326,flye
MRSA_r10_100,dppC,dppC,1,1,293,293,flye
MRSA_r10_100,trpS,trpS,1,1,329,329,flye
MRSA_r10_100,spxA,spxA,1,1,131,131,flye
MRSA_r10_100,mecA_2,mecA_1,0,1,239,239,flye
MRSA_r10_100,pepF1_1,pepF1_1,1,1,602,602,flye
MRSA_r10_100,yjbI,yjbI,1,1,121,121,flye
MRSA_r10_100,yjbK,yjbK,1,1,197,197,flye
MRSA_r10_100,yjbM,yjbM,1,1,211,211,flye
MRSA_r10_100,nadK,nadK,1,1,269,269,flye
MRSA_r10_100,mgtE,mgtE,1,1,461,461,flye
MRSA_r10_100,kefB,kefB,1,1,614,614,flye
MRSA_r10_100,fabI,fabI,1,1,256,256,flye
MRSA_r10_100,acp,acp,1,1,522,522,flye
MRSA_r10_100,ltaA,ltaA,1,1,396,396,flye
MRSA_r10_100,ugtP,ugtP,1,1,391,391,flye
MRSA_r10_100,murE,murE,1,1,494,494,flye
MRSA_r10_100,prfC,prfC,1,1,520,520,flye
MRSA_r10_100,ktrB_1,ktrB_1,1,1,452,452,flye
MRSA_r10_100,tarM,tarM,1,1,493,493,flye
MRSA_r10_100,catD,catD,1,1,118,118,flye
MRSA_r10_100,yfmC_1,yfmC_1,1,1,319,319,flye
MRSA_r10_100,menA,menA,1,1,312,312,flye
MRSA_r10_100,pchA,pchA,1,1,453,453,flye
MRSA_r10_100,menD,menD,1,1,557,557,flye
MRSA_r10_100,menH,menH,1,1,267,267,flye
MRSA_r10_100,menB,menB,1,1,273,273,flye
MRSA_r10_100,sspC,sspC,1,1,109,109,flye
MRSA_r10_100,sspB,sspB,1,1,393,393,flye
MRSA_r10_100,sspA,sspA,1,1,357,357,flye
MRSA_r10_100,dapX,dapX,1,1,384,384,flye
MRSA_r10_100,slyA_2,slyA_1,0,1,139,139,flye
MRSA_r10_100,atl_1,atl_1,1,1,1257,1257,flye
MRSA_r10_100,tagU_1,tagU_1,1,1,408,408,flye
MRSA_r10_100,fmtA,fmtA,1,1,397,397,flye
MRSA_r10_100,qoxD,qoxD,1,1,96,96,flye
MRSA_r10_100,qoxC,qoxC,1,1,201,201,flye
MRSA_r10_100,qoxB,qoxB,1,1,662,662,flye
MRSA_r10_100,qoxA,qoxA,1,1,366,366,flye
MRSA_r10_100,folD,folD,1,1,286,286,flye
MRSA_r10_100,purE,purE,1,1,160,160,flye
MRSA_r10_100,purK,purK,1,1,374,374,flye
MRSA_r10_100,purC,purC,1,1,234,234,flye
MRSA_r10_100,purS,purS,1,1,87,87,flye
MRSA_r10_100,purQ,purQ,1,1,223,223,flye
MRSA_r10_100,purL,purL,1,1,729,729,flye
MRSA_r10_100,purF,purF,1,1,494,494,flye
MRSA_r10_100,purM,purM,1,1,342,342,flye
MRSA_r10_100,purN,purN,1,1,188,188,flye
MRSA_r10_100,purH,purH,1,1,492,492,flye
MRSA_r10_100,purD,purD,1,1,415,415,flye
MRSA_r10_100,ecfT_1,ecfT_1,1,1,268,268,flye
MRSA_r10_100,ykoD_1,ykoD_1,1,1,466,466,flye
MRSA_r10_100,ykoE,ykoE,1,1,191,191,flye
MRSA_r10_100,rlmI,rlmI,1,1,390,390,flye
MRSA_r10_100,ptsH,ptsH,1,1,88,88,flye
MRSA_r10_100,ptsI,ptsI,1,1,572,572,flye
MRSA_r10_100,ythA,ythA,1,1,453,453,flye
MRSA_r10_100,ythB,ythB,1,1,339,339,flye
MRSA_r10_100,ktrA,ktrA,1,1,220,220,flye
MRSA_r10_100,rnj1,rnj1,1,1,565,565,flye
MRSA_r10_100,def,def,1,1,183,183,flye
MRSA_r10_100,pdhA,pdhA,1,1,370,370,flye
MRSA_r10_100,pdhB,pdhB,1,1,325,325,flye
MRSA_r10_100,pdhC_1,pdhC_1,1,1,430,430,flye
MRSA_r10_100,pdhD,pdhD,1,1,468,468,flye
MRSA_r10_100,potA,potA,1,1,364,364,flye
MRSA_r10_100,potB,potB,1,1,265,265,flye
MRSA_r10_100,ydcV,ydcV,1,1,269,269,flye
MRSA_r10_100,potD,potD,1,1,357,357,flye
MRSA_r10_100,mntH_1,mntH_1,1,1,450,450,flye
MRSA_r10_100,suhB,suhB,1,1,275,275,flye
MRSA_r10_100,typA,typA,1,1,615,615,flye
MRSA_r10_100,ftsW,ftsW,1,1,408,408,flye
MRSA_r10_100,pycA,pycA,1,1,1150,1150,flye
MRSA_r10_100,ctaA,ctaA,1,1,306,306,flye
MRSA_r10_100,ctaB2,ctaB2,1,1,303,303,flye
MRSA_r10_100,rsmD,rsmD,1,1,180,180,flye
MRSA_r10_100,coaD,coaD,1,1,160,160,flye
MRSA_r10_100,tmcAL,tmcAL,1,1,379,379,flye
MRSA_r10_100,rpmF,rpmF,1,1,57,57,flye
MRSA_r10_100,isdB,isdB,1,1,652,652,flye
MRSA_r10_100,isdA,isdA,1,1,354,354,flye
MRSA_r10_100,isdC,isdC,1,1,227,227,flye
MRSA_r10_100,isdE,isdE,1,1,292,292,flye
MRSA_r10_100,isdF,isdF,1,1,322,322,flye
MRSA_r10_100,srtB,srtB,1,1,244,244,flye
MRSA_r10_100,isdG_1,isdG_1,1,1,107,107,flye
MRSA_r10_100,pheS,pheS,1,1,352,352,flye
MRSA_r10_100,pheT,pheT,1,1,800,800,flye
MRSA_r10_100,rnhC,rnhC,1,1,329,329,flye
MRSA_r10_100,zapA,zapA,1,1,88,88,flye
MRSA_r10_100,polX,polX,1,1,570,570,flye
MRSA_r10_100,mutS2,mutS2,1,1,782,782,flye
MRSA_r10_100,trxA,trxA,1,1,104,104,flye
MRSA_r10_100,uvrC,uvrC,1,1,593,593,flye
MRSA_r10_100,sdhC,sdhC,1,1,204,204,flye
MRSA_r10_100,frdA,frdA,1,1,588,588,flye
MRSA_r10_100,frdB,frdB,1,1,271,271,flye
MRSA_r10_100,murI,murI,1,1,266,266,flye
MRSA_r10_100,fib,fib,1,1,165,165,flye
MRSA_r10_100,scn_2,scn_1,0,1,116,116,flye
MRSA_r10_100,hly_1,hly_1,1,1,206,206,flye
MRSA_r10_100,hly_2,hly_2,1,1,112,112,flye
MRSA_r10_100,argF,argF,1,1,333,333,flye
MRSA_r10_100,arcC1,arcC1,1,1,311,311,flye
MRSA_r10_100,yfnB,yfnB,1,1,228,228,flye
MRSA_r10_100,bshC,bshC,1,1,537,537,flye
MRSA_r10_100,mraZ,mraZ,1,1,143,143,flye
MRSA_r10_100,rsmH_1,rsmH_1,1,1,311,311,flye
MRSA_r10_100,ftsL,ftsL,1,1,133,133,flye
MRSA_r10_100,pbpB,pbpB,1,1,744,744,flye
MRSA_r10_100,mraY,mraY,1,1,321,321,flye
MRSA_r10_100,murD,murD,1,1,449,449,flye
MRSA_r10_100,divIB,divIB,1,1,439,439,flye
MRSA_r10_100,ftsA,ftsA,1,1,468,468,flye
MRSA_r10_100,ftsZ,ftsZ,1,1,390,390,flye
MRSA_r10_100,yggS,yggS,1,1,222,222,flye
MRSA_r10_100,sepF,sepF,1,1,187,187,flye
MRSA_r10_100,divIVA,divIVA,1,1,198,198,flye
MRSA_r10_100,ileS,ileS,1,1,917,917,flye
MRSA_r10_100,catE_1,catE_1,1,1,265,265,flye
MRSA_r10_100,lspA,lspA,1,1,163,163,flye
MRSA_r10_100,rluD_1,rluD_1,1,1,305,305,flye
MRSA_r10_100,pyrR,pyrR,1,1,175,175,flye
MRSA_r10_100,pyrP,pyrP,1,1,435,435,flye
MRSA_r10_100,pyrB,pyrB,1,1,293,293,flye
MRSA_r10_100,pyrC,pyrC,1,1,425,425,flye
MRSA_r10_100,carA_2,carA_1,0,1,366,366,flye
MRSA_r10_100,carB,carB,1,1,1057,1057,flye
MRSA_r10_100,pyrF,pyrF,1,1,230,230,flye
MRSA_r10_100,pyrE,pyrE,1,1,203,203,flye
MRSA_r10_100,rqcH,rqcH,1,1,565,565,flye
MRSA_r10_100,gmk,gmk,1,1,207,207,flye
MRSA_r10_100,rpoZ,rpoZ,1,1,72,72,flye
MRSA_r10_100,coaBC,coaBC,1,1,399,399,flye
MRSA_r10_100,priA,priA,1,1,802,802,flye
MRSA_r10_100,def1,def1,1,1,162,162,flye
MRSA_r10_100,fmt,fmt,1,1,311,311,flye
MRSA_r10_100,rsmB,rsmB,1,1,435,435,flye
MRSA_r10_100,rlmN,rlmN,1,1,364,364,flye
MRSA_r10_100,stp,stp,1,1,247,247,flye
MRSA_r10_100,prkC,prkC,1,1,664,664,flye
MRSA_r10_100,rsgA,rsgA,1,1,291,291,flye
MRSA_r10_100,rpe,rpe,1,1,214,214,flye
MRSA_r10_100,thiN,,0,0,213,0,flye
MRSA_r10_100,rpmB,rpmB,1,1,62,62,flye
MRSA_r10_100,recG,recG,1,1,686,686,flye
MRSA_r10_100,fapR,fapR,1,1,185,185,flye
MRSA_r10_100,plsX,plsX,1,1,328,328,flye
MRSA_r10_100,fabD,fabD,1,1,308,308,flye
MRSA_r10_100,fabG,fabG,1,1,244,244,flye
MRSA_r10_100,acpP,acpP,1,1,77,77,flye
MRSA_r10_100,rnc,rnc,1,1,243,243,flye
MRSA_r10_100,smc_1,smc_1,1,1,1188,1188,flye
MRSA_r10_100,ftsY,ftsY,1,1,416,416,flye
MRSA_r10_100,ffh,ffh,1,1,455,455,flye
MRSA_r10_100,rpsP,rpsP,1,1,91,91,flye
MRSA_r10_100,rimM,rimM,1,1,167,167,flye
MRSA_r10_100,trmD,trmD,1,1,245,245,flye
MRSA_r10_100,rplS,rplS,1,1,116,116,flye
MRSA_r10_100,rbgA,rbgA,1,1,294,294,flye
MRSA_r10_100,rnhB,rnhB,1,1,255,255,flye
MRSA_r10_100,sucC,sucC,1,1,388,388,flye
MRSA_r10_100,sucD,sucD,1,1,302,302,flye
MRSA_r10_100,lytN,lytN,1,1,372,372,flye
MRSA_r10_100,femA_1,femA_1,1,1,414,414,flye
MRSA_r10_100,topA,topA,1,1,691,691,flye
MRSA_r10_100,trmFO,trmFO,1,1,435,435,flye
MRSA_r10_100,xerC_4,xerC_1,0,1,298,298,flye
MRSA_r10_100,hslV,hslV,1,1,181,181,flye
MRSA_r10_100,hslU,hslU,1,1,467,467,flye
MRSA_r10_100,codY,codY,1,1,257,257,flye
MRSA_r10_100,rpsB,rpsB,1,1,255,255,flye
MRSA_r10_100,tsf,tsf,1,1,293,293,flye
MRSA_r10_100,pyrH,pyrH,1,1,240,240,flye
MRSA_r10_100,frr,frr,1,1,184,184,flye
MRSA_r10_100,uppS,uppS,1,1,256,256,flye
MRSA_r10_100,proS,proS,1,1,567,567,flye
MRSA_r10_100,polC,polC,1,1,1438,1438,flye
MRSA_r10_100,rimP,rimP,1,1,155,155,flye
MRSA_r10_100,nusA,nusA,1,1,391,391,flye
MRSA_r10_100,rplGA,rplGA,1,1,105,105,flye
MRSA_r10_100,infB_1,infB_1,1,1,705,705,flye
MRSA_r10_100,rbfA,rbfA,1,1,116,116,flye
MRSA_r10_100,truB,truB,1,1,305,305,flye
MRSA_r10_100,ribF,,0,0,323,0,flye
MRSA_r10_100,rpsO,rpsO,1,1,89,89,flye
MRSA_r10_100,pnp_2,pnp_1,0,1,698,698,flye
MRSA_r10_100,rnj2,rnj2,1,1,557,557,flye
MRSA_r10_100,ftsK,ftsK,1,1,789,789,flye
MRSA_r10_100,gamR,gamR,1,1,237,237,flye
MRSA_r10_100,phaB,phaB,1,1,234,234,flye
MRSA_r10_100,pgsA,pgsA,1,1,192,192,flye
MRSA_r10_100,cinA,cinA,1,1,383,383,flye
MRSA_r10_100,recA,recA,1,1,347,347,flye
MRSA_r10_100,rny,rny,1,1,519,519,flye
MRSA_r10_100,ymdB,ymdB,1,1,265,265,flye
MRSA_r10_100,miaB,miaB,1,1,514,514,flye
MRSA_r10_100,ymcA,ymcA,1,1,121,121,flye
MRSA_r10_100,mutS_1,mutS_1,1,1,872,872,flye
MRSA_r10_100,mutL,mutL,1,1,669,669,flye
MRSA_r10_100,glpP,glpP,1,1,177,177,flye
MRSA_r10_100,glpF,glpF,1,1,272,272,flye
MRSA_r10_100,glpK,glpK,1,1,498,498,flye
MRSA_r10_100,glpD,glpD,1,1,557,557,flye
MRSA_r10_100,miaA,miaA,1,1,311,311,flye
MRSA_r10_100,hfq,hfq,1,1,77,77,flye
MRSA_r10_100,bsaA_1,bsaA_1,1,1,158,158,flye
MRSA_r10_100,hflX,hflX,1,1,412,412,flye
MRSA_r10_100,glnR,glnR,1,1,122,122,flye
MRSA_r10_100,glnA,glnA,1,1,446,446,flye
MRSA_r10_100,infB_2,infB_2,1,1,615,615,flye
MRSA_r10_100,ltaE,ltaE,1,1,341,341,flye
MRSA_r10_100,cls_1,cls_1,1,1,493,493,flye
MRSA_r10_100,btuD_3,btuD_2,0,1,299,299,flye
MRSA_r10_100,desR,desR,1,1,168,168,flye
MRSA_r10_100,nucH,nucH,1,1,177,177,flye
MRSA_r10_100,yclM,yclM,1,1,460,460,flye
MRSA_r10_100,thrC,thrC,1,1,353,353,flye
MRSA_r10_100,thrB,thrB,1,1,304,304,flye
MRSA_r10_100,lysP_1,lysP_1,1,1,484,484,flye
MRSA_r10_100,katA,katA,1,1,505,505,flye
MRSA_r10_100,rpmG2_1,rpmG2_1,1,1,49,49,flye
MRSA_r10_100,rpsN2,rpsN2,1,1,89,89,flye
MRSA_r10_100,guaC,guaC,1,1,325,325,flye
MRSA_r10_100,lexA_1,lexA_1,1,1,207,207,flye
MRSA_r10_100,tkt,tkt,1,1,662,662,flye
MRSA_r10_100,sbcD,,0,0,373,0,flye
MRSA_r10_100,sbcC,sbcC,1,1,1009,1009,flye
MRSA_r10_100,mscL,mscL,1,1,120,120,flye
MRSA_r10_100,opuD_1,opuD_1,1,1,548,548,flye
MRSA_r10_100,acnA,acnA,1,1,901,901,flye
MRSA_r10_100,plsY,plsY,1,1,202,202,flye
MRSA_r10_100,parE,parE,1,1,663,663,flye
MRSA_r10_100,parC,parC,1,1,800,800,flye
MRSA_r10_100,alsT,alsT,1,1,486,486,flye
MRSA_r10_100,glcT,glcT,1,1,283,283,flye
MRSA_r10_100,mprF,mprF,1,1,840,840,flye
MRSA_r10_100,msrA1,msrA1,1,1,169,169,flye
MRSA_r10_100,msrR,msrR,1,1,327,327,flye
MRSA_r10_100,umuC,umuC,1,1,420,420,flye
MRSA_r10_100,ysdC_1,ysdC_1,1,1,343,343,flye
MRSA_r10_100,trpE,trpE,1,1,468,468,flye
MRSA_r10_100,trpG_2,trpG_2,1,1,188,188,flye
MRSA_r10_100,trpD2,trpD2,1,1,257,257,flye
MRSA_r10_100,trpC,trpC,1,1,260,260,flye
MRSA_r10_100,trpF,trpF,1,1,211,211,flye
MRSA_r10_100,trpB,trpB,1,1,404,404,flye
MRSA_r10_100,trpA,trpA,1,1,242,242,flye
MRSA_r10_100,femA_2,femA_2,1,1,420,420,flye
MRSA_r10_100,femB,femB,1,1,419,419,flye
MRSA_r10_100,nikE,nikE,1,1,233,233,flye
MRSA_r10_100,nikD,nikD,1,1,257,257,flye
MRSA_r10_100,nikC,nikC,1,1,276,276,flye
MRSA_r10_100,nikB,nikB,1,1,328,328,flye
MRSA_r10_100,pepF1_2,pepF1_2,1,1,604,604,flye
MRSA_r10_100,phoU,phoU,1,1,213,213,flye
MRSA_r10_100,pstB3,pstB3,1,1,283,283,flye
MRSA_r10_100,pstA,pstA,1,1,305,305,flye
MRSA_r10_100,pstS,pstS,1,1,327,327,flye
MRSA_r10_100,cvfB,cvfB,1,1,300,300,flye
MRSA_r10_100,ybiT,ybiT,1,1,533,533,flye
MRSA_r10_100,lysC,lysC,1,1,401,401,flye
MRSA_r10_100,asd,asd,1,1,329,329,flye
MRSA_r10_100,dapA,dapA,1,1,295,295,flye
MRSA_r10_100,dapB,dapB,1,1,240,240,flye
MRSA_r10_100,dapH_2,dapH_1,0,1,239,239,flye
MRSA_r10_100,scmP_3,scmP_2,0,1,383,383,flye
MRSA_r10_100,alr1_1,alr1_1,1,1,361,361,flye
MRSA_r10_100,lysA,lysA,1,1,421,421,flye
MRSA_r10_100,cspA_2,cspA_2,1,1,66,66,flye
MRSA_r10_100,yccX,yccX,1,1,89,89,flye
MRSA_r10_100,brnQ_3,brnQ_1,0,1,447,447,flye
MRSA_r10_100,nirQ,nirQ,1,1,263,263,flye
MRSA_r10_100,mhqA_2,mhqA_1,0,1,269,269,flye
MRSA_r10_100,odhB,odhB,1,1,423,423,flye
MRSA_r10_100,odhA,odhA,1,1,932,932,flye
MRSA_r10_100,arlS,arlS,1,1,451,451,flye
MRSA_r10_100,arlR,arlR,1,1,219,219,flye
MRSA_r10_100,murG,murG,1,1,356,356,flye
MRSA_r10_100,crr,crr,1,1,166,166,flye
MRSA_r10_100,msrB,msrB,1,1,142,142,flye
MRSA_r10_100,msrA2,msrA2,1,1,177,177,flye
MRSA_r10_100,folA,folA,1,1,159,159,flye
MRSA_r10_100,thyA,thyA,1,1,318,318,flye
MRSA_r10_100,rnhA,rnhA,1,1,133,133,flye
MRSA_r10_100,ebh,ebh,1,1,10746,10746,flye
MRSA_r10_100,norB_3,norB_1,0,1,463,463,flye
MRSA_r10_100,steT,steT,1,1,440,440,flye
MRSA_r10_100,tdcB,tdcB,1,1,346,346,flye
MRSA_r10_100,ald1,ald1,1,1,372,372,flye
MRSA_r10_100,ypcP,ypcP,1,1,292,292,flye
MRSA_r10_100,der_1,der_1,1,1,1146,1146,flye
MRSA_r10_100,rlmL,rlmL,1,1,381,381,flye
MRSA_r10_100,gpsB,gpsB,1,1,114,114,flye
MRSA_r10_100,recU,recU,1,1,208,208,flye
MRSA_r10_100,ponA,ponA,1,1,716,716,flye
MRSA_r10_100,nth_2,nth_2,1,1,219,219,flye
MRSA_r10_100,dnaD,dnaD,1,1,228,228,flye
MRSA_r10_100,asnS,asnS,1,1,430,430,flye
MRSA_r10_100,dinG_1,,0,0,897,0,flye
MRSA_r10_100,birA,birA,1,1,323,323,flye
MRSA_r10_100,cca,cca,1,1,400,400,flye
MRSA_r10_100,bshA,bshA,1,1,380,380,flye
MRSA_r10_100,ypjD,ypjD,1,1,105,105,flye
MRSA_r10_100,bepA,bepA,1,1,414,414,flye
MRSA_r10_100,aroA_1,aroA_1,1,1,432,432,flye
MRSA_r10_100,aroB,aroB,1,1,354,354,flye
MRSA_r10_100,aroC,aroC,1,1,388,388,flye
MRSA_r10_100,ndk,ndk,1,1,149,149,flye
MRSA_r10_100,hepT,hepT,1,1,319,319,flye
MRSA_r10_100,menG,menG,1,1,241,241,flye
MRSA_r10_100,hup,hup,1,1,90,90,flye
MRSA_r10_100,gpsA,gpsA,1,1,332,332,flye
MRSA_r10_100,der_2,der_2,1,1,436,436,flye
MRSA_r10_100,rpsA,rpsA,1,1,391,391,flye
MRSA_r10_100,cmk,cmk,1,1,219,219,flye
MRSA_r10_100,ansA,ansA,1,1,322,322,flye
MRSA_r10_100,ebpS,ebpS,1,1,486,486,flye
MRSA_r10_100,recQ_2,recQ_2,1,1,459,459,flye
MRSA_r10_100,ribU,ribU,1,1,181,181,flye
MRSA_r10_100,smc_2,,0,0,2066,0,flye
MRSA_r10_100,clpP_2,clpP_2,1,1,257,257,flye
MRSA_r10_100,xerC_5,xerC_2,0,1,401,401,flye
MRSA_r10_100,srrB,,0,0,583,0,flye
MRSA_r10_100,srrA,srrA,1,1,241,241,flye
MRSA_r10_100,rluB,rluB,1,1,245,245,flye
MRSA_r10_100,scpB,scpB,1,1,180,180,flye
MRSA_r10_100,scpA,scpA,1,1,251,251,flye
MRSA_r10_100,xerD_2,xerD_2,1,1,295,295,flye
MRSA_r10_100,fur,fur,1,1,149,149,flye
MRSA_r10_100,nudF,nudF,1,1,180,180,flye
MRSA_r10_100,yajO,yajO,1,1,302,302,flye
MRSA_r10_100,proC,proC,1,1,271,271,flye
MRSA_r10_100,rnz,rnz,1,1,306,306,flye
MRSA_r10_100,zwf,zwf,1,1,494,494,flye
MRSA_r10_100,malL,malL,1,1,549,549,flye
MRSA_r10_100,malR,malR,1,1,339,339,flye
MRSA_r10_100,psuK,psuK,1,1,299,299,flye
MRSA_r10_100,entS,entS,1,1,369,369,flye
MRSA_r10_100,gnd,gnd,1,1,468,468,flye
MRSA_r10_100,pepT_2,pepT_2,1,1,377,377,flye
MRSA_r10_100,pdhC_2,pdhC_2,1,1,424,424,flye
MRSA_r10_100,bfmBAB,bfmBAB,1,1,327,327,flye
MRSA_r10_100,bfmBAA,bfmBAA,1,1,330,330,flye
MRSA_r10_100,recN,recN,1,1,559,559,flye
MRSA_r10_100,argR_1,argR_1,1,1,150,150,flye
MRSA_r10_100,xseB,xseB,1,1,76,76,flye
MRSA_r10_100,xseA,xseA,1,1,445,445,flye
MRSA_r10_100,nusB,nusB,1,1,129,129,flye
MRSA_r10_100,cfiB,cfiB,1,1,451,451,flye
MRSA_r10_100,accB_1,accB_1,1,1,154,154,flye
MRSA_r10_100,efp,efp,1,1,185,185,flye
MRSA_r10_100,ypdF,ypdF,1,1,353,353,flye
MRSA_r10_100,lipM,lipM,1,1,276,276,flye
MRSA_r10_100,yibN,yibN,1,1,128,128,flye
MRSA_r10_100,gcvPB,gcvPB,1,1,490,490,flye
MRSA_r10_100,gcvPA,gcvPA,1,1,448,448,flye
MRSA_r10_100,gcvT,gcvT,1,1,363,363,flye
MRSA_r10_100,aroK,aroK,1,1,174,174,flye
MRSA_r10_100,comGC,comGC,1,1,103,103,flye
MRSA_r10_100,comGA,comGA,1,1,324,324,flye
MRSA_r10_100,glcK,glcK,1,1,328,328,flye
MRSA_r10_100,gluP,gluP,1,1,487,487,flye
MRSA_r10_100,yqgN,yqgN,1,1,197,197,flye
MRSA_r10_100,rpmG2_2,rpmG2_2,1,1,49,49,flye
MRSA_r10_100,pbpH,pbpH,1,1,691,691,flye
MRSA_r10_100,sodA,sodA,1,1,199,199,flye
MRSA_r10_100,zur,zur,1,1,136,136,flye
MRSA_r10_100,znuB,znuB,1,1,290,290,flye
MRSA_r10_100,btuD_4,btuD_3,0,1,261,261,flye
MRSA_r10_100,nfo,nfo,1,1,296,296,flye
MRSA_r10_100,cshB,cshB,1,1,448,448,flye
MRSA_r10_100,trmK,trmK,1,1,225,225,flye
MRSA_r10_100,sigA,sigA,1,1,368,368,flye
MRSA_r10_100,dnaG,dnaG,1,1,599,599,flye
MRSA_r10_100,yqfL,yqfL,1,1,272,272,flye
MRSA_r10_100,ccpN,ccpN,1,1,179,179,flye
MRSA_r10_100,glyQS,glyQS,1,1,463,463,flye
MRSA_r10_100,recO,recO,1,1,248,248,flye
MRSA_r10_100,era,era,1,1,299,299,flye
MRSA_r10_100,cdd,cdd,1,1,134,134,flye
MRSA_r10_100,dgkA,dgkA,1,1,114,114,flye
MRSA_r10_100,ybeY,ybeY,1,1,155,155,flye
MRSA_r10_100,rpsU,rpsU,1,1,58,58,flye
MRSA_r10_100,mtaB,mtaB,1,1,448,448,flye
MRSA_r10_100,rsmE,rsmE,1,1,250,250,flye
MRSA_r10_100,prmA,prmA,1,1,312,312,flye
MRSA_r10_100,dnaJ,dnaJ,1,1,379,379,flye
MRSA_r10_100,dnaK,dnaK,1,1,610,610,flye
MRSA_r10_100,grpE,grpE,1,1,208,208,flye
MRSA_r10_100,hrcA,hrcA,1,1,325,325,flye
MRSA_r10_100,hemW,hemW,1,1,385,385,flye
MRSA_r10_100,lepA,lepA,1,1,607,607,flye
MRSA_r10_100,rpsT,rpsT,1,1,83,83,flye
MRSA_r10_100,yqeN,yqeN,1,1,324,324,flye
MRSA_r10_100,comEC,comEC,1,1,733,733,flye
MRSA_r10_100,tadA_2,tadA_2,1,1,143,143,flye
MRSA_r10_100,comEA,comEA,1,1,225,225,flye
MRSA_r10_100,tam,tam,1,1,238,238,flye
MRSA_r10_100,rsfS,rsfS,1,1,117,117,flye
MRSA_r10_100,nadD,nadD,1,1,189,189,flye
MRSA_r10_100,yhbY,yhbY,1,1,96,96,flye
MRSA_r10_100,aroE,aroE,1,1,268,268,flye
MRSA_r10_100,yqeH,yqeH,1,1,366,366,flye
MRSA_r10_100,mtnN,mtnN,1,1,228,228,flye
MRSA_r10_100,entA_1,entA_1,1,1,62,62,flye
MRSA_r10_100,entA_2,entA_2,1,1,167,167,flye
MRSA_r10_100,mntH_2,mntH_2,1,1,410,410,flye
MRSA_r10_100,pxpA,pxpA,1,1,250,250,flye
MRSA_r10_100,accC,accC,1,1,453,453,flye
MRSA_r10_100,accB_2,accB_2,1,1,149,149,flye
MRSA_r10_100,pxpC_2,pxpC_2,1,1,336,336,flye
MRSA_r10_100,pxpB_2,pxpB_2,1,1,244,244,flye
MRSA_r10_100,greA,greA,1,1,158,158,flye
MRSA_r10_100,udk,udk,1,1,207,207,flye
MRSA_r10_100,rlhA,rlhA,1,1,307,307,flye
MRSA_r10_100,trmR,trmR,1,1,212,212,flye
MRSA_r10_100,yrrK,yrrK,1,1,142,142,flye
MRSA_r10_100,alaS,alaS,1,1,877,877,flye
MRSA_r10_100,recD2,recD2,1,1,825,825,flye
MRSA_r10_100,yrrB,yrrB,1,1,222,222,flye
MRSA_r10_100,mnmA,mnmA,1,1,372,372,flye
MRSA_r10_100,iscS_1,iscS_1,1,1,380,380,flye
MRSA_r10_100,cymR,cymR,1,1,140,140,flye
MRSA_r10_100,aspS,aspS,1,1,588,588,flye
MRSA_r10_100,hisS,hisS,1,1,420,420,flye
MRSA_r10_100,dtd,dtd,1,1,150,150,flye
MRSA_r10_100,relA,relA,1,1,736,736,flye
MRSA_r10_100,apt,apt,1,1,172,172,flye
MRSA_r10_100,secDF,secDF,1,1,759,759,flye
MRSA_r10_100,yajC,yajC,1,1,86,86,flye
MRSA_r10_100,tgt,tgt,1,1,379,379,flye
MRSA_r10_100,queA,queA,1,1,341,341,flye
MRSA_r10_100,ruvB_2,ruvB_1,0,1,334,334,flye
MRSA_r10_100,ruvA,ruvA,1,1,200,200,flye
MRSA_r10_100,obg,obg,1,1,430,430,flye
MRSA_r10_100,rpmA,rpmA,1,1,94,94,flye
MRSA_r10_100,rplU,rplU,1,1,102,102,flye
MRSA_r10_100,mreC,mreC,1,1,280,280,flye
MRSA_r10_100,comC,comC,1,1,235,235,flye
MRSA_r10_100,fpgS,fpgS,1,1,423,423,flye
MRSA_r10_100,valS,valS,1,1,876,876,flye
MRSA_r10_100,tag,tag,1,1,186,186,flye
MRSA_r10_100,hemL1,hemL1,1,1,428,428,flye
MRSA_r10_100,hemB,hemB,1,1,324,324,flye
MRSA_r10_100,hemC,hemC,1,1,308,308,flye
MRSA_r10_100,hemA,hemA,1,1,448,448,flye
MRSA_r10_100,engB,engB,1,1,196,196,flye
MRSA_r10_100,clpX,clpX,1,1,420,420,flye
MRSA_r10_100,tig,tig,1,1,433,433,flye
MRSA_r10_100,rplT,rplT,1,1,118,118,flye
MRSA_r10_100,rpmI,rpmI,1,1,66,66,flye
MRSA_r10_100,infC,infC,1,1,186,186,flye
MRSA_r10_100,lysP_2,lysP_2,1,1,497,497,flye
MRSA_r10_100,thrS,thrS,1,1,645,645,flye
MRSA_r10_100,dnaI,dnaI,1,1,306,306,flye
MRSA_r10_100,dnaB,dnaB,1,1,466,466,flye
MRSA_r10_100,nrdR,nrdR,1,1,156,156,flye
MRSA_r10_100,gapA2,gapA2,1,1,341,341,flye
MRSA_r10_100,coaE,coaE,1,1,207,207,flye
MRSA_r10_100,mutM,mutM,1,1,290,290,flye
MRSA_r10_100,polA,polA,1,1,876,876,flye
MRSA_r10_100,sasA,sasA,1,1,554,554,flye
MRSA_r10_100,phoP,phoP,1,1,233,233,flye
MRSA_r10_100,icd,icd,1,1,422,422,flye
MRSA_r10_100,citZ,citZ,1,1,373,373,flye
MRSA_r10_100,cycA_1,cycA_1,1,1,453,453,flye
MRSA_r10_100,pyk,pyk,1,1,585,585,flye
MRSA_r10_100,pfkA,pfkA,1,1,322,322,flye
MRSA_r10_100,accA,accA,1,1,314,314,flye
MRSA_r10_100,accD,accD,1,1,285,285,flye
MRSA_r10_100,dnaE,dnaE,1,1,1065,1065,flye
MRSA_r10_100,nrnA,nrnA,1,1,313,313,flye
MRSA_r10_100,IMPDH,IMPDH,1,1,432,432,flye
MRSA_r10_100,ald2,ald2,1,1,372,372,flye
MRSA_r10_100,ackA,ackA,1,1,400,400,flye
MRSA_r10_100,tpx,tpx,1,1,164,164,flye
MRSA_r10_100,yfcA,yfcA,1,1,256,256,flye
MRSA_r10_100,thiI,thiI,1,1,407,407,flye
MRSA_r10_100,iscS_2,iscS_2,1,1,388,388,flye
MRSA_r10_100,ezrA,ezrA,1,1,564,564,flye
MRSA_r10_100,msrC,msrC,1,1,154,154,flye
MRSA_r10_100,rpsD,rpsD,1,1,200,200,flye
MRSA_r10_100,glpQ_2,glpQ_2,1,1,247,247,flye
MRSA_r10_100,serA,serA,1,1,534,534,flye
MRSA_r10_100,nagP,nagP,1,1,488,488,flye
MRSA_r10_100,plsC,plsC,1,1,205,205,flye
MRSA_r10_100,tyrS,tyrS,1,1,420,420,flye
MRSA_r10_100,mrcA,mrcA,1,1,301,301,flye
MRSA_r10_100,isdH_1,isdH_1,1,1,535,535,flye
MRSA_r10_100,isdH_2,isdH_2,1,1,278,278,flye
MRSA_r10_100,fhs,fhs,1,1,555,555,flye
MRSA_r10_100,acsA_1,acsA_1,1,1,568,568,flye
MRSA_r10_100,acuA,acuA,1,1,210,210,flye
MRSA_r10_100,acuC,acuC,1,1,389,389,flye
MRSA_r10_100,ccpA,ccpA,1,1,329,329,flye
MRSA_r10_100,aroA_2,aroA_2,1,1,363,363,flye
MRSA_r10_100,murC,murC,1,1,437,437,flye
MRSA_r10_100,ytpP,ytpP,1,1,103,103,flye
MRSA_r10_100,pepA_2,pepA_2,1,1,358,358,flye
MRSA_r10_100,ytnP,ytnP,1,1,280,280,flye
MRSA_r10_100,hin_2,hin_2,1,1,197,197,flye
MRSA_r10_100,blaI,blaI,1,1,126,126,flye
MRSA_r10_100,blaR1,blaR1,1,1,585,585,flye
MRSA_r10_100,blaZ,blaZ,1,1,281,281,flye
MRSA_r10_100,trmB,trmB,1,1,214,214,flye
MRSA_r10_100,dat,dat,1,1,282,282,flye
MRSA_r10_100,rsuA,rsuA,1,1,231,231,flye
MRSA_r10_100,murJ,murJ,1,1,553,553,flye
MRSA_r10_100,leuS,leuS,1,1,805,805,flye
MRSA_r10_100,mdtH,mdtH,1,1,393,393,flye
MRSA_r10_100,rsmH_2,rsmH_2,1,1,187,187,flye
MRSA_r10_100,rot,rot,1,1,133,133,flye
MRSA_r10_100,ytpA,ytpA,1,1,275,275,flye
MRSA_r10_100,putB,putB,1,1,333,333,flye
MRSA_r10_100,ribH,ribH,1,1,154,154,flye
MRSA_r10_100,ribBA,ribBA,1,1,393,393,flye
MRSA_r10_100,ribE,ribE,1,1,210,210,flye
MRSA_r10_100,ribD,ribD,1,1,347,347,flye
MRSA_r10_100,arsB_2,arsB_2,1,1,430,430,flye
MRSA_r10_100,atl_2,atl_2,1,1,284,284,flye
MRSA_r10_100,sigS,sigS,1,1,156,156,flye
MRSA_r10_100,tal,tal,1,1,237,237,flye
MRSA_r10_100,crcB_1,crcB_1,1,1,121,121,flye
MRSA_r10_100,crcB_2,crcB_2,1,1,117,117,flye
MRSA_r10_100,yvgN,yvgN,1,1,277,277,flye
MRSA_r10_100,metK,metK,1,1,397,397,flye
MRSA_r10_100,pckA,pckA,1,1,530,530,flye
MRSA_r10_100,ytkD,ytkD,1,1,159,159,flye
MRSA_r10_100,menC,menC,1,1,333,333,flye
MRSA_r10_100,menE_2,menE_2,1,1,492,492,flye
MRSA_r10_100,hylB,hylB,1,1,806,806,flye
MRSA_r10_100,prmC_1,prmC_1,1,1,518,518,flye
MRSA_r10_100,splF_1,splF_1,1,1,183,183,flye
MRSA_r10_100,splF_2,splF_2,1,1,41,41,flye
MRSA_r10_100,splE_1,splE_1,1,1,238,238,flye
MRSA_r10_100,splB_1,splB_1,1,1,74,74,flye
MRSA_r10_100,splE_2,splE_2,1,1,113,113,flye
MRSA_r10_100,splE_3,splE_3,1,1,238,238,flye
MRSA_r10_100,splC,splC,1,1,239,239,flye
MRSA_r10_100,splB_2,splB_2,1,1,54,54,flye
MRSA_r10_100,entG,entG,1,1,258,258,flye
MRSA_r10_100,entA_3,entA_3,1,1,251,251,flye
MRSA_r10_100,entB,entB,1,1,261,261,flye
MRSA_r10_100,entE,entE,1,1,254,254,flye
MRSA_r10_100,ydeN,ydeN,1,1,184,184,flye
MRSA_r10_100,hemY,,0,0,466,0,flye
MRSA_r10_100,hemH,hemH,1,1,307,307,flye
MRSA_r10_100,hemE,hemE,1,1,345,345,flye
MRSA_r10_100,traP,traP,1,1,167,167,flye
MRSA_r10_100,ecsA,ecsA,1,1,246,246,flye
MRSA_r10_100,hit,hit,1,1,140,140,flye
MRSA_r10_100,prsA,prsA,1,1,320,320,flye
MRSA_r10_100,yhaM,yhaM,1,1,313,313,flye
MRSA_r10_100,cpdA_1,cpdA_1,1,1,398,398,flye
MRSA_r10_100,liaR,liaR,1,1,207,207,flye
MRSA_r10_100,rluD_2,rluD_2,1,1,273,273,flye
MRSA_r10_100,fumC,fumC,1,1,461,461,flye
MRSA_r10_100,nagB_2,nagB_2,1,1,199,199,flye
MRSA_r10_100,trmL,trmL,1,1,156,156,flye
MRSA_r10_100,queG,queG,1,1,375,375,flye
MRSA_r10_100,tcyC_1,tcyC_1,1,1,242,242,flye
MRSA_r10_100,mltF,mltF,1,1,485,485,flye
MRSA_r10_100,perR,perR,1,1,148,148,flye
MRSA_r10_100,ghrB_2,ghrB_2,1,1,319,319,flye
MRSA_r10_100,bcp,bcp,1,1,151,151,flye
MRSA_r10_100,hemL2,hemL2,1,1,429,429,flye
MRSA_r10_100,mutY,mutY,1,1,345,345,flye
MRSA_r10_100,yfhP,yfhP,1,1,325,325,flye
MRSA_r10_100,tagH_2,,0,0,505,0,flye
MRSA_r10_100,yfhH,yfhH,1,1,104,104,flye
MRSA_r10_100,recX,recX,1,1,272,272,flye
MRSA_r10_100,mgt,mgt,1,1,269,269,flye
MRSA_r10_100,pepS,pepS,1,1,415,415,flye
MRSA_r10_100,ptpA,ptpA,1,1,154,154,flye
MRSA_r10_100,vraR,vraR,1,1,209,209,flye
MRSA_r10_100,vraS,vraS,1,1,347,347,flye
MRSA_r10_100,map_2,map_2,1,1,252,252,flye
MRSA_r10_100,gatD_2,gatD_1,0,1,243,243,flye
MRSA_r10_100,murT,murT,1,1,437,437,flye
MRSA_r10_100,ftnA,ftnA,1,1,166,166,flye
MRSA_r10_100,dinB,dinB,1,1,356,356,flye
MRSA_r10_100,rlmCD,rlmCD,1,1,453,453,flye
MRSA_r10_100,dagK,dagK,1,1,315,315,flye
MRSA_r10_100,gatB_2,gatB_1,0,1,475,475,flye
MRSA_r10_100,gatA_2,gatA_1,0,1,485,485,flye
MRSA_r10_100,gatC_2,gatC_1,0,1,100,100,flye
MRSA_r10_100,putP,,0,0,512,0,flye
MRSA_r10_100,ligA,ligA,1,1,667,667,flye
MRSA_r10_100,pcrA,pcrA,1,1,730,730,flye
MRSA_r10_100,pcrB,pcrB,1,1,230,230,flye
MRSA_r10_100,purB,purB,1,1,431,431,flye
MRSA_r10_100,sspP,sspP,1,1,388,388,flye
MRSA_r10_100,nadE,nadE,1,1,273,273,flye
MRSA_r10_100,pncB2,pncB2,1,1,489,489,flye
MRSA_r10_100,nos,nos,1,1,358,358,flye
MRSA_r10_100,pheA,pheA,1,1,264,264,flye
MRSA_r10_100,sdcS,sdcS,1,1,520,520,flye
MRSA_r10_100,rutB,rutB,1,1,186,186,flye
MRSA_r10_100,ppaC,ppaC,1,1,309,309,flye
MRSA_r10_100,aldH1,aldH1,1,1,459,459,flye
MRSA_r10_100,bcrA_1,bcrA_1,1,1,290,290,flye
MRSA_r10_100,btuD_5,btuD_4,0,1,298,298,flye
MRSA_r10_100,ytrA,ytrA,1,1,126,126,flye
MRSA_r10_100,hisC_2,hisC_2,1,1,428,428,flye
MRSA_r10_100,map_3,map_3,1,1,689,689,flye
MRSA_r10_100,hlb_1,hlb_1,1,1,66,66,flye
MRSA_r10_100,scn_3,scn_2,0,1,116,116,flye
MRSA_r10_100,chp,chp,1,1,149,149,flye
MRSA_r10_100,sak,sak,1,1,163,163,flye
MRSA_r10_100,entA_4,entA_4,1,1,257,257,flye
MRSA_r10_100,clpP_3,clpP_3,1,1,245,245,flye
MRSA_r10_100,dut,dut,1,1,180,180,flye
MRSA_r10_100,ssbA_2,ssbA_1,0,1,156,156,flye
MRSA_r10_100,lexA_2,lexA_2,1,1,237,237,flye
MRSA_r10_100,dinG_2,dinG_3,0,1,310,310,flye
MRSA_r10_100,xerC_8,xerC_5,0,1,345,345,flye
MRSA_r10_100,hlb_2,hlb_2,1,1,231,231,flye
MRSA_r10_100,dapE,dapE,1,1,407,407,flye
MRSA_r10_100,ktrB_2,ktrB_2,1,1,435,435,flye
MRSA_r10_100,groL,groL,1,1,538,538,flye
MRSA_r10_100,groS,groS,1,1,94,94,flye
MRSA_r10_100,MroQ,MroQ,1,1,247,247,flye
MRSA_r10_100,yafV,yafV,1,1,261,261,flye
MRSA_r10_100,agrB,agrB,1,1,205,205,flye
MRSA_r10_100,agrA,agrA,1,1,238,238,flye
MRSA_r10_100,scrK,scrK,1,1,319,319,flye
MRSA_r10_100,scrB,scrB,1,1,497,497,flye
MRSA_r10_100,treR_2,treR_1,0,1,316,316,flye
MRSA_r10_100,nrgA,nrgA,1,1,416,416,flye
MRSA_r10_100,yeeD,yeeD,1,1,74,74,flye
MRSA_r10_100,rex,rex,1,1,211,211,flye
MRSA_r10_100,yheS,yheS,1,1,642,642,flye
MRSA_r10_100,mutS_2,mutS_2,1,1,536,536,flye
MRSA_r10_100,tsaD,tsaD,1,1,341,341,flye
MRSA_r10_100,rimI,rimI,1,1,154,154,flye
MRSA_r10_100,tsaB,tsaB,1,1,220,220,flye
MRSA_r10_100,tsaE,tsaE,1,1,164,164,flye
MRSA_r10_100,ilvD,ilvD,1,1,562,562,flye
MRSA_r10_100,ilvB,ilvB,1,1,589,589,flye
MRSA_r10_100,ilvC,ilvC,1,1,334,334,flye
MRSA_r10_100,leuA_2,leuA_2,1,1,509,509,flye
MRSA_r10_100,leuB,leuB,1,1,348,348,flye
MRSA_r10_100,leuC,leuC,1,1,455,455,flye
MRSA_r10_100,leuD,leuD,1,1,190,190,flye
MRSA_r10_100,ilvA,ilvA,1,1,422,422,flye
MRSA_r10_100,yhgF,yhgF,1,1,712,712,flye
MRSA_r10_100,sigB,sigB,1,1,256,256,flye
MRSA_r10_100,rsbW,rsbW,1,1,159,159,flye
MRSA_r10_100,rsbV,rsbV,1,1,108,108,flye
MRSA_r10_100,rsbU,rsbU,1,1,333,333,flye
MRSA_r10_100,mazF,mazF,1,1,120,120,flye
MRSA_r10_100,mazE,mazE,1,1,56,56,flye
MRSA_r10_100,alr1_2,alr1_2,1,1,382,382,flye
MRSA_r10_100,acpS,acpS,1,1,119,119,flye
MRSA_r10_100,kdpC_3,kdpC_1,0,1,186,186,flye
MRSA_r10_100,kdpB_2,kdpB_1,0,1,675,675,flye
MRSA_r10_100,kdpA_2,kdpA_1,0,1,558,558,flye
MRSA_r10_100,kdpD_2,kdpD_1,0,1,885,885,flye
MRSA_r10_100,kdpE_2,kdpE_1,0,1,231,231,flye
MRSA_r10_100,cshA,cshA,1,1,506,506,flye
MRSA_r10_100,murF,murF,1,1,452,452,flye
MRSA_r10_100,ddl,ddl,1,1,356,356,flye
MRSA_r10_100,rodA,rodA,1,1,400,400,flye
MRSA_r10_100,cls_2,cls_2,1,1,494,494,flye
MRSA_r10_100,yedJ,yedJ,1,1,215,215,flye
MRSA_r10_100,yidC,yidC,1,1,290,290,flye
MRSA_r10_100,thiE,thiE,1,1,213,213,flye
MRSA_r10_100,thiM,thiM,1,1,263,263,flye
MRSA_r10_100,thiD,thiD,1,1,276,276,flye
MRSA_r10_100,tenA,tenA,1,1,229,229,flye
MRSA_r10_100,sceD,sceD,1,1,231,231,flye
MRSA_r10_100,ssbA_3,ssbA_2,0,1,131,131,flye
MRSA_r10_100,fabZ,fabZ,1,1,146,146,flye
MRSA_r10_100,murA1,murA1,1,1,421,421,flye
MRSA_r10_100,atpC,atpC,1,1,134,134,flye
MRSA_r10_100,atpD,atpD,1,1,470,470,flye
MRSA_r10_100,atpG,atpG,1,1,288,288,flye
MRSA_r10_100,atpA,atpA,1,1,502,502,flye
MRSA_r10_100,atpH,atpH,1,1,179,179,flye
MRSA_r10_100,atpF,atpF,1,1,173,173,flye
MRSA_r10_100,atpE,atpE,1,1,70,70,flye
MRSA_r10_100,atpB,atpB,1,1,242,242,flye
MRSA_r10_100,mnaA_2,mnaA_1,0,1,376,376,flye
MRSA_r10_100,upp,upp,1,1,209,209,flye
MRSA_r10_100,glyA,glyA,1,1,412,412,flye
MRSA_r10_100,ptpB,ptpB,1,1,139,139,flye
MRSA_r10_100,ywlC,ywlC,1,1,348,348,flye
MRSA_r10_100,prmC_2,prmC_2,1,1,278,278,flye
MRSA_r10_100,prfA,prfA,1,1,358,358,flye
MRSA_r10_100,tdk,tdk,1,1,199,199,flye
MRSA_r10_100,rpmE2,rpmE2,1,1,84,84,flye
MRSA_r10_100,rho,rho,1,1,438,438,flye
MRSA_r10_100,yodB,yodB,1,1,111,111,flye
MRSA_r10_100,murA2,murA2,1,1,419,419,flye
MRSA_r10_100,fba,fba,1,1,286,286,flye
MRSA_r10_100,pyrG,pyrG,1,1,536,536,flye
MRSA_r10_100,rpoE,rpoE,1,1,176,176,flye
MRSA_r10_100,coaW,coaW,1,1,267,267,flye
MRSA_r10_100,abgB,abgB,1,1,394,394,flye
MRSA_r10_100,luxS,luxS,1,1,156,156,flye
MRSA_r10_100,pdp,pdp,1,1,433,433,flye
MRSA_r10_100,deoC2,deoC2,1,1,220,220,flye
MRSA_r10_100,deoD1,deoD1,1,1,236,236,flye
MRSA_r10_100,dps,dps,1,1,147,147,flye
MRSA_r10_100,gmuF,gmuF,1,1,312,312,flye
MRSA_r10_100,yhfK,yhfK,1,1,221,221,flye
MRSA_r10_100,czrA,czrA,1,1,106,106,flye
MRSA_r10_100,czcD_2,czcD_1,0,1,326,326,flye
MRSA_r10_100,ywtE_2,ywtE_2,1,1,285,285,flye
MRSA_r10_100,ylmA,ylmA,1,1,260,260,flye
MRSA_r10_100,glmS,glmS,1,1,601,601,flye
MRSA_r10_100,mtlA,mtlA,1,1,512,512,flye
MRSA_r10_100,mtlF,mtlF,1,1,144,144,flye
MRSA_r10_100,mtlD,mtlD,1,1,368,368,flye
MRSA_r10_100,glmM,glmM,1,1,451,451,flye
MRSA_r10_100,cdaR,cdaR,1,1,310,310,flye
MRSA_r10_100,cdaA,cdaA,1,1,269,269,flye
MRSA_r10_100,arg,arg,1,1,302,302,flye
MRSA_r10_100,salA,salA,1,1,354,354,flye
MRSA_r10_100,emrY,emrY,1,1,362,362,flye
MRSA_r10_100,ribZ,ribZ,1,1,131,131,flye
MRSA_r10_100,sepA,sepA,1,1,155,155,flye
MRSA_r10_100,sdrM,sdrM,1,1,447,447,flye
MRSA_r10_100,ydjM,ydjM,1,1,171,171,flye
MRSA_r10_100,fecD,fecD,1,1,322,322,flye
MRSA_r10_100,yfiZ_2,yfiZ_1,0,1,343,343,flye
MRSA_r10_100,yfmC_2,yfmC_2,1,1,327,327,flye
MRSA_r10_100,orr,orr,1,1,356,356,flye
MRSA_r10_100,opuD_2,opuD_2,1,1,520,520,flye
MRSA_r10_100,yfmJ,yfmJ,1,1,334,334,flye
MRSA_r10_100,lacG,lacG,1,1,470,470,flye
MRSA_r10_100,lacE,lacE,1,1,570,570,flye
MRSA_r10_100,lacF,lacF,1,1,103,103,flye
MRSA_r10_100,lacD,lacD,1,1,326,326,flye
MRSA_r10_100,lacC_2,lacC_2,1,1,310,310,flye
MRSA_r10_100,lacB,lacB,1,1,171,171,flye
MRSA_r10_100,lacA,lacA,1,1,142,142,flye
MRSA_r10_100,lacR,lacR,1,1,251,251,flye
MRSA_r10_100,cobB,cobB,1,1,246,246,flye
MRSA_r10_100,adhR,adhR,1,1,138,138,flye
MRSA_r10_100,map_4,map_4,1,1,141,141,flye
MRSA_r10_100,aldC_1,aldC_1,1,1,234,234,flye
MRSA_r10_100,alsS,alsS,1,1,554,554,flye
MRSA_r10_100,rpsI,rpsI,1,1,132,132,flye
MRSA_r10_100,rplM,rplM,1,1,145,145,flye
MRSA_r10_100,truA,truA,1,1,264,264,flye
MRSA_r10_100,ecfT_2,ecfT_2,1,1,268,268,flye
MRSA_r10_100,ecfA2,ecfA2,1,1,286,286,flye
MRSA_r10_100,ecfA1,ecfA1,1,1,269,269,flye
MRSA_r10_100,rplQ,rplQ,1,1,122,122,flye
MRSA_r10_100,rpoA,rpoA,1,1,314,314,flye
MRSA_r10_100,rpsK,rpsK,1,1,129,129,flye
MRSA_r10_100,rpsM,rpsM,1,1,121,121,flye
MRSA_r10_100,rpmJ,rpmJ,1,1,37,37,flye
MRSA_r10_100,infA,infA,1,1,72,72,flye
MRSA_r10_100,adk,adk,1,1,215,215,flye
MRSA_r10_100,secY_1,secY_1,1,1,430,430,flye
MRSA_r10_100,rplO,rplO,1,1,146,146,flye
MRSA_r10_100,rpmD,rpmD,1,1,59,59,flye
MRSA_r10_100,rpsE,rpsE,1,1,166,166,flye
MRSA_r10_100,rplR,rplR,1,1,119,119,flye
MRSA_r10_100,rplF,rplF,1,1,178,178,flye
MRSA_r10_100,rpsH,rpsH,1,1,132,132,flye
MRSA_r10_100,rpsZ,rpsZ,1,1,61,61,flye
MRSA_r10_100,rplE,rplE,1,1,179,179,flye
MRSA_r10_100,rplX,rplX,1,1,105,105,flye
MRSA_r10_100,rplN,rplN,1,1,122,122,flye
MRSA_r10_100,rpsQ,rpsQ,1,1,87,87,flye
MRSA_r10_100,rpmC,rpmC,1,1,69,69,flye
MRSA_r10_100,rplP,rplP,1,1,144,144,flye
MRSA_r10_100,rpsC,rpsC,1,1,217,217,flye
MRSA_r10_100,rplV,rplV,1,1,117,117,flye
MRSA_r10_100,rpsS,rpsS,1,1,92,92,flye
MRSA_r10_100,rplB,rplB,1,1,277,277,flye
MRSA_r10_100,rplW,rplW,1,1,91,91,flye
MRSA_r10_100,rplD,rplD,1,1,207,207,flye
MRSA_r10_100,rplC,rplC,1,1,220,220,flye
MRSA_r10_100,rpsJ,rpsJ,1,1,102,102,flye
MRSA_r10_100,pbuG,pbuG,1,1,444,444,flye
MRSA_r10_100,topB,topB,1,1,711,711,flye
MRSA_r10_100,glcU_2,glcU_1,0,1,287,287,flye
MRSA_r10_100,swrC,swrC,1,1,1055,1055,flye
MRSA_r10_100,femX,femX,1,1,421,421,flye
MRSA_r10_100,yfcJ,yfcJ,1,1,403,403,flye
MRSA_r10_100,sarV,sarV,1,1,116,116,flye
MRSA_r10_100,moaA,moaA,1,1,340,340,flye
MRSA_r10_100,mobA,mobA,1,1,199,199,flye
MRSA_r10_100,moaD,moaD,1,1,77,77,flye
MRSA_r10_100,moaE,moaE,1,1,148,148,flye
MRSA_r10_100,moeA,moeA,1,1,419,419,flye
MRSA_r10_100,moaC,moaC,1,1,164,164,flye
MRSA_r10_100,moaB,moaB,1,1,168,168,flye
MRSA_r10_100,cysA,cysA,1,1,201,201,flye
MRSA_r10_100,modB,modB,1,1,223,223,flye
MRSA_r10_100,modA,modA,1,1,260,260,flye
MRSA_r10_100,fdhD,fdhD,1,1,265,265,flye
MRSA_r10_100,bioY,bioY,1,1,184,184,flye
MRSA_r10_100,rihB,rihB,1,1,313,313,flye
MRSA_r10_100,fhuD,fhuD,1,1,302,302,flye
MRSA_r10_100,ydbM,ydbM,1,1,390,390,flye
MRSA_r10_100,ureA,ureA,1,1,100,100,flye
MRSA_r10_100,ureB,ureB,1,1,136,136,flye
MRSA_r10_100,ureC,ureC,1,1,571,571,flye
MRSA_r10_100,ureE,ureE,1,1,150,150,flye
MRSA_r10_100,ureF,ureF,1,1,229,229,flye
MRSA_r10_100,ureG,ureG,1,1,204,204,flye
MRSA_r10_100,ureD1,ureD1,1,1,278,278,flye
MRSA_r10_100,sarR,sarR,1,1,115,115,flye
MRSA_r10_100,rhaS_2,rhaS_1,0,1,651,651,flye
MRSA_r10_100,ssaA2,ssaA2,1,1,269,269,flye
MRSA_r10_100,mleN_1,mleN_1,1,1,465,465,flye
MRSA_r10_100,odh,odh,1,1,360,360,flye
MRSA_r10_100,auaG,auaG,1,1,374,374,flye
MRSA_r10_100,atl_3,atl_3,1,1,258,258,flye
MRSA_r10_100,tagU_2,tagU_2,1,1,315,315,flye
MRSA_r10_100,cysQ,cysQ,1,1,265,265,flye
MRSA_r10_100,ybbH_3,ybbH_1,0,1,290,290,flye
MRSA_r10_100,yifK,yifK,1,1,459,459,flye
MRSA_r10_100,panS_1,panS_1,1,1,113,113,flye
MRSA_r10_100,panS_2,panS_2,1,1,178,178,flye
MRSA_r10_100,malP,malP,1,1,534,534,flye
MRSA_r10_100,glvR,glvR,1,1,254,254,flye
MRSA_r10_100,mleN_2,mleN_2,1,1,436,436,flye
MRSA_r10_100,yghA,yghA,1,1,293,293,flye
MRSA_r10_100,scmP_4,scmP_3,0,1,302,302,flye
MRSA_r10_100,hutI,hutI,1,1,412,412,flye
MRSA_r10_100,hutU,hutU,1,1,553,553,flye
MRSA_r10_100,hdfR_2,hdfR_1,0,1,294,294,flye
MRSA_r10_100,fosB,fosB,1,1,139,139,flye
MRSA_r10_100,hutG,hutG,1,1,311,311,flye
MRSA_r10_100,lyrA,lyrA,1,1,419,419,flye
MRSA_r10_100,rpiA,rpiA,1,1,228,228,flye
MRSA_r10_100,yiiM,yiiM,1,1,217,217,flye
MRSA_r10_100,mro,mro,1,1,339,339,flye
MRSA_r10_100,yhaP,yhaP,1,1,410,410,flye
MRSA_r10_100,lnrL_2,lnrL_1,0,1,299,299,flye
MRSA_r10_100,gltS,gltS,1,1,402,402,flye
MRSA_r10_100,fni,fni,1,1,349,349,flye
MRSA_r10_100,zntB,zntB,1,1,315,315,flye
MRSA_r10_100,mdtD,mdtD,1,1,645,645,flye
MRSA_r10_100,aaeA,aaeA,1,1,215,215,flye
MRSA_r10_100,bcr_1,bcr_1,1,1,402,402,flye
MRSA_r10_100,tcaA,tcaA,1,1,460,460,flye
MRSA_r10_100,tcaR,tcaR,1,1,151,151,flye
MRSA_r10_100,hrtA_2,hrtA_1,0,1,221,221,flye
MRSA_r10_100,hssR,hssR,1,1,224,224,flye
MRSA_r10_100,hssS,hssS,1,1,457,457,flye
MRSA_r10_100,lnrL_3,lnrL_2,0,1,242,242,flye
MRSA_r10_100,ybhR,ybhR,1,1,360,360,flye
MRSA_r10_100,mqo1,mqo1,1,1,492,492,flye
MRSA_r10_100,lctP_2,lctP_1,0,1,532,532,flye
MRSA_r10_100,paiA,paiA,1,1,171,171,flye
MRSA_r10_100,yhfP,yhfP,1,1,334,334,flye
MRSA_r10_100,treP_2,treP_1,0,1,480,480,flye
MRSA_r10_100,ydaG,ydaG,1,1,140,140,flye
MRSA_r10_100,gltT,gltT,1,1,425,425,flye
MRSA_r10_100,sarZ,sarZ,1,1,148,148,flye
MRSA_r10_100,narT,narT,1,1,389,389,flye
MRSA_r10_100,mta,mta,1,1,95,95,flye
MRSA_r10_100,nreC,nreC,1,1,217,217,flye
MRSA_r10_100,nreB,nreB,1,1,344,344,flye
MRSA_r10_100,narX,narX,1,1,225,225,flye
MRSA_r10_100,narH,narH,1,1,519,519,flye
MRSA_r10_100,narG,narG,1,1,1229,1229,flye
MRSA_r10_100,cysG,cysG,1,1,325,325,flye
MRSA_r10_100,nasE,nasE,1,1,104,104,flye
MRSA_r10_100,nasD,nasD,1,1,801,801,flye
MRSA_r10_100,sirB,sirB,1,1,250,250,flye
MRSA_r10_100,ytmI,ytmI,1,1,178,178,flye
MRSA_r10_100,nirC,nirC,1,1,274,274,flye
MRSA_r10_100,yoeB,yoeB,1,1,88,88,flye
MRSA_r10_100,yefM,yefM,1,1,83,83,flye
MRSA_r10_100,bdbD,bdbD,1,1,199,199,flye
MRSA_r10_100,femA_3,femA_3,1,1,416,416,flye
MRSA_r10_100,tcyC_2,tcyC_2,1,1,243,243,flye
MRSA_r10_100,tcyB,tcyB,1,1,242,242,flye
MRSA_r10_100,farB_2,farB_1,0,1,479,479,flye
MRSA_r10_100,gpmA_2,gpmA_1,0,1,228,228,flye
MRSA_r10_100,mneS,mneS,1,1,288,288,flye
MRSA_r10_100,sbi,sbi,1,1,437,437,flye
MRSA_r10_100,hlgA,hlgA,1,1,321,321,flye
MRSA_r10_100,hlgC,hlgC,1,1,315,315,flye
MRSA_r10_100,hlgB,hlgB,1,1,325,325,flye
MRSA_r10_100,bioW,bioW,1,1,230,230,flye
MRSA_r10_100,bioB,bioB,1,1,335,335,flye
MRSA_r10_100,bioK,bioK,1,1,452,452,flye
MRSA_r10_100,bioD,bioD,1,1,228,228,flye
MRSA_r10_100,garK_2,garK_2,1,1,380,380,flye
MRSA_r10_100,bcr_2,bcr_2,1,1,403,403,flye
MRSA_r10_100,cpdA_2,cpdA_2,1,1,268,268,flye
MRSA_r10_100,cycA_2,cycA_2,1,1,469,469,flye
MRSA_r10_100,nhaK_2,nhaK_2,1,1,692,692,flye
MRSA_r10_100,kimA,kimA,1,1,609,609,flye
MRSA_r10_100,flp,flp,1,1,499,499,flye
MRSA_r10_100,hldD,hldD,1,1,283,283,flye
MRSA_r10_100,panE,panE,1,1,311,311,flye
MRSA_r10_100,norB_4,norB_2,0,1,466,466,flye
MRSA_r10_100,opuCD,opuCD,1,1,231,231,flye
MRSA_r10_100,opuCC,opuCC,1,1,313,313,flye
MRSA_r10_100,opuCB,opuCB,1,1,211,211,flye
MRSA_r10_100,opuCA,opuCA,1,1,408,408,flye
MRSA_r10_100,yveA,yveA,1,1,545,545,flye
MRSA_r10_100,pnbA,pnbA,1,1,450,450,flye
MRSA_r10_100,pbuE_2,pbuE_2,1,1,395,395,flye
MRSA_r10_100,fetB,fetB,1,1,258,258,flye
MRSA_r10_100,fetA,fetA,1,1,220,220,flye
MRSA_r10_100,ysdC_2,ysdC_2,1,1,358,358,flye
MRSA_r10_100,yehR,yehR,1,1,151,151,flye
MRSA_r10_100,cntE,cntE,1,1,397,397,flye
MRSA_r10_100,cntF,cntF,1,1,249,249,flye
MRSA_r10_100,cntD,cntD,1,1,271,271,flye
MRSA_r10_100,cntC,cntC,1,1,289,289,flye
MRSA_r10_100,cntB,cntB,1,1,311,311,flye
MRSA_r10_100,cntA,cntA,1,1,532,532,flye
MRSA_r10_100,cntM,cntM,1,1,433,433,flye
MRSA_r10_100,cntL,cntL,1,1,272,272,flye
MRSA_r10_100,cntK,cntK,1,1,273,273,flye
MRSA_r10_100,bacC,bacC,1,1,272,272,flye
MRSA_r10_100,abgT,abgT,1,1,512,512,flye
MRSA_r10_100,uvrB_2,uvrB_2,1,1,953,953,flye
MRSA_r10_100,nudG,nudG,1,1,130,130,flye
MRSA_r10_100,pgcA,pgcA,1,1,545,545,flye
MRSA_r10_100,gtaB,gtaB,1,1,288,288,flye
MRSA_r10_100,fnbA,fnbA,1,1,965,965,flye
MRSA_r10_100,gntT,gntT,1,1,452,452,flye
MRSA_r10_100,xylB,xylB,1,1,517,517,flye
MRSA_r10_100,ywaC,ywaC,1,1,230,230,flye
MRSA_r10_100,sauU,sauU,1,1,425,425,flye
MRSA_r10_100,argO_2,argO_2,1,1,205,205,flye
MRSA_r10_100,norG,norG,1,1,470,470,flye
MRSA_r10_100,bcrA_2,bcrA_2,1,1,231,231,flye
MRSA_r10_100,fbp,fbp,1,1,654,654,flye
MRSA_r10_100,mhqD,mhqD,1,1,197,197,flye
MRSA_r10_100,mhqA_3,mhqA_2,0,1,322,322,flye
MRSA_r10_100,mhqR,mhqR,1,1,144,144,flye
MRSA_r10_100,yjdJ,yjdJ,1,1,94,94,flye
MRSA_r10_100,catE_2,catE_2,1,1,268,268,flye
MRSA_r10_100,ldhD_1,ldhD_1,1,1,330,330,flye
MRSA_r10_100,ybjI,ybjI,1,1,266,266,flye
MRSA_r10_100,srtA,srtA,1,1,206,206,flye
MRSA_r10_100,pitA,pitA,1,1,163,163,flye
MRSA_r10_100,sdhA,sdhA,1,1,299,299,flye
MRSA_r10_100,yicL,yicL,1,1,307,307,flye
MRSA_r10_100,glcB,glcB,1,1,707,707,flye
MRSA_r10_100,ydaP,ydaP,1,1,579,579,flye
MRSA_r10_100,cidB,cidB,1,1,229,229,flye
MRSA_r10_100,cidA,cidA,1,1,131,131,flye
MRSA_r10_100,cynR,cynR,1,1,287,287,flye
MRSA_r10_100,mvaA,mvaA,1,1,426,426,flye
MRSA_r10_100,mvaS,mvaS,1,1,388,388,flye
MRSA_r10_100,ogt,ogt,1,1,173,173,flye
MRSA_r10_100,clpL,clpL,1,1,701,701,flye
MRSA_r10_100,feoB,feoB,1,1,664,664,flye
MRSA_r10_100,ydfJ,ydfJ,1,1,829,829,flye
MRSA_r10_100,rocA,rocA,1,1,514,514,flye
MRSA_r10_100,copA,copA,1,1,802,802,flye
MRSA_r10_100,copZ,copZ,1,1,68,68,flye
MRSA_r10_100,ldhD_2,ldhD_2,1,1,342,342,flye
MRSA_r10_100,bacF,bacF,1,1,384,384,flye
MRSA_r10_100,crtN,crtN,1,1,502,502,flye
MRSA_r10_100,crtM_1,crtM_1,1,1,169,169,flye
MRSA_r10_100,crtM_2,crtM_2,1,1,94,94,flye
MRSA_r10_100,crtQ,,0,0,375,0,flye
MRSA_r10_100,crtP,crtP,1,1,497,497,flye
MRSA_r10_100,ssaA,ssaA,1,1,255,255,flye
MRSA_r10_100,oatA_2,oatA_2,1,1,603,603,flye
MRSA_r10_100,isaA,isaA,1,1,233,233,flye
MRSA_r10_100,cpnA,cpnA,1,1,234,234,flye
MRSA_r10_100,pyrD,pyrD,1,1,354,354,flye
MRSA_r10_100,queH,queH,1,1,240,240,flye
MRSA_r10_100,cocE,cocE,1,1,560,560,flye
MRSA_r10_100,panD,panD,1,1,127,127,flye
MRSA_r10_100,panC,panC,1,1,283,283,flye
MRSA_r10_100,panB,panB,1,1,272,272,flye
MRSA_r10_100,aldC_2,aldC_2,1,1,234,234,flye
MRSA_r10_100,ldh2,ldh2,1,1,319,319,flye
MRSA_r10_100,yhdG,yhdG,1,1,482,482,flye
MRSA_r10_100,fda,fda,1,1,296,296,flye
MRSA_r10_100,mqo2,mqo2,1,1,498,498,flye
MRSA_r10_100,acsA_2,acsA_2,1,1,539,539,flye
MRSA_r10_100,isdG_2,isdG_2,1,1,147,147,flye
MRSA_r10_100,betA,betA,1,1,569,569,flye
MRSA_r10_100,gbsA,gbsA,1,1,496,496,flye
MRSA_r10_100,opcR,opcR,1,1,187,187,flye
MRSA_r10_100,opuD_3,opuD_3,1,1,540,540,flye
MRSA_r10_100,nrdD,nrdD,1,1,616,616,flye
MRSA_r10_100,citN,citN,1,1,456,456,flye
MRSA_r10_100,sirC,sirC,1,1,202,202,flye
MRSA_r10_100,cysJ,cysJ,1,1,626,626,flye
MRSA_r10_100,bsaA_2,bsaA_2,1,1,165,165,flye
MRSA_r10_100,bceB_2,bceB_2,1,1,666,666,flye
MRSA_r10_100,yxdL,yxdL,1,1,251,251,flye
MRSA_r10_100,graS_2,graS_2,1,1,295,295,flye
MRSA_r10_100,graR_2,graR_2,1,1,221,221,flye
MRSA_r10_100,phoB,phoB,1,1,457,457,flye
MRSA_r10_100,clfB,clfB,1,1,873,873,flye
MRSA_r10_100,arcR,arcR,1,1,234,234,flye
MRSA_r10_100,arcC2,arcC2,1,1,313,313,flye
MRSA_r10_100,arcD,arcD,1,1,476,476,flye
MRSA_r10_100,arcB,arcB,1,1,336,336,flye
MRSA_r10_100,arcA,arcA,1,1,411,411,flye
MRSA_r10_100,argR_2,argR_2,1,1,149,149,flye
MRSA_r10_100,aur,aur,1,1,509,509,flye
MRSA_r10_100,isaB,isaB,1,1,175,175,flye
MRSA_r10_100,manR,manR,1,1,624,624,flye
MRSA_r10_100,manP,manP,1,1,650,650,flye
MRSA_r10_100,yvyI,yvyI,1,1,312,312,flye
MRSA_r10_100,gtfB,gtfB,1,1,452,452,flye
MRSA_r10_100,gtfA_3,gtfA_3,1,1,502,502,flye
MRSA_r10_100,secA1_2,secA1_2,1,1,796,796,flye
MRSA_r10_100,asp2,asp2,1,1,523,523,flye
MRSA_r10_100,asp1,asp1,1,1,452,452,flye
MRSA_r10_100,secY_2,secY_2,1,1,403,403,flye
MRSA_r10_100,sraP,sraP,1,1,1351,1351,flye
MRSA_r10_100,msrAB,msrAB,1,1,158,158,flye
MRSA_r10_100,ywqE_2,ywqE_1,0,1,255,255,flye
MRSA_r10_100,ywqD_2,ywqD_1,0,1,230,230,flye
MRSA_r10_100,cap8A_2,cap8A_1,0,1,220,220,flye
MRSA_r10_100,icaR,icaR,1,1,186,186,flye
MRSA_r10_100,icaA,,0,0,412,0,flye
MRSA_r10_100,icaD,icaD,1,1,101,101,flye
MRSA_r10_100,icaB,icaB,1,1,290,290,flye
MRSA_r10_100,icaC,icaC,1,1,350,350,flye
MRSA_r10_100,lipA_2,lipA_2,1,1,681,681,flye
MRSA_r10_100,hisI,hisI,1,1,210,210,flye
MRSA_r10_100,hisF,hisF,1,1,252,252,flye
MRSA_r10_100,hisA,hisA,1,1,234,234,flye
MRSA_r10_100,hisH,hisH,1,1,192,192,flye
MRSA_r10_100,hisB,hisB,1,1,192,192,flye
MRSA_r10_100,hisC_3,hisC_3,1,1,337,337,flye
MRSA_r10_100,hisD,hisD,1,1,416,416,flye
MRSA_r10_100,hisG,hisG,1,1,204,204,flye
MRSA_r10_100,hisZ,hisZ,1,1,272,272,flye
MRSA_r10_100,ykoC,ykoC,1,1,277,277,flye
MRSA_r10_100,ykoD_2,ykoD_2,1,1,570,570,flye
MRSA_r10_100,salL,salL,1,1,282,282,flye
MRSA_r10_100,pcp,pcp,1,1,212,212,flye
MRSA_r10_100,cna,cna,1,1,1183,1183,flye
MRSA_r10_100,yflS,yflS,1,1,472,472,flye
MRSA_r10_100,rarD,rarD,1,1,302,302,flye
MRSA_r10_100,nixA,,0,0,338,0,flye
MRSA_r10_100,nhoA,nhoA,1,1,266,266,flye
MRSA_r10_100,bceA_2,bceA_2,1,1,252,252,flye
MRSA_r10_100,bceB_3,bceB_3,1,1,626,626,flye
MRSA_r10_100,cspLA,cspLA,1,1,66,66,flye
MRSA_r10_100,noc,noc,1,1,279,279,flye
MRSA_r10_100,rsmG,rsmG,1,1,239,239,flye
MRSA_r10_100,mnmG,mnmG,1,1,625,625,flye
MRSA_r10_100,mnmE,mnmE,1,1,459,459,flye
MRSA_r10_100,rnpA,rnpA,1,1,115,115,flye
MRSA_r10_100,rpmH,rpmH,1,1,45,45,flye
