Sample name,Ref Gene name,test Gene name,name match,Gene found,Ref gene length (AA),Test gene length (AA),Notes
MRSA_r10_20,dnaA,dnaA,1,1,453,453,flye
MRSA_r10_20,dnaN,dnaN,1,1,377,377,flye
MRSA_r10_20,recF,recF,1,1,370,370,flye
MRSA_r10_20,gyrB,gyrB,1,1,644,644,flye
MRSA_r10_20,gyrA,gyrA,1,1,886,886,flye
MRSA_r10_20,nnrD,nnrD,1,1,270,270,flye
MRSA_r10_20,hutH,hutH,1,1,504,504,flye
MRSA_r10_20,serS,serS,1,1,428,428,flye
MRSA_r10_20,metXA,metXA,1,1,322,322,flye
MRSA_r10_20,gdpP,gdpP,1,1,655,655,flye
MRSA_r10_20,rplI,rplI,1,1,148,148,flye
MRSA_r10_20,dnaC,dnaC,1,1,466,466,flye
MRSA_r10_20,purA,purA,1,1,427,427,flye
MRSA_r10_20,walR,walR,1,1,233,233,flye
MRSA_r10_20,walK,walK,1,1,608,608,flye
MRSA_r10_20,yycI,yycI,1,1,262,262,flye
MRSA_r10_20,yycJ,yycJ,1,1,263,263,flye
MRSA_r10_20,rlmH,rlmH,1,1,159,159,flye
MRSA_r10_20,ble,ble,1,1,134,134,flye
MRSA_r10_20,knt,knt,1,1,247,247,flye
MRSA_r10_20,ugpQ,ugpQ,1,1,247,247,flye
MRSA_r10_20,mecA_1,mecA_2,0,1,668,668,flye
MRSA_r10_20,mecR1,mecR1,1,1,585,585,flye
MRSA_r10_20,mecI,mecI,1,1,114,114,flye
MRSA_r10_20,nagC,nagC,1,1,369,369,flye
MRSA_r10_20,glpE_1,glpE_1,1,1,101,101,flye
MRSA_r10_20,gloB,gloB,1,1,312,312,flye
MRSA_r10_20,glpE_2,glpE_2,1,1,354,354,flye
MRSA_r10_20,COQ5_3,COQ5_2,0,1,220,220,flye
MRSA_r10_20,ermA1_2,ermA1_2,1,1,243,243,flye
MRSA_r10_20,ant1_2,ant1_2,1,1,260,260,flye
MRSA_r10_20,xerC_6,xerC_3,0,1,630,630,flye
MRSA_r10_20,xerC_7,xerC_7,1,1,361,361,flye
MRSA_r10_20,kdpE_1,kdpE_2,0,1,231,231,flye
MRSA_r10_20,kdpD_1,kdpD_2,0,1,889,889,flye
MRSA_r10_20,kdpA_1,kdpA_2,0,1,558,558,flye
MRSA_r10_20,kdpB_1,kdpB_2,0,1,673,673,flye
MRSA_r10_20,kdpC_1,kdpC_2,0,1,120,120,flye
MRSA_r10_20,kdpC_2,kdpC_3,0,1,65,65,flye
MRSA_r10_20,mcrC,mcrC,1,1,346,346,flye
MRSA_r10_20,farB_1,farB_2,0,1,442,442,flye
MRSA_r10_20,dus,dus,1,1,328,328,flye
MRSA_r10_20,plc,plc,1,1,328,328,flye
MRSA_r10_20,rhaS_1,rhaS_2,0,1,745,745,flye
MRSA_r10_20,scmP_1,scmP_4,0,1,392,392,flye
MRSA_r10_20,norB_1,norB_3,0,1,462,462,flye
MRSA_r10_20,lctP_1,lctP_2,0,1,530,530,flye
MRSA_r10_20,spa,spa,1,1,516,516,flye
MRSA_r10_20,sarS,sarS,1,1,250,250,flye
MRSA_r10_20,yfhA,yfhA,1,1,332,332,flye
MRSA_r10_20,yfiZ_1,yfiZ_2,0,1,331,331,flye
MRSA_r10_20,yfiY,yfiY,1,1,330,330,flye
MRSA_r10_20,sbnA,sbnA,1,1,326,326,flye
MRSA_r10_20,sbnB,sbnB,1,1,336,336,flye
MRSA_r10_20,sbnC,sbnC,1,1,584,584,flye
MRSA_r10_20,sbnD,sbnD,1,1,418,418,flye
MRSA_r10_20,sbnE,sbnE,1,1,578,578,flye
MRSA_r10_20,sbnF,sbnF,1,1,592,592,flye
MRSA_r10_20,garL,garL,1,1,258,258,flye
MRSA_r10_20,sbnH,sbnH,1,1,400,400,flye
MRSA_r10_20,sbnI,sbnI,1,1,254,254,flye
MRSA_r10_20,butA,butA,1,1,258,258,flye
MRSA_r10_20,wbgU,wbgU,1,1,323,323,flye
MRSA_r10_20,wbnH,wbnH,1,1,388,388,flye
MRSA_r10_20,sodM,sodM,1,1,199,199,flye
MRSA_r10_20,deoD,deoD,1,1,235,235,flye
MRSA_r10_20,tet(38),tet(38),1,1,452,452,flye
MRSA_r10_20,deoC1,deoC1,1,1,220,220,flye
MRSA_r10_20,deoB,deoB,1,1,392,392,flye
MRSA_r10_20,phnE_1,phnE_1,1,1,271,271,flye
MRSA_r10_20,phnE_2,phnE_2,1,1,266,266,flye
MRSA_r10_20,glnQ,glnQ,1,1,257,257,flye
MRSA_r10_20,phnD2,phnD2,1,1,318,318,flye
MRSA_r10_20,yfkN,yfkN,1,1,511,511,flye
MRSA_r10_20,adhE,adhE,1,1,869,869,flye
MRSA_r10_20,cap8A_1,cap8A_2,0,1,222,222,flye
MRSA_r10_20,ywqD_1,ywqD_2,0,1,228,228,flye
MRSA_r10_20,ywqE_1,ywqE_2,0,1,254,254,flye
MRSA_r10_20,pglF,pglF,1,1,607,607,flye
MRSA_r10_20,capD,capD,1,1,342,342,flye
MRSA_r10_20,wbjC,wbjC,1,1,369,369,flye
MRSA_r10_20,wbpI,wbpI,1,1,374,374,flye
MRSA_r10_20,dapH_1,dapH_2,0,1,185,185,flye
MRSA_r10_20,epsL,epsL,1,1,185,185,flye
MRSA_r10_20,fcl,fcl,1,1,295,295,flye
MRSA_r10_20,wecC,wecC,1,1,420,420,flye
MRSA_r10_20,mnaA_1,mnaA_2,0,1,381,381,flye
MRSA_r10_20,isdI,isdI,1,1,108,108,flye
MRSA_r10_20,ybaN,ybaN,1,1,127,127,flye
MRSA_r10_20,aldA,aldA,1,1,495,495,flye
MRSA_r10_20,czcD_1,czcD_2,0,1,319,319,flye
MRSA_r10_20,nrtD,nrtD,1,1,246,246,flye
MRSA_r10_20,ssuC,ssuC,1,1,253,253,flye
MRSA_r10_20,mdrP,mdrP,1,1,416,416,flye
MRSA_r10_20,dltA_1,dltA_2,0,1,2391,2391,flye
MRSA_r10_20,yagU,yagU,1,1,164,164,flye
MRSA_r10_20,argB,argB,1,1,256,256,flye
MRSA_r10_20,argJ,argJ,1,1,413,413,flye
MRSA_r10_20,argC,argC,1,1,344,344,flye
MRSA_r10_20,rocD2_1,rocD2_2,0,1,394,394,flye
MRSA_r10_20,brnQ_1,brnQ_2,0,1,451,451,flye
MRSA_r10_20,yecD,yecD,1,1,185,185,flye
MRSA_r10_20,ipdC,ipdC,1,1,546,546,flye
MRSA_r10_20,ptsG_1,ptsG_1,1,1,681,681,flye
MRSA_r10_20,murQ,murQ,1,1,298,298,flye
MRSA_r10_20,ybbH_1,ybbH_2,0,1,292,292,flye
MRSA_r10_20,hsdR,hsdR,1,1,929,929,flye
MRSA_r10_20,gsiA,gsiA,1,1,530,530,flye
MRSA_r10_20,ggt,ggt,1,1,668,668,flye
MRSA_r10_20,azoR,azoR,1,1,208,208,flye
MRSA_r10_20,msmX,msmX,1,1,365,365,flye
MRSA_r10_20,cycB,cycB,1,1,423,423,flye
MRSA_r10_20,malG,malG,1,1,279,279,flye
MRSA_r10_20,gfo,gfo,1,1,358,358,flye
MRSA_r10_20,iolG,iolG,1,1,346,346,flye
MRSA_r10_20,uhpT,uhpT,1,1,459,459,flye
MRSA_r10_20,pflB,pflB,1,1,749,749,flye
MRSA_r10_20,pflA,pflA,1,1,251,251,flye
MRSA_r10_20,scn_1,scn_3,0,1,114,114,flye
MRSA_r10_20,fadA,fadA,1,1,394,394,flye
MRSA_r10_20,fadN,fadN,1,1,753,753,flye
MRSA_r10_20,caiA,caiA,1,1,403,403,flye
MRSA_r10_20,lcfB,lcfB,1,1,501,501,flye
MRSA_r10_20,carA_1,carA_2,0,1,520,520,flye
MRSA_r10_20,nikA,nikA,1,1,491,491,flye
MRSA_r10_20,hmp,hmp,1,1,381,381,flye
MRSA_r10_20,ldh1,ldh1,1,1,317,317,flye
MRSA_r10_20,ptsG_2,ptsG_2,1,1,509,509,flye
MRSA_r10_20,rihA,rihA,1,1,311,311,flye
MRSA_r10_20,gatA_1,gatA_2,0,1,155,155,flye
MRSA_r10_20,gatB_1,gatB_2,0,1,92,92,flye
MRSA_r10_20,gatC_1,gatC_2,0,1,419,419,flye
MRSA_r10_20,gatD_1,gatD_2,0,1,347,347,flye
MRSA_r10_20,tarI2,tarI2,1,1,238,238,flye
MRSA_r10_20,tarJ',tarJ',1,1,341,341,flye
MRSA_r10_20,tarK,tarK,1,1,564,564,flye
MRSA_r10_20,tarF,tarF,1,1,389,389,flye
MRSA_r10_20,tarI1,tarI1,1,1,238,238,flye
MRSA_r10_20,tarJ,tarJ,1,1,341,341,flye
MRSA_r10_20,tarL,tarL,1,1,562,562,flye
MRSA_r10_20,tarS,tarS,1,1,574,574,flye
MRSA_r10_20,scdA,scdA,1,1,224,224,flye
MRSA_r10_20,ypdA,ypdA,1,1,584,584,flye
MRSA_r10_20,lytR,lytR,1,1,246,246,flye
MRSA_r10_20,lrgA,lrgA,1,1,145,145,flye
MRSA_r10_20,lrgB,lrgB,1,1,233,233,flye
MRSA_r10_20,yydK,yydK,1,1,234,234,flye
MRSA_r10_20,ptsG_3,ptsG_3,1,1,263,263,flye
MRSA_r10_20,bglA,bglA,1,1,478,478,flye
MRSA_r10_20,COQ5_2,COQ5_3,0,1,253,253,flye
MRSA_r10_20,rbsK,rbsK,1,1,304,304,flye
MRSA_r10_20,rbsD,rbsD,1,1,134,134,flye
MRSA_r10_20,glcU_1,glcU_2,0,1,293,293,flye
MRSA_r10_20,degA,degA,1,1,332,332,flye
MRSA_r10_20,norB_2,norB_4,0,1,458,458,flye
MRSA_r10_20,yxeI,yxeI,1,1,330,330,flye
MRSA_r10_20,lytM,lytM,1,1,316,316,flye
MRSA_r10_20,lnrL_1,lnrL_3,0,1,219,219,flye
MRSA_r10_20,esxA,esxA,1,1,97,97,flye
MRSA_r10_20,esaA,esaA,1,1,1009,1009,flye
MRSA_r10_20,esaB,esaB,1,1,80,80,flye
MRSA_r10_20,essB,essB,1,1,444,444,flye
MRSA_r10_20,essC,essC,1,1,1482,1482,flye
MRSA_r10_20,essG_1,essG_1,1,1,166,166,flye
MRSA_r10_20,essG_2,essG_2,1,1,166,166,flye
MRSA_r10_20,essG_3,essG_3,1,1,118,118,flye
MRSA_r10_20,essG_4,essG_4,1,1,90,90,flye
MRSA_r10_20,focA,focA,1,1,274,274,flye
MRSA_r10_20,brnQ_2,brnQ_3,0,1,435,435,flye
MRSA_r10_20,hel,hel,1,1,296,296,flye
MRSA_r10_20,hrtA_1,hrtA_2,0,1,225,225,flye
MRSA_r10_20,RBKS,RBKS,1,1,372,372,flye
MRSA_r10_20,psuG,psuG,1,1,307,307,flye
MRSA_r10_20,nupC_1,nupC_2,0,1,406,406,flye
MRSA_r10_20,sglT,sglT,1,1,510,510,flye
MRSA_r10_20,nanA,nanA,1,1,293,293,flye
MRSA_r10_20,bglK,bglK,1,1,286,286,flye
MRSA_r10_20,ybbH_2,ybbH_3,0,1,266,266,flye
MRSA_r10_20,nanE,nanE,1,1,222,222,flye
MRSA_r10_20,lip2,lip2,1,1,691,691,flye
MRSA_r10_20,ulaA,ulaA,1,1,448,448,flye
MRSA_r10_20,cmtB,cmtB,1,1,147,147,flye
MRSA_r10_20,slyA_1,slyA_2,0,1,139,139,flye
MRSA_r10_20,mepA,mepA,1,1,451,451,flye
MRSA_r10_20,glpT,glpT,1,1,452,452,flye
MRSA_r10_20,mhqA_1,mhqA_2,0,1,308,308,flye
MRSA_r10_20,luxA,luxA,1,1,353,353,flye
MRSA_r10_20,ydaF,ydaF,1,1,181,181,flye
MRSA_r10_20,efeM,efeM,1,1,284,284,flye
MRSA_r10_20,efeN,efeN,1,1,409,409,flye
MRSA_r10_20,tatC2,tatC2,1,1,233,233,flye
MRSA_r10_20,tatAy,tatAy,1,1,71,71,flye
MRSA_r10_20,btuD_1,btuD_5,0,1,280,280,flye
MRSA_r10_20,metE,metE,1,1,742,742,flye
MRSA_r10_20,yitJ,yitJ,1,1,613,613,flye
MRSA_r10_20,metC,metC,1,1,386,386,flye
MRSA_r10_20,metI,metI,1,1,367,367,flye
MRSA_r10_20,spo0J,spo0J,1,1,281,281,flye
MRSA_r10_20,mscS,mscS,1,1,293,293,flye
MRSA_r10_20,ychF,ychF,1,1,365,365,flye
MRSA_r10_20,rpsF,rpsF,1,1,98,98,flye
MRSA_r10_20,ssbA_1,ssbA_3,0,1,167,167,flye
MRSA_r10_20,rpsR,rpsR,1,1,80,80,flye
MRSA_r10_20,xerC_3,xerC_8,0,1,404,404,flye
MRSA_r10_20,gpmA_1,gpmA_2,0,1,193,193,flye
MRSA_r10_20,ahpF,ahpF,1,1,507,507,flye
MRSA_r10_20,ahpC,ahpC,1,1,189,189,flye
MRSA_r10_20,nfrA,nfrA,1,1,251,251,flye
MRSA_r10_20,tcyP,tcyP,1,1,462,462,flye
MRSA_r10_20,xpt,xpt,1,1,192,192,flye
MRSA_r10_20,pucK,pucK,1,1,422,422,flye
MRSA_r10_20,guaB,guaB,1,1,488,488,flye
MRSA_r10_20,guaA,guaA,1,1,513,513,flye
MRSA_r10_20,qorB,qorB,1,1,281,281,flye
MRSA_r10_20,ssl1,ssl1,1,1,226,226,flye
MRSA_r10_20,ssl4_1,ssl4_1,1,1,233,233,flye
MRSA_r10_20,ssl4_2,ssl4_2,1,1,343,343,flye
MRSA_r10_20,ssl3,ssl3,1,1,306,306,flye
MRSA_r10_20,ssl5_1,ssl5_1,1,1,234,234,flye
MRSA_r10_20,ssl7_1,ssl7_1,1,1,231,231,flye
MRSA_r10_20,ssl7_2,ssl7_2,1,1,232,232,flye
MRSA_r10_20,hsdM,hsdM,1,1,518,518,flye
MRSA_r10_20,ssl5_2,ssl5_2,1,1,232,232,flye
MRSA_r10_20,lpl2_1,lpl2_1,1,1,270,270,flye
MRSA_r10_20,lpl2_2,lpl2_2,1,1,257,257,flye
MRSA_r10_20,lpl2_3,lpl2_3,1,1,136,136,flye
MRSA_r10_20,lpl2_4,lpl2_4,1,1,123,123,flye
MRSA_r10_20,lpl2_5,lpl2_5,1,1,256,256,flye
MRSA_r10_20,lpl2_6,lpl2_6,1,1,267,267,flye
MRSA_r10_20,yciC_1,yciC_2,0,1,400,400,flye
MRSA_r10_20,ndhB,ndhB,1,1,494,494,flye
MRSA_r10_20,est_1,est_2,0,1,244,244,flye
MRSA_r10_20,mccA,mccA,1,1,311,311,flye
MRSA_r10_20,mccB,mccB,1,1,380,380,flye
MRSA_r10_20,metN,metN,1,1,341,341,flye
MRSA_r10_20,metP_1,metP_2,0,1,219,219,flye
MRSA_r10_20,metQ_1,metQ_2,0,1,280,280,flye
MRSA_r10_20,sle1,,0,0,341,0,flye
MRSA_r10_20,hdfR_1,hdfR_2,0,1,294,294,flye
MRSA_r10_20,gltA,gltA,1,1,1499,1499,flye
MRSA_r10_20,gltB,gltB,1,1,487,487,flye
MRSA_r10_20,treP_1,treP_2,0,1,475,475,flye
MRSA_r10_20,treA,treA,1,1,546,546,flye
MRSA_r10_20,treR_1,treR_2,0,1,242,242,flye
MRSA_r10_20,ruvB_1,ruvB_2,0,1,565,565,flye
MRSA_r10_20,recR,recR,1,1,198,198,flye
MRSA_r10_20,speA,speA,1,1,445,445,flye
MRSA_r10_20,tmk,tmk,1,1,205,205,flye
MRSA_r10_20,darA,darA,1,1,109,109,flye
MRSA_r10_20,yabA,yabA,1,1,115,115,flye
MRSA_r10_20,yfiC,yfiC,1,1,241,241,flye
MRSA_r10_20,rsmI,rsmI,1,1,279,279,flye
MRSA_r10_20,metG,metG,1,1,657,657,flye
MRSA_r10_20,dtd3,dtd3,1,1,257,257,flye
MRSA_r10_20,rnmV_1,rnmV_1,1,1,178,178,flye
MRSA_r10_20,rsmA,rsmA,1,1,297,297,flye
MRSA_r10_20,veg,veg,1,1,87,87,flye
MRSA_r10_20,ispE,ispE,1,1,282,282,flye
MRSA_r10_20,purR,purR,1,1,274,274,flye
MRSA_r10_20,yabJ,yabJ,1,1,126,126,flye
MRSA_r10_20,spoVG,spoVG,1,1,100,100,flye
MRSA_r10_20,glmU,glmU,1,1,450,450,flye
MRSA_r10_20,prs,prs,1,1,321,321,flye
MRSA_r10_20,rplY,rplY,1,1,217,217,flye
MRSA_r10_20,pth,pth,1,1,190,190,flye
MRSA_r10_20,mfd,mfd,1,1,1168,1168,flye
MRSA_r10_20,divIC,divIC,1,1,130,130,flye
MRSA_r10_20,pnp_1,pnp_1,1,1,133,133,flye
MRSA_r10_20,tilS,tilS,1,1,431,431,flye
MRSA_r10_20,hpt,hpt,1,1,179,179,flye
MRSA_r10_20,ftsH,ftsH,1,1,697,697,flye
MRSA_r10_20,hslO,hslO,1,1,293,293,flye
MRSA_r10_20,cysK,cysK,1,1,310,310,flye
MRSA_r10_20,folP,folP,1,1,267,267,flye
MRSA_r10_20,folB,folB,1,1,121,121,flye
MRSA_r10_20,folK,folK,1,1,158,158,flye
MRSA_r10_20,lysS,lysS,1,1,495,495,flye
MRSA_r10_20,gabR,gabR,1,1,460,460,flye
MRSA_r10_20,pdxS,pdxS,1,1,295,295,flye
MRSA_r10_20,pdxT,pdxT,1,1,186,186,flye
MRSA_r10_20,nupC_2,nupC_1,0,1,404,404,flye
MRSA_r10_20,ctsR,ctsR,1,1,156,156,flye
MRSA_r10_20,mcsA,mcsA,1,1,188,188,flye
MRSA_r10_20,mcsB,mcsB,1,1,336,336,flye
MRSA_r10_20,clpC,clpC,1,1,818,818,flye
MRSA_r10_20,radA,radA,1,1,454,454,flye
MRSA_r10_20,yacL,yacL,1,1,357,357,flye
MRSA_r10_20,gltX,gltX,1,1,484,484,flye
MRSA_r10_20,cysE,cysE,1,1,226,226,flye
MRSA_r10_20,cysS,cysS,1,1,466,466,flye
MRSA_r10_20,mrnC,mrnC,1,1,134,134,flye
MRSA_r10_20,yacP,yacP,1,1,174,174,flye
MRSA_r10_20,secE,secE,1,1,60,60,flye
MRSA_r10_20,nusG,nusG,1,1,182,182,flye
MRSA_r10_20,rplK,rplK,1,1,140,140,flye
MRSA_r10_20,rplA,rplA,1,1,229,229,flye
MRSA_r10_20,rplJ,rplJ,1,1,166,166,flye
MRSA_r10_20,rplL,rplL,1,1,122,122,flye
MRSA_r10_20,rsmC,rsmC,1,1,202,202,flye
MRSA_r10_20,rpoB,rpoB,1,1,1183,1183,flye
MRSA_r10_20,rpoC,rpoC,1,1,1207,1207,flye
MRSA_r10_20,rplGB,rplGB,1,1,84,84,flye
MRSA_r10_20,rpsL,rpsL,1,1,137,137,flye
MRSA_r10_20,rpsG,rpsG,1,1,156,156,flye
MRSA_r10_20,fusA,fusA,1,1,693,693,flye
MRSA_r10_20,tuf,tuf,1,1,394,394,flye
MRSA_r10_20,scmP_2,scmP_1,0,1,391,391,flye
MRSA_r10_20,hchA,hchA,1,1,292,292,flye
MRSA_r10_20,araB,araB,1,1,545,545,flye
MRSA_r10_20,ilvE,ilvE,1,1,358,358,flye
MRSA_r10_20,ppaX_1,ppaX_1,1,1,227,227,flye
MRSA_r10_20,dck,dck,1,1,220,220,flye
MRSA_r10_20,dgk,dgk,1,1,205,205,flye
MRSA_r10_20,tadA_1,tadA_1,1,1,156,156,flye
MRSA_r10_20,ywtE_1,ywtE_1,1,1,289,289,flye
MRSA_r10_20,azo1,azo1,1,1,188,188,flye
MRSA_r10_20,bbp,bbp,1,1,1137,1137,flye
MRSA_r10_20,gtfA_1,gtfA_1,1,1,490,490,flye
MRSA_r10_20,gtfA_2,gtfA_2,1,1,496,496,flye
MRSA_r10_20,folE2,folE2,1,1,292,292,flye
MRSA_r10_20,bshB2,bshB2,1,1,221,221,flye
MRSA_r10_20,yojF,yojF,1,1,120,120,flye
MRSA_r10_20,nagB_1,nagB_1,1,1,252,252,flye
MRSA_r10_20,hxlB,hxlB,1,1,182,182,flye
MRSA_r10_20,gph,gph,1,1,215,215,flye
MRSA_r10_20,proP,proP,1,1,466,466,flye
MRSA_r10_20,menE_1,menE_1,1,1,458,458,flye
MRSA_r10_20,yhfS,yhfS,1,1,379,379,flye
MRSA_r10_20,pdxK,pdxK,1,1,276,276,flye
MRSA_r10_20,ung,ung,1,1,218,218,flye
MRSA_r10_20,pta,pta,1,1,328,328,flye
MRSA_r10_20,lipL,lipL,1,1,278,278,flye
MRSA_r10_20,galK,galK,1,1,306,306,flye
MRSA_r10_20,rclA,rclA,1,1,440,440,flye
MRSA_r10_20,iolS,iolS,1,1,312,312,flye
MRSA_r10_20,ywqN,ywqN,1,1,178,178,flye
MRSA_r10_20,adh,adh,1,1,336,336,flye
MRSA_r10_20,ywiB,ywiB,1,1,138,138,flye
MRSA_r10_20,argS,argS,1,1,553,553,flye
MRSA_r10_20,nth_1,nth_1,1,1,211,211,flye
MRSA_r10_20,btuF,btuF,1,1,295,295,flye
MRSA_r10_20,hdl IVa,hdl IVa,1,1,239,239,flye
MRSA_r10_20,pip,pip,1,1,262,262,flye
MRSA_r10_20,sarA,sarA,1,1,124,124,flye
MRSA_r10_20,xerD_1,xerD_1,1,1,186,186,flye
MRSA_r10_20,mrpA,mrpA,1,1,800,800,flye
MRSA_r10_20,mrpB,mrpB,1,1,141,141,flye
MRSA_r10_20,mnhC1_1,mnhC1_1,1,1,114,114,flye
MRSA_r10_20,mnhD1_1,mnhD1_1,1,1,498,498,flye
MRSA_r10_20,mrpE,mrpE,1,1,160,160,flye
MRSA_r10_20,mrpF,mrpF,1,1,100,100,flye
MRSA_r10_20,mrpG,mrpG,1,1,120,120,flye
MRSA_r10_20,nhaK_1,nhaK_1,1,1,680,680,flye
MRSA_r10_20,pbuE_1,pbuE_1,1,1,382,382,flye
MRSA_r10_20,ppaX_2,ppaX_2,1,1,82,82,flye
MRSA_r10_20,mntA,mntA,1,1,309,309,flye
MRSA_r10_20,mntB,mntB,1,1,278,278,flye
MRSA_r10_20,scaC,scaC,1,1,247,247,flye
MRSA_r10_20,mntR,,0,0,214,0,flye
MRSA_r10_20,tarA,tarA,1,1,254,254,flye
MRSA_r10_20,tagH_1,tagH_1,1,1,264,264,flye
MRSA_r10_20,tagG,tagG,1,1,270,270,flye
MRSA_r10_20,tarB,tarB,1,1,367,367,flye
MRSA_r10_20,tagX,tagX,1,1,353,353,flye
MRSA_r10_20,tarD,tarD,1,1,132,132,flye
MRSA_r10_20,bmrA,bmrA,1,1,575,575,flye
MRSA_r10_20,nupG,nupG,1,1,409,409,flye
MRSA_r10_20,fepC,fepC,1,1,265,265,flye
MRSA_r10_20,feuB,feuB,1,1,334,334,flye
MRSA_r10_20,feuC,feuC,1,1,338,338,flye
MRSA_r10_20,dhaK,dhaK,1,1,322,322,flye
MRSA_r10_20,dhaL,dhaL,1,1,194,194,flye
MRSA_r10_20,dhaM,dhaM,1,1,120,120,flye
MRSA_r10_20,aes,aes,1,1,347,347,flye
MRSA_r10_20,graR_1,graR_1,1,1,224,224,flye
MRSA_r10_20,graS_1,graS_1,1,1,346,346,flye
MRSA_r10_20,bceA_1,bceA_1,1,1,253,253,flye
MRSA_r10_20,bceB_1,bceB_1,1,1,629,629,flye
MRSA_r10_20,rhaR,rhaR,1,1,647,647,flye
MRSA_r10_20,sarX,sarX,1,1,141,141,flye
MRSA_r10_20,oxyR,oxyR,1,1,288,288,flye
MRSA_r10_20,setC,setC,1,1,430,430,flye
MRSA_r10_20,bin3,bin3,1,1,105,105,flye
MRSA_r10_20,sdpR,sdpR,1,1,104,104,flye
MRSA_r10_20,arsB_1,arsB_1,1,1,429,429,flye
MRSA_r10_20,arsC,arsC,1,1,131,131,flye
MRSA_r10_20,pre,pre,1,1,108,108,flye
MRSA_r10_20,bcrR,bcrR,1,1,113,113,flye
MRSA_r10_20,cysL,cysL,1,1,273,273,flye
MRSA_r10_20,hin_1,hin_1,1,1,191,191,flye
MRSA_r10_20,copB,copB,1,1,681,681,flye
MRSA_r10_20,mco,mco,1,1,477,477,flye
MRSA_r10_20,cadA,cadA,1,1,726,726,flye
MRSA_r10_20,cadC,cadC,1,1,121,121,flye
MRSA_r10_20,uppP,uppP,1,1,291,291,flye
MRSA_r10_20,cydD,cydD,1,1,543,543,flye
MRSA_r10_20,mgrA,mgrA,1,1,147,147,flye
MRSA_r10_20,yciC_2,yciC_1,0,1,308,308,flye
MRSA_r10_20,ydhF,ydhF,1,1,302,302,flye
MRSA_r10_20,phrB,phrB,1,1,457,457,flye
MRSA_r10_20,tetA,tetA,1,1,388,388,flye
MRSA_r10_20,ybaK,ybaK,1,1,160,160,flye
MRSA_r10_20,ydjF,ydjF,1,1,254,254,flye
MRSA_r10_20,lacC_1,lacC_1,1,1,306,306,flye
MRSA_r10_20,fruA,fruA,1,1,652,652,flye
MRSA_r10_20,nagA,nagA,1,1,393,393,flye
MRSA_r10_20,csbB,csbB,1,1,327,327,flye
MRSA_r10_20,saeS,saeS,1,1,351,351,flye
MRSA_r10_20,saeR,saeR,1,1,228,228,flye
MRSA_r10_20,queE,queE,1,1,237,237,flye
MRSA_r10_20,queD,queD,1,1,139,139,flye
MRSA_r10_20,queC,queC,1,1,222,222,flye
MRSA_r10_20,trpG_1,trpG_1,1,1,197,197,flye
MRSA_r10_20,menF,menF,1,1,383,383,flye
MRSA_r10_20,pxpB_1,pxpB_1,1,1,236,236,flye
MRSA_r10_20,pxpC_1,pxpC_1,1,1,334,334,flye
MRSA_r10_20,ltaS,ltaS,1,1,646,646,flye
MRSA_r10_20,ettA,ettA,1,1,625,625,flye
MRSA_r10_20,recQ_1,recQ_1,1,1,593,593,flye
MRSA_r10_20,btuD_2,btuD_1,0,1,325,325,flye
MRSA_r10_20,hisC_1,hisC_1,1,1,352,352,flye
MRSA_r10_20,dtpT,dtpT,1,1,501,501,flye
MRSA_r10_20,queF,queF,1,1,166,166,flye
MRSA_r10_20,cntI,cntI,1,1,288,288,flye
MRSA_r10_20,nrdI,nrdI,1,1,132,132,flye
MRSA_r10_20,nrdE,nrdE,1,1,701,701,flye
MRSA_r10_20,nrdF,nrdF,1,1,323,323,flye
MRSA_r10_20,yclN,yclN,1,1,323,323,flye
MRSA_r10_20,yclO,yclO,1,1,318,318,flye
MRSA_r10_20,yclP,yclP,1,1,253,253,flye
MRSA_r10_20,yclQ,yclQ,1,1,342,342,flye
MRSA_r10_20,murB,murB,1,1,307,307,flye
MRSA_r10_20,garK_1,garK_1,1,1,374,374,flye
MRSA_r10_20,pepT_1,pepT_1,1,1,408,408,flye
MRSA_r10_20,yjjP,yjjP,1,1,253,253,flye
MRSA_r10_20,tagO,tagO,1,1,351,351,flye
MRSA_r10_20,comFA,comFA,1,1,360,360,flye
MRSA_r10_20,hpf,hpf,1,1,190,190,flye
MRSA_r10_20,secA1_1,secA1_1,1,1,843,843,flye
MRSA_r10_20,prfB,prfB,1,1,330,330,flye
MRSA_r10_20,yfbR,yfbR,1,1,216,216,flye
MRSA_r10_20,uvrB_1,uvrB_1,1,1,661,661,flye
MRSA_r10_20,uvrA,uvrA,1,1,948,948,flye
MRSA_r10_20,hprK,hprK,1,1,310,310,flye
MRSA_r10_20,lgt,lgt,1,1,280,280,flye
MRSA_r10_20,maa,maa,1,1,161,161,flye
MRSA_r10_20,trxB,trxB,1,1,311,311,flye
MRSA_r10_20,whiA,whiA,1,1,314,314,flye
MRSA_r10_20,clpP_1,clpP_1,1,1,195,195,flye
MRSA_r10_20,mleS,mleS,1,1,544,544,flye
MRSA_r10_20,cggR,cggR,1,1,337,337,flye
MRSA_r10_20,gapA1,gapA1,1,1,336,336,flye
MRSA_r10_20,pgk,pgk,1,1,396,396,flye
MRSA_r10_20,tpiA,tpiA,1,1,253,253,flye
MRSA_r10_20,gpmI,gpmI,1,1,505,505,flye
MRSA_r10_20,eno,eno,1,1,434,434,flye
MRSA_r10_20,secG,secG,1,1,77,77,flye
MRSA_r10_20,est_2,est_1,0,1,246,246,flye
MRSA_r10_20,rnr,rnr,1,1,790,790,flye
MRSA_r10_20,smpB,smpB,1,1,154,154,flye
MRSA_r10_20,ssp,ssp,1,1,341,341,flye
MRSA_r10_20,nuc,nuc,1,1,228,228,flye
MRSA_r10_20,cspA_1,cspA_1,1,1,66,66,flye
MRSA_r10_20,pspB,pspB,1,1,194,194,flye
MRSA_r10_20,argO_1,argO_1,1,1,205,205,flye
MRSA_r10_20,aroD,aroD,1,1,238,238,flye
MRSA_r10_20,ydbP,ydbP,1,1,106,106,flye
MRSA_r10_20,mgsR,mgsR,1,1,118,118,flye
MRSA_r10_20,gcvH,gcvH,1,1,126,126,flye
MRSA_r10_20,rnmV_2,rnmV_2,1,1,129,129,flye
MRSA_r10_20,metN2,metN2,1,1,341,341,flye
MRSA_r10_20,metP_2,,0,0,231,0,flye
MRSA_r10_20,metQ_2,metQ_1,0,1,273,273,flye
MRSA_r10_20,sufC,sufC,1,1,253,253,flye
MRSA_r10_20,csd,csd,1,1,413,413,flye
MRSA_r10_20,sufU,sufU,1,1,154,154,flye
MRSA_r10_20,pnoA,pnoA,1,1,355,355,flye
MRSA_r10_20,lipA_1,lipA_1,1,1,305,305,flye
MRSA_r10_20,yutF,yutF,1,1,259,259,flye
MRSA_r10_20,ghrB_1,ghrB_1,1,1,319,319,flye
MRSA_r10_20,dltA_2,dltA_1,0,1,485,485,flye
MRSA_r10_20,patA,patA,1,1,404,404,flye
MRSA_r10_20,dltC,dltC,1,1,78,78,flye
MRSA_r10_20,dltD,dltD,1,1,391,391,flye
MRSA_r10_20,nfuA,nfuA,1,1,80,80,flye
MRSA_r10_20,yjlD,yjlD,1,1,354,354,flye
MRSA_r10_20,pepA_1,pepA_1,1,1,491,491,flye
MRSA_r10_20,mnhG1,mnhG1,1,1,118,118,flye
MRSA_r10_20,mnhF1,mnhF1,1,1,97,97,flye
MRSA_r10_20,mnhE1,mnhE1,1,1,159,159,flye
MRSA_r10_20,mnhD1_2,mnhD1_2,1,1,498,498,flye
MRSA_r10_20,mnhC1_2,mnhC1_2,1,1,113,113,flye
MRSA_r10_20,mnhB1,mnhB1,1,1,142,142,flye
MRSA_r10_20,mnhA1,mnhA1,1,1,801,801,flye
MRSA_r10_20,kapB,kapB,1,1,127,127,flye
MRSA_r10_20,yugI,yugI,1,1,125,125,flye
MRSA_r10_20,rocD2_2,rocD2_1,0,1,396,396,flye
MRSA_r10_20,gluD,gluD,1,1,414,414,flye
MRSA_r10_20,glpQ_1,glpQ_1,1,1,309,309,flye
MRSA_r10_20,argH,argH,1,1,459,459,flye
MRSA_r10_20,argG,argG,1,1,401,401,flye
MRSA_r10_20,pgi,pgi,1,1,443,443,flye
MRSA_r10_20,ydjZ,ydjZ,1,1,191,191,flye
MRSA_r10_20,spsB_1,spsB_1,1,1,174,174,flye
MRSA_r10_20,spsB_2,spsB_2,1,1,191,191,flye
MRSA_r10_20,addB,addB,1,1,1158,1158,flye
MRSA_r10_20,addA,addA,1,1,1217,1217,flye
MRSA_r10_20,cdr,cdr,1,1,438,438,flye
MRSA_r10_20,yitU,yitU,1,1,274,274,flye
MRSA_r10_20,sufT,sufT,1,1,102,102,flye
MRSA_r10_20,oatA_1,oatA_1,1,1,604,604,flye
MRSA_r10_20,clpB,clpB,1,1,869,869,flye
MRSA_r10_20,ampR,ampR,1,1,289,289,flye
MRSA_r10_20,leuA_1,leuA_1,1,1,381,381,flye
MRSA_r10_20,map_1,map_1,1,1,144,144,flye
MRSA_r10_20,fabH,fabH,1,1,313,313,flye
MRSA_r10_20,fabF,fabF,1,1,414,414,flye
MRSA_r10_20,oppB,oppB,1,1,308,308,flye
MRSA_r10_20,oppC,oppC,1,1,356,356,flye
MRSA_r10_20,oppD_1,oppD_1,1,1,360,360,flye
MRSA_r10_20,oppF_1,,0,0,313,0,flye
MRSA_r10_20,dppE,dppE,1,1,551,551,flye
MRSA_r10_20,appA,appA,1,1,451,451,flye
MRSA_r10_20,oppD_2,oppD_2,1,1,328,328,flye
MRSA_r10_20,oppF_2,oppF_2,1,1,326,326,flye
MRSA_r10_20,dppC,dppC,1,1,293,293,flye
MRSA_r10_20,trpS,trpS,1,1,329,329,flye
MRSA_r10_20,spxA,spxA,1,1,131,131,flye
MRSA_r10_20,mecA_2,mecA_1,0,1,239,239,flye
MRSA_r10_20,pepF1_1,pepF1_1,1,1,602,602,flye
MRSA_r10_20,yjbI,yjbI,1,1,121,121,flye
MRSA_r10_20,yjbK,yjbK,1,1,197,197,flye
MRSA_r10_20,yjbM,yjbM,1,1,211,211,flye
MRSA_r10_20,nadK,nadK,1,1,269,269,flye
MRSA_r10_20,mgtE,mgtE,1,1,461,461,flye
MRSA_r10_20,kefB,kefB,1,1,614,614,flye
MRSA_r10_20,fabI,fabI,1,1,256,256,flye
MRSA_r10_20,acp,acp,1,1,522,522,flye
MRSA_r10_20,ltaA,ltaA,1,1,396,396,flye
MRSA_r10_20,ugtP,ugtP,1,1,391,391,flye
MRSA_r10_20,murE,murE,1,1,494,494,flye
MRSA_r10_20,prfC,prfC,1,1,520,520,flye
MRSA_r10_20,ktrB_1,ktrB_1,1,1,452,452,flye
MRSA_r10_20,tarM,,0,0,493,0,flye
MRSA_r10_20,catD,catD,1,1,118,118,flye
MRSA_r10_20,yfmC_1,yfmC_1,1,1,319,319,flye
MRSA_r10_20,menA,menA,1,1,312,312,flye
MRSA_r10_20,pchA,pchA,1,1,453,453,flye
MRSA_r10_20,menD,menD,1,1,557,557,flye
MRSA_r10_20,menH,menH,1,1,267,267,flye
MRSA_r10_20,menB,menB,1,1,273,273,flye
MRSA_r10_20,sspC,sspC,1,1,109,109,flye
MRSA_r10_20,sspB,sspB,1,1,393,393,flye
MRSA_r10_20,sspA,sspA,1,1,357,357,flye
MRSA_r10_20,dapX,dapX,1,1,384,384,flye
MRSA_r10_20,slyA_2,slyA_1,0,1,139,139,flye
MRSA_r10_20,atl_1,atl_1,1,1,1257,1257,flye
MRSA_r10_20,tagU_1,tagU_1,1,1,408,408,flye
MRSA_r10_20,fmtA,fmtA,1,1,397,397,flye
MRSA_r10_20,qoxD,qoxD,1,1,96,96,flye
MRSA_r10_20,qoxC,qoxC,1,1,201,201,flye
MRSA_r10_20,qoxB,,0,0,662,0,flye
MRSA_r10_20,qoxA,qoxA,1,1,366,366,flye
MRSA_r10_20,folD,folD,1,1,286,286,flye
MRSA_r10_20,purE,purE,1,1,160,160,flye
MRSA_r10_20,purK,purK,1,1,374,374,flye
MRSA_r10_20,purC,purC,1,1,234,234,flye
MRSA_r10_20,purS,purS,1,1,87,87,flye
MRSA_r10_20,purQ,purQ,1,1,223,223,flye
MRSA_r10_20,purL,purL,1,1,729,729,flye
MRSA_r10_20,purF,purF,1,1,494,494,flye
MRSA_r10_20,purM,purM,1,1,342,342,flye
MRSA_r10_20,purN,purN,1,1,188,188,flye
MRSA_r10_20,purH,purH,1,1,492,492,flye
MRSA_r10_20,purD,purD,1,1,415,415,flye
MRSA_r10_20,ecfT_1,ecfT_1,1,1,268,268,flye
MRSA_r10_20,ykoD_1,ykoD_1,1,1,466,466,flye
MRSA_r10_20,ykoE,ykoE,1,1,191,191,flye
MRSA_r10_20,rlmI,rlmI,1,1,390,390,flye
MRSA_r10_20,ptsH,ptsH,1,1,88,88,flye
MRSA_r10_20,ptsI,ptsI,1,1,572,572,flye
MRSA_r10_20,ythA,,0,0,453,0,flye
MRSA_r10_20,ythB,ythB,1,1,339,339,flye
MRSA_r10_20,ktrA,ktrA,1,1,220,220,flye
MRSA_r10_20,rnj1,rnj1,1,1,565,565,flye
MRSA_r10_20,def,def,1,1,183,183,flye
MRSA_r10_20,pdhA,pdhA,1,1,370,370,flye
MRSA_r10_20,pdhB,pdhB,1,1,325,325,flye
MRSA_r10_20,pdhC_1,pdhC_1,1,1,430,430,flye
MRSA_r10_20,pdhD,pdhD,1,1,468,468,flye
MRSA_r10_20,potA,potA,1,1,364,364,flye
MRSA_r10_20,potB,potB,1,1,265,265,flye
MRSA_r10_20,ydcV,ydcV,1,1,269,269,flye
MRSA_r10_20,potD,potD,1,1,357,357,flye
MRSA_r10_20,mntH_1,mntH_1,1,1,450,450,flye
MRSA_r10_20,suhB,suhB,1,1,275,275,flye
MRSA_r10_20,typA,typA,1,1,615,615,flye
MRSA_r10_20,ftsW,ftsW,1,1,408,408,flye
MRSA_r10_20,pycA,pycA,1,1,1150,1150,flye
MRSA_r10_20,ctaA,ctaA,1,1,306,306,flye
MRSA_r10_20,ctaB2,ctaB2,1,1,303,303,flye
MRSA_r10_20,rsmD,rsmD,1,1,180,180,flye
MRSA_r10_20,coaD,coaD,1,1,160,160,flye
MRSA_r10_20,tmcAL,tmcAL,1,1,379,379,flye
MRSA_r10_20,rpmF,rpmF,1,1,57,57,flye
MRSA_r10_20,isdB,isdB,1,1,652,652,flye
MRSA_r10_20,isdA,isdA,1,1,354,354,flye
MRSA_r10_20,isdC,isdC,1,1,227,227,flye
MRSA_r10_20,isdE,isdE,1,1,292,292,flye
MRSA_r10_20,isdF,isdF,1,1,322,322,flye
MRSA_r10_20,srtB,srtB,1,1,244,244,flye
MRSA_r10_20,isdG_1,isdG_1,1,1,107,107,flye
MRSA_r10_20,pheS,pheS,1,1,352,352,flye
MRSA_r10_20,pheT,pheT,1,1,800,800,flye
MRSA_r10_20,rnhC,rnhC,1,1,329,329,flye
MRSA_r10_20,zapA,zapA,1,1,88,88,flye
MRSA_r10_20,polX,polX,1,1,570,570,flye
MRSA_r10_20,mutS2,mutS2,1,1,782,782,flye
MRSA_r10_20,trxA,trxA,1,1,104,104,flye
MRSA_r10_20,uvrC,uvrC,1,1,593,593,flye
MRSA_r10_20,sdhC,sdhC,1,1,204,204,flye
MRSA_r10_20,frdA,frdA,1,1,588,588,flye
MRSA_r10_20,frdB,frdB,1,1,271,271,flye
MRSA_r10_20,murI,murI,1,1,266,266,flye
MRSA_r10_20,fib,fib,1,1,165,165,flye
MRSA_r10_20,scn_2,scn_1,0,1,116,116,flye
MRSA_r10_20,hly_1,hly_1,1,1,206,206,flye
MRSA_r10_20,hly_2,hly_2,1,1,112,112,flye
MRSA_r10_20,argF,argF,1,1,333,333,flye
MRSA_r10_20,arcC1,arcC1,1,1,311,311,flye
MRSA_r10_20,yfnB,yfnB,1,1,228,228,flye
MRSA_r10_20,bshC,bshC,1,1,537,537,flye
MRSA_r10_20,mraZ,mraZ,1,1,143,143,flye
MRSA_r10_20,rsmH_1,rsmH_1,1,1,311,311,flye
MRSA_r10_20,ftsL,ftsL,1,1,133,133,flye
MRSA_r10_20,pbpB,pbpB,1,1,744,744,flye
MRSA_r10_20,mraY,mraY,1,1,321,321,flye
MRSA_r10_20,murD,murD,1,1,449,449,flye
MRSA_r10_20,divIB,divIB,1,1,439,439,flye
MRSA_r10_20,ftsA,ftsA,1,1,468,468,flye
MRSA_r10_20,ftsZ,ftsZ,1,1,390,390,flye
MRSA_r10_20,yggS,yggS,1,1,222,222,flye
MRSA_r10_20,sepF,sepF,1,1,187,187,flye
MRSA_r10_20,divIVA,divIVA,1,1,198,198,flye
MRSA_r10_20,ileS,ileS,1,1,917,917,flye
MRSA_r10_20,catE_1,catE_1,1,1,265,265,flye
MRSA_r10_20,lspA,lspA,1,1,163,163,flye
MRSA_r10_20,rluD_1,rluD_1,1,1,305,305,flye
MRSA_r10_20,pyrR,pyrR,1,1,175,175,flye
MRSA_r10_20,pyrP,pyrP,1,1,435,435,flye
MRSA_r10_20,pyrB,pyrB,1,1,293,293,flye
MRSA_r10_20,pyrC,pyrC,1,1,425,425,flye
MRSA_r10_20,carA_2,carA_1,0,1,366,366,flye
MRSA_r10_20,carB,carB,1,1,1057,1057,flye
MRSA_r10_20,pyrF,pyrF,1,1,230,230,flye
MRSA_r10_20,pyrE,pyrE,1,1,203,203,flye
MRSA_r10_20,rqcH,rqcH,1,1,565,565,flye
MRSA_r10_20,gmk,gmk,1,1,207,207,flye
MRSA_r10_20,rpoZ,rpoZ,1,1,72,72,flye
MRSA_r10_20,coaBC,coaBC,1,1,399,399,flye
MRSA_r10_20,priA,priA,1,1,802,802,flye
MRSA_r10_20,def1,def1,1,1,162,162,flye
MRSA_r10_20,fmt,fmt,1,1,311,311,flye
MRSA_r10_20,rsmB,,0,0,435,0,flye
MRSA_r10_20,rlmN,rlmN,1,1,364,364,flye
MRSA_r10_20,stp,stp,1,1,247,247,flye
MRSA_r10_20,prkC,prkC,1,1,664,664,flye
MRSA_r10_20,rsgA,rsgA,1,1,291,291,flye
MRSA_r10_20,rpe,rpe,1,1,214,214,flye
MRSA_r10_20,thiN,,0,0,213,0,flye
MRSA_r10_20,rpmB,rpmB,1,1,62,62,flye
MRSA_r10_20,recG,recG,1,1,686,686,flye
MRSA_r10_20,fapR,fapR,1,1,185,185,flye
MRSA_r10_20,plsX,plsX,1,1,328,328,flye
MRSA_r10_20,fabD,fabD,1,1,308,308,flye
MRSA_r10_20,fabG,fabG,1,1,244,244,flye
MRSA_r10_20,acpP,acpP,1,1,77,77,flye
MRSA_r10_20,rnc,rnc,1,1,243,243,flye
MRSA_r10_20,smc_1,smc_1,1,1,1188,1188,flye
MRSA_r10_20,ftsY,ftsY,1,1,416,416,flye
MRSA_r10_20,ffh,ffh,1,1,455,455,flye
MRSA_r10_20,rpsP,rpsP,1,1,91,91,flye
MRSA_r10_20,rimM,rimM,1,1,167,167,flye
MRSA_r10_20,trmD,trmD,1,1,245,245,flye
MRSA_r10_20,rplS,rplS,1,1,116,116,flye
MRSA_r10_20,rbgA,rbgA,1,1,294,294,flye
MRSA_r10_20,rnhB,rnhB,1,1,255,255,flye
MRSA_r10_20,sucC,sucC,1,1,388,388,flye
MRSA_r10_20,sucD,sucD,1,1,302,302,flye
MRSA_r10_20,lytN,lytN,1,1,372,372,flye
MRSA_r10_20,femA_1,femA_1,1,1,414,414,flye
MRSA_r10_20,topA,topA,1,1,691,691,flye
MRSA_r10_20,trmFO,trmFO,1,1,435,435,flye
MRSA_r10_20,xerC_4,xerC_1,0,1,298,298,flye
MRSA_r10_20,hslV,hslV,1,1,181,181,flye
MRSA_r10_20,hslU,hslU,1,1,467,467,flye
MRSA_r10_20,codY,codY,1,1,257,257,flye
MRSA_r10_20,rpsB,rpsB,1,1,255,255,flye
MRSA_r10_20,tsf,tsf,1,1,293,293,flye
MRSA_r10_20,pyrH,pyrH,1,1,240,240,flye
MRSA_r10_20,frr,frr,1,1,184,184,flye
MRSA_r10_20,uppS,uppS,1,1,256,256,flye
MRSA_r10_20,proS,proS,1,1,567,567,flye
MRSA_r10_20,polC,polC,1,1,1438,1438,flye
MRSA_r10_20,rimP,rimP,1,1,155,155,flye
MRSA_r10_20,nusA,nusA,1,1,391,391,flye
MRSA_r10_20,rplGA,rplGA,1,1,105,105,flye
MRSA_r10_20,infB_1,infB_1,1,1,705,705,flye
MRSA_r10_20,rbfA,rbfA,1,1,116,116,flye
MRSA_r10_20,truB,truB,1,1,305,305,flye
MRSA_r10_20,ribF,,0,0,323,0,flye
MRSA_r10_20,rpsO,rpsO,1,1,89,89,flye
MRSA_r10_20,pnp_2,pnp_2,1,1,698,698,flye
MRSA_r10_20,rnj2,rnj2,1,1,557,557,flye
MRSA_r10_20,ftsK,,0,0,789,0,flye
MRSA_r10_20,gamR,gamR,1,1,237,237,flye
MRSA_r10_20,phaB,phaB,1,1,234,234,flye
MRSA_r10_20,pgsA,pgsA,1,1,192,192,flye
MRSA_r10_20,cinA,cinA,1,1,383,383,flye
MRSA_r10_20,recA,recA,1,1,347,347,flye
MRSA_r10_20,rny,rny,1,1,519,519,flye
MRSA_r10_20,ymdB,ymdB,1,1,265,265,flye
MRSA_r10_20,miaB,miaB,1,1,514,514,flye
MRSA_r10_20,ymcA,ymcA,1,1,121,121,flye
MRSA_r10_20,mutS_1,,0,0,872,0,flye
MRSA_r10_20,mutL,,0,0,669,0,flye
MRSA_r10_20,glpP,glpP,1,1,177,177,flye
MRSA_r10_20,glpF,glpF,1,1,272,272,flye
MRSA_r10_20,glpK,glpK,1,1,498,498,flye
MRSA_r10_20,glpD,glpD,1,1,557,557,flye
MRSA_r10_20,miaA,miaA,1,1,311,311,flye
MRSA_r10_20,hfq,hfq,1,1,77,77,flye
MRSA_r10_20,bsaA_1,bsaA_1,1,1,158,158,flye
MRSA_r10_20,hflX,hflX,1,1,412,412,flye
MRSA_r10_20,glnR,glnR,1,1,122,122,flye
MRSA_r10_20,glnA,glnA,1,1,446,446,flye
MRSA_r10_20,infB_2,infB_2,1,1,615,615,flye
MRSA_r10_20,ltaE,ltaE,1,1,341,341,flye
MRSA_r10_20,cls_1,cls_1,1,1,493,493,flye
MRSA_r10_20,btuD_3,btuD_2,0,1,299,299,flye
MRSA_r10_20,desR,desR,1,1,168,168,flye
MRSA_r10_20,nucH,nucH,1,1,177,177,flye
MRSA_r10_20,yclM,yclM,1,1,460,460,flye
MRSA_r10_20,thrC,thrC,1,1,353,353,flye
MRSA_r10_20,thrB,thrB,1,1,304,304,flye
MRSA_r10_20,lysP_1,lysP_1,1,1,484,484,flye
MRSA_r10_20,katA,katA,1,1,505,505,flye
MRSA_r10_20,rpmG2_1,rpmG2_1,1,1,49,49,flye
MRSA_r10_20,rpsN2,rpsN2,1,1,89,89,flye
MRSA_r10_20,guaC,guaC,1,1,325,325,flye
MRSA_r10_20,lexA_1,lexA_1,1,1,207,207,flye
MRSA_r10_20,tkt,tkt,1,1,662,662,flye
MRSA_r10_20,sbcD,,0,0,373,0,flye
MRSA_r10_20,sbcC,sbcC,1,1,1009,1009,flye
MRSA_r10_20,mscL,mscL,1,1,120,120,flye
MRSA_r10_20,opuD_1,opuD_1,1,1,548,548,flye
MRSA_r10_20,acnA,acnA,1,1,901,901,flye
MRSA_r10_20,plsY,plsY,1,1,202,202,flye
MRSA_r10_20,parE,parE,1,1,663,663,flye
MRSA_r10_20,parC,parC,1,1,800,800,flye
MRSA_r10_20,alsT,alsT,1,1,486,486,flye
MRSA_r10_20,glcT,glcT,1,1,283,283,flye
MRSA_r10_20,mprF,mprF,1,1,840,840,flye
MRSA_r10_20,msrA1,msrA1,1,1,169,169,flye
MRSA_r10_20,msrR,msrR,1,1,327,327,flye
MRSA_r10_20,umuC,umuC,1,1,420,420,flye
MRSA_r10_20,ysdC_1,ysdC_1,1,1,343,343,flye
MRSA_r10_20,trpE,trpE,1,1,468,468,flye
MRSA_r10_20,trpG_2,trpG_2,1,1,188,188,flye
MRSA_r10_20,trpD2,trpD2,1,1,257,257,flye
MRSA_r10_20,trpC,trpC,1,1,260,260,flye
MRSA_r10_20,trpF,trpF,1,1,211,211,flye
MRSA_r10_20,trpB,trpB,1,1,404,404,flye
MRSA_r10_20,trpA,trpA,1,1,242,242,flye
MRSA_r10_20,femA_2,femA_2,1,1,420,420,flye
MRSA_r10_20,femB,femB,1,1,419,419,flye
MRSA_r10_20,nikE,nikE,1,1,233,233,flye
MRSA_r10_20,nikD,nikD,1,1,257,257,flye
MRSA_r10_20,nikC,nikC,1,1,276,276,flye
MRSA_r10_20,nikB,nikB,1,1,328,328,flye
MRSA_r10_20,pepF1_2,pepF1_2,1,1,604,604,flye
MRSA_r10_20,phoU,phoU,1,1,213,213,flye
MRSA_r10_20,pstB3,pstB3,1,1,283,283,flye
MRSA_r10_20,pstA,pstA,1,1,305,305,flye
MRSA_r10_20,pstS,pstS,1,1,327,327,flye
MRSA_r10_20,cvfB,cvfB,1,1,300,300,flye
MRSA_r10_20,ybiT,ybiT,1,1,533,533,flye
MRSA_r10_20,lysC,lysC,1,1,401,401,flye
MRSA_r10_20,asd,asd,1,1,329,329,flye
MRSA_r10_20,dapA,dapA,1,1,295,295,flye
MRSA_r10_20,dapB,,0,0,240,0,flye
MRSA_r10_20,dapH_2,dapH_1,0,1,239,239,flye
MRSA_r10_20,scmP_3,scmP_2,0,1,383,383,flye
MRSA_r10_20,alr1_1,alr1_1,1,1,361,361,flye
MRSA_r10_20,lysA,lysA,1,1,421,421,flye
MRSA_r10_20,cspA_2,cspA_2,1,1,66,66,flye
MRSA_r10_20,yccX,yccX,1,1,89,89,flye
MRSA_r10_20,brnQ_3,brnQ_1,0,1,447,447,flye
MRSA_r10_20,nirQ,nirQ,1,1,263,263,flye
MRSA_r10_20,mhqA_2,,0,0,269,0,flye
MRSA_r10_20,odhB,odhB,1,1,423,423,flye
MRSA_r10_20,odhA,odhA,1,1,932,932,flye
MRSA_r10_20,arlS,arlS,1,1,451,451,flye
MRSA_r10_20,arlR,arlR,1,1,219,219,flye
MRSA_r10_20,murG,murG,1,1,356,356,flye
MRSA_r10_20,crr,crr,1,1,166,166,flye
MRSA_r10_20,msrB,msrB,1,1,142,142,flye
MRSA_r10_20,msrA2,msrA2,1,1,177,177,flye
MRSA_r10_20,folA,folA,1,1,159,159,flye
MRSA_r10_20,thyA,thyA,1,1,318,318,flye
MRSA_r10_20,rnhA,rnhA,1,1,133,133,flye
MRSA_r10_20,ebh,,0,0,10746,0,flye
MRSA_r10_20,norB_3,norB_1,0,1,463,463,flye
MRSA_r10_20,steT,steT,1,1,440,440,flye
MRSA_r10_20,tdcB,tdcB,1,1,346,346,flye
MRSA_r10_20,ald1,ald1,1,1,372,372,flye
MRSA_r10_20,ypcP,ypcP,1,1,292,292,flye
MRSA_r10_20,der_1,der_1,1,1,1146,1146,flye
MRSA_r10_20,rlmL,rlmL,1,1,381,381,flye
MRSA_r10_20,gpsB,,0,0,114,0,flye
MRSA_r10_20,recU,recU,1,1,208,208,flye
MRSA_r10_20,ponA,ponA,1,1,716,716,flye
MRSA_r10_20,nth_2,nth_2,1,1,219,219,flye
MRSA_r10_20,dnaD,dnaD,1,1,228,228,flye
MRSA_r10_20,asnS,asnS,1,1,430,430,flye
MRSA_r10_20,dinG_1,dinG_1,1,1,897,897,flye
MRSA_r10_20,birA,birA,1,1,323,323,flye
MRSA_r10_20,cca,cca,1,1,400,400,flye
MRSA_r10_20,bshA,bshA,1,1,380,380,flye
MRSA_r10_20,ypjD,ypjD,1,1,105,105,flye
MRSA_r10_20,bepA,bepA,1,1,414,414,flye
MRSA_r10_20,aroA_1,aroA_1,1,1,432,432,flye
MRSA_r10_20,aroB,aroB,1,1,354,354,flye
MRSA_r10_20,aroC,aroC,1,1,388,388,flye
MRSA_r10_20,ndk,ndk,1,1,149,149,flye
MRSA_r10_20,hepT,hepT,1,1,319,319,flye
MRSA_r10_20,menG,menG,1,1,241,241,flye
MRSA_r10_20,hup,hup,1,1,90,90,flye
MRSA_r10_20,gpsA,gpsA,1,1,332,332,flye
MRSA_r10_20,der_2,der_2,1,1,436,436,flye
MRSA_r10_20,rpsA,rpsA,1,1,391,391,flye
MRSA_r10_20,cmk,cmk,1,1,219,219,flye
MRSA_r10_20,ansA,ansA,1,1,322,322,flye
MRSA_r10_20,ebpS,ebpS,1,1,486,486,flye
MRSA_r10_20,recQ_2,recQ_2,1,1,459,459,flye
MRSA_r10_20,ribU,ribU,1,1,181,181,flye
MRSA_r10_20,smc_2,,0,0,2066,0,flye
MRSA_r10_20,clpP_2,,0,0,257,0,flye
MRSA_r10_20,xerC_5,xerC_2,0,1,401,401,flye
MRSA_r10_20,srrB,,0,0,583,0,flye
MRSA_r10_20,srrA,srrA,1,1,241,241,flye
MRSA_r10_20,rluB,rluB,1,1,245,245,flye
MRSA_r10_20,scpB,scpB,1,1,180,180,flye
MRSA_r10_20,scpA,scpA,1,1,251,251,flye
MRSA_r10_20,xerD_2,xerD_2,1,1,295,295,flye
MRSA_r10_20,fur,fur,1,1,149,149,flye
MRSA_r10_20,nudF,nudF,1,1,180,180,flye
MRSA_r10_20,yajO,yajO,1,1,302,302,flye
MRSA_r10_20,proC,proC,1,1,271,271,flye
MRSA_r10_20,rnz,rnz,1,1,306,306,flye
MRSA_r10_20,zwf,zwf,1,1,494,494,flye
MRSA_r10_20,malL,malL,1,1,549,549,flye
MRSA_r10_20,malR,malR,1,1,339,339,flye
MRSA_r10_20,psuK,psuK,1,1,299,299,flye
MRSA_r10_20,entS,entS,1,1,369,369,flye
MRSA_r10_20,gnd,gnd,1,1,468,468,flye
MRSA_r10_20,pepT_2,pepT_2,1,1,377,377,flye
MRSA_r10_20,pdhC_2,pdhC_2,1,1,424,424,flye
MRSA_r10_20,bfmBAB,bfmBAB,1,1,327,327,flye
MRSA_r10_20,bfmBAA,,0,0,330,0,flye
MRSA_r10_20,recN,recN,1,1,559,559,flye
MRSA_r10_20,argR_1,argR_1,1,1,150,150,flye
MRSA_r10_20,xseB,xseB,1,1,76,76,flye
MRSA_r10_20,xseA,xseA,1,1,445,445,flye
MRSA_r10_20,nusB,nusB_2,0,1,129,129,flye
MRSA_r10_20,cfiB,cfiB,1,1,451,451,flye
MRSA_r10_20,accB_1,accB_1,1,1,154,154,flye
MRSA_r10_20,efp,efp,1,1,185,185,flye
MRSA_r10_20,ypdF,ypdF,1,1,353,353,flye
MRSA_r10_20,lipM,lipM,1,1,276,276,flye
MRSA_r10_20,yibN,yibN,1,1,128,128,flye
MRSA_r10_20,gcvPB,gcvPB,1,1,490,490,flye
MRSA_r10_20,gcvPA,gcvPA,1,1,448,448,flye
MRSA_r10_20,gcvT,gcvT,1,1,363,363,flye
MRSA_r10_20,aroK,aroK,1,1,174,174,flye
MRSA_r10_20,comGC,comGC,1,1,103,103,flye
MRSA_r10_20,comGA,comGA,1,1,324,324,flye
MRSA_r10_20,glcK,glcK,1,1,328,328,flye
MRSA_r10_20,gluP,gluP,1,1,487,487,flye
MRSA_r10_20,yqgN,yqgN,1,1,197,197,flye
MRSA_r10_20,rpmG2_2,rpmG2_2,1,1,49,49,flye
MRSA_r10_20,pbpH,pbpH,1,1,691,691,flye
MRSA_r10_20,sodA,sodA,1,1,199,199,flye
MRSA_r10_20,zur,zur,1,1,136,136,flye
MRSA_r10_20,znuB,znuB,1,1,290,290,flye
MRSA_r10_20,btuD_4,btuD_3,0,1,261,261,flye
MRSA_r10_20,nfo,nfo,1,1,296,296,flye
MRSA_r10_20,cshB,cshB,1,1,448,448,flye
MRSA_r10_20,trmK,,0,0,225,0,flye
MRSA_r10_20,sigA,sigA,1,1,368,368,flye
MRSA_r10_20,dnaG,dnaG,1,1,599,599,flye
MRSA_r10_20,yqfL,yqfL,1,1,272,272,flye
MRSA_r10_20,ccpN,ccpN,1,1,179,179,flye
MRSA_r10_20,glyQS,glyQS,1,1,463,463,flye
MRSA_r10_20,recO,recO,1,1,248,248,flye
MRSA_r10_20,era,era,1,1,299,299,flye
MRSA_r10_20,cdd,cdd,1,1,134,134,flye
MRSA_r10_20,dgkA,dgkA,1,1,114,114,flye
MRSA_r10_20,ybeY,ybeY,1,1,155,155,flye
MRSA_r10_20,rpsU,rpsU,1,1,58,58,flye
MRSA_r10_20,mtaB,mtaB,1,1,448,448,flye
MRSA_r10_20,rsmE,rsmE,1,1,250,250,flye
MRSA_r10_20,prmA,prmA,1,1,312,312,flye
MRSA_r10_20,dnaJ,dnaJ,1,1,379,379,flye
MRSA_r10_20,dnaK,dnaK,1,1,610,610,flye
MRSA_r10_20,grpE,grpE,1,1,208,208,flye
MRSA_r10_20,hrcA,hrcA,1,1,325,325,flye
MRSA_r10_20,hemW,hemW,1,1,385,385,flye
MRSA_r10_20,lepA,lepA,1,1,607,607,flye
MRSA_r10_20,rpsT,rpsT,1,1,83,83,flye
MRSA_r10_20,yqeN,yqeN,1,1,324,324,flye
MRSA_r10_20,comEC,comEC,1,1,733,733,flye
MRSA_r10_20,tadA_2,tadA_2,1,1,143,143,flye
MRSA_r10_20,comEA,comEA,1,1,225,225,flye
MRSA_r10_20,tam,tam,1,1,238,238,flye
MRSA_r10_20,rsfS,rsfS,1,1,117,117,flye
MRSA_r10_20,nadD,nadD,1,1,189,189,flye
MRSA_r10_20,yhbY,yhbY,1,1,96,96,flye
MRSA_r10_20,aroE,aroE,1,1,268,268,flye
MRSA_r10_20,yqeH,yqeH,1,1,366,366,flye
MRSA_r10_20,mtnN,mtnN,1,1,228,228,flye
MRSA_r10_20,entA_1,entA_1,1,1,62,62,flye
MRSA_r10_20,entA_2,entA_2,1,1,167,167,flye
MRSA_r10_20,mntH_2,mntH_2,1,1,410,410,flye
MRSA_r10_20,pxpA,pxpA,1,1,250,250,flye
MRSA_r10_20,accC,accC,1,1,453,453,flye
MRSA_r10_20,accB_2,accB_2,1,1,149,149,flye
MRSA_r10_20,pxpC_2,,0,0,336,0,flye
MRSA_r10_20,pxpB_2,pxpB_2,1,1,244,244,flye
MRSA_r10_20,greA,greA,1,1,158,158,flye
MRSA_r10_20,udk,udk,1,1,207,207,flye
MRSA_r10_20,rlhA,rlhA,1,1,307,307,flye
MRSA_r10_20,trmR,trmR,1,1,212,212,flye
MRSA_r10_20,yrrK,yrrK,1,1,142,142,flye
MRSA_r10_20,alaS,alaS,1,1,877,877,flye
MRSA_r10_20,recD2,recD2,1,1,825,825,flye
MRSA_r10_20,yrrB,yrrB,1,1,222,222,flye
MRSA_r10_20,mnmA,mnmA,1,1,372,372,flye
MRSA_r10_20,iscS_1,iscS_1,1,1,380,380,flye
MRSA_r10_20,cymR,cymR,1,1,140,140,flye
MRSA_r10_20,aspS,aspS,1,1,588,588,flye
MRSA_r10_20,hisS,hisS,1,1,420,420,flye
MRSA_r10_20,dtd,dtd,1,1,150,150,flye
MRSA_r10_20,relA,relA,1,1,736,736,flye
MRSA_r10_20,apt,apt,1,1,172,172,flye
MRSA_r10_20,secDF,secDF,1,1,759,759,flye
MRSA_r10_20,yajC,yajC,1,1,86,86,flye
MRSA_r10_20,tgt,tgt,1,1,379,379,flye
MRSA_r10_20,queA,queA,1,1,341,341,flye
MRSA_r10_20,ruvB_2,ruvB_1,0,1,334,334,flye
MRSA_r10_20,ruvA,ruvA,1,1,200,200,flye
MRSA_r10_20,obg,obg,1,1,430,430,flye
MRSA_r10_20,rpmA,rpmA,1,1,94,94,flye
MRSA_r10_20,rplU,rplU,1,1,102,102,flye
MRSA_r10_20,mreC,mreC,1,1,280,280,flye
MRSA_r10_20,comC,comC,1,1,235,235,flye
MRSA_r10_20,fpgS,fpgS,1,1,423,423,flye
MRSA_r10_20,valS,valS,1,1,876,876,flye
MRSA_r10_20,tag,tag,1,1,186,186,flye
MRSA_r10_20,hemL1,hemL1,1,1,428,428,flye
MRSA_r10_20,hemB,hemB,1,1,324,324,flye
MRSA_r10_20,hemC,hemC,1,1,308,308,flye
MRSA_r10_20,hemA,hemA,1,1,448,448,flye
MRSA_r10_20,engB,engB,1,1,196,196,flye
MRSA_r10_20,clpX,clpX,1,1,420,420,flye
MRSA_r10_20,tig,tig,1,1,433,433,flye
MRSA_r10_20,rplT,rplT,1,1,118,118,flye
MRSA_r10_20,rpmI,rpmI,1,1,66,66,flye
MRSA_r10_20,infC,infC,1,1,186,186,flye
MRSA_r10_20,lysP_2,,0,0,497,0,flye
MRSA_r10_20,thrS,thrS,1,1,645,645,flye
MRSA_r10_20,dnaI,dnaI,1,1,306,306,flye
MRSA_r10_20,dnaB,dnaB,1,1,466,466,flye
MRSA_r10_20,nrdR,nrdR,1,1,156,156,flye
MRSA_r10_20,gapA2,gapA2,1,1,341,341,flye
MRSA_r10_20,coaE,coaE,1,1,207,207,flye
MRSA_r10_20,mutM,mutM,1,1,290,290,flye
MRSA_r10_20,polA,polA,1,1,876,876,flye
MRSA_r10_20,sasA,sasA,1,1,554,554,flye
MRSA_r10_20,phoP,phoP,1,1,233,233,flye
MRSA_r10_20,icd,icd,1,1,422,422,flye
MRSA_r10_20,citZ,citZ,1,1,373,373,flye
MRSA_r10_20,cycA_1,cycA_1,1,1,453,453,flye
MRSA_r10_20,pyk,pyk,1,1,585,585,flye
MRSA_r10_20,pfkA,pfkA,1,1,322,322,flye
MRSA_r10_20,accA,accA,1,1,314,314,flye
MRSA_r10_20,accD,accD,1,1,285,285,flye
MRSA_r10_20,dnaE,dnaE,1,1,1065,1065,flye
MRSA_r10_20,nrnA,nrnA,1,1,313,313,flye
MRSA_r10_20,IMPDH,IMPDH,1,1,432,432,flye
MRSA_r10_20,ald2,ald2,1,1,372,372,flye
MRSA_r10_20,ackA,ackA,1,1,400,400,flye
MRSA_r10_20,tpx,tpx,1,1,164,164,flye
MRSA_r10_20,yfcA,yfcA,1,1,256,256,flye
MRSA_r10_20,thiI,thiI,1,1,407,407,flye
MRSA_r10_20,iscS_2,iscS_2,1,1,388,388,flye
MRSA_r10_20,ezrA,ezrA,1,1,564,564,flye
MRSA_r10_20,msrC,msrC,1,1,154,154,flye
MRSA_r10_20,rpsD,,0,0,200,0,flye
MRSA_r10_20,glpQ_2,glpQ_2,1,1,247,247,flye
MRSA_r10_20,serA,serA,1,1,534,534,flye
MRSA_r10_20,nagP,nagP,1,1,488,488,flye
MRSA_r10_20,plsC,plsC,1,1,205,205,flye
MRSA_r10_20,tyrS,tyrS,1,1,420,420,flye
MRSA_r10_20,mrcA,mrcA,1,1,301,301,flye
MRSA_r10_20,isdH_1,isdH_1,1,1,535,535,flye
MRSA_r10_20,isdH_2,isdH_2,1,1,278,278,flye
MRSA_r10_20,fhs,fhs,1,1,555,555,flye
MRSA_r10_20,acsA_1,acsA_1,1,1,568,568,flye
MRSA_r10_20,acuA,acuA,1,1,210,210,flye
MRSA_r10_20,acuC,acuC,1,1,389,389,flye
MRSA_r10_20,ccpA,ccpA,1,1,329,329,flye
MRSA_r10_20,aroA_2,aroA_2,1,1,363,363,flye
MRSA_r10_20,murC,murC,1,1,437,437,flye
MRSA_r10_20,ytpP,ytpP,1,1,103,103,flye
MRSA_r10_20,pepA_2,pepA_2,1,1,358,358,flye
MRSA_r10_20,ytnP,ytnP,1,1,280,280,flye
MRSA_r10_20,hin_2,hin_2,1,1,197,197,flye
MRSA_r10_20,blaI,blaI,1,1,126,126,flye
MRSA_r10_20,blaR1,blaR1,1,1,585,585,flye
MRSA_r10_20,blaZ,blaZ,1,1,281,281,flye
MRSA_r10_20,trmB,trmB,1,1,214,214,flye
MRSA_r10_20,dat,dat,1,1,282,282,flye
MRSA_r10_20,rsuA,rsuA,1,1,231,231,flye
MRSA_r10_20,murJ,murJ,1,1,553,553,flye
MRSA_r10_20,leuS,leuS,1,1,805,805,flye
MRSA_r10_20,mdtH,mdtH,1,1,393,393,flye
MRSA_r10_20,rsmH_2,rsmH_2,1,1,187,187,flye
MRSA_r10_20,rot,rot,1,1,133,133,flye
MRSA_r10_20,ytpA,ytpA,1,1,275,275,flye
MRSA_r10_20,putB,putB,1,1,333,333,flye
MRSA_r10_20,ribH,ribH,1,1,154,154,flye
MRSA_r10_20,ribBA,ribBA,1,1,393,393,flye
MRSA_r10_20,ribE,ribE,1,1,210,210,flye
MRSA_r10_20,ribD,ribD,1,1,347,347,flye
MRSA_r10_20,arsB_2,arsB_2,1,1,430,430,flye
MRSA_r10_20,atl_2,atl_2,1,1,284,284,flye
MRSA_r10_20,sigS,sigS,1,1,156,156,flye
MRSA_r10_20,tal,tal,1,1,237,237,flye
MRSA_r10_20,crcB_1,crcB_1,1,1,121,121,flye
MRSA_r10_20,crcB_2,crcB_2,1,1,117,117,flye
MRSA_r10_20,yvgN,yvgN,1,1,277,277,flye
MRSA_r10_20,metK,metK,1,1,397,397,flye
MRSA_r10_20,pckA,pckA,1,1,530,530,flye
MRSA_r10_20,ytkD,ytkD,1,1,159,159,flye
MRSA_r10_20,menC,menC,1,1,333,333,flye
MRSA_r10_20,menE_2,menE_2,1,1,492,492,flye
MRSA_r10_20,hylB,hylB,1,1,806,806,flye
MRSA_r10_20,prmC_1,prmC_1,1,1,518,518,flye
MRSA_r10_20,splF_1,splF_1,1,1,183,183,flye
MRSA_r10_20,splF_2,splF_2,1,1,41,41,flye
MRSA_r10_20,splE_1,splE_1,1,1,238,238,flye
MRSA_r10_20,splB_1,splB_1,1,1,74,74,flye
MRSA_r10_20,splE_2,splE_2,1,1,113,113,flye
MRSA_r10_20,splE_3,splE_3,1,1,238,238,flye
MRSA_r10_20,splC,splC,1,1,239,239,flye
MRSA_r10_20,splB_2,splB_2,1,1,54,54,flye
MRSA_r10_20,entG,entG,1,1,258,258,flye
MRSA_r10_20,entA_3,entA_3,1,1,251,251,flye
MRSA_r10_20,entB,entB,1,1,261,261,flye
MRSA_r10_20,entE,entE,1,1,254,254,flye
MRSA_r10_20,ydeN,ydeN,1,1,184,184,flye
MRSA_r10_20,hemY,,0,0,466,0,flye
MRSA_r10_20,hemH,hemH,1,1,307,307,flye
MRSA_r10_20,hemE,hemE,1,1,345,345,flye
MRSA_r10_20,traP,traP,1,1,167,167,flye
MRSA_r10_20,ecsA,ecsA,1,1,246,246,flye
MRSA_r10_20,hit,hit,1,1,140,140,flye
MRSA_r10_20,prsA,prsA,1,1,320,320,flye
MRSA_r10_20,yhaM,yhaM,1,1,313,313,flye
MRSA_r10_20,cpdA_1,cpdA_1,1,1,398,398,flye
MRSA_r10_20,liaR,liaR,1,1,207,207,flye
MRSA_r10_20,rluD_2,,0,0,273,0,flye
MRSA_r10_20,fumC,fumC,1,1,461,461,flye
MRSA_r10_20,nagB_2,nagB_2,1,1,199,199,flye
MRSA_r10_20,trmL,trmL,1,1,156,156,flye
MRSA_r10_20,queG,queG,1,1,375,375,flye
MRSA_r10_20,tcyC_1,,0,0,242,0,flye
MRSA_r10_20,mltF,mltF,1,1,485,485,flye
MRSA_r10_20,perR,perR,1,1,148,148,flye
MRSA_r10_20,ghrB_2,ghrB_2,1,1,319,319,flye
MRSA_r10_20,bcp,bcp,1,1,151,151,flye
MRSA_r10_20,hemL2,hemL2,1,1,429,429,flye
MRSA_r10_20,mutY,mutY,1,1,345,345,flye
MRSA_r10_20,yfhP,yfhP,1,1,325,325,flye
MRSA_r10_20,tagH_2,tagH_2,1,1,505,505,flye
MRSA_r10_20,yfhH,yfhH,1,1,104,104,flye
MRSA_r10_20,recX,recX,1,1,272,272,flye
MRSA_r10_20,mgt,mgt,1,1,269,269,flye
MRSA_r10_20,pepS,pepS,1,1,415,415,flye
MRSA_r10_20,ptpA,ptpA,1,1,154,154,flye
MRSA_r10_20,vraR,vraR,1,1,209,209,flye
MRSA_r10_20,vraS,vraS,1,1,347,347,flye
MRSA_r10_20,map_2,map_2,1,1,252,252,flye
MRSA_r10_20,gatD_2,gatD_1,0,1,243,243,flye
MRSA_r10_20,murT,murT,1,1,437,437,flye
MRSA_r10_20,ftnA,ftnA,1,1,166,166,flye
MRSA_r10_20,dinB,dinB,1,1,356,356,flye
MRSA_r10_20,rlmCD,rlmCD,1,1,453,453,flye
MRSA_r10_20,dagK,dagK,1,1,315,315,flye
MRSA_r10_20,gatB_2,gatB_1,0,1,475,475,flye
MRSA_r10_20,gatA_2,gatA_1,0,1,485,485,flye
MRSA_r10_20,gatC_2,gatC_1,0,1,100,100,flye
MRSA_r10_20,putP,putP,1,1,512,512,flye
MRSA_r10_20,ligA,ligA,1,1,667,667,flye
MRSA_r10_20,pcrA,pcrA,1,1,730,730,flye
MRSA_r10_20,pcrB,pcrB,1,1,230,230,flye
MRSA_r10_20,purB,purB,1,1,431,431,flye
MRSA_r10_20,sspP,sspP,1,1,388,388,flye
MRSA_r10_20,nadE,nadE,1,1,273,273,flye
MRSA_r10_20,pncB2,pncB2,1,1,489,489,flye
MRSA_r10_20,nos,nos,1,1,358,358,flye
MRSA_r10_20,pheA,pheA,1,1,264,264,flye
MRSA_r10_20,sdcS,sdcS,1,1,520,520,flye
MRSA_r10_20,rutB,rutB,1,1,186,186,flye
MRSA_r10_20,ppaC,ppaC,1,1,309,309,flye
MRSA_r10_20,aldH1,aldH1,1,1,459,459,flye
MRSA_r10_20,bcrA_1,bcrA_1,1,1,290,290,flye
MRSA_r10_20,btuD_5,btuD_4,0,1,298,298,flye
MRSA_r10_20,ytrA,ytrA,1,1,126,126,flye
MRSA_r10_20,hisC_2,hisC_2,1,1,428,428,flye
MRSA_r10_20,map_3,map_3,1,1,689,689,flye
MRSA_r10_20,hlb_1,hlb_1,1,1,66,66,flye
MRSA_r10_20,scn_3,scn_2,0,1,116,116,flye
MRSA_r10_20,chp,chp,1,1,149,149,flye
MRSA_r10_20,sak,sak,1,1,163,163,flye
MRSA_r10_20,entA_4,entA_4,1,1,257,257,flye
MRSA_r10_20,clpP_3,clpP_3,1,1,245,245,flye
MRSA_r10_20,dut,dut,1,1,180,180,flye
MRSA_r10_20,ssbA_2,ssbA_1,0,1,156,156,flye
MRSA_r10_20,lexA_2,lexA_2,1,1,237,237,flye
MRSA_r10_20,dinG_2,dinG_2,1,1,310,310,flye
MRSA_r10_20,xerC_8,xerC_5,0,1,345,345,flye
MRSA_r10_20,hlb_2,hlb_2,1,1,231,231,flye
MRSA_r10_20,dapE,dapE,1,1,407,407,flye
MRSA_r10_20,ktrB_2,ktrB_2,1,1,435,435,flye
MRSA_r10_20,groL,groL,1,1,538,538,flye
MRSA_r10_20,groS,groS,1,1,94,94,flye
MRSA_r10_20,MroQ,MroQ,1,1,247,247,flye
MRSA_r10_20,yafV,yafV,1,1,261,261,flye
MRSA_r10_20,agrB,agrB,1,1,205,205,flye
MRSA_r10_20,agrA,agrA,1,1,238,238,flye
MRSA_r10_20,scrK,scrK,1,1,319,319,flye
MRSA_r10_20,scrB,scrB,1,1,497,497,flye
MRSA_r10_20,treR_2,treR_1,0,1,316,316,flye
MRSA_r10_20,nrgA,nrgA,1,1,416,416,flye
MRSA_r10_20,yeeD,yeeD,1,1,74,74,flye
MRSA_r10_20,rex,rex,1,1,211,211,flye
MRSA_r10_20,yheS,yheS,1,1,642,642,flye
MRSA_r10_20,mutS_2,mutS_3,0,1,536,536,flye
MRSA_r10_20,tsaD,tsaD,1,1,341,341,flye
MRSA_r10_20,rimI,rimI,1,1,154,154,flye
MRSA_r10_20,tsaB,tsaB,1,1,220,220,flye
MRSA_r10_20,tsaE,tsaE,1,1,164,164,flye
MRSA_r10_20,ilvD,ilvD,1,1,562,562,flye
MRSA_r10_20,ilvB,ilvB,1,1,589,589,flye
MRSA_r10_20,ilvC,ilvC,1,1,334,334,flye
MRSA_r10_20,leuA_2,leuA_2,1,1,509,509,flye
MRSA_r10_20,leuB,leuB,1,1,348,348,flye
MRSA_r10_20,leuC,leuC,1,1,455,455,flye
MRSA_r10_20,leuD,leuD,1,1,190,190,flye
MRSA_r10_20,ilvA,ilvA,1,1,422,422,flye
MRSA_r10_20,yhgF,yhgF,1,1,712,712,flye
MRSA_r10_20,sigB,sigB,1,1,256,256,flye
MRSA_r10_20,rsbW,rsbW,1,1,159,159,flye
MRSA_r10_20,rsbV,rsbV,1,1,108,108,flye
MRSA_r10_20,rsbU,rsbU,1,1,333,333,flye
MRSA_r10_20,mazF,mazF,1,1,120,120,flye
MRSA_r10_20,mazE,mazE,1,1,56,56,flye
MRSA_r10_20,alr1_2,alr1_2,1,1,382,382,flye
MRSA_r10_20,acpS,acpS,1,1,119,119,flye
MRSA_r10_20,kdpC_3,kdpC_1,0,1,186,186,flye
MRSA_r10_20,kdpB_2,kdpB_1,0,1,675,675,flye
MRSA_r10_20,kdpA_2,kdpA_1,0,1,558,558,flye
MRSA_r10_20,kdpD_2,kdpD_1,0,1,885,885,flye
MRSA_r10_20,kdpE_2,kdpE_1,0,1,231,231,flye
MRSA_r10_20,cshA,cshA,1,1,506,506,flye
MRSA_r10_20,murF,murF,1,1,452,452,flye
MRSA_r10_20,ddl,ddl,1,1,356,356,flye
MRSA_r10_20,rodA,rodA,1,1,400,400,flye
MRSA_r10_20,cls_2,cls_2,1,1,494,494,flye
MRSA_r10_20,yedJ,yedJ,1,1,215,215,flye
MRSA_r10_20,yidC,yidC,1,1,290,290,flye
MRSA_r10_20,thiE,thiE,1,1,213,213,flye
MRSA_r10_20,thiM,thiM,1,1,263,263,flye
MRSA_r10_20,thiD,thiD,1,1,276,276,flye
MRSA_r10_20,tenA,tenA,1,1,229,229,flye
MRSA_r10_20,sceD,sceD,1,1,231,231,flye
MRSA_r10_20,ssbA_3,ssbA_2,0,1,131,131,flye
MRSA_r10_20,fabZ,fabZ,1,1,146,146,flye
MRSA_r10_20,murA1,murA1,1,1,421,421,flye
MRSA_r10_20,atpC,atpC,1,1,134,134,flye
MRSA_r10_20,atpD,atpD,1,1,470,470,flye
MRSA_r10_20,atpG,atpG,1,1,288,288,flye
MRSA_r10_20,atpA,atpA,1,1,502,502,flye
MRSA_r10_20,atpH,atpH,1,1,179,179,flye
MRSA_r10_20,atpF,atpF,1,1,173,173,flye
MRSA_r10_20,atpE,atpE,1,1,70,70,flye
MRSA_r10_20,atpB,atpB,1,1,242,242,flye
MRSA_r10_20,mnaA_2,mnaA_1,0,1,376,376,flye
MRSA_r10_20,upp,upp,1,1,209,209,flye
MRSA_r10_20,glyA,glyA,1,1,412,412,flye
MRSA_r10_20,ptpB,ptpB,1,1,139,139,flye
MRSA_r10_20,ywlC,ywlC,1,1,348,348,flye
MRSA_r10_20,prmC_2,prmC_2,1,1,278,278,flye
MRSA_r10_20,prfA,prfA,1,1,358,358,flye
MRSA_r10_20,tdk,tdk,1,1,199,199,flye
MRSA_r10_20,rpmE2,rpmE2,1,1,84,84,flye
MRSA_r10_20,rho,rho,1,1,438,438,flye
MRSA_r10_20,yodB,yodB,1,1,111,111,flye
MRSA_r10_20,murA2,murA2,1,1,419,419,flye
MRSA_r10_20,fba,fba,1,1,286,286,flye
MRSA_r10_20,pyrG,pyrG,1,1,536,536,flye
MRSA_r10_20,rpoE,rpoE,1,1,176,176,flye
MRSA_r10_20,coaW,coaW,1,1,267,267,flye
MRSA_r10_20,abgB,abgB,1,1,394,394,flye
MRSA_r10_20,luxS,luxS,1,1,156,156,flye
MRSA_r10_20,pdp,pdp,1,1,433,433,flye
MRSA_r10_20,deoC2,deoC2,1,1,220,220,flye
MRSA_r10_20,deoD1,deoD1,1,1,236,236,flye
MRSA_r10_20,dps,dps,1,1,147,147,flye
MRSA_r10_20,gmuF,gmuF,1,1,312,312,flye
MRSA_r10_20,yhfK,yhfK,1,1,221,221,flye
MRSA_r10_20,czrA,czrA,1,1,106,106,flye
MRSA_r10_20,czcD_2,czcD_1,0,1,326,326,flye
MRSA_r10_20,ywtE_2,ywtE_2,1,1,285,285,flye
MRSA_r10_20,ylmA,ylmA,1,1,260,260,flye
MRSA_r10_20,glmS,glmS,1,1,601,601,flye
MRSA_r10_20,mtlA,mtlA,1,1,512,512,flye
MRSA_r10_20,mtlF,mtlF,1,1,144,144,flye
MRSA_r10_20,mtlD,mtlD,1,1,368,368,flye
MRSA_r10_20,glmM,glmM,1,1,451,451,flye
MRSA_r10_20,cdaR,cdaR,1,1,310,310,flye
MRSA_r10_20,cdaA,cdaA,1,1,269,269,flye
MRSA_r10_20,arg,arg,1,1,302,302,flye
MRSA_r10_20,salA,salA,1,1,354,354,flye
MRSA_r10_20,emrY,emrY,1,1,362,362,flye
MRSA_r10_20,ribZ,ribZ,1,1,131,131,flye
MRSA_r10_20,sepA,sepA,1,1,155,155,flye
MRSA_r10_20,sdrM,sdrM,1,1,447,447,flye
MRSA_r10_20,ydjM,ydjM,1,1,171,171,flye
MRSA_r10_20,fecD,fecD,1,1,322,322,flye
MRSA_r10_20,yfiZ_2,yfiZ_1,0,1,343,343,flye
MRSA_r10_20,yfmC_2,yfmC_2,1,1,327,327,flye
MRSA_r10_20,orr,orr,1,1,356,356,flye
MRSA_r10_20,opuD_2,opuD_2,1,1,520,520,flye
MRSA_r10_20,yfmJ,yfmJ,1,1,334,334,flye
MRSA_r10_20,lacG,lacG,1,1,470,470,flye
MRSA_r10_20,lacE,lacE,1,1,570,570,flye
MRSA_r10_20,lacF,lacF,1,1,103,103,flye
MRSA_r10_20,lacD,lacD,1,1,326,326,flye
MRSA_r10_20,lacC_2,lacC_2,1,1,310,310,flye
MRSA_r10_20,lacB,lacB,1,1,171,171,flye
MRSA_r10_20,lacA,lacA,1,1,142,142,flye
MRSA_r10_20,lacR,lacR,1,1,251,251,flye
MRSA_r10_20,cobB,,0,0,246,0,flye
MRSA_r10_20,adhR,adhR,1,1,138,138,flye
MRSA_r10_20,map_4,map_4,1,1,141,141,flye
MRSA_r10_20,aldC_1,aldC_1,1,1,234,234,flye
MRSA_r10_20,alsS,alsS,1,1,554,554,flye
MRSA_r10_20,rpsI,rpsI,1,1,132,132,flye
MRSA_r10_20,rplM,rplM,1,1,145,145,flye
MRSA_r10_20,truA,truA,1,1,264,264,flye
MRSA_r10_20,ecfT_2,ecfT_2,1,1,268,268,flye
MRSA_r10_20,ecfA2,ecfA2,1,1,286,286,flye
MRSA_r10_20,ecfA1,ecfA1,1,1,269,269,flye
MRSA_r10_20,rplQ,rplQ,1,1,122,122,flye
MRSA_r10_20,rpoA,rpoA,1,1,314,314,flye
MRSA_r10_20,rpsK,rpsK,1,1,129,129,flye
MRSA_r10_20,rpsM,rpsM,1,1,121,121,flye
MRSA_r10_20,rpmJ,rpmJ,1,1,37,37,flye
MRSA_r10_20,infA,infA,1,1,72,72,flye
MRSA_r10_20,adk,adk,1,1,215,215,flye
MRSA_r10_20,secY_1,secY_1,1,1,430,430,flye
MRSA_r10_20,rplO,rplO,1,1,146,146,flye
MRSA_r10_20,rpmD,rpmD,1,1,59,59,flye
MRSA_r10_20,rpsE,rpsE,1,1,166,166,flye
MRSA_r10_20,rplR,rplR,1,1,119,119,flye
MRSA_r10_20,rplF,rplF,1,1,178,178,flye
MRSA_r10_20,rpsH,,0,0,132,0,flye
MRSA_r10_20,rpsZ,rpsZ,1,1,61,61,flye
MRSA_r10_20,rplE,rplE,1,1,179,179,flye
MRSA_r10_20,rplX,rplX,1,1,105,105,flye
MRSA_r10_20,rplN,rplN,1,1,122,122,flye
MRSA_r10_20,rpsQ,rpsQ,1,1,87,87,flye
MRSA_r10_20,rpmC,rpmC,1,1,69,69,flye
MRSA_r10_20,rplP,rplP,1,1,144,144,flye
MRSA_r10_20,rpsC,,0,0,217,0,flye
MRSA_r10_20,rplV,rplV,1,1,117,117,flye
MRSA_r10_20,rpsS,rpsS,1,1,92,92,flye
MRSA_r10_20,rplB,rplB,1,1,277,277,flye
MRSA_r10_20,rplW,rplW,1,1,91,91,flye
MRSA_r10_20,rplD,rplD,1,1,207,207,flye
MRSA_r10_20,rplC,rplC,1,1,220,220,flye
MRSA_r10_20,rpsJ,rpsJ,1,1,102,102,flye
MRSA_r10_20,pbuG,pbuG,1,1,444,444,flye
MRSA_r10_20,topB,topB,1,1,711,711,flye
MRSA_r10_20,glcU_2,glcU_1,0,1,287,287,flye
MRSA_r10_20,swrC,swrC,1,1,1055,1055,flye
MRSA_r10_20,femX,femX,1,1,421,421,flye
MRSA_r10_20,yfcJ,yfcJ,1,1,403,403,flye
MRSA_r10_20,sarV,sarV,1,1,116,116,flye
MRSA_r10_20,moaA,,0,0,340,0,flye
MRSA_r10_20,mobA,mobA,1,1,199,199,flye
MRSA_r10_20,moaD,moaD,1,1,77,77,flye
MRSA_r10_20,moaE,moaE,1,1,148,148,flye
MRSA_r10_20,moeA,moeA,1,1,419,419,flye
MRSA_r10_20,moaC,moaC,1,1,164,164,flye
MRSA_r10_20,moaB,moaB,1,1,168,168,flye
MRSA_r10_20,cysA,cysA,1,1,201,201,flye
MRSA_r10_20,modB,modB,1,1,223,223,flye
MRSA_r10_20,modA,modA,1,1,260,260,flye
MRSA_r10_20,fdhD,fdhD,1,1,265,265,flye
MRSA_r10_20,bioY,bioY,1,1,184,184,flye
MRSA_r10_20,rihB,rihB,1,1,313,313,flye
MRSA_r10_20,fhuD,fhuD,1,1,302,302,flye
MRSA_r10_20,ydbM,ydbM,1,1,390,390,flye
MRSA_r10_20,ureA,ureA,1,1,100,100,flye
MRSA_r10_20,ureB,ureB,1,1,136,136,flye
MRSA_r10_20,ureC,ureC,1,1,571,571,flye
MRSA_r10_20,ureE,ureE,1,1,150,150,flye
MRSA_r10_20,ureF,ureF,1,1,229,229,flye
MRSA_r10_20,ureG,ureG,1,1,204,204,flye
MRSA_r10_20,ureD1,ureD1,1,1,278,278,flye
MRSA_r10_20,sarR,sarR,1,1,115,115,flye
MRSA_r10_20,rhaS_2,rhaS_1,0,1,651,651,flye
MRSA_r10_20,ssaA2,ssaA2,1,1,269,269,flye
MRSA_r10_20,mleN_1,mleN_1,1,1,465,465,flye
MRSA_r10_20,odh,odh,1,1,360,360,flye
MRSA_r10_20,auaG,auaG,1,1,374,374,flye
MRSA_r10_20,atl_3,atl_3,1,1,258,258,flye
MRSA_r10_20,tagU_2,tagU_2,1,1,315,315,flye
MRSA_r10_20,cysQ,cysQ,1,1,265,265,flye
MRSA_r10_20,ybbH_3,ybbH_1,0,1,290,290,flye
MRSA_r10_20,yifK,yifK,1,1,459,459,flye
MRSA_r10_20,panS_1,panS_1,1,1,113,113,flye
MRSA_r10_20,panS_2,panS_2,1,1,178,178,flye
MRSA_r10_20,malP,malP,1,1,534,534,flye
MRSA_r10_20,glvR,glvR,1,1,254,254,flye
MRSA_r10_20,mleN_2,mleN_2,1,1,436,436,flye
MRSA_r10_20,yghA,yghA,1,1,293,293,flye
MRSA_r10_20,scmP_4,scmP_3,0,1,302,302,flye
MRSA_r10_20,hutI,hutI,1,1,412,412,flye
MRSA_r10_20,hutU,hutU,1,1,553,553,flye
MRSA_r10_20,hdfR_2,hdfR_1,0,1,294,294,flye
MRSA_r10_20,fosB,fosB,1,1,139,139,flye
MRSA_r10_20,hutG,hutG,1,1,311,311,flye
MRSA_r10_20,lyrA,lyrA,1,1,419,419,flye
MRSA_r10_20,rpiA,rpiA,1,1,228,228,flye
MRSA_r10_20,yiiM,yiiM,1,1,217,217,flye
MRSA_r10_20,mro,mro,1,1,339,339,flye
MRSA_r10_20,yhaP,,0,0,410,0,flye
MRSA_r10_20,lnrL_2,lnrL_1,0,1,299,299,flye
MRSA_r10_20,gltS,gltS,1,1,402,402,flye
MRSA_r10_20,fni,fni,1,1,349,349,flye
MRSA_r10_20,zntB,zntB,1,1,315,315,flye
MRSA_r10_20,mdtD,mdtD,1,1,645,645,flye
MRSA_r10_20,aaeA,aaeA,1,1,215,215,flye
MRSA_r10_20,bcr_1,bcr_1,1,1,402,402,flye
MRSA_r10_20,tcaA,tcaA,1,1,460,460,flye
MRSA_r10_20,tcaR,tcaR,1,1,151,151,flye
MRSA_r10_20,hrtA_2,hrtA_1,0,1,221,221,flye
MRSA_r10_20,hssR,hssR,1,1,224,224,flye
MRSA_r10_20,hssS,hssS,1,1,457,457,flye
MRSA_r10_20,lnrL_3,lnrL_2,0,1,242,242,flye
MRSA_r10_20,ybhR,ybhR,1,1,360,360,flye
MRSA_r10_20,mqo1,mqo1,1,1,492,492,flye
MRSA_r10_20,lctP_2,lctP_1,0,1,532,532,flye
MRSA_r10_20,paiA,paiA,1,1,171,171,flye
MRSA_r10_20,yhfP,yhfP,1,1,334,334,flye
MRSA_r10_20,treP_2,treP_1,0,1,480,480,flye
MRSA_r10_20,ydaG,ydaG,1,1,140,140,flye
MRSA_r10_20,gltT,gltT,1,1,425,425,flye
MRSA_r10_20,sarZ,sarZ,1,1,148,148,flye
MRSA_r10_20,narT,narT,1,1,389,389,flye
MRSA_r10_20,mta,mta,1,1,95,95,flye
MRSA_r10_20,nreC,nreC,1,1,217,217,flye
MRSA_r10_20,nreB,nreB,1,1,344,344,flye
MRSA_r10_20,narX,narX,1,1,225,225,flye
MRSA_r10_20,narH,narH,1,1,519,519,flye
MRSA_r10_20,narG,,0,0,1229,0,flye
MRSA_r10_20,cysG,cysG,1,1,325,325,flye
MRSA_r10_20,nasE,nasE,1,1,104,104,flye
MRSA_r10_20,nasD,nasD,1,1,801,801,flye
MRSA_r10_20,sirB,sirB,1,1,250,250,flye
MRSA_r10_20,ytmI,ytmI,1,1,178,178,flye
MRSA_r10_20,nirC,nirC,1,1,274,274,flye
MRSA_r10_20,yoeB,yoeB,1,1,88,88,flye
MRSA_r10_20,yefM,yefM,1,1,83,83,flye
MRSA_r10_20,bdbD,bdbD,1,1,199,199,flye
MRSA_r10_20,femA_3,femA_3,1,1,416,416,flye
MRSA_r10_20,tcyC_2,tcyC_2,1,1,243,243,flye
MRSA_r10_20,tcyB,tcyB,1,1,242,242,flye
MRSA_r10_20,farB_2,farB_1,0,1,479,479,flye
MRSA_r10_20,gpmA_2,gpmA_1,0,1,228,228,flye
MRSA_r10_20,mneS,mneS,1,1,288,288,flye
MRSA_r10_20,sbi,sbi,1,1,437,437,flye
MRSA_r10_20,hlgA,hlgA,1,1,321,321,flye
MRSA_r10_20,hlgC,hlgC,1,1,315,315,flye
MRSA_r10_20,hlgB,hlgB,1,1,325,325,flye
MRSA_r10_20,bioW,bioW,1,1,230,230,flye
MRSA_r10_20,bioB,bioB,1,1,335,335,flye
MRSA_r10_20,bioK,bioK,1,1,452,452,flye
MRSA_r10_20,bioD,bioD,1,1,228,228,flye
MRSA_r10_20,garK_2,garK_2,1,1,380,380,flye
MRSA_r10_20,bcr_2,bcr_2,1,1,403,403,flye
MRSA_r10_20,cpdA_2,cpdA_2,1,1,268,268,flye
MRSA_r10_20,cycA_2,cycA_2,1,1,469,469,flye
MRSA_r10_20,nhaK_2,nhaK_2,1,1,692,692,flye
MRSA_r10_20,kimA,kimA,1,1,609,609,flye
MRSA_r10_20,flp,flp,1,1,499,499,flye
MRSA_r10_20,hldD,hldD,1,1,283,283,flye
MRSA_r10_20,panE,panE,1,1,311,311,flye
MRSA_r10_20,norB_4,norB_2,0,1,466,466,flye
MRSA_r10_20,opuCD,opuCD,1,1,231,231,flye
MRSA_r10_20,opuCC,opuCC,1,1,313,313,flye
MRSA_r10_20,opuCB,opuCB,1,1,211,211,flye
MRSA_r10_20,opuCA,opuCA,1,1,408,408,flye
MRSA_r10_20,yveA,yveA,1,1,545,545,flye
MRSA_r10_20,pnbA,pnbA,1,1,450,450,flye
MRSA_r10_20,pbuE_2,pbuE_2,1,1,395,395,flye
MRSA_r10_20,fetB,fetB,1,1,258,258,flye
MRSA_r10_20,fetA,fetA,1,1,220,220,flye
MRSA_r10_20,ysdC_2,ysdC_2,1,1,358,358,flye
MRSA_r10_20,yehR,yehR,1,1,151,151,flye
MRSA_r10_20,cntE,cntE,1,1,397,397,flye
MRSA_r10_20,cntF,cntF,1,1,249,249,flye
MRSA_r10_20,cntD,cntD,1,1,271,271,flye
MRSA_r10_20,cntC,cntC,1,1,289,289,flye
MRSA_r10_20,cntB,cntB,1,1,311,311,flye
MRSA_r10_20,cntA,cntA,1,1,532,532,flye
MRSA_r10_20,cntM,cntM,1,1,433,433,flye
MRSA_r10_20,cntL,cntL,1,1,272,272,flye
MRSA_r10_20,cntK,cntK,1,1,273,273,flye
MRSA_r10_20,bacC,bacC,1,1,272,272,flye
MRSA_r10_20,abgT,abgT,1,1,512,512,flye
MRSA_r10_20,uvrB_2,uvrB_2,1,1,953,953,flye
MRSA_r10_20,nudG,nudG,1,1,130,130,flye
MRSA_r10_20,pgcA,pgcA,1,1,545,545,flye
MRSA_r10_20,gtaB,gtaB,1,1,288,288,flye
MRSA_r10_20,fnbA,fnbA,1,1,965,965,flye
MRSA_r10_20,gntT,gntT,1,1,452,452,flye
MRSA_r10_20,xylB,xylB,1,1,517,517,flye
MRSA_r10_20,ywaC,ywaC,1,1,230,230,flye
MRSA_r10_20,sauU,sauU,1,1,425,425,flye
MRSA_r10_20,argO_2,argO_2,1,1,205,205,flye
MRSA_r10_20,norG,norG,1,1,470,470,flye
MRSA_r10_20,bcrA_2,bcrA_2,1,1,231,231,flye
MRSA_r10_20,fbp,fbp,1,1,654,654,flye
MRSA_r10_20,mhqD,mhqD,1,1,197,197,flye
MRSA_r10_20,mhqA_3,mhqA_1,0,1,322,322,flye
MRSA_r10_20,mhqR,mhqR,1,1,144,144,flye
MRSA_r10_20,yjdJ,yjdJ,1,1,94,94,flye
MRSA_r10_20,catE_2,catE_2,1,1,268,268,flye
MRSA_r10_20,ldhD_1,ldhD_1,1,1,330,330,flye
MRSA_r10_20,ybjI,ybjI,1,1,266,266,flye
MRSA_r10_20,srtA,srtA,1,1,206,206,flye
MRSA_r10_20,pitA,pitA,1,1,163,163,flye
MRSA_r10_20,sdhA,sdhA,1,1,299,299,flye
MRSA_r10_20,yicL,yicL,1,1,307,307,flye
MRSA_r10_20,glcB,glcB,1,1,707,707,flye
MRSA_r10_20,ydaP,ydaP,1,1,579,579,flye
MRSA_r10_20,cidB,cidB,1,1,229,229,flye
MRSA_r10_20,cidA,cidA,1,1,131,131,flye
MRSA_r10_20,cynR,cynR,1,1,287,287,flye
MRSA_r10_20,mvaA,mvaA,1,1,426,426,flye
MRSA_r10_20,mvaS,mvaS,1,1,388,388,flye
MRSA_r10_20,ogt,ogt,1,1,173,173,flye
MRSA_r10_20,clpL,clpL,1,1,701,701,flye
MRSA_r10_20,feoB,feoB,1,1,664,664,flye
MRSA_r10_20,ydfJ,ydfJ,1,1,829,829,flye
MRSA_r10_20,rocA,rocA,1,1,514,514,flye
MRSA_r10_20,copA,copA,1,1,802,802,flye
MRSA_r10_20,copZ,copZ,1,1,68,68,flye
MRSA_r10_20,ldhD_2,ldhD_2,1,1,342,342,flye
MRSA_r10_20,bacF,bacF,1,1,384,384,flye
MRSA_r10_20,crtN,crtN,1,1,502,502,flye
MRSA_r10_20,crtM_1,crtM_1,1,1,169,169,flye
MRSA_r10_20,crtM_2,crtM_2,1,1,94,94,flye
MRSA_r10_20,crtQ,,0,0,375,0,flye
MRSA_r10_20,crtP,crtP,1,1,497,497,flye
MRSA_r10_20,ssaA,ssaA,1,1,255,255,flye
MRSA_r10_20,oatA_2,oatA_2,1,1,603,603,flye
MRSA_r10_20,isaA,isaA,1,1,233,233,flye
MRSA_r10_20,cpnA,cpnA,1,1,234,234,flye
MRSA_r10_20,pyrD,pyrD,1,1,354,354,flye
MRSA_r10_20,queH,queH,1,1,240,240,flye
MRSA_r10_20,cocE,cocE,1,1,560,560,flye
MRSA_r10_20,panD,panD,1,1,127,127,flye
MRSA_r10_20,panC,panC,1,1,283,283,flye
MRSA_r10_20,panB,panB,1,1,272,272,flye
MRSA_r10_20,aldC_2,aldC_2,1,1,234,234,flye
MRSA_r10_20,ldh2,ldh2,1,1,319,319,flye
MRSA_r10_20,yhdG,yhdG,1,1,482,482,flye
MRSA_r10_20,fda,fda,1,1,296,296,flye
MRSA_r10_20,mqo2,mqo2,1,1,498,498,flye
MRSA_r10_20,acsA_2,acsA_2,1,1,539,539,flye
MRSA_r10_20,isdG_2,isdG_2,1,1,147,147,flye
MRSA_r10_20,betA,betA,1,1,569,569,flye
MRSA_r10_20,gbsA,gbsA,1,1,496,496,flye
MRSA_r10_20,opcR,opcR,1,1,187,187,flye
MRSA_r10_20,opuD_3,opuD_3,1,1,540,540,flye
MRSA_r10_20,nrdD,nrdD,1,1,616,616,flye
MRSA_r10_20,citN,citN,1,1,456,456,flye
MRSA_r10_20,sirC,sirC,1,1,202,202,flye
MRSA_r10_20,cysJ,cysJ,1,1,626,626,flye
MRSA_r10_20,bsaA_2,bsaA_2,1,1,165,165,flye
MRSA_r10_20,bceB_2,bceB_2,1,1,666,666,flye
MRSA_r10_20,yxdL,yxdL,1,1,251,251,flye
MRSA_r10_20,graS_2,graS_2,1,1,295,295,flye
MRSA_r10_20,graR_2,graR_2,1,1,221,221,flye
MRSA_r10_20,phoB,phoB,1,1,457,457,flye
MRSA_r10_20,clfB,clfB,1,1,873,873,flye
MRSA_r10_20,arcR,arcR,1,1,234,234,flye
MRSA_r10_20,arcC2,arcC2,1,1,313,313,flye
MRSA_r10_20,arcD,arcD,1,1,476,476,flye
MRSA_r10_20,arcB,arcB,1,1,336,336,flye
MRSA_r10_20,arcA,arcA,1,1,411,411,flye
MRSA_r10_20,argR_2,argR_2,1,1,149,149,flye
MRSA_r10_20,aur,aur,1,1,509,509,flye
MRSA_r10_20,isaB,isaB,1,1,175,175,flye
MRSA_r10_20,manR,manR,1,1,624,624,flye
MRSA_r10_20,manP,manP,1,1,650,650,flye
MRSA_r10_20,yvyI,yvyI,1,1,312,312,flye
MRSA_r10_20,gtfB,gtfB,1,1,452,452,flye
MRSA_r10_20,gtfA_3,gtfA_3,1,1,502,502,flye
MRSA_r10_20,secA1_2,secA1_2,1,1,796,796,flye
MRSA_r10_20,asp2,asp2,1,1,523,523,flye
MRSA_r10_20,asp1,asp1,1,1,452,452,flye
MRSA_r10_20,secY_2,secY_2,1,1,403,403,flye
MRSA_r10_20,sraP,sraP,1,1,1351,1351,flye
MRSA_r10_20,msrAB,msrAB,1,1,158,158,flye
MRSA_r10_20,ywqE_2,ywqE_1,0,1,255,255,flye
MRSA_r10_20,ywqD_2,ywqD_1,0,1,230,230,flye
MRSA_r10_20,cap8A_2,cap8A_1,0,1,220,220,flye
MRSA_r10_20,icaR,icaR,1,1,186,186,flye
MRSA_r10_20,icaA,,0,0,412,0,flye
MRSA_r10_20,icaD,icaD,1,1,101,101,flye
MRSA_r10_20,icaB,icaB,1,1,290,290,flye
MRSA_r10_20,icaC,icaC,1,1,350,350,flye
MRSA_r10_20,lipA_2,lipA_2,1,1,681,681,flye
MRSA_r10_20,hisI,hisI,1,1,210,210,flye
MRSA_r10_20,hisF,hisF,1,1,252,252,flye
MRSA_r10_20,hisA,hisA,1,1,234,234,flye
MRSA_r10_20,hisH,hisH,1,1,192,192,flye
MRSA_r10_20,hisB,hisB,1,1,192,192,flye
MRSA_r10_20,hisC_3,hisC_3,1,1,337,337,flye
MRSA_r10_20,hisD,hisD,1,1,416,416,flye
MRSA_r10_20,hisG,hisG,1,1,204,204,flye
MRSA_r10_20,hisZ,hisZ,1,1,272,272,flye
MRSA_r10_20,ykoC,ykoC,1,1,277,277,flye
MRSA_r10_20,ykoD_2,ykoD_2,1,1,570,570,flye
MRSA_r10_20,salL,salL,1,1,282,282,flye
MRSA_r10_20,pcp,pcp,1,1,212,212,flye
MRSA_r10_20,cna,cna,1,1,1183,1183,flye
MRSA_r10_20,yflS,,0,0,472,0,flye
MRSA_r10_20,rarD,rarD,1,1,302,302,flye
MRSA_r10_20,nixA,nixA,1,1,338,338,flye
MRSA_r10_20,nhoA,nhoA,1,1,266,266,flye
MRSA_r10_20,bceA_2,bceA_2,1,1,252,252,flye
MRSA_r10_20,bceB_3,bceB_3,1,1,626,626,flye
MRSA_r10_20,cspLA,cspLA,1,1,66,66,flye
MRSA_r10_20,noc,noc,1,1,279,279,flye
MRSA_r10_20,rsmG,rsmG,1,1,239,239,flye
MRSA_r10_20,mnmG,mnmG,1,1,625,625,flye
MRSA_r10_20,mnmE,mnmE,1,1,459,459,flye
MRSA_r10_20,rnpA,rnpA,1,1,115,115,flye
MRSA_r10_20,rpmH,rpmH,1,1,45,45,flye
