Sample name,Ref Gene name,test Gene name,name match,Gene found,Ref gene length (AA),Test gene length (AA),Notes
MRSA_r10_10,dnaA,dnaA,1,1,453,453,flye
MRSA_r10_10,dnaN,dnaN,1,1,377,377,flye
MRSA_r10_10,recF,recF,1,1,370,370,flye
MRSA_r10_10,gyrB,gyrB,1,1,644,644,flye
MRSA_r10_10,gyrA,gyrA,1,1,886,886,flye
MRSA_r10_10,nnrD,nnrD,1,1,270,270,flye
MRSA_r10_10,hutH,hutH,1,1,504,504,flye
MRSA_r10_10,serS,serS,1,1,428,428,flye
MRSA_r10_10,metXA,metXA,1,1,322,322,flye
MRSA_r10_10,gdpP,gdpP,1,1,655,655,flye
MRSA_r10_10,rplI,rplI,1,1,148,148,flye
MRSA_r10_10,dnaC,dnaC,1,1,466,466,flye
MRSA_r10_10,purA,purA,1,1,427,427,flye
MRSA_r10_10,walR,walR,1,1,233,233,flye
MRSA_r10_10,walK,,0,0,608,0,flye
MRSA_r10_10,yycI,yycI,1,1,262,262,flye
MRSA_r10_10,yycJ,yycJ,1,1,263,263,flye
MRSA_r10_10,rlmH,rlmH,1,1,159,159,flye
MRSA_r10_10,ble,ble,1,1,134,134,flye
MRSA_r10_10,knt,knt,1,1,247,247,flye
MRSA_r10_10,ugpQ,ugpQ,1,1,247,247,flye
MRSA_r10_10,mecA_1,mecA_2,0,1,668,668,flye
MRSA_r10_10,mecR1,mecR1,1,1,585,585,flye
MRSA_r10_10,mecI,mecI,1,1,114,114,flye
MRSA_r10_10,nagC,nagC,1,1,369,369,flye
MRSA_r10_10,glpE_1,glpE_2,0,1,101,101,flye
MRSA_r10_10,gloB,gloB,1,1,312,312,flye
MRSA_r10_10,glpE_2,glpE_1,0,1,354,354,flye
MRSA_r10_10,COQ5_3,COQ5_1,0,1,220,220,flye
MRSA_r10_10,ermA1_2,ermA1,0,1,243,243,flye
MRSA_r10_10,ant1_2,ant1,0,1,260,260,flye
MRSA_r10_10,xerC_6,xerC_1,0,1,630,630,flye
MRSA_r10_10,xerC_7,xerC_2,0,1,361,361,flye
MRSA_r10_10,kdpE_1,kdpE_2,0,1,231,231,flye
MRSA_r10_10,kdpD_1,kdpD_2,0,1,889,889,flye
MRSA_r10_10,kdpA_1,kdpA_2,0,1,558,558,flye
MRSA_r10_10,kdpB_1,kdpB_4,0,1,673,673,flye
MRSA_r10_10,kdpC_1,kdpC_2,0,1,120,120,flye
MRSA_r10_10,kdpC_2,kdpC_3,0,1,65,65,flye
MRSA_r10_10,mcrC,mcrC,1,1,346,346,flye
MRSA_r10_10,farB_1,farB,0,1,442,442,flye
MRSA_r10_10,dus,dus,1,1,328,328,flye
MRSA_r10_10,plc,plc,1,1,328,328,flye
MRSA_r10_10,rhaS_1,,0,0,745,0,flye
MRSA_r10_10,scmP_1,scmP_3,0,1,392,392,flye
MRSA_r10_10,norB_1,norB_2,0,1,462,462,flye
MRSA_r10_10,lctP_1,lctP_2,0,1,530,530,flye
MRSA_r10_10,spa,,0,0,516,0,flye
MRSA_r10_10,sarS,,0,0,250,0,flye
MRSA_r10_10,yfhA,yfhA,1,1,332,332,flye
MRSA_r10_10,yfiZ_1,yfiZ_2,0,1,331,331,flye
MRSA_r10_10,yfiY,yfiY,1,1,330,330,flye
MRSA_r10_10,sbnA,sbnA,1,1,326,326,flye
MRSA_r10_10,sbnB,,0,0,336,0,flye
MRSA_r10_10,sbnC,sbnC,1,1,584,584,flye
MRSA_r10_10,sbnD,sbnD,1,1,418,418,flye
MRSA_r10_10,sbnE,,0,0,578,0,flye
MRSA_r10_10,sbnF,,0,0,592,0,flye
MRSA_r10_10,garL,garL,1,1,258,258,flye
MRSA_r10_10,sbnH,,0,0,400,0,flye
MRSA_r10_10,sbnI,sbnI,1,1,254,254,flye
MRSA_r10_10,butA,butA,1,1,258,258,flye
MRSA_r10_10,wbgU,wbgU,1,1,323,323,flye
MRSA_r10_10,wbnH,wbnH,1,1,388,388,flye
MRSA_r10_10,sodM,,0,0,199,0,flye
MRSA_r10_10,deoD,deoD,1,1,235,235,flye
MRSA_r10_10,tet(38),tet(38),1,1,452,452,flye
MRSA_r10_10,deoC1,deoC1,1,1,220,220,flye
MRSA_r10_10,deoB,,0,0,392,0,flye
MRSA_r10_10,phnE_1,,0,0,271,0,flye
MRSA_r10_10,phnE_2,,0,0,266,0,flye
MRSA_r10_10,glnQ,,0,0,257,0,flye
MRSA_r10_10,phnD2,,0,0,318,0,flye
MRSA_r10_10,yfkN,,0,0,511,0,flye
MRSA_r10_10,adhE,adhE,1,1,869,869,flye
MRSA_r10_10,cap8A_1,,0,0,222,0,flye
MRSA_r10_10,ywqD_1,ywqD_1,1,1,228,228,flye
MRSA_r10_10,ywqE_1,ywqE_1,1,1,254,254,flye
MRSA_r10_10,pglF,pglF,1,1,607,607,flye
MRSA_r10_10,capD,,0,0,342,0,flye
MRSA_r10_10,wbjC,,0,0,369,0,flye
MRSA_r10_10,wbpI,,0,0,374,0,flye
MRSA_r10_10,dapH_1,dapH_1,1,1,185,185,flye
MRSA_r10_10,epsL,epsL,1,1,185,185,flye
MRSA_r10_10,fcl,fcl,1,1,295,295,flye
MRSA_r10_10,wecC,wecC,1,1,420,420,flye
MRSA_r10_10,mnaA_1,mnaA_2,0,1,381,381,flye
MRSA_r10_10,isdI,isdI,1,1,108,108,flye
MRSA_r10_10,ybaN,ybaN,1,1,127,127,flye
MRSA_r10_10,aldA,aldA,1,1,495,495,flye
MRSA_r10_10,czcD_1,,0,0,319,0,flye
MRSA_r10_10,nrtD,,0,0,246,0,flye
MRSA_r10_10,ssuC,,0,0,253,0,flye
MRSA_r10_10,mdrP,mdrP,1,1,416,416,flye
MRSA_r10_10,dltA_1,dltA_2,0,1,2391,2391,flye
MRSA_r10_10,yagU,yagU,1,1,164,164,flye
MRSA_r10_10,argB,argB,1,1,256,256,flye
MRSA_r10_10,argJ,argJ,1,1,413,413,flye
MRSA_r10_10,argC,argC,1,1,344,344,flye
MRSA_r10_10,rocD2_1,rocD2_3,0,1,394,394,flye
MRSA_r10_10,brnQ_1,brnQ_2,0,1,451,451,flye
MRSA_r10_10,yecD,yecD,1,1,185,185,flye
MRSA_r10_10,ipdC,ipdC,1,1,546,546,flye
MRSA_r10_10,ptsG_1,ptsG_3,0,1,681,681,flye
MRSA_r10_10,murQ,murQ,1,1,298,298,flye
MRSA_r10_10,ybbH_1,ybbH_3,0,1,292,292,flye
MRSA_r10_10,hsdR,hsdR,1,1,929,929,flye
MRSA_r10_10,gsiA,gsiA,1,1,530,530,flye
MRSA_r10_10,ggt,ggt,1,1,668,668,flye
MRSA_r10_10,azoR,azoR,1,1,208,208,flye
MRSA_r10_10,msmX,msmX,1,1,365,365,flye
MRSA_r10_10,cycB,cycB,1,1,423,423,flye
MRSA_r10_10,malG,malG,1,1,279,279,flye
MRSA_r10_10,gfo,gfo,1,1,358,358,flye
MRSA_r10_10,iolG,iolG,1,1,346,346,flye
MRSA_r10_10,uhpT,uhpT,1,1,459,459,flye
MRSA_r10_10,pflB,pflB,1,1,749,749,flye
MRSA_r10_10,pflA,pflA,1,1,251,251,flye
MRSA_r10_10,scn_1,scn_3,0,1,114,114,flye
MRSA_r10_10,fadA,fadA,1,1,394,394,flye
MRSA_r10_10,fadN,fadN,1,1,753,753,flye
MRSA_r10_10,caiA,caiA,1,1,403,403,flye
MRSA_r10_10,lcfB,lcfB,1,1,501,501,flye
MRSA_r10_10,carA_1,carA_2,0,1,520,520,flye
MRSA_r10_10,nikA,nikA,1,1,491,491,flye
MRSA_r10_10,hmp,hmp,1,1,381,381,flye
MRSA_r10_10,ldh1,ldh1,1,1,317,317,flye
MRSA_r10_10,ptsG_2,ptsG_2,1,1,509,509,flye
MRSA_r10_10,rihA,rihA,1,1,311,311,flye
MRSA_r10_10,gatA_1,,0,0,155,0,flye
MRSA_r10_10,gatB_1,gatB_3,0,1,92,92,flye
MRSA_r10_10,gatC_1,gatC_2,0,1,419,419,flye
MRSA_r10_10,gatD_1,,0,0,347,0,flye
MRSA_r10_10,tarI2,tarI2,1,1,238,238,flye
MRSA_r10_10,tarJ',tarJ',1,1,341,341,flye
MRSA_r10_10,tarK,tarK,1,1,564,564,flye
MRSA_r10_10,tarF,tarF,1,1,389,389,flye
MRSA_r10_10,tarI1,tarI1,1,1,238,238,flye
MRSA_r10_10,tarJ,tarJ,1,1,341,341,flye
MRSA_r10_10,tarL,,0,0,562,0,flye
MRSA_r10_10,tarS,tarS,1,1,574,574,flye
MRSA_r10_10,scdA,scdA,1,1,224,224,flye
MRSA_r10_10,ypdA,ypdA,1,1,584,584,flye
MRSA_r10_10,lytR,lytR,1,1,246,246,flye
MRSA_r10_10,lrgA,,0,0,145,0,flye
MRSA_r10_10,lrgB,lrgB,1,1,233,233,flye
MRSA_r10_10,yydK,yydK,1,1,234,234,flye
MRSA_r10_10,ptsG_3,ptsG_1,0,1,263,263,flye
MRSA_r10_10,bglA,bglA,1,1,478,478,flye
MRSA_r10_10,COQ5_2,COQ5_2,1,1,253,253,flye
MRSA_r10_10,rbsK,rbsK,1,1,304,304,flye
MRSA_r10_10,rbsD,rbsD,1,1,134,134,flye
MRSA_r10_10,glcU_1,glcU_2,0,1,293,293,flye
MRSA_r10_10,degA,degA,1,1,332,332,flye
MRSA_r10_10,norB_2,norB_3,0,1,458,458,flye
MRSA_r10_10,yxeI,yxeI,1,1,330,330,flye
MRSA_r10_10,lytM,lytM,1,1,316,316,flye
MRSA_r10_10,lnrL_1,lnrL_3,0,1,219,219,flye
MRSA_r10_10,esxA,esxA,1,1,97,97,flye
MRSA_r10_10,esaA,esaA,1,1,1009,1009,flye
MRSA_r10_10,esaB,esaB,1,1,80,80,flye
MRSA_r10_10,essB,essB,1,1,444,444,flye
MRSA_r10_10,essC,,0,0,1482,0,flye
MRSA_r10_10,essG_1,essG_4,0,1,166,166,flye
MRSA_r10_10,essG_2,essG_3,0,1,166,166,flye
MRSA_r10_10,essG_3,essG_2,0,1,118,118,flye
MRSA_r10_10,essG_4,essG_1,0,1,90,90,flye
MRSA_r10_10,focA,focA,1,1,274,274,flye
MRSA_r10_10,brnQ_2,brnQ_1,0,1,435,435,flye
MRSA_r10_10,hel,hel,1,1,296,296,flye
MRSA_r10_10,hrtA_1,,0,0,225,0,flye
MRSA_r10_10,RBKS,,0,0,372,0,flye
MRSA_r10_10,psuG,psuG,1,1,307,307,flye
MRSA_r10_10,nupC_1,nupC_2,0,1,406,406,flye
MRSA_r10_10,sglT,,0,0,510,0,flye
MRSA_r10_10,nanA,nanA,1,1,293,293,flye
MRSA_r10_10,bglK,bglK,1,1,286,286,flye
MRSA_r10_10,ybbH_2,ybbH_2,1,1,266,266,flye
MRSA_r10_10,nanE,nanE,1,1,222,222,flye
MRSA_r10_10,lip2,,0,0,691,0,flye
MRSA_r10_10,ulaA,ulaA,1,1,448,448,flye
MRSA_r10_10,cmtB,,0,0,147,0,flye
MRSA_r10_10,slyA_1,slyA_2,0,1,139,139,flye
MRSA_r10_10,mepA,mepA,1,1,451,451,flye
MRSA_r10_10,glpT,glpT,1,1,452,452,flye
MRSA_r10_10,mhqA_1,,0,0,308,0,flye
MRSA_r10_10,luxA,luxA,1,1,353,353,flye
MRSA_r10_10,ydaF,ydaF,1,1,181,181,flye
MRSA_r10_10,efeM,efeM,1,1,284,284,flye
MRSA_r10_10,efeN,efeN,1,1,409,409,flye
MRSA_r10_10,tatC2,tatC2,1,1,233,233,flye
MRSA_r10_10,tatAy,tatAy,1,1,71,71,flye
MRSA_r10_10,btuD_1,btuD_4,0,1,280,280,flye
MRSA_r10_10,metE,metE,1,1,742,742,flye
MRSA_r10_10,yitJ,yitJ,1,1,613,613,flye
MRSA_r10_10,metC,metC,1,1,386,386,flye
MRSA_r10_10,metI,metI,1,1,367,367,flye
MRSA_r10_10,spo0J,spo0J,1,1,281,281,flye
MRSA_r10_10,mscS,mscS,1,1,293,293,flye
MRSA_r10_10,ychF,ychF,1,1,365,365,flye
MRSA_r10_10,rpsF,rpsF,1,1,98,98,flye
MRSA_r10_10,ssbA_1,ssbA_3,0,1,167,167,flye
MRSA_r10_10,rpsR,rpsR,1,1,80,80,flye
MRSA_r10_10,xerC_3,xerC_6,0,1,404,404,flye
MRSA_r10_10,gpmA_1,,0,0,193,0,flye
MRSA_r10_10,ahpF,ahpF,1,1,507,507,flye
MRSA_r10_10,ahpC,ahpC,1,1,189,189,flye
MRSA_r10_10,nfrA,nfrA,1,1,251,251,flye
MRSA_r10_10,tcyP,tcyP,1,1,462,462,flye
MRSA_r10_10,xpt,xpt,1,1,192,192,flye
MRSA_r10_10,pucK,pucK,1,1,422,422,flye
MRSA_r10_10,guaB,guaB,1,1,488,488,flye
MRSA_r10_10,guaA,guaA,1,1,513,513,flye
MRSA_r10_10,qorB,qorB,1,1,281,281,flye
MRSA_r10_10,ssl1,ssl1,1,1,226,226,flye
MRSA_r10_10,ssl4_1,ssl4_2,0,1,233,233,flye
MRSA_r10_10,ssl4_2,ssl4_1,0,1,343,343,flye
MRSA_r10_10,ssl3,ssl3,1,1,306,306,flye
MRSA_r10_10,ssl5_1,,0,0,234,0,flye
MRSA_r10_10,ssl7_1,ssl7_2,0,1,231,231,flye
MRSA_r10_10,ssl7_2,ssl7_1,0,1,232,232,flye
MRSA_r10_10,hsdM,hsdM,1,1,518,518,flye
MRSA_r10_10,ssl5_2,ssl5_1,0,1,232,232,flye
MRSA_r10_10,lpl2_1,lpl2_7,0,1,270,270,flye
MRSA_r10_10,lpl2_2,lpl2_6,0,1,257,257,flye
MRSA_r10_10,lpl2_3,lpl2_5,0,1,136,136,flye
MRSA_r10_10,lpl2_4,lpl2_4,1,1,123,123,flye
MRSA_r10_10,lpl2_5,lpl2_3,0,1,256,256,flye
MRSA_r10_10,lpl2_6,lpl2_2,0,1,267,267,flye
MRSA_r10_10,yciC_1,yciC_2,0,1,400,400,flye
MRSA_r10_10,ndhB,ndhB,1,1,494,494,flye
MRSA_r10_10,est_1,est_2,0,1,244,244,flye
MRSA_r10_10,mccA,,0,0,311,0,flye
MRSA_r10_10,mccB,mccB,1,1,380,380,flye
MRSA_r10_10,metN,metN,1,1,341,341,flye
MRSA_r10_10,metP_1,metP_2,0,1,219,219,flye
MRSA_r10_10,metQ_1,,0,0,280,0,flye
MRSA_r10_10,sle1,sle1,1,1,341,341,flye
MRSA_r10_10,hdfR_1,hdfR_2,0,1,294,294,flye
MRSA_r10_10,gltA,gltA,1,1,1499,1499,flye
MRSA_r10_10,gltB,gltB,1,1,487,487,flye
MRSA_r10_10,treP_1,treP_2,0,1,475,475,flye
MRSA_r10_10,treA,treA,1,1,546,546,flye
MRSA_r10_10,treR_1,treR_2,0,1,242,242,flye
MRSA_r10_10,ruvB_1,ruvB_4,0,1,565,565,flye
MRSA_r10_10,recR,recR,1,1,198,198,flye
MRSA_r10_10,speA,speA,1,1,445,445,flye
MRSA_r10_10,tmk,tmk,1,1,205,205,flye
MRSA_r10_10,darA,darA,1,1,109,109,flye
MRSA_r10_10,yabA,yabA,1,1,115,115,flye
MRSA_r10_10,yfiC,yfiC,1,1,241,241,flye
MRSA_r10_10,rsmI,rsmI,1,1,279,279,flye
MRSA_r10_10,metG,metG,1,1,657,657,flye
MRSA_r10_10,dtd3,dtd3,1,1,257,257,flye
MRSA_r10_10,rnmV_1,rnmV_2,0,1,178,178,flye
MRSA_r10_10,rsmA,rsmA,1,1,297,297,flye
MRSA_r10_10,veg,veg,1,1,87,87,flye
MRSA_r10_10,ispE,ispE,1,1,282,282,flye
MRSA_r10_10,purR,purR,1,1,274,274,flye
MRSA_r10_10,yabJ,yabJ,1,1,126,126,flye
MRSA_r10_10,spoVG,spoVG,1,1,100,100,flye
MRSA_r10_10,glmU,glmU,1,1,450,450,flye
MRSA_r10_10,prs,prs,1,1,321,321,flye
MRSA_r10_10,rplY,rplY,1,1,217,217,flye
MRSA_r10_10,pth,pth,1,1,190,190,flye
MRSA_r10_10,mfd,,0,0,1168,0,flye
MRSA_r10_10,divIC,divIC,1,1,130,130,flye
MRSA_r10_10,pnp_1,pnp,0,1,133,133,flye
MRSA_r10_10,tilS,tilS,1,1,431,431,flye
MRSA_r10_10,hpt,hpt,1,1,179,179,flye
MRSA_r10_10,ftsH,ftsH,1,1,697,697,flye
MRSA_r10_10,hslO,hslO,1,1,293,293,flye
MRSA_r10_10,cysK,,0,0,310,0,flye
MRSA_r10_10,folP,folP,1,1,267,267,flye
MRSA_r10_10,folB,folB,1,1,121,121,flye
MRSA_r10_10,folK,folK,1,1,158,158,flye
MRSA_r10_10,lysS,lysS,1,1,495,495,flye
MRSA_r10_10,gabR,gabR,1,1,460,460,flye
MRSA_r10_10,pdxS,pdxS,1,1,295,295,flye
MRSA_r10_10,pdxT,pdxT,1,1,186,186,flye
MRSA_r10_10,nupC_2,nupC_1,0,1,404,404,flye
MRSA_r10_10,ctsR,ctsR,1,1,156,156,flye
MRSA_r10_10,mcsA,,0,0,188,0,flye
MRSA_r10_10,mcsB,mcsB,1,1,336,336,flye
MRSA_r10_10,clpC,clpC,1,1,818,818,flye
MRSA_r10_10,radA,radA,1,1,454,454,flye
MRSA_r10_10,yacL,yacL,1,1,357,357,flye
MRSA_r10_10,gltX,gltX,1,1,484,484,flye
MRSA_r10_10,cysE,cysE,1,1,226,226,flye
MRSA_r10_10,cysS,cysS,1,1,466,466,flye
MRSA_r10_10,mrnC,mrnC,1,1,134,134,flye
MRSA_r10_10,yacP,yacP,1,1,174,174,flye
MRSA_r10_10,secE,secE,1,1,60,60,flye
MRSA_r10_10,nusG,nusG,1,1,182,182,flye
MRSA_r10_10,rplK,rplK,1,1,140,140,flye
MRSA_r10_10,rplA,rplA,1,1,229,229,flye
MRSA_r10_10,rplJ,rplJ,1,1,166,166,flye
MRSA_r10_10,rplL,rplL,1,1,122,122,flye
MRSA_r10_10,rsmC,rsmC,1,1,202,202,flye
MRSA_r10_10,rpoB,rpoB,1,1,1183,1183,flye
MRSA_r10_10,rpoC,rpoC,1,1,1207,1207,flye
MRSA_r10_10,rplGB,rplGB,1,1,84,84,flye
MRSA_r10_10,rpsL,rpsL,1,1,137,137,flye
MRSA_r10_10,rpsG,rpsG,1,1,156,156,flye
MRSA_r10_10,fusA,fusA,1,1,693,693,flye
MRSA_r10_10,tuf,tuf,1,1,394,394,flye
MRSA_r10_10,scmP_2,scmP_4,0,1,391,391,flye
MRSA_r10_10,hchA,hchA,1,1,292,292,flye
MRSA_r10_10,araB,araB,1,1,545,545,flye
MRSA_r10_10,ilvE,ilvE,1,1,358,358,flye
MRSA_r10_10,ppaX_1,ppaX_2,0,1,227,227,flye
MRSA_r10_10,dck,dck,1,1,220,220,flye
MRSA_r10_10,dgk,dgk,1,1,205,205,flye
MRSA_r10_10,tadA_1,tadA_2,0,1,156,156,flye
MRSA_r10_10,ywtE_1,ywtE_2,0,1,289,289,flye
MRSA_r10_10,azo1,azo1,1,1,188,188,flye
MRSA_r10_10,bbp,bbp,1,1,1137,1137,flye
MRSA_r10_10,gtfA_1,gtfA_2,0,1,490,490,flye
MRSA_r10_10,gtfA_2,gtfA_1,0,1,496,496,flye
MRSA_r10_10,folE2,folE2,1,1,292,292,flye
MRSA_r10_10,bshB2,bshB2,1,1,221,221,flye
MRSA_r10_10,yojF,yojF,1,1,120,120,flye
MRSA_r10_10,nagB_1,nagB_2,0,1,252,252,flye
MRSA_r10_10,hxlB,hxlB,1,1,182,182,flye
MRSA_r10_10,gph,gph,1,1,215,215,flye
MRSA_r10_10,proP,proP,1,1,466,466,flye
MRSA_r10_10,menE_1,menE_2,0,1,458,458,flye
MRSA_r10_10,yhfS,yhfS,1,1,379,379,flye
MRSA_r10_10,pdxK,pdxK,1,1,276,276,flye
MRSA_r10_10,ung,ung,1,1,218,218,flye
MRSA_r10_10,pta,pta,1,1,328,328,flye
MRSA_r10_10,lipL,lipL,1,1,278,278,flye
MRSA_r10_10,galK,galK,1,1,306,306,flye
MRSA_r10_10,rclA,rclA,1,1,440,440,flye
MRSA_r10_10,iolS,iolS,1,1,312,312,flye
MRSA_r10_10,ywqN,ywqN,1,1,178,178,flye
MRSA_r10_10,adh,adh,1,1,336,336,flye
MRSA_r10_10,ywiB,ywiB,1,1,138,138,flye
MRSA_r10_10,argS,argS,1,1,553,553,flye
MRSA_r10_10,nth_1,nth_1,1,1,211,211,flye
MRSA_r10_10,btuF,btuF,1,1,295,295,flye
MRSA_r10_10,hdl IVa,hdl IVa,1,1,239,239,flye
MRSA_r10_10,pip,pip,1,1,262,262,flye
MRSA_r10_10,sarA,sarA,1,1,124,124,flye
MRSA_r10_10,xerD_1,xerD_1,1,1,186,186,flye
MRSA_r10_10,mrpA,,0,0,800,0,flye
MRSA_r10_10,mrpB,mrpB,1,1,141,141,flye
MRSA_r10_10,mnhC1_1,mnhC1_2,0,1,114,114,flye
MRSA_r10_10,mnhD1_1,mnhD1_2,0,1,498,498,flye
MRSA_r10_10,mrpE,mrpE,1,1,160,160,flye
MRSA_r10_10,mrpF,mrpF,1,1,100,100,flye
MRSA_r10_10,mrpG,mrpG,1,1,120,120,flye
MRSA_r10_10,nhaK_1,nhaK_2,0,1,680,680,flye
MRSA_r10_10,pbuE_1,pbuE_2,0,1,382,382,flye
MRSA_r10_10,ppaX_2,,0,0,82,0,flye
MRSA_r10_10,mntA,mntA,1,1,309,309,flye
MRSA_r10_10,mntB,mntB,1,1,278,278,flye
MRSA_r10_10,scaC,scaC,1,1,247,247,flye
MRSA_r10_10,mntR,,0,0,214,0,flye
MRSA_r10_10,tarA,tarA,1,1,254,254,flye
MRSA_r10_10,tagH_1,tagH_2,0,1,264,264,flye
MRSA_r10_10,tagG,,0,0,270,0,flye
MRSA_r10_10,tarB,,0,0,367,0,flye
MRSA_r10_10,tagX,,0,0,353,0,flye
MRSA_r10_10,tarD,tarD,1,1,132,132,flye
MRSA_r10_10,bmrA,bmrA,1,1,575,575,flye
MRSA_r10_10,nupG,nupG,1,1,409,409,flye
MRSA_r10_10,fepC,fepC,1,1,265,265,flye
MRSA_r10_10,feuB,feuB,1,1,334,334,flye
MRSA_r10_10,feuC,feuC,1,1,338,338,flye
MRSA_r10_10,dhaK,dhaK,1,1,322,322,flye
MRSA_r10_10,dhaL,dhaL,1,1,194,194,flye
MRSA_r10_10,dhaM,dhaM,1,1,120,120,flye
MRSA_r10_10,aes,aes,1,1,347,347,flye
MRSA_r10_10,graR_1,graR_1,1,1,224,224,flye
MRSA_r10_10,graS_1,graS_1,1,1,346,346,flye
MRSA_r10_10,bceA_1,bceA_1,1,1,253,253,flye
MRSA_r10_10,bceB_1,,0,0,629,0,flye
MRSA_r10_10,rhaR,rhaR_2,0,1,647,647,flye
MRSA_r10_10,sarX,sarX,1,1,141,141,flye
MRSA_r10_10,oxyR,oxyR,1,1,288,288,flye
MRSA_r10_10,setC,setC,1,1,430,430,flye
MRSA_r10_10,bin3,,0,0,105,0,flye
MRSA_r10_10,sdpR,sdpR,1,1,104,104,flye
MRSA_r10_10,arsB_1,arsB_2,0,1,429,429,flye
MRSA_r10_10,arsC,arsC,1,1,131,131,flye
MRSA_r10_10,pre,pre,1,1,108,108,flye
MRSA_r10_10,bcrR,bcrR,1,1,113,113,flye
MRSA_r10_10,cysL,cysL,1,1,273,273,flye
MRSA_r10_10,hin_1,hin_2,0,1,191,191,flye
MRSA_r10_10,copB,,0,0,681,0,flye
MRSA_r10_10,mco,mco,1,1,477,477,flye
MRSA_r10_10,cadA,cadA,1,1,726,726,flye
MRSA_r10_10,cadC,cadC,1,1,121,121,flye
MRSA_r10_10,uppP,uppP,1,1,291,291,flye
MRSA_r10_10,cydD,cydD,1,1,543,543,flye
MRSA_r10_10,mgrA,mgrA,1,1,147,147,flye
MRSA_r10_10,yciC_2,yciC_1,0,1,308,308,flye
MRSA_r10_10,ydhF,ydhF,1,1,302,302,flye
MRSA_r10_10,phrB,phrB,1,1,457,457,flye
MRSA_r10_10,tetA,tetA,1,1,388,388,flye
MRSA_r10_10,ybaK,ybaK,1,1,160,160,flye
MRSA_r10_10,ydjF,,0,0,254,0,flye
MRSA_r10_10,lacC_1,lacC_2,0,1,306,306,flye
MRSA_r10_10,fruA,fruA,1,1,652,652,flye
MRSA_r10_10,nagA,nagA,1,1,393,393,flye
MRSA_r10_10,csbB,csbB,1,1,327,327,flye
MRSA_r10_10,saeS,saeS,1,1,351,351,flye
MRSA_r10_10,saeR,saeR,1,1,228,228,flye
MRSA_r10_10,queE,queE,1,1,237,237,flye
MRSA_r10_10,queD,queD,1,1,139,139,flye
MRSA_r10_10,queC,queC,1,1,222,222,flye
MRSA_r10_10,trpG_1,trpG_1,1,1,197,197,flye
MRSA_r10_10,menF,menF,1,1,383,383,flye
MRSA_r10_10,pxpB_1,pxpB_2,0,1,236,236,flye
MRSA_r10_10,pxpC_1,pxpC_2,0,1,334,334,flye
MRSA_r10_10,ltaS,ltaS,1,1,646,646,flye
MRSA_r10_10,ettA,ettA,1,1,625,625,flye
MRSA_r10_10,recQ_1,recQ_1,1,1,593,593,flye
MRSA_r10_10,btuD_2,btuD_3,0,1,325,325,flye
MRSA_r10_10,hisC_1,hisC_2,0,1,352,352,flye
MRSA_r10_10,dtpT,dtpT,1,1,501,501,flye
MRSA_r10_10,queF,queF,1,1,166,166,flye
MRSA_r10_10,cntI,cntI,1,1,288,288,flye
MRSA_r10_10,nrdI,nrdI,1,1,132,132,flye
MRSA_r10_10,nrdE,nrdE,1,1,701,701,flye
MRSA_r10_10,nrdF,nrdF,1,1,323,323,flye
MRSA_r10_10,yclN,yclN,1,1,323,323,flye
MRSA_r10_10,yclO,yclO,1,1,318,318,flye
MRSA_r10_10,yclP,yclP,1,1,253,253,flye
MRSA_r10_10,yclQ,yclQ,1,1,342,342,flye
MRSA_r10_10,murB,murB,1,1,307,307,flye
MRSA_r10_10,garK_1,garK_2,0,1,374,374,flye
MRSA_r10_10,pepT_1,pepT_2,0,1,408,408,flye
MRSA_r10_10,yjjP,yjjP,1,1,253,253,flye
MRSA_r10_10,tagO,tagO,1,1,351,351,flye
MRSA_r10_10,comFA,comFA,1,1,360,360,flye
MRSA_r10_10,hpf,hpf,1,1,190,190,flye
MRSA_r10_10,secA1_1,secA1_1,1,1,843,843,flye
MRSA_r10_10,prfB,prfB,1,1,330,330,flye
MRSA_r10_10,yfbR,yfbR,1,1,216,216,flye
MRSA_r10_10,uvrB_1,uvrB_2,0,1,661,661,flye
MRSA_r10_10,uvrA,uvrA,1,1,948,948,flye
MRSA_r10_10,hprK,hprK,1,1,310,310,flye
MRSA_r10_10,lgt,lgt,1,1,280,280,flye
MRSA_r10_10,maa,maa,1,1,161,161,flye
MRSA_r10_10,trxB,trxB,1,1,311,311,flye
MRSA_r10_10,whiA,whiA,1,1,314,314,flye
MRSA_r10_10,clpP_1,clpP_2,0,1,195,195,flye
MRSA_r10_10,mleS,mleS,1,1,544,544,flye
MRSA_r10_10,cggR,cggR,1,1,337,337,flye
MRSA_r10_10,gapA1,gapA1,1,1,336,336,flye
MRSA_r10_10,pgk,pgk,1,1,396,396,flye
MRSA_r10_10,tpiA,tpiA,1,1,253,253,flye
MRSA_r10_10,gpmI,gpmI,1,1,505,505,flye
MRSA_r10_10,eno,eno,1,1,434,434,flye
MRSA_r10_10,secG,secG,1,1,77,77,flye
MRSA_r10_10,est_2,est_1,0,1,246,246,flye
MRSA_r10_10,rnr,rnr,1,1,790,790,flye
MRSA_r10_10,smpB,smpB,1,1,154,154,flye
MRSA_r10_10,ssp,ssp,1,1,341,341,flye
MRSA_r10_10,nuc,nuc,1,1,228,228,flye
MRSA_r10_10,cspA_1,cspA_1,1,1,66,66,flye
MRSA_r10_10,pspB,pspB,1,1,194,194,flye
MRSA_r10_10,argO_1,argO_2,0,1,205,205,flye
MRSA_r10_10,aroD,aroD,1,1,238,238,flye
MRSA_r10_10,ydbP,ydbP,1,1,106,106,flye
MRSA_r10_10,mgsR,mgsR,1,1,118,118,flye
MRSA_r10_10,gcvH,gcvH,1,1,126,126,flye
MRSA_r10_10,rnmV_2,rnmV_1,0,1,129,129,flye
MRSA_r10_10,metN2,metN2,1,1,341,341,flye
MRSA_r10_10,metP_2,metP_1,0,1,231,231,flye
MRSA_r10_10,metQ_2,metQ_1,0,1,273,273,flye
MRSA_r10_10,sufC,sufC,1,1,253,253,flye
MRSA_r10_10,csd,csd,1,1,413,413,flye
MRSA_r10_10,sufU,sufU,1,1,154,154,flye
MRSA_r10_10,pnoA,pnoA,1,1,355,355,flye
MRSA_r10_10,lipA_1,lipA_1,1,1,305,305,flye
MRSA_r10_10,yutF,yutF,1,1,259,259,flye
MRSA_r10_10,ghrB_1,ghrB_2,0,1,319,319,flye
MRSA_r10_10,dltA_2,dltA_1,0,1,485,485,flye
MRSA_r10_10,patA,patA,1,1,404,404,flye
MRSA_r10_10,dltC,dltC,1,1,78,78,flye
MRSA_r10_10,dltD,dltD,1,1,391,391,flye
MRSA_r10_10,nfuA,nfuA,1,1,80,80,flye
MRSA_r10_10,yjlD,yjlD,1,1,354,354,flye
MRSA_r10_10,pepA_1,pepA_2,0,1,491,491,flye
MRSA_r10_10,mnhG1,mnhG1,1,1,118,118,flye
MRSA_r10_10,mnhF1,mnhF1,1,1,97,97,flye
MRSA_r10_10,mnhE1,mnhE1,1,1,159,159,flye
MRSA_r10_10,mnhD1_2,mnhD1_1,0,1,498,498,flye
MRSA_r10_10,mnhC1_2,mnhC1_1,0,1,113,113,flye
MRSA_r10_10,mnhB1,mnhB1,1,1,142,142,flye
MRSA_r10_10,mnhA1,mnhA1,1,1,801,801,flye
MRSA_r10_10,kapB,kapB,1,1,127,127,flye
MRSA_r10_10,yugI,yugI,1,1,125,125,flye
MRSA_r10_10,rocD2_2,,0,0,396,0,flye
MRSA_r10_10,gluD,gluD,1,1,414,414,flye
MRSA_r10_10,glpQ_1,glpQ_2,0,1,309,309,flye
MRSA_r10_10,argH,argH,1,1,459,459,flye
MRSA_r10_10,argG,argG,1,1,401,401,flye
MRSA_r10_10,pgi,pgi,1,1,443,443,flye
MRSA_r10_10,ydjZ,ydjZ,1,1,191,191,flye
MRSA_r10_10,spsB_1,spsB_2,0,1,174,174,flye
MRSA_r10_10,spsB_2,spsB_1,0,1,191,191,flye
MRSA_r10_10,addB,addB,1,1,1158,1158,flye
MRSA_r10_10,addA,addA,1,1,1217,1217,flye
MRSA_r10_10,cdr,,0,0,438,0,flye
MRSA_r10_10,yitU,yitU,1,1,274,274,flye
MRSA_r10_10,sufT,sufT,1,1,102,102,flye
MRSA_r10_10,oatA_1,oatA_1,1,1,604,604,flye
MRSA_r10_10,clpB,clpB,1,1,869,869,flye
MRSA_r10_10,ampR,ampR,1,1,289,289,flye
MRSA_r10_10,leuA_1,leuA_2,0,1,381,381,flye
MRSA_r10_10,map_1,map_4,0,1,144,144,flye
MRSA_r10_10,fabH,fabH,1,1,313,313,flye
MRSA_r10_10,fabF,fabF,1,1,414,414,flye
MRSA_r10_10,oppB,oppB,1,1,308,308,flye
MRSA_r10_10,oppC,oppC,1,1,356,356,flye
MRSA_r10_10,oppD_1,,0,0,360,0,flye
MRSA_r10_10,oppF_1,,0,0,313,0,flye
MRSA_r10_10,dppE,dppE,1,1,551,551,flye
MRSA_r10_10,appA,appA,1,1,451,451,flye
MRSA_r10_10,oppD_2,,0,0,328,0,flye
MRSA_r10_10,oppF_2,oppF_1,0,1,326,326,flye
MRSA_r10_10,dppC,dppC,1,1,293,293,flye
MRSA_r10_10,trpS,trpS,1,1,329,329,flye
MRSA_r10_10,spxA,spxA,1,1,131,131,flye
MRSA_r10_10,mecA_2,mecA_1,0,1,239,239,flye
MRSA_r10_10,pepF1_1,pepF1_1,1,1,602,602,flye
MRSA_r10_10,yjbI,,0,0,121,0,flye
MRSA_r10_10,yjbK,yjbK,1,1,197,197,flye
MRSA_r10_10,yjbM,yjbM,1,1,211,211,flye
MRSA_r10_10,nadK,nadK,1,1,269,269,flye
MRSA_r10_10,mgtE,mgtE,1,1,461,461,flye
MRSA_r10_10,kefB,kefB,1,1,614,614,flye
MRSA_r10_10,fabI,fabI,1,1,256,256,flye
MRSA_r10_10,acp,acp,1,1,522,522,flye
MRSA_r10_10,ltaA,ltaA,1,1,396,396,flye
MRSA_r10_10,ugtP,ugtP,1,1,391,391,flye
MRSA_r10_10,murE,murE,1,1,494,494,flye
MRSA_r10_10,prfC,prfC,1,1,520,520,flye
MRSA_r10_10,ktrB_1,ktrB_2,0,1,452,452,flye
MRSA_r10_10,tarM,,0,0,493,0,flye
MRSA_r10_10,catD,catD,1,1,118,118,flye
MRSA_r10_10,yfmC_1,yfmC_2,0,1,319,319,flye
MRSA_r10_10,menA,menA,1,1,312,312,flye
MRSA_r10_10,pchA,pchA,1,1,453,453,flye
MRSA_r10_10,menD,menD,1,1,557,557,flye
MRSA_r10_10,menH,menH,1,1,267,267,flye
MRSA_r10_10,menB,menB,1,1,273,273,flye
MRSA_r10_10,sspC,sspC,1,1,109,109,flye
MRSA_r10_10,sspB,sspB,1,1,393,393,flye
MRSA_r10_10,sspA,sspA,1,1,357,357,flye
MRSA_r10_10,dapX,dapX,1,1,384,384,flye
MRSA_r10_10,slyA_2,slyA_1,0,1,139,139,flye
MRSA_r10_10,atl_1,atl_3,0,1,1257,1257,flye
MRSA_r10_10,tagU_1,tagU_2,0,1,408,408,flye
MRSA_r10_10,fmtA,fmtA,1,1,397,397,flye
MRSA_r10_10,qoxD,qoxD,1,1,96,96,flye
MRSA_r10_10,qoxC,qoxC,1,1,201,201,flye
MRSA_r10_10,qoxB,qoxB,1,1,662,662,flye
MRSA_r10_10,qoxA,qoxA,1,1,366,366,flye
MRSA_r10_10,folD,folD,1,1,286,286,flye
MRSA_r10_10,purE,purE,1,1,160,160,flye
MRSA_r10_10,purK,purK,1,1,374,374,flye
MRSA_r10_10,purC,purC,1,1,234,234,flye
MRSA_r10_10,purS,purS,1,1,87,87,flye
MRSA_r10_10,purQ,purQ,1,1,223,223,flye
MRSA_r10_10,purL,purL,1,1,729,729,flye
MRSA_r10_10,purF,purF,1,1,494,494,flye
MRSA_r10_10,purM,purM,1,1,342,342,flye
MRSA_r10_10,purN,purN,1,1,188,188,flye
MRSA_r10_10,purH,purH,1,1,492,492,flye
MRSA_r10_10,purD,purD,1,1,415,415,flye
MRSA_r10_10,ecfT_1,ecfT_2,0,1,268,268,flye
MRSA_r10_10,ykoD_1,ykoD_1,1,1,466,466,flye
MRSA_r10_10,ykoE,ykoE,1,1,191,191,flye
MRSA_r10_10,rlmI,rlmI,1,1,390,390,flye
MRSA_r10_10,ptsH,ptsH,1,1,88,88,flye
MRSA_r10_10,ptsI,ptsI,1,1,572,572,flye
MRSA_r10_10,ythA,ythA,1,1,453,453,flye
MRSA_r10_10,ythB,ythB,1,1,339,339,flye
MRSA_r10_10,ktrA,ktrA,1,1,220,220,flye
MRSA_r10_10,rnj1,rnj1,1,1,565,565,flye
MRSA_r10_10,def,def,1,1,183,183,flye
MRSA_r10_10,pdhA,pdhA,1,1,370,370,flye
MRSA_r10_10,pdhB,pdhB,1,1,325,325,flye
MRSA_r10_10,pdhC_1,pdhC_2,0,1,430,430,flye
MRSA_r10_10,pdhD,pdhD,1,1,468,468,flye
MRSA_r10_10,potA,potA,1,1,364,364,flye
MRSA_r10_10,potB,potB,1,1,265,265,flye
MRSA_r10_10,ydcV,ydcV,1,1,269,269,flye
MRSA_r10_10,potD,potD,1,1,357,357,flye
MRSA_r10_10,mntH_1,mntH_2,0,1,450,450,flye
MRSA_r10_10,suhB,suhB,1,1,275,275,flye
MRSA_r10_10,typA,typA,1,1,615,615,flye
MRSA_r10_10,ftsW,ftsW,1,1,408,408,flye
MRSA_r10_10,pycA,pycA,1,1,1150,1150,flye
MRSA_r10_10,ctaA,ctaA,1,1,306,306,flye
MRSA_r10_10,ctaB2,ctaB2,1,1,303,303,flye
MRSA_r10_10,rsmD,rsmD,1,1,180,180,flye
MRSA_r10_10,coaD,coaD,1,1,160,160,flye
MRSA_r10_10,tmcAL,tmcAL,1,1,379,379,flye
MRSA_r10_10,rpmF,rpmF,1,1,57,57,flye
MRSA_r10_10,isdB,isdB,1,1,652,652,flye
MRSA_r10_10,isdA,isdA,1,1,354,354,flye
MRSA_r10_10,isdC,isdC,1,1,227,227,flye
MRSA_r10_10,isdE,isdE,1,1,292,292,flye
MRSA_r10_10,isdF,isdF,1,1,322,322,flye
MRSA_r10_10,srtB,srtB,1,1,244,244,flye
MRSA_r10_10,isdG_1,isdG_1,1,1,107,107,flye
MRSA_r10_10,pheS,pheS,1,1,352,352,flye
MRSA_r10_10,pheT,pheT,1,1,800,800,flye
MRSA_r10_10,rnhC,rnhC,1,1,329,329,flye
MRSA_r10_10,zapA,zapA,1,1,88,88,flye
MRSA_r10_10,polX,polX,1,1,570,570,flye
MRSA_r10_10,mutS2,mutS2,1,1,782,782,flye
MRSA_r10_10,trxA,trxA,1,1,104,104,flye
MRSA_r10_10,uvrC,uvrC,1,1,593,593,flye
MRSA_r10_10,sdhC,sdhC,1,1,204,204,flye
MRSA_r10_10,frdA,frdA,1,1,588,588,flye
MRSA_r10_10,frdB,frdB,1,1,271,271,flye
MRSA_r10_10,murI,murI,1,1,266,266,flye
MRSA_r10_10,fib,fib,1,1,165,165,flye
MRSA_r10_10,scn_2,scn_2,1,1,116,116,flye
MRSA_r10_10,hly_1,hly_2,0,1,206,206,flye
MRSA_r10_10,hly_2,hly_1,0,1,112,112,flye
MRSA_r10_10,argF,argF,1,1,333,333,flye
MRSA_r10_10,arcC1,arcC1,1,1,311,311,flye
MRSA_r10_10,yfnB,yfnB,1,1,228,228,flye
MRSA_r10_10,bshC,,0,0,537,0,flye
MRSA_r10_10,mraZ,,0,0,143,0,flye
MRSA_r10_10,rsmH_1,rsmH_2,0,1,311,311,flye
MRSA_r10_10,ftsL,ftsL,1,1,133,133,flye
MRSA_r10_10,pbpB,pbpB,1,1,744,744,flye
MRSA_r10_10,mraY,,0,0,321,0,flye
MRSA_r10_10,murD,murD,1,1,449,449,flye
MRSA_r10_10,divIB,divIB,1,1,439,439,flye
MRSA_r10_10,ftsA,ftsA,1,1,468,468,flye
MRSA_r10_10,ftsZ,ftsZ,1,1,390,390,flye
MRSA_r10_10,yggS,yggS,1,1,222,222,flye
MRSA_r10_10,sepF,sepF,1,1,187,187,flye
MRSA_r10_10,divIVA,,0,0,198,0,flye
MRSA_r10_10,ileS,,0,0,917,0,flye
MRSA_r10_10,catE_1,catE_2,0,1,265,265,flye
MRSA_r10_10,lspA,lspA,1,1,163,163,flye
MRSA_r10_10,rluD_1,rluD_2,0,1,305,305,flye
MRSA_r10_10,pyrR,pyrR,1,1,175,175,flye
MRSA_r10_10,pyrP,pyrP,1,1,435,435,flye
MRSA_r10_10,pyrB,pyrB,1,1,293,293,flye
MRSA_r10_10,pyrC,pyrC,1,1,425,425,flye
MRSA_r10_10,carA_2,carA_1,0,1,366,366,flye
MRSA_r10_10,carB,carB,1,1,1057,1057,flye
MRSA_r10_10,pyrF,pyrF,1,1,230,230,flye
MRSA_r10_10,pyrE,pyrE,1,1,203,203,flye
MRSA_r10_10,rqcH,rqcH,1,1,565,565,flye
MRSA_r10_10,gmk,gmk,1,1,207,207,flye
MRSA_r10_10,rpoZ,rpoZ,1,1,72,72,flye
MRSA_r10_10,coaBC,coaBC,1,1,399,399,flye
MRSA_r10_10,priA,priA,1,1,802,802,flye
MRSA_r10_10,def1,def1,1,1,162,162,flye
MRSA_r10_10,fmt,fmt,1,1,311,311,flye
MRSA_r10_10,rsmB,rsmB,1,1,435,435,flye
MRSA_r10_10,rlmN,rlmN,1,1,364,364,flye
MRSA_r10_10,stp,stp,1,1,247,247,flye
MRSA_r10_10,prkC,,0,0,664,0,flye
MRSA_r10_10,rsgA,rsgA,1,1,291,291,flye
MRSA_r10_10,rpe,rpe,1,1,214,214,flye
MRSA_r10_10,thiN,,0,0,213,0,flye
MRSA_r10_10,rpmB,rpmB,1,1,62,62,flye
MRSA_r10_10,recG,recG,1,1,686,686,flye
MRSA_r10_10,fapR,fapR,1,1,185,185,flye
MRSA_r10_10,plsX,plsX,1,1,328,328,flye
MRSA_r10_10,fabD,,0,0,308,0,flye
MRSA_r10_10,fabG,fabG,1,1,244,244,flye
MRSA_r10_10,acpP,,0,0,77,0,flye
MRSA_r10_10,rnc,rnc,1,1,243,243,flye
MRSA_r10_10,smc_1,smc_1,1,1,1188,1188,flye
MRSA_r10_10,ftsY,ftsY,1,1,416,416,flye
MRSA_r10_10,ffh,,0,0,455,0,flye
MRSA_r10_10,rpsP,rpsP,1,1,91,91,flye
MRSA_r10_10,rimM,rimM,1,1,167,167,flye
MRSA_r10_10,trmD,trmD,1,1,245,245,flye
MRSA_r10_10,rplS,rplS,1,1,116,116,flye
MRSA_r10_10,rbgA,rbgA,1,1,294,294,flye
MRSA_r10_10,rnhB,,0,0,255,0,flye
MRSA_r10_10,sucC,sucC,1,1,388,388,flye
MRSA_r10_10,sucD,sucD,1,1,302,302,flye
MRSA_r10_10,lytN,,0,0,372,0,flye
MRSA_r10_10,femA_1,femA_2,0,1,414,414,flye
MRSA_r10_10,topA,,0,0,691,0,flye
MRSA_r10_10,trmFO,trmFO,1,1,435,435,flye
MRSA_r10_10,xerC_4,,0,0,298,0,flye
MRSA_r10_10,hslV,,0,0,181,0,flye
MRSA_r10_10,hslU,,0,0,467,0,flye
MRSA_r10_10,codY,codY,1,1,257,257,flye
MRSA_r10_10,rpsB,rpsB,1,1,255,255,flye
MRSA_r10_10,tsf,tsf,1,1,293,293,flye
MRSA_r10_10,pyrH,pyrH,1,1,240,240,flye
MRSA_r10_10,frr,frr,1,1,184,184,flye
MRSA_r10_10,uppS,uppS,1,1,256,256,flye
MRSA_r10_10,proS,proS,1,1,567,567,flye
MRSA_r10_10,polC,,0,0,1438,0,flye
MRSA_r10_10,rimP,,0,0,155,0,flye
MRSA_r10_10,nusA,,0,0,391,0,flye
MRSA_r10_10,rplGA,rplGA,1,1,105,105,flye
MRSA_r10_10,infB_1,,0,0,705,0,flye
MRSA_r10_10,rbfA,,0,0,116,0,flye
MRSA_r10_10,truB,,0,0,305,0,flye
MRSA_r10_10,ribF,,0,0,323,0,flye
MRSA_r10_10,rpsO,,0,0,89,0,flye
MRSA_r10_10,pnp_2,,0,0,698,0,flye
MRSA_r10_10,rnj2,,0,0,557,0,flye
MRSA_r10_10,ftsK,,0,0,789,0,flye
MRSA_r10_10,gamR,,0,0,237,0,flye
MRSA_r10_10,phaB,,0,0,234,0,flye
MRSA_r10_10,pgsA,,0,0,192,0,flye
MRSA_r10_10,cinA,,0,0,383,0,flye
MRSA_r10_10,recA,,0,0,347,0,flye
MRSA_r10_10,rny,,0,0,519,0,flye
MRSA_r10_10,ymdB,,0,0,265,0,flye
MRSA_r10_10,miaB,,0,0,514,0,flye
MRSA_r10_10,ymcA,,0,0,121,0,flye
MRSA_r10_10,mutS_1,,0,0,872,0,flye
MRSA_r10_10,mutL,,0,0,669,0,flye
MRSA_r10_10,glpP,,0,0,177,0,flye
MRSA_r10_10,glpF,,0,0,272,0,flye
MRSA_r10_10,glpK,,0,0,498,0,flye
MRSA_r10_10,glpD,glpD,1,1,557,557,flye
MRSA_r10_10,miaA,miaA,1,1,311,311,flye
MRSA_r10_10,hfq,hfq,1,1,77,77,flye
MRSA_r10_10,bsaA_1,bsaA_1,1,1,158,158,flye
MRSA_r10_10,hflX,hflX,1,1,412,412,flye
MRSA_r10_10,glnR,glnR,1,1,122,122,flye
MRSA_r10_10,glnA,glnA,1,1,446,446,flye
MRSA_r10_10,infB_2,infB_2,1,1,615,615,flye
MRSA_r10_10,ltaE,ltaE,1,1,341,341,flye
MRSA_r10_10,cls_1,cls_2,0,1,493,493,flye
MRSA_r10_10,btuD_3,btuD_5,0,1,299,299,flye
MRSA_r10_10,desR,desR,1,1,168,168,flye
MRSA_r10_10,nucH,,0,0,177,0,flye
MRSA_r10_10,yclM,yclM,1,1,460,460,flye
MRSA_r10_10,thrC,thrC,1,1,353,353,flye
MRSA_r10_10,thrB,thrB,1,1,304,304,flye
MRSA_r10_10,lysP_1,,0,0,484,0,flye
MRSA_r10_10,katA,katA,1,1,505,505,flye
MRSA_r10_10,rpmG2_1,rpmG2_2,0,1,49,49,flye
MRSA_r10_10,rpsN2,rpsN2,1,1,89,89,flye
MRSA_r10_10,guaC,guaC,1,1,325,325,flye
MRSA_r10_10,lexA_1,,0,0,207,0,flye
MRSA_r10_10,tkt,tkt,1,1,662,662,flye
MRSA_r10_10,sbcD,,0,0,373,0,flye
MRSA_r10_10,sbcC,,0,0,1009,0,flye
MRSA_r10_10,mscL,mscL,1,1,120,120,flye
MRSA_r10_10,opuD_1,,0,0,548,0,flye
MRSA_r10_10,acnA,acnA,1,1,901,901,flye
MRSA_r10_10,plsY,plsY,1,1,202,202,flye
MRSA_r10_10,parE,parE,1,1,663,663,flye
MRSA_r10_10,parC,parC,1,1,800,800,flye
MRSA_r10_10,alsT,alsT,1,1,486,486,flye
MRSA_r10_10,glcT,glcT,1,1,283,283,flye
MRSA_r10_10,mprF,mprF,1,1,840,840,flye
MRSA_r10_10,msrA1,msrA1,1,1,169,169,flye
MRSA_r10_10,msrR,msrR,1,1,327,327,flye
MRSA_r10_10,umuC,umuC,1,1,420,420,flye
MRSA_r10_10,ysdC_1,ysdC_2,0,1,343,343,flye
MRSA_r10_10,trpE,trpE,1,1,468,468,flye
MRSA_r10_10,trpG_2,trpG_2,1,1,188,188,flye
MRSA_r10_10,trpD2,trpD2,1,1,257,257,flye
MRSA_r10_10,trpC,trpC,1,1,260,260,flye
MRSA_r10_10,trpF,trpF,1,1,211,211,flye
MRSA_r10_10,trpB,trpB,1,1,404,404,flye
MRSA_r10_10,trpA,trpA,1,1,242,242,flye
MRSA_r10_10,femA_2,femA_3,0,1,420,420,flye
MRSA_r10_10,femB,femB,1,1,419,419,flye
MRSA_r10_10,nikE,nikE,1,1,233,233,flye
MRSA_r10_10,nikD,nikD,1,1,257,257,flye
MRSA_r10_10,nikC,nikC,1,1,276,276,flye
MRSA_r10_10,nikB,nikB,1,1,328,328,flye
MRSA_r10_10,pepF1_2,pepF1_2,1,1,604,604,flye
MRSA_r10_10,phoU,phoU,1,1,213,213,flye
MRSA_r10_10,pstB3,pstB3,1,1,283,283,flye
MRSA_r10_10,pstA,pstA,1,1,305,305,flye
MRSA_r10_10,pstS,pstS,1,1,327,327,flye
MRSA_r10_10,cvfB,cvfB,1,1,300,300,flye
MRSA_r10_10,ybiT,ybiT,1,1,533,533,flye
MRSA_r10_10,lysC,lysC,1,1,401,401,flye
MRSA_r10_10,asd,asd,1,1,329,329,flye
MRSA_r10_10,dapA,dapA,1,1,295,295,flye
MRSA_r10_10,dapB,dapB,1,1,240,240,flye
MRSA_r10_10,dapH_2,dapH_2,1,1,239,239,flye
MRSA_r10_10,scmP_3,scmP_5,0,1,383,383,flye
MRSA_r10_10,alr1_1,alr1_2,0,1,361,361,flye
MRSA_r10_10,lysA,lysA,1,1,421,421,flye
MRSA_r10_10,cspA_2,cspA_2,1,1,66,66,flye
MRSA_r10_10,yccX,yccX,1,1,89,89,flye
MRSA_r10_10,brnQ_3,brnQ_3,1,1,447,447,flye
MRSA_r10_10,nirQ,nirQ,1,1,263,263,flye
MRSA_r10_10,mhqA_2,,0,0,269,0,flye
MRSA_r10_10,odhB,odhB,1,1,423,423,flye
MRSA_r10_10,odhA,odhA,1,1,932,932,flye
MRSA_r10_10,arlS,arlS,1,1,451,451,flye
MRSA_r10_10,arlR,arlR,1,1,219,219,flye
MRSA_r10_10,murG,murG,1,1,356,356,flye
MRSA_r10_10,crr,crr,1,1,166,166,flye
MRSA_r10_10,msrB,msrB,1,1,142,142,flye
MRSA_r10_10,msrA2,msrA2,1,1,177,177,flye
MRSA_r10_10,folA,folA,1,1,159,159,flye
MRSA_r10_10,thyA,thyA,1,1,318,318,flye
MRSA_r10_10,rnhA,,0,0,133,0,flye
MRSA_r10_10,ebh,,0,0,10746,0,flye
MRSA_r10_10,norB_3,norB_4,0,1,463,463,flye
MRSA_r10_10,steT,steT,1,1,440,440,flye
MRSA_r10_10,tdcB,tdcB,1,1,346,346,flye
MRSA_r10_10,ald1,ald1,1,1,372,372,flye
MRSA_r10_10,ypcP,ypcP,1,1,292,292,flye
MRSA_r10_10,der_1,der_2,0,1,1146,1146,flye
MRSA_r10_10,rlmL,rlmL,1,1,381,381,flye
MRSA_r10_10,gpsB,gpsB,1,1,114,114,flye
MRSA_r10_10,recU,recU,1,1,208,208,flye
MRSA_r10_10,ponA,ponA,1,1,716,716,flye
MRSA_r10_10,nth_2,nth_2,1,1,219,219,flye
MRSA_r10_10,dnaD,dnaD,1,1,228,228,flye
MRSA_r10_10,asnS,asnS,1,1,430,430,flye
MRSA_r10_10,dinG_1,dinG_2,0,1,897,897,flye
MRSA_r10_10,birA,birA,1,1,323,323,flye
MRSA_r10_10,cca,cca,1,1,400,400,flye
MRSA_r10_10,bshA,bshA,1,1,380,380,flye
MRSA_r10_10,ypjD,ypjD,1,1,105,105,flye
MRSA_r10_10,bepA,,0,0,414,0,flye
MRSA_r10_10,aroA_1,,0,0,432,0,flye
MRSA_r10_10,aroB,aroB,1,1,354,354,flye
MRSA_r10_10,aroC,aroC,1,1,388,388,flye
MRSA_r10_10,ndk,ndk,1,1,149,149,flye
MRSA_r10_10,hepT,hepT,1,1,319,319,flye
MRSA_r10_10,menG,menG,1,1,241,241,flye
MRSA_r10_10,hup,hup,1,1,90,90,flye
MRSA_r10_10,gpsA,gpsA,1,1,332,332,flye
MRSA_r10_10,der_2,der_1,0,1,436,436,flye
MRSA_r10_10,rpsA,rpsA,1,1,391,391,flye
MRSA_r10_10,cmk,,0,0,219,0,flye
MRSA_r10_10,ansA,ansA,1,1,322,322,flye
MRSA_r10_10,ebpS,ebpS,1,1,486,486,flye
MRSA_r10_10,recQ_2,recQ_2,1,1,459,459,flye
MRSA_r10_10,ribU,ribU,1,1,181,181,flye
MRSA_r10_10,smc_2,,0,0,2066,0,flye
MRSA_r10_10,clpP_2,,0,0,257,0,flye
MRSA_r10_10,xerC_5,,0,0,401,0,flye
MRSA_r10_10,srrB,,0,0,583,0,flye
MRSA_r10_10,srrA,,0,0,241,0,flye
MRSA_r10_10,rluB,,0,0,245,0,flye
MRSA_r10_10,scpB,,0,0,180,0,flye
MRSA_r10_10,scpA,,0,0,251,0,flye
MRSA_r10_10,xerD_2,xerD_2,1,1,295,295,flye
MRSA_r10_10,fur,,0,0,149,0,flye
MRSA_r10_10,nudF,,0,0,180,0,flye
MRSA_r10_10,yajO,,0,0,302,0,flye
MRSA_r10_10,proC,,0,0,271,0,flye
MRSA_r10_10,rnz,,0,0,306,0,flye
MRSA_r10_10,zwf,,0,0,494,0,flye
MRSA_r10_10,malL,,0,0,549,0,flye
MRSA_r10_10,malR,malR,1,1,339,339,flye
MRSA_r10_10,psuK,psuK,1,1,299,299,flye
MRSA_r10_10,entS,entS,1,1,369,369,flye
MRSA_r10_10,gnd,gnd,1,1,468,468,flye
MRSA_r10_10,pepT_2,pepT_1,0,1,377,377,flye
MRSA_r10_10,pdhC_2,pdhC_1,0,1,424,424,flye
MRSA_r10_10,bfmBAB,bfmBAB,1,1,327,327,flye
MRSA_r10_10,bfmBAA,,0,0,330,0,flye
MRSA_r10_10,recN,recN,1,1,559,559,flye
MRSA_r10_10,argR_1,argR_1,1,1,150,150,flye
MRSA_r10_10,xseB,xseB,1,1,76,76,flye
MRSA_r10_10,xseA,xseA,1,1,445,445,flye
MRSA_r10_10,nusB,nusB,1,1,129,129,flye
MRSA_r10_10,cfiB,cfiB,1,1,451,451,flye
MRSA_r10_10,accB_1,accB_1,1,1,154,154,flye
MRSA_r10_10,efp,efp,1,1,185,185,flye
MRSA_r10_10,ypdF,ypdF,1,1,353,353,flye
MRSA_r10_10,lipM,lipM,1,1,276,276,flye
MRSA_r10_10,yibN,yibN,1,1,128,128,flye
MRSA_r10_10,gcvPB,gcvPB,1,1,490,490,flye
MRSA_r10_10,gcvPA,gcvPA,1,1,448,448,flye
MRSA_r10_10,gcvT,gcvT,1,1,363,363,flye
MRSA_r10_10,aroK,aroK,1,1,174,174,flye
MRSA_r10_10,comGC,comGC,1,1,103,103,flye
MRSA_r10_10,comGA,comGA,1,1,324,324,flye
MRSA_r10_10,glcK,glcK,1,1,328,328,flye
MRSA_r10_10,gluP,gluP,1,1,487,487,flye
MRSA_r10_10,yqgN,yqgN,1,1,197,197,flye
MRSA_r10_10,rpmG2_2,rpmG2_1,0,1,49,49,flye
MRSA_r10_10,pbpH,pbpH,1,1,691,691,flye
MRSA_r10_10,sodA,sodA,1,1,199,199,flye
MRSA_r10_10,zur,zur,1,1,136,136,flye
MRSA_r10_10,znuB,znuB,1,1,290,290,flye
MRSA_r10_10,btuD_4,btuD_1,0,1,261,261,flye
MRSA_r10_10,nfo,nfo,1,1,296,296,flye
MRSA_r10_10,cshB,cshB,1,1,448,448,flye
MRSA_r10_10,trmK,,0,0,225,0,flye
MRSA_r10_10,sigA,sigA,1,1,368,368,flye
MRSA_r10_10,dnaG,dnaG,1,1,599,599,flye
MRSA_r10_10,yqfL,yqfL,1,1,272,272,flye
MRSA_r10_10,ccpN,ccpN,1,1,179,179,flye
MRSA_r10_10,glyQS,glyQS,1,1,463,463,flye
MRSA_r10_10,recO,recO,1,1,248,248,flye
MRSA_r10_10,era,era,1,1,299,299,flye
MRSA_r10_10,cdd,cdd,1,1,134,134,flye
MRSA_r10_10,dgkA,dgkA,1,1,114,114,flye
MRSA_r10_10,ybeY,ybeY,1,1,155,155,flye
MRSA_r10_10,rpsU,rpsU,1,1,58,58,flye
MRSA_r10_10,mtaB,mtaB,1,1,448,448,flye
MRSA_r10_10,rsmE,,0,0,250,0,flye
MRSA_r10_10,prmA,prmA,1,1,312,312,flye
MRSA_r10_10,dnaJ,dnaJ,1,1,379,379,flye
MRSA_r10_10,dnaK,dnaK,1,1,610,610,flye
MRSA_r10_10,grpE,grpE,1,1,208,208,flye
MRSA_r10_10,hrcA,hrcA,1,1,325,325,flye
MRSA_r10_10,hemW,hemW,1,1,385,385,flye
MRSA_r10_10,lepA,lepA,1,1,607,607,flye
MRSA_r10_10,rpsT,rpsT,1,1,83,83,flye
MRSA_r10_10,yqeN,yqeN,1,1,324,324,flye
MRSA_r10_10,comEC,,0,0,733,0,flye
MRSA_r10_10,tadA_2,tadA_1,0,1,143,143,flye
MRSA_r10_10,comEA,comEA,1,1,225,225,flye
MRSA_r10_10,tam,tam,1,1,238,238,flye
MRSA_r10_10,rsfS,rsfS,1,1,117,117,flye
MRSA_r10_10,nadD,nadD,1,1,189,189,flye
MRSA_r10_10,yhbY,yhbY,1,1,96,96,flye
MRSA_r10_10,aroE,aroE,1,1,268,268,flye
MRSA_r10_10,yqeH,yqeH,1,1,366,366,flye
MRSA_r10_10,mtnN,mtnN,1,1,228,228,flye
MRSA_r10_10,entA_1,entA_1,1,1,62,62,flye
MRSA_r10_10,entA_2,entA_2,1,1,167,167,flye
MRSA_r10_10,mntH_2,mntH_1,0,1,410,410,flye
MRSA_r10_10,pxpA,pxpA,1,1,250,250,flye
MRSA_r10_10,accC,accC,1,1,453,453,flye
MRSA_r10_10,accB_2,accB_2,1,1,149,149,flye
MRSA_r10_10,pxpC_2,pxpC_1,0,1,336,336,flye
MRSA_r10_10,pxpB_2,pxpB_1,0,1,244,244,flye
MRSA_r10_10,greA,greA,1,1,158,158,flye
MRSA_r10_10,udk,udk,1,1,207,207,flye
MRSA_r10_10,rlhA,rlhA,1,1,307,307,flye
MRSA_r10_10,trmR,trmR,1,1,212,212,flye
MRSA_r10_10,yrrK,,0,0,142,0,flye
MRSA_r10_10,alaS,alaS,1,1,877,877,flye
MRSA_r10_10,recD2,recD2,1,1,825,825,flye
MRSA_r10_10,yrrB,yrrB,1,1,222,222,flye
MRSA_r10_10,mnmA,mnmA,1,1,372,372,flye
MRSA_r10_10,iscS_1,iscS_1,1,1,380,380,flye
MRSA_r10_10,cymR,cymR,1,1,140,140,flye
MRSA_r10_10,aspS,aspS,1,1,588,588,flye
MRSA_r10_10,hisS,hisS,1,1,420,420,flye
MRSA_r10_10,dtd,dtd,1,1,150,150,flye
MRSA_r10_10,relA,,0,0,736,0,flye
MRSA_r10_10,apt,apt,1,1,172,172,flye
MRSA_r10_10,secDF,secDF,1,1,759,759,flye
MRSA_r10_10,yajC,yajC,1,1,86,86,flye
MRSA_r10_10,tgt,tgt,1,1,379,379,flye
MRSA_r10_10,queA,queA,1,1,341,341,flye
MRSA_r10_10,ruvB_2,,0,0,334,0,flye
MRSA_r10_10,ruvA,,0,0,200,0,flye
MRSA_r10_10,obg,obg,1,1,430,430,flye
MRSA_r10_10,rpmA,rpmA,1,1,94,94,flye
MRSA_r10_10,rplU,rplU,1,1,102,102,flye
MRSA_r10_10,mreC,mreC,1,1,280,280,flye
MRSA_r10_10,comC,,0,0,235,0,flye
MRSA_r10_10,fpgS,,0,0,423,0,flye
MRSA_r10_10,valS,,0,0,876,0,flye
MRSA_r10_10,tag,tag,1,1,186,186,flye
MRSA_r10_10,hemL1,hemL1,1,1,428,428,flye
MRSA_r10_10,hemB,,0,0,324,0,flye
MRSA_r10_10,hemC,hemC,1,1,308,308,flye
MRSA_r10_10,hemA,hemA,1,1,448,448,flye
MRSA_r10_10,engB,engB,1,1,196,196,flye
MRSA_r10_10,clpX,clpX,1,1,420,420,flye
MRSA_r10_10,tig,tig,1,1,433,433,flye
MRSA_r10_10,rplT,rplT,1,1,118,118,flye
MRSA_r10_10,rpmI,rpmI,1,1,66,66,flye
MRSA_r10_10,infC,infC,1,1,186,186,flye
MRSA_r10_10,lysP_2,,0,0,497,0,flye
MRSA_r10_10,thrS,thrS,1,1,645,645,flye
MRSA_r10_10,dnaI,dnaI,1,1,306,306,flye
MRSA_r10_10,dnaB,dnaB,1,1,466,466,flye
MRSA_r10_10,nrdR,nrdR,1,1,156,156,flye
MRSA_r10_10,gapA2,gapA2,1,1,341,341,flye
MRSA_r10_10,coaE,coaE,1,1,207,207,flye
MRSA_r10_10,mutM,mutM,1,1,290,290,flye
MRSA_r10_10,polA,polA,1,1,876,876,flye
MRSA_r10_10,sasA,sasA,1,1,554,554,flye
MRSA_r10_10,phoP,phoP,1,1,233,233,flye
MRSA_r10_10,icd,icd,1,1,422,422,flye
MRSA_r10_10,citZ,citZ,1,1,373,373,flye
MRSA_r10_10,cycA_1,cycA_1,1,1,453,453,flye
MRSA_r10_10,pyk,pyk,1,1,585,585,flye
MRSA_r10_10,pfkA,pfkA,1,1,322,322,flye
MRSA_r10_10,accA,accA,1,1,314,314,flye
MRSA_r10_10,accD,accD,1,1,285,285,flye
MRSA_r10_10,dnaE,dnaE,1,1,1065,1065,flye
MRSA_r10_10,nrnA,nrnA,1,1,313,313,flye
MRSA_r10_10,IMPDH,,0,0,432,0,flye
MRSA_r10_10,ald2,ald2,1,1,372,372,flye
MRSA_r10_10,ackA,ackA,1,1,400,400,flye
MRSA_r10_10,tpx,tpx,1,1,164,164,flye
MRSA_r10_10,yfcA,yfcA,1,1,256,256,flye
MRSA_r10_10,thiI,thiI,1,1,407,407,flye
MRSA_r10_10,iscS_2,iscS_2,1,1,388,388,flye
MRSA_r10_10,ezrA,ezrA,1,1,564,564,flye
MRSA_r10_10,msrC,msrC,1,1,154,154,flye
MRSA_r10_10,rpsD,rpsD,1,1,200,200,flye
MRSA_r10_10,glpQ_2,glpQ_1,0,1,247,247,flye
MRSA_r10_10,serA,,0,0,534,0,flye
MRSA_r10_10,nagP,nagP,1,1,488,488,flye
MRSA_r10_10,plsC,plsC,1,1,205,205,flye
MRSA_r10_10,tyrS,tyrS,1,1,420,420,flye
MRSA_r10_10,mrcA,mrcA,1,1,301,301,flye
MRSA_r10_10,isdH_1,isdH_1,1,1,535,535,flye
MRSA_r10_10,isdH_2,isdH_2,1,1,278,278,flye
MRSA_r10_10,fhs,,0,0,555,0,flye
MRSA_r10_10,acsA_1,acsA_1,1,1,568,568,flye
MRSA_r10_10,acuA,acuA,1,1,210,210,flye
MRSA_r10_10,acuC,acuC,1,1,389,389,flye
MRSA_r10_10,ccpA,ccpA,1,1,329,329,flye
MRSA_r10_10,aroA_2,aroA_1,0,1,363,363,flye
MRSA_r10_10,murC,murC,1,1,437,437,flye
MRSA_r10_10,ytpP,ytpP,1,1,103,103,flye
MRSA_r10_10,pepA_2,pepA_1,0,1,358,358,flye
MRSA_r10_10,ytnP,ytnP,1,1,280,280,flye
MRSA_r10_10,hin_2,hin_1,0,1,197,197,flye
MRSA_r10_10,blaI,blaI,1,1,126,126,flye
MRSA_r10_10,blaR1,blaR1,1,1,585,585,flye
MRSA_r10_10,blaZ,blaZ,1,1,281,281,flye
MRSA_r10_10,trmB,trmB,1,1,214,214,flye
MRSA_r10_10,dat,dat,1,1,282,282,flye
MRSA_r10_10,rsuA,rsuA,1,1,231,231,flye
MRSA_r10_10,murJ,murJ,1,1,553,553,flye
MRSA_r10_10,leuS,leuS,1,1,805,805,flye
MRSA_r10_10,mdtH,mdtH,1,1,393,393,flye
MRSA_r10_10,rsmH_2,rsmH_1,0,1,187,187,flye
MRSA_r10_10,rot,rot,1,1,133,133,flye
MRSA_r10_10,ytpA,ytpA,1,1,275,275,flye
MRSA_r10_10,putB,putB,1,1,333,333,flye
MRSA_r10_10,ribH,ribH,1,1,154,154,flye
MRSA_r10_10,ribBA,ribBA,1,1,393,393,flye
MRSA_r10_10,ribE,ribE,1,1,210,210,flye
MRSA_r10_10,ribD,ribD,1,1,347,347,flye
MRSA_r10_10,arsB_2,arsB_1,0,1,430,430,flye
MRSA_r10_10,atl_2,atl_1,0,1,284,284,flye
MRSA_r10_10,sigS,sigS,1,1,156,156,flye
MRSA_r10_10,tal,tal,1,1,237,237,flye
MRSA_r10_10,crcB_1,crcB_1,1,1,121,121,flye
MRSA_r10_10,crcB_2,crcB_2,1,1,117,117,flye
MRSA_r10_10,yvgN,yvgN,1,1,277,277,flye
MRSA_r10_10,metK,metK,1,1,397,397,flye
MRSA_r10_10,pckA,pckA,1,1,530,530,flye
MRSA_r10_10,ytkD,ytkD,1,1,159,159,flye
MRSA_r10_10,menC,menC,1,1,333,333,flye
MRSA_r10_10,menE_2,menE_1,0,1,492,492,flye
MRSA_r10_10,hylB,hylB,1,1,806,806,flye
MRSA_r10_10,prmC_1,prmC_1,1,1,518,518,flye
MRSA_r10_10,splF_1,splF_1,1,1,183,183,flye
MRSA_r10_10,splF_2,splF_2,1,1,41,41,flye
MRSA_r10_10,splE_1,splE_1,1,1,238,238,flye
MRSA_r10_10,splB_1,splB_1,1,1,74,74,flye
MRSA_r10_10,splE_2,splE_2,1,1,113,113,flye
MRSA_r10_10,splE_3,splE_3,1,1,238,238,flye
MRSA_r10_10,splC,splC,1,1,239,239,flye
MRSA_r10_10,splB_2,splB_2,1,1,54,54,flye
MRSA_r10_10,entG,entG,1,1,258,258,flye
MRSA_r10_10,entA_3,entA_3,1,1,251,251,flye
MRSA_r10_10,entB,entB,1,1,261,261,flye
MRSA_r10_10,entE,entE,1,1,254,254,flye
MRSA_r10_10,ydeN,ydeN,1,1,184,184,flye
MRSA_r10_10,hemY,,0,0,466,0,flye
MRSA_r10_10,hemH,hemH,1,1,307,307,flye
MRSA_r10_10,hemE,hemE,1,1,345,345,flye
MRSA_r10_10,traP,traP,1,1,167,167,flye
MRSA_r10_10,ecsA,ecsA,1,1,246,246,flye
MRSA_r10_10,hit,hit,1,1,140,140,flye
MRSA_r10_10,prsA,prsA,1,1,320,320,flye
MRSA_r10_10,yhaM,yhaM,1,1,313,313,flye
MRSA_r10_10,cpdA_1,cpdA_1,1,1,398,398,flye
MRSA_r10_10,liaR,liaR,1,1,207,207,flye
MRSA_r10_10,rluD_2,rluD_1,0,1,273,273,flye
MRSA_r10_10,fumC,fumC,1,1,461,461,flye
MRSA_r10_10,nagB_2,nagB_1,0,1,199,199,flye
MRSA_r10_10,trmL,trmL,1,1,156,156,flye
MRSA_r10_10,queG,queG,1,1,375,375,flye
MRSA_r10_10,tcyC_1,,0,0,242,0,flye
MRSA_r10_10,mltF,mltF,1,1,485,485,flye
MRSA_r10_10,perR,perR,1,1,148,148,flye
MRSA_r10_10,ghrB_2,ghrB_1,0,1,319,319,flye
MRSA_r10_10,bcp,bcp,1,1,151,151,flye
MRSA_r10_10,hemL2,hemL2,1,1,429,429,flye
MRSA_r10_10,mutY,,0,0,345,0,flye
MRSA_r10_10,yfhP,yfhP,1,1,325,325,flye
MRSA_r10_10,tagH_2,,0,0,505,0,flye
MRSA_r10_10,yfhH,yfhH,1,1,104,104,flye
MRSA_r10_10,recX,recX,1,1,272,272,flye
MRSA_r10_10,mgt,mgt,1,1,269,269,flye
MRSA_r10_10,pepS,pepS,1,1,415,415,flye
MRSA_r10_10,ptpA,,0,0,154,0,flye
MRSA_r10_10,vraR,vraR,1,1,209,209,flye
MRSA_r10_10,vraS,vraS,1,1,347,347,flye
MRSA_r10_10,map_2,map_1,0,1,252,252,flye
MRSA_r10_10,gatD_2,,0,0,243,0,flye
MRSA_r10_10,murT,murT,1,1,437,437,flye
MRSA_r10_10,ftnA,ftnA,1,1,166,166,flye
MRSA_r10_10,dinB,dinB,1,1,356,356,flye
MRSA_r10_10,rlmCD,,0,0,453,0,flye
MRSA_r10_10,dagK,dagK,1,1,315,315,flye
MRSA_r10_10,gatB_2,,0,0,475,0,flye
MRSA_r10_10,gatA_2,,0,0,485,0,flye
MRSA_r10_10,gatC_2,gatC_1,0,1,100,100,flye
MRSA_r10_10,putP,putP,1,1,512,512,flye
MRSA_r10_10,ligA,,0,0,667,0,flye
MRSA_r10_10,pcrA,,0,0,730,0,flye
MRSA_r10_10,pcrB,pcrB,1,1,230,230,flye
MRSA_r10_10,purB,purB,1,1,431,431,flye
MRSA_r10_10,sspP,sspP,1,1,388,388,flye
MRSA_r10_10,nadE,nadE,1,1,273,273,flye
MRSA_r10_10,pncB2,pncB2,1,1,489,489,flye
MRSA_r10_10,nos,,0,0,358,0,flye
MRSA_r10_10,pheA,pheA,1,1,264,264,flye
MRSA_r10_10,sdcS,,0,0,520,0,flye
MRSA_r10_10,rutB,rutB,1,1,186,186,flye
MRSA_r10_10,ppaC,,0,0,309,0,flye
MRSA_r10_10,aldH1,aldH1,1,1,459,459,flye
MRSA_r10_10,bcrA_1,bcrA_1,1,1,290,290,flye
MRSA_r10_10,btuD_5,btuD_2,0,1,298,298,flye
MRSA_r10_10,ytrA,ytrA,1,1,126,126,flye
MRSA_r10_10,hisC_2,hisC_1,0,1,428,428,flye
MRSA_r10_10,map_3,map_2,0,1,689,689,flye
MRSA_r10_10,hlb_1,hlb_1,1,1,66,66,flye
MRSA_r10_10,scn_3,scn_1,0,1,116,116,flye
MRSA_r10_10,chp,chp,1,1,149,149,flye
MRSA_r10_10,sak,sak,1,1,163,163,flye
MRSA_r10_10,entA_4,entA_4,1,1,257,257,flye
MRSA_r10_10,clpP_3,clpP_1,0,1,245,245,flye
MRSA_r10_10,dut,dut,1,1,180,180,flye
MRSA_r10_10,ssbA_2,ssbA_1,0,1,156,156,flye
MRSA_r10_10,lexA_2,lexA_1,0,1,237,237,flye
MRSA_r10_10,dinG_2,dinG_1,0,1,310,310,flye
MRSA_r10_10,xerC_8,xerC_3,0,1,345,345,flye
MRSA_r10_10,hlb_2,hlb_2,1,1,231,231,flye
MRSA_r10_10,dapE,dapE,1,1,407,407,flye
MRSA_r10_10,ktrB_2,,0,0,435,0,flye
MRSA_r10_10,groL,groL,1,1,538,538,flye
MRSA_r10_10,groS,groS,1,1,94,94,flye
MRSA_r10_10,MroQ,MroQ,1,1,247,247,flye
MRSA_r10_10,yafV,yafV,1,1,261,261,flye
MRSA_r10_10,agrB,agrB,1,1,205,205,flye
MRSA_r10_10,agrA,agrA,1,1,238,238,flye
MRSA_r10_10,scrK,scrK,1,1,319,319,flye
MRSA_r10_10,scrB,scrB,1,1,497,497,flye
MRSA_r10_10,treR_2,treR_1,0,1,316,316,flye
MRSA_r10_10,nrgA,,0,0,416,0,flye
MRSA_r10_10,yeeD,yeeD,1,1,74,74,flye
MRSA_r10_10,rex,rex,1,1,211,211,flye
MRSA_r10_10,yheS,yheS,1,1,642,642,flye
MRSA_r10_10,mutS_2,,0,0,536,0,flye
MRSA_r10_10,tsaD,tsaD,1,1,341,341,flye
MRSA_r10_10,rimI,rimI,1,1,154,154,flye
MRSA_r10_10,tsaB,tsaB,1,1,220,220,flye
MRSA_r10_10,tsaE,tsaE,1,1,164,164,flye
MRSA_r10_10,ilvD,ilvD,1,1,562,562,flye
MRSA_r10_10,ilvB,ilvB,1,1,589,589,flye
MRSA_r10_10,ilvC,ilvC,1,1,334,334,flye
MRSA_r10_10,leuA_2,leuA_1,0,1,509,509,flye
MRSA_r10_10,leuB,,0,0,348,0,flye
MRSA_r10_10,leuC,leuC,1,1,455,455,flye
MRSA_r10_10,leuD,leuD,1,1,190,190,flye
MRSA_r10_10,ilvA,ilvA,1,1,422,422,flye
MRSA_r10_10,yhgF,,0,0,712,0,flye
MRSA_r10_10,sigB,sigB,1,1,256,256,flye
MRSA_r10_10,rsbW,rsbW,1,1,159,159,flye
MRSA_r10_10,rsbV,rsbV,1,1,108,108,flye
MRSA_r10_10,rsbU,rsbU,1,1,333,333,flye
MRSA_r10_10,mazF,mazF,1,1,120,120,flye
MRSA_r10_10,mazE,mazE,1,1,56,56,flye
MRSA_r10_10,alr1_2,alr1_1,0,1,382,382,flye
MRSA_r10_10,acpS,acpS,1,1,119,119,flye
MRSA_r10_10,kdpC_3,kdpC_1,0,1,186,186,flye
MRSA_r10_10,kdpB_2,,0,0,675,0,flye
MRSA_r10_10,kdpA_2,kdpA_1,0,1,558,558,flye
MRSA_r10_10,kdpD_2,kdpD_1,0,1,885,885,flye
MRSA_r10_10,kdpE_2,kdpE_1,0,1,231,231,flye
MRSA_r10_10,cshA,,0,0,506,0,flye
MRSA_r10_10,murF,murF,1,1,452,452,flye
MRSA_r10_10,ddl,ddl,1,1,356,356,flye
MRSA_r10_10,rodA,rodA,1,1,400,400,flye
MRSA_r10_10,cls_2,cls_1,0,1,494,494,flye
MRSA_r10_10,yedJ,yedJ,1,1,215,215,flye
MRSA_r10_10,yidC,yidC,1,1,290,290,flye
MRSA_r10_10,thiE,thiE,1,1,213,213,flye
MRSA_r10_10,thiM,thiM,1,1,263,263,flye
MRSA_r10_10,thiD,thiD,1,1,276,276,flye
MRSA_r10_10,tenA,tenA,1,1,229,229,flye
MRSA_r10_10,sceD,sceD,1,1,231,231,flye
MRSA_r10_10,ssbA_3,ssbA_2,0,1,131,131,flye
MRSA_r10_10,fabZ,fabZ,1,1,146,146,flye
MRSA_r10_10,murA1,murA1,1,1,421,421,flye
MRSA_r10_10,atpC,atpC,1,1,134,134,flye
MRSA_r10_10,atpD,atpD,1,1,470,470,flye
MRSA_r10_10,atpG,atpG,1,1,288,288,flye
MRSA_r10_10,atpA,atpA,1,1,502,502,flye
MRSA_r10_10,atpH,atpH,1,1,179,179,flye
MRSA_r10_10,atpF,atpF,1,1,173,173,flye
MRSA_r10_10,atpE,atpE,1,1,70,70,flye
MRSA_r10_10,atpB,atpB,1,1,242,242,flye
MRSA_r10_10,mnaA_2,mnaA_1,0,1,376,376,flye
MRSA_r10_10,upp,upp,1,1,209,209,flye
MRSA_r10_10,glyA,glyA,1,1,412,412,flye
MRSA_r10_10,ptpB,ptpB,1,1,139,139,flye
MRSA_r10_10,ywlC,,0,0,348,0,flye
MRSA_r10_10,prmC_2,prmC_2,1,1,278,278,flye
MRSA_r10_10,prfA,prfA,1,1,358,358,flye
MRSA_r10_10,tdk,tdk,1,1,199,199,flye
MRSA_r10_10,rpmE2,rpmE2,1,1,84,84,flye
MRSA_r10_10,rho,rho,1,1,438,438,flye
MRSA_r10_10,yodB,yodB,1,1,111,111,flye
MRSA_r10_10,murA2,murA2,1,1,419,419,flye
MRSA_r10_10,fba,fba,1,1,286,286,flye
MRSA_r10_10,pyrG,pyrG,1,1,536,536,flye
MRSA_r10_10,rpoE,rpoE,1,1,176,176,flye
MRSA_r10_10,coaW,,0,0,267,0,flye
MRSA_r10_10,abgB,abgB,1,1,394,394,flye
MRSA_r10_10,luxS,luxS,1,1,156,156,flye
MRSA_r10_10,pdp,pdp,1,1,433,433,flye
MRSA_r10_10,deoC2,deoC2,1,1,220,220,flye
MRSA_r10_10,deoD1,deoD1,1,1,236,236,flye
MRSA_r10_10,dps,dps,1,1,147,147,flye
MRSA_r10_10,gmuF,gmuF,1,1,312,312,flye
MRSA_r10_10,yhfK,yhfK,1,1,221,221,flye
MRSA_r10_10,czrA,czrA,1,1,106,106,flye
MRSA_r10_10,czcD_2,czcD_1,0,1,326,326,flye
MRSA_r10_10,ywtE_2,ywtE_1,0,1,285,285,flye
MRSA_r10_10,ylmA,ylmA,1,1,260,260,flye
MRSA_r10_10,glmS,glmS,1,1,601,601,flye
MRSA_r10_10,mtlA,mtlA,1,1,512,512,flye
MRSA_r10_10,mtlF,mtlF,1,1,144,144,flye
MRSA_r10_10,mtlD,mtlD,1,1,368,368,flye
MRSA_r10_10,glmM,glmM,1,1,451,451,flye
MRSA_r10_10,cdaR,cdaR,1,1,310,310,flye
MRSA_r10_10,cdaA,cdaA,1,1,269,269,flye
MRSA_r10_10,arg,arg,1,1,302,302,flye
MRSA_r10_10,salA,salA,1,1,354,354,flye
MRSA_r10_10,emrY,emrY,1,1,362,362,flye
MRSA_r10_10,ribZ,ribZ,1,1,131,131,flye
MRSA_r10_10,sepA,sepA,1,1,155,155,flye
MRSA_r10_10,sdrM,,0,0,447,0,flye
MRSA_r10_10,ydjM,ydjM,1,1,171,171,flye
MRSA_r10_10,fecD,fecD,1,1,322,322,flye
MRSA_r10_10,yfiZ_2,yfiZ_1,0,1,343,343,flye
MRSA_r10_10,yfmC_2,yfmC_1,0,1,327,327,flye
MRSA_r10_10,orr,orr,1,1,356,356,flye
MRSA_r10_10,opuD_2,opuD_1,0,1,520,520,flye
MRSA_r10_10,yfmJ,yfmJ,1,1,334,334,flye
MRSA_r10_10,lacG,,0,0,470,0,flye
MRSA_r10_10,lacE,lacE,1,1,570,570,flye
MRSA_r10_10,lacF,lacF,1,1,103,103,flye
MRSA_r10_10,lacD,lacD,1,1,326,326,flye
MRSA_r10_10,lacC_2,lacC_1,0,1,310,310,flye
MRSA_r10_10,lacB,lacB,1,1,171,171,flye
MRSA_r10_10,lacA,lacA,1,1,142,142,flye
MRSA_r10_10,lacR,,0,0,251,0,flye
MRSA_r10_10,cobB,,0,0,246,0,flye
MRSA_r10_10,adhR,adhR,1,1,138,138,flye
MRSA_r10_10,map_4,map_3,0,1,141,141,flye
MRSA_r10_10,aldC_1,aldC_1,1,1,234,234,flye
MRSA_r10_10,alsS,alsS,1,1,554,554,flye
MRSA_r10_10,rpsI,rpsI,1,1,132,132,flye
MRSA_r10_10,rplM,rplM,1,1,145,145,flye
MRSA_r10_10,truA,,0,0,264,0,flye
MRSA_r10_10,ecfT_2,ecfT_1,0,1,268,268,flye
MRSA_r10_10,ecfA2,ecfA2,1,1,286,286,flye
MRSA_r10_10,ecfA1,ecfA1,1,1,269,269,flye
MRSA_r10_10,rplQ,rplQ,1,1,122,122,flye
MRSA_r10_10,rpoA,rpoA,1,1,314,314,flye
MRSA_r10_10,rpsK,rpsK,1,1,129,129,flye
MRSA_r10_10,rpsM,rpsM,1,1,121,121,flye
MRSA_r10_10,rpmJ,rpmJ,1,1,37,37,flye
MRSA_r10_10,infA,infA,1,1,72,72,flye
MRSA_r10_10,adk,adk,1,1,215,215,flye
MRSA_r10_10,secY_1,secY_1,1,1,430,430,flye
MRSA_r10_10,rplO,rplO,1,1,146,146,flye
MRSA_r10_10,rpmD,rpmD,1,1,59,59,flye
MRSA_r10_10,rpsE,rpsE,1,1,166,166,flye
MRSA_r10_10,rplR,rplR,1,1,119,119,flye
MRSA_r10_10,rplF,rplF,1,1,178,178,flye
MRSA_r10_10,rpsH,rpsH,1,1,132,132,flye
MRSA_r10_10,rpsZ,rpsZ,1,1,61,61,flye
MRSA_r10_10,rplE,rplE,1,1,179,179,flye
MRSA_r10_10,rplX,rplX,1,1,105,105,flye
MRSA_r10_10,rplN,rplN,1,1,122,122,flye
MRSA_r10_10,rpsQ,rpsQ,1,1,87,87,flye
MRSA_r10_10,rpmC,rpmC,1,1,69,69,flye
MRSA_r10_10,rplP,,0,0,144,0,flye
MRSA_r10_10,rpsC,,0,0,217,0,flye
MRSA_r10_10,rplV,rplV,1,1,117,117,flye
MRSA_r10_10,rpsS,,0,0,92,0,flye
MRSA_r10_10,rplB,rplB,1,1,277,277,flye
MRSA_r10_10,rplW,rplW,1,1,91,91,flye
MRSA_r10_10,rplD,rplD,1,1,207,207,flye
MRSA_r10_10,rplC,,0,0,220,0,flye
MRSA_r10_10,rpsJ,rpsJ,1,1,102,102,flye
MRSA_r10_10,pbuG,pbuG,1,1,444,444,flye
MRSA_r10_10,topB,topB,1,1,711,711,flye
MRSA_r10_10,glcU_2,glcU_1,0,1,287,287,flye
MRSA_r10_10,swrC,swrC,1,1,1055,1055,flye
MRSA_r10_10,femX,femX,1,1,421,421,flye
MRSA_r10_10,yfcJ,yfcJ,1,1,403,403,flye
MRSA_r10_10,sarV,sarV,1,1,116,116,flye
MRSA_r10_10,moaA,,0,0,340,0,flye
MRSA_r10_10,mobA,mobA,1,1,199,199,flye
MRSA_r10_10,moaD,moaD,1,1,77,77,flye
MRSA_r10_10,moaE,moaE,1,1,148,148,flye
MRSA_r10_10,moeA,moeA,1,1,419,419,flye
MRSA_r10_10,moaC,moaC,1,1,164,164,flye
MRSA_r10_10,moaB,moaB,1,1,168,168,flye
MRSA_r10_10,cysA,cysA,1,1,201,201,flye
MRSA_r10_10,modB,modB,1,1,223,223,flye
MRSA_r10_10,modA,modA,1,1,260,260,flye
MRSA_r10_10,fdhD,fdhD,1,1,265,265,flye
MRSA_r10_10,bioY,bioY,1,1,184,184,flye
MRSA_r10_10,rihB,rihB,1,1,313,313,flye
MRSA_r10_10,fhuD,fhuD,1,1,302,302,flye
MRSA_r10_10,ydbM,,0,0,390,0,flye
MRSA_r10_10,ureA,ureA,1,1,100,100,flye
MRSA_r10_10,ureB,ureB,1,1,136,136,flye
MRSA_r10_10,ureC,ureC,1,1,571,571,flye
MRSA_r10_10,ureE,ureE,1,1,150,150,flye
MRSA_r10_10,ureF,ureF,1,1,229,229,flye
MRSA_r10_10,ureG,ureG,1,1,204,204,flye
MRSA_r10_10,ureD1,ureD1,1,1,278,278,flye
MRSA_r10_10,sarR,sarR,1,1,115,115,flye
MRSA_r10_10,rhaS_2,rhaS,0,1,651,651,flye
MRSA_r10_10,ssaA2,ssaA2,1,1,269,269,flye
MRSA_r10_10,mleN_1,mleN_1,1,1,465,465,flye
MRSA_r10_10,odh,odh,1,1,360,360,flye
MRSA_r10_10,auaG,auaG,1,1,374,374,flye
MRSA_r10_10,atl_3,atl_2,0,1,258,258,flye
MRSA_r10_10,tagU_2,tagU_1,0,1,315,315,flye
MRSA_r10_10,cysQ,cysQ,1,1,265,265,flye
MRSA_r10_10,ybbH_3,ybbH_1,0,1,290,290,flye
MRSA_r10_10,yifK,yifK,1,1,459,459,flye
MRSA_r10_10,panS_1,panS_1,1,1,113,113,flye
MRSA_r10_10,panS_2,panS_2,1,1,178,178,flye
MRSA_r10_10,malP,,0,0,534,0,flye
MRSA_r10_10,glvR,glvR,1,1,254,254,flye
MRSA_r10_10,mleN_2,mleN_2,1,1,436,436,flye
MRSA_r10_10,yghA,yghA,1,1,293,293,flye
MRSA_r10_10,scmP_4,,0,0,302,0,flye
MRSA_r10_10,hutI,hutI,1,1,412,412,flye
MRSA_r10_10,hutU,hutU,1,1,553,553,flye
MRSA_r10_10,hdfR_2,hdfR_1,0,1,294,294,flye
MRSA_r10_10,fosB,,0,0,139,0,flye
MRSA_r10_10,hutG,hutG,1,1,311,311,flye
MRSA_r10_10,lyrA,lyrA,1,1,419,419,flye
MRSA_r10_10,rpiA,rpiA,1,1,228,228,flye
MRSA_r10_10,yiiM,yiiM,1,1,217,217,flye
MRSA_r10_10,mro,mro,1,1,339,339,flye
MRSA_r10_10,yhaP,yhaP,1,1,410,410,flye
MRSA_r10_10,lnrL_2,lnrL_1,0,1,299,299,flye
MRSA_r10_10,gltS,gltS,1,1,402,402,flye
MRSA_r10_10,fni,fni,1,1,349,349,flye
MRSA_r10_10,zntB,zntB,1,1,315,315,flye
MRSA_r10_10,mdtD,,0,0,645,0,flye
MRSA_r10_10,aaeA,aaeA,1,1,215,215,flye
MRSA_r10_10,bcr_1,bcr_1,1,1,402,402,flye
MRSA_r10_10,tcaA,tcaA,1,1,460,460,flye
MRSA_r10_10,tcaR,tcaR,1,1,151,151,flye
MRSA_r10_10,hrtA_2,hrtA,0,1,221,221,flye
MRSA_r10_10,hssR,hssR,1,1,224,224,flye
MRSA_r10_10,hssS,hssS,1,1,457,457,flye
MRSA_r10_10,lnrL_3,,0,0,242,0,flye
MRSA_r10_10,ybhR,ybhR,1,1,360,360,flye
MRSA_r10_10,mqo1,mqo1,1,1,492,492,flye
MRSA_r10_10,lctP_2,lctP_1,0,1,532,532,flye
MRSA_r10_10,paiA,paiA,1,1,171,171,flye
MRSA_r10_10,yhfP,yhfP,1,1,334,334,flye
MRSA_r10_10,treP_2,treP_1,0,1,480,480,flye
MRSA_r10_10,ydaG,ydaG,1,1,140,140,flye
MRSA_r10_10,gltT,gltT,1,1,425,425,flye
MRSA_r10_10,sarZ,sarZ,1,1,148,148,flye
MRSA_r10_10,narT,narT,1,1,389,389,flye
MRSA_r10_10,mta,mta,1,1,95,95,flye
MRSA_r10_10,nreC,nreC,1,1,217,217,flye
MRSA_r10_10,nreB,nreB,1,1,344,344,flye
MRSA_r10_10,narX,narX,1,1,225,225,flye
MRSA_r10_10,narH,narH,1,1,519,519,flye
MRSA_r10_10,narG,,0,0,1229,0,flye
MRSA_r10_10,cysG,cysG,1,1,325,325,flye
MRSA_r10_10,nasE,nasE,1,1,104,104,flye
MRSA_r10_10,nasD,nasD,1,1,801,801,flye
MRSA_r10_10,sirB,sirB,1,1,250,250,flye
MRSA_r10_10,ytmI,ytmI,1,1,178,178,flye
MRSA_r10_10,nirC,nirC,1,1,274,274,flye
MRSA_r10_10,yoeB,yoeB,1,1,88,88,flye
MRSA_r10_10,yefM,yefM,1,1,83,83,flye
MRSA_r10_10,bdbD,bdbD,1,1,199,199,flye
MRSA_r10_10,femA_3,femA_1,0,1,416,416,flye
MRSA_r10_10,tcyC_2,tcyC_2,1,1,243,243,flye
MRSA_r10_10,tcyB,,0,0,242,0,flye
MRSA_r10_10,farB_2,,0,0,479,0,flye
MRSA_r10_10,gpmA_2,gpmA_1,0,1,228,228,flye
MRSA_r10_10,mneS,mneS,1,1,288,288,flye
MRSA_r10_10,sbi,sbi,1,1,437,437,flye
MRSA_r10_10,hlgA,hlgA,1,1,321,321,flye
MRSA_r10_10,hlgC,hlgC,1,1,315,315,flye
MRSA_r10_10,hlgB,hlgB,1,1,325,325,flye
MRSA_r10_10,bioW,bioW,1,1,230,230,flye
MRSA_r10_10,bioB,bioB,1,1,335,335,flye
MRSA_r10_10,bioK,bioK,1,1,452,452,flye
MRSA_r10_10,bioD,,0,0,228,0,flye
MRSA_r10_10,garK_2,garK_1,0,1,380,380,flye
MRSA_r10_10,bcr_2,bcr_2,1,1,403,403,flye
MRSA_r10_10,cpdA_2,cpdA_2,1,1,268,268,flye
MRSA_r10_10,cycA_2,cycA_2,1,1,469,469,flye
MRSA_r10_10,nhaK_2,nhaK_1,0,1,692,692,flye
MRSA_r10_10,kimA,kimA,1,1,609,609,flye
MRSA_r10_10,flp,flp,1,1,499,499,flye
MRSA_r10_10,hldD,hldD,1,1,283,283,flye
MRSA_r10_10,panE,panE,1,1,311,311,flye
MRSA_r10_10,norB_4,norB_1,0,1,466,466,flye
MRSA_r10_10,opuCD,opuCD,1,1,231,231,flye
MRSA_r10_10,opuCC,opuCC,1,1,313,313,flye
MRSA_r10_10,opuCB,opuCB,1,1,211,211,flye
MRSA_r10_10,opuCA,opuCA,1,1,408,408,flye
MRSA_r10_10,yveA,yveA,1,1,545,545,flye
MRSA_r10_10,pnbA,pnbA,1,1,450,450,flye
MRSA_r10_10,pbuE_2,pbuE_1,0,1,395,395,flye
MRSA_r10_10,fetB,fetB,1,1,258,258,flye
MRSA_r10_10,fetA,fetA,1,1,220,220,flye
MRSA_r10_10,ysdC_2,ysdC_1,0,1,358,358,flye
MRSA_r10_10,yehR,yehR,1,1,151,151,flye
MRSA_r10_10,cntE,cntE,1,1,397,397,flye
MRSA_r10_10,cntF,cntF,1,1,249,249,flye
MRSA_r10_10,cntD,cntD,1,1,271,271,flye
MRSA_r10_10,cntC,cntC,1,1,289,289,flye
MRSA_r10_10,cntB,cntB,1,1,311,311,flye
MRSA_r10_10,cntA,cntA,1,1,532,532,flye
MRSA_r10_10,cntM,cntM,1,1,433,433,flye
MRSA_r10_10,cntL,cntL,1,1,272,272,flye
MRSA_r10_10,cntK,cntK,1,1,273,273,flye
MRSA_r10_10,bacC,bacC,1,1,272,272,flye
MRSA_r10_10,abgT,abgT,1,1,512,512,flye
MRSA_r10_10,uvrB_2,,0,0,953,0,flye
MRSA_r10_10,nudG,nudG,1,1,130,130,flye
MRSA_r10_10,pgcA,,0,0,545,0,flye
MRSA_r10_10,gtaB,gtaB,1,1,288,288,flye
MRSA_r10_10,fnbA,fnbA,1,1,965,965,flye
MRSA_r10_10,gntT,gntT,1,1,452,452,flye
MRSA_r10_10,xylB,,0,0,517,0,flye
MRSA_r10_10,ywaC,,0,0,230,0,flye
MRSA_r10_10,sauU,,0,0,425,0,flye
MRSA_r10_10,argO_2,argO_1,0,1,205,205,flye
MRSA_r10_10,norG,,0,0,470,0,flye
MRSA_r10_10,bcrA_2,bcrA_2,1,1,231,231,flye
MRSA_r10_10,fbp,,0,0,654,0,flye
MRSA_r10_10,mhqD,mhqD,1,1,197,197,flye
MRSA_r10_10,mhqA_3,mhqA_1,0,1,322,322,flye
MRSA_r10_10,mhqR,mhqR,1,1,144,144,flye
MRSA_r10_10,yjdJ,yjdJ,1,1,94,94,flye
MRSA_r10_10,catE_2,catE_1,0,1,268,268,flye
MRSA_r10_10,ldhD_1,,0,0,330,0,flye
MRSA_r10_10,ybjI,ybjI,1,1,266,266,flye
MRSA_r10_10,srtA,srtA,1,1,206,206,flye
MRSA_r10_10,pitA,pitA,1,1,163,163,flye
MRSA_r10_10,sdhA,sdhA,1,1,299,299,flye
MRSA_r10_10,yicL,,0,0,307,0,flye
MRSA_r10_10,glcB,,0,0,707,0,flye
MRSA_r10_10,ydaP,ydaP,1,1,579,579,flye
MRSA_r10_10,cidB,cidB,1,1,229,229,flye
MRSA_r10_10,cidA,cidA,1,1,131,131,flye
MRSA_r10_10,cynR,cynR,1,1,287,287,flye
MRSA_r10_10,mvaA,mvaA,1,1,426,426,flye
MRSA_r10_10,mvaS,mvaS,1,1,388,388,flye
MRSA_r10_10,ogt,ogt,1,1,173,173,flye
MRSA_r10_10,clpL,clpL,1,1,701,701,flye
MRSA_r10_10,feoB,feoB,1,1,664,664,flye
MRSA_r10_10,ydfJ,ydfJ,1,1,829,829,flye
MRSA_r10_10,rocA,rocA,1,1,514,514,flye
MRSA_r10_10,copA,copA,1,1,802,802,flye
MRSA_r10_10,copZ,copZ,1,1,68,68,flye
MRSA_r10_10,ldhD_2,ldhD_1,0,1,342,342,flye
MRSA_r10_10,bacF,bacF,1,1,384,384,flye
MRSA_r10_10,crtN,crtN,1,1,502,502,flye
MRSA_r10_10,crtM_1,crtM_2,0,1,169,169,flye
MRSA_r10_10,crtM_2,crtM_1,0,1,94,94,flye
MRSA_r10_10,crtQ,,0,0,375,0,flye
MRSA_r10_10,crtP,crtP,1,1,497,497,flye
MRSA_r10_10,ssaA,ssaA,1,1,255,255,flye
MRSA_r10_10,oatA_2,oatA_2,1,1,603,603,flye
MRSA_r10_10,isaA,isaA,1,1,233,233,flye
MRSA_r10_10,cpnA,cpnA,1,1,234,234,flye
MRSA_r10_10,pyrD,pyrD,1,1,354,354,flye
MRSA_r10_10,queH,queH,1,1,240,240,flye
MRSA_r10_10,cocE,cocE,1,1,560,560,flye
MRSA_r10_10,panD,panD,1,1,127,127,flye
MRSA_r10_10,panC,panC,1,1,283,283,flye
MRSA_r10_10,panB,panB,1,1,272,272,flye
MRSA_r10_10,aldC_2,aldC_2,1,1,234,234,flye
MRSA_r10_10,ldh2,ldh2,1,1,319,319,flye
MRSA_r10_10,yhdG,yhdG,1,1,482,482,flye
MRSA_r10_10,fda,fda,1,1,296,296,flye
MRSA_r10_10,mqo2,mqo2,1,1,498,498,flye
MRSA_r10_10,acsA_2,acsA_2,1,1,539,539,flye
MRSA_r10_10,isdG_2,isdG_2,1,1,147,147,flye
MRSA_r10_10,betA,,0,0,569,0,flye
MRSA_r10_10,gbsA,gbsA,1,1,496,496,flye
MRSA_r10_10,opcR,opcR,1,1,187,187,flye
MRSA_r10_10,opuD_3,opuD_4,0,1,540,540,flye
MRSA_r10_10,nrdD,nrdD,1,1,616,616,flye
MRSA_r10_10,citN,citN,1,1,456,456,flye
MRSA_r10_10,sirC,sirC,1,1,202,202,flye
MRSA_r10_10,cysJ,cysJ,1,1,626,626,flye
MRSA_r10_10,bsaA_2,bsaA_2,1,1,165,165,flye
MRSA_r10_10,bceB_2,bceB_4,0,1,666,666,flye
MRSA_r10_10,yxdL,yxdL,1,1,251,251,flye
MRSA_r10_10,graS_2,graS_2,1,1,295,295,flye
MRSA_r10_10,graR_2,graR_2,1,1,221,221,flye
MRSA_r10_10,phoB,,0,0,457,0,flye
MRSA_r10_10,clfB,,0,0,873,0,flye
MRSA_r10_10,arcR,arcR,1,1,234,234,flye
MRSA_r10_10,arcC2,arcC2,1,1,313,313,flye
MRSA_r10_10,arcD,,0,0,476,0,flye
MRSA_r10_10,arcB,arcB,1,1,336,336,flye
MRSA_r10_10,arcA,arcA,1,1,411,411,flye
MRSA_r10_10,argR_2,argR_2,1,1,149,149,flye
MRSA_r10_10,aur,aur,1,1,509,509,flye
MRSA_r10_10,isaB,isaB,1,1,175,175,flye
MRSA_r10_10,manR,manR_2,0,1,624,624,flye
MRSA_r10_10,manP,manP,1,1,650,650,flye
MRSA_r10_10,yvyI,,0,0,312,0,flye
MRSA_r10_10,gtfB,gtfB,1,1,452,452,flye
MRSA_r10_10,gtfA_3,gtfA_3,1,1,502,502,flye
MRSA_r10_10,secA1_2,secA1_2,1,1,796,796,flye
MRSA_r10_10,asp2,asp2,1,1,523,523,flye
MRSA_r10_10,asp1,asp1,1,1,452,452,flye
MRSA_r10_10,secY_2,secY_2,1,1,403,403,flye
MRSA_r10_10,sraP,,0,0,1351,0,flye
MRSA_r10_10,msrAB,msrAB,1,1,158,158,flye
MRSA_r10_10,ywqE_2,ywqE_2,1,1,255,255,flye
MRSA_r10_10,ywqD_2,ywqD_2,1,1,230,230,flye
MRSA_r10_10,cap8A_2,,0,0,220,0,flye
MRSA_r10_10,icaR,,0,0,186,0,flye
MRSA_r10_10,icaA,,0,0,412,0,flye
MRSA_r10_10,icaD,icaD,1,1,101,101,flye
MRSA_r10_10,icaB,icaB,1,1,290,290,flye
MRSA_r10_10,icaC,icaC,1,1,350,350,flye
MRSA_r10_10,lipA_2,lipA_2,1,1,681,681,flye
MRSA_r10_10,hisI,hisI,1,1,210,210,flye
MRSA_r10_10,hisF,hisF,1,1,252,252,flye
MRSA_r10_10,hisA,hisA,1,1,234,234,flye
MRSA_r10_10,hisH,hisH,1,1,192,192,flye
MRSA_r10_10,hisB,hisB,1,1,192,192,flye
MRSA_r10_10,hisC_3,hisC_3,1,1,337,337,flye
MRSA_r10_10,hisD,hisD,1,1,416,416,flye
MRSA_r10_10,hisG,hisG,1,1,204,204,flye
MRSA_r10_10,hisZ,,0,0,272,0,flye
MRSA_r10_10,ykoC,ykoC,1,1,277,277,flye
MRSA_r10_10,ykoD_2,ykoD_2,1,1,570,570,flye
MRSA_r10_10,salL,salL,1,1,282,282,flye
MRSA_r10_10,pcp,,0,0,212,0,flye
MRSA_r10_10,cna,cna,1,1,1183,1183,flye
MRSA_r10_10,yflS,yflS,1,1,472,472,flye
MRSA_r10_10,rarD,rarD,1,1,302,302,flye
MRSA_r10_10,nixA,,0,0,338,0,flye
MRSA_r10_10,nhoA,nhoA,1,1,266,266,flye
MRSA_r10_10,bceA_2,bceA_2,1,1,252,252,flye
MRSA_r10_10,bceB_3,bceB_3,1,1,626,626,flye
MRSA_r10_10,cspLA,cspLA,1,1,66,66,flye
MRSA_r10_10,noc,noc,1,1,279,279,flye
MRSA_r10_10,rsmG,rsmG,1,1,239,239,flye
MRSA_r10_10,mnmG,mnmG,1,1,625,625,flye
MRSA_r10_10,mnmE,mnmE,1,1,459,459,flye
MRSA_r10_10,rnpA,,0,0,115,0,flye
MRSA_r10_10,rpmH,rpmH,1,1,45,45,flye
