Sample name,Ref Gene name,test Gene name,name match,Gene found,Ref gene length (AA),Test gene length (AA),Notes
MRSA_r10.3_SUP_50,dnaA,dnaA,1,1,453,453,flye
MRSA_r10.3_SUP_50,dnaN,dnaN,1,1,377,377,flye
MRSA_r10.3_SUP_50,recF,recF,1,1,370,370,flye
MRSA_r10.3_SUP_50,gyrB,gyrB,1,1,644,644,flye
MRSA_r10.3_SUP_50,gyrA,gyrA,1,1,886,886,flye
MRSA_r10.3_SUP_50,nnrD,nnrD,1,1,270,270,flye
MRSA_r10.3_SUP_50,hutH,hutH,1,1,504,504,flye
MRSA_r10.3_SUP_50,serS,serS,1,1,428,428,flye
MRSA_r10.3_SUP_50,metXA,metXA,1,1,322,322,flye
MRSA_r10.3_SUP_50,gdpP,gdpP,1,1,655,655,flye
MRSA_r10.3_SUP_50,rplI,rplI,1,1,148,148,flye
MRSA_r10.3_SUP_50,dnaC,dnaC,1,1,466,466,flye
MRSA_r10.3_SUP_50,purA,purA,1,1,427,427,flye
MRSA_r10.3_SUP_50,walR,walR,1,1,233,233,flye
MRSA_r10.3_SUP_50,walK,walK,1,1,608,608,flye
MRSA_r10.3_SUP_50,yycI,yycI,1,1,262,262,flye
MRSA_r10.3_SUP_50,yycJ,yycJ,1,1,263,263,flye
MRSA_r10.3_SUP_50,rlmH,rlmH,1,1,159,159,flye
MRSA_r10.3_SUP_50,ble,ble,1,1,134,134,flye
MRSA_r10.3_SUP_50,knt,knt,1,1,247,247,flye
MRSA_r10.3_SUP_50,ugpQ,ugpQ,1,1,247,247,flye
MRSA_r10.3_SUP_50,mecA_1,mecA_2,0,1,668,668,flye
MRSA_r10.3_SUP_50,mecR1,mecR1,1,1,585,585,flye
MRSA_r10.3_SUP_50,mecI,mecI,1,1,114,114,flye
MRSA_r10.3_SUP_50,nagC,nagC,1,1,369,369,flye
MRSA_r10.3_SUP_50,glpE_1,glpE_2,0,1,101,101,flye
MRSA_r10.3_SUP_50,gloB,gloB,1,1,312,312,flye
MRSA_r10.3_SUP_50,glpE_2,glpE_1,0,1,354,354,flye
MRSA_r10.3_SUP_50,COQ5_3,COQ5_3,1,1,220,220,flye
MRSA_r10.3_SUP_50,ermA1_2,ermA1_2,1,1,243,243,flye
MRSA_r10.3_SUP_50,ant1_2,ant1_2,1,1,260,260,flye
MRSA_r10.3_SUP_50,xerC_6,xerC_8,0,1,630,630,flye
MRSA_r10.3_SUP_50,xerC_7,xerC_7,1,1,361,361,flye
MRSA_r10.3_SUP_50,kdpE_1,kdpE_2,0,1,231,231,flye
MRSA_r10.3_SUP_50,kdpD_1,kdpD_2,0,1,889,889,flye
MRSA_r10.3_SUP_50,kdpA_1,kdpA_2,0,1,558,558,flye
MRSA_r10.3_SUP_50,kdpB_1,kdpB_2,0,1,673,673,flye
MRSA_r10.3_SUP_50,kdpC_1,kdpC_3,0,1,120,120,flye
MRSA_r10.3_SUP_50,kdpC_2,kdpC_2,1,1,65,65,flye
MRSA_r10.3_SUP_50,mcrC,mcrC,1,1,346,346,flye
MRSA_r10.3_SUP_50,farB_1,farB_1,1,1,442,442,flye
MRSA_r10.3_SUP_50,dus,dus,1,1,328,328,flye
MRSA_r10.3_SUP_50,plc,plc,1,1,328,328,flye
MRSA_r10.3_SUP_50,rhaS_1,rhaS_1,1,1,745,745,flye
MRSA_r10.3_SUP_50,scmP_1,scmP_3,0,1,392,392,flye
MRSA_r10.3_SUP_50,norB_1,norB_3,0,1,462,462,flye
MRSA_r10.3_SUP_50,lctP_1,lctP_1,1,1,530,530,flye
MRSA_r10.3_SUP_50,spa,spa,1,1,516,516,flye
MRSA_r10.3_SUP_50,sarS,sarS,1,1,250,250,flye
MRSA_r10.3_SUP_50,yfhA,yfhA,1,1,332,332,flye
MRSA_r10.3_SUP_50,yfiZ_1,yfiZ_1,1,1,331,331,flye
MRSA_r10.3_SUP_50,yfiY,yfiY,1,1,330,330,flye
MRSA_r10.3_SUP_50,sbnA,sbnA,1,1,326,326,flye
MRSA_r10.3_SUP_50,sbnB,sbnB,1,1,336,336,flye
MRSA_r10.3_SUP_50,sbnC,sbnC,1,1,584,584,flye
MRSA_r10.3_SUP_50,sbnD,sbnD,1,1,418,418,flye
MRSA_r10.3_SUP_50,sbnE,sbnE,1,1,578,578,flye
MRSA_r10.3_SUP_50,sbnF,sbnF,1,1,592,592,flye
MRSA_r10.3_SUP_50,garL,garL,1,1,258,258,flye
MRSA_r10.3_SUP_50,sbnH,sbnH,1,1,400,400,flye
MRSA_r10.3_SUP_50,sbnI,sbnI,1,1,254,254,flye
MRSA_r10.3_SUP_50,butA,butA,1,1,258,258,flye
MRSA_r10.3_SUP_50,wbgU,wbgU,1,1,323,323,flye
MRSA_r10.3_SUP_50,wbnH,wbnH,1,1,388,388,flye
MRSA_r10.3_SUP_50,sodM,sodM,1,1,199,199,flye
MRSA_r10.3_SUP_50,deoD,deoD,1,1,235,235,flye
MRSA_r10.3_SUP_50,tet(38),tet(38),1,1,452,452,flye
MRSA_r10.3_SUP_50,deoC1,deoC1,1,1,220,220,flye
MRSA_r10.3_SUP_50,deoB,deoB,1,1,392,392,flye
MRSA_r10.3_SUP_50,phnE_1,phnE_2,0,1,271,271,flye
MRSA_r10.3_SUP_50,phnE_2,phnE_1,0,1,266,266,flye
MRSA_r10.3_SUP_50,glnQ,glnQ,1,1,257,257,flye
MRSA_r10.3_SUP_50,phnD2,phnD2,1,1,318,318,flye
MRSA_r10.3_SUP_50,yfkN,yfkN,1,1,511,511,flye
MRSA_r10.3_SUP_50,adhE,adhE,1,1,869,869,flye
MRSA_r10.3_SUP_50,cap8A_1,cap8A_1,1,1,222,222,flye
MRSA_r10.3_SUP_50,ywqD_1,ywqD_1,1,1,228,228,flye
MRSA_r10.3_SUP_50,ywqE_1,ywqE_1,1,1,254,254,flye
MRSA_r10.3_SUP_50,pglF,pglF,1,1,607,607,flye
MRSA_r10.3_SUP_50,capD,capD,1,1,342,342,flye
MRSA_r10.3_SUP_50,wbjC,wbjC,1,1,369,369,flye
MRSA_r10.3_SUP_50,wbpI,wbpI,1,1,374,374,flye
MRSA_r10.3_SUP_50,dapH_1,dapH_2,0,1,185,185,flye
MRSA_r10.3_SUP_50,epsL,epsL,1,1,185,185,flye
MRSA_r10.3_SUP_50,fcl,fcl,1,1,295,295,flye
MRSA_r10.3_SUP_50,wecC,wecC,1,1,420,420,flye
MRSA_r10.3_SUP_50,mnaA_1,mnaA_2,0,1,381,381,flye
MRSA_r10.3_SUP_50,isdI,isdI,1,1,108,108,flye
MRSA_r10.3_SUP_50,ybaN,ybaN,1,1,127,127,flye
MRSA_r10.3_SUP_50,aldA,aldA,1,1,495,495,flye
MRSA_r10.3_SUP_50,czcD_1,czcD_2,0,1,319,319,flye
MRSA_r10.3_SUP_50,nrtD,nrtD,1,1,246,246,flye
MRSA_r10.3_SUP_50,ssuC,ssuC,1,1,253,253,flye
MRSA_r10.3_SUP_50,mdrP,mdrP,1,1,416,416,flye
MRSA_r10.3_SUP_50,dltA_1,,0,0,2391,0,flye
MRSA_r10.3_SUP_50,yagU,yagU,1,1,164,164,flye
MRSA_r10.3_SUP_50,argB,argB,1,1,256,256,flye
MRSA_r10.3_SUP_50,argJ,argJ,1,1,413,413,flye
MRSA_r10.3_SUP_50,argC,argC,1,1,344,344,flye
MRSA_r10.3_SUP_50,rocD2_1,rocD2_2,0,1,394,394,flye
MRSA_r10.3_SUP_50,brnQ_1,brnQ_3,0,1,451,451,flye
MRSA_r10.3_SUP_50,yecD,yecD,1,1,185,185,flye
MRSA_r10.3_SUP_50,ipdC,ipdC,1,1,546,546,flye
MRSA_r10.3_SUP_50,ptsG_1,ptsG_3,0,1,681,681,flye
MRSA_r10.3_SUP_50,murQ,murQ,1,1,298,298,flye
MRSA_r10.3_SUP_50,ybbH_1,ybbH_2,0,1,292,292,flye
MRSA_r10.3_SUP_50,hsdR,hsdR,1,1,929,929,flye
MRSA_r10.3_SUP_50,gsiA,gsiA,1,1,530,530,flye
MRSA_r10.3_SUP_50,ggt,ggt,1,1,668,668,flye
MRSA_r10.3_SUP_50,azoR,azoR,1,1,208,208,flye
MRSA_r10.3_SUP_50,msmX,msmX,1,1,365,365,flye
MRSA_r10.3_SUP_50,cycB,cycB,1,1,423,423,flye
MRSA_r10.3_SUP_50,malG,malG,1,1,279,279,flye
MRSA_r10.3_SUP_50,gfo,gfo,1,1,358,358,flye
MRSA_r10.3_SUP_50,iolG,iolG,1,1,346,346,flye
MRSA_r10.3_SUP_50,uhpT,uhpT,1,1,459,459,flye
MRSA_r10.3_SUP_50,pflB,pflB,1,1,749,749,flye
MRSA_r10.3_SUP_50,pflA,pflA,1,1,251,251,flye
MRSA_r10.3_SUP_50,scn_1,scn_3,0,1,114,114,flye
MRSA_r10.3_SUP_50,fadA,fadA,1,1,394,394,flye
MRSA_r10.3_SUP_50,fadN,fadN,1,1,753,753,flye
MRSA_r10.3_SUP_50,caiA,caiA,1,1,403,403,flye
MRSA_r10.3_SUP_50,lcfB,lcfB,1,1,501,501,flye
MRSA_r10.3_SUP_50,carA_1,carA_2,0,1,520,520,flye
MRSA_r10.3_SUP_50,nikA,nikA,1,1,491,491,flye
MRSA_r10.3_SUP_50,hmp,hmp,1,1,381,381,flye
MRSA_r10.3_SUP_50,ldh1,ldh1,1,1,317,317,flye
MRSA_r10.3_SUP_50,ptsG_2,ptsG_2,1,1,509,509,flye
MRSA_r10.3_SUP_50,rihA,rihA,1,1,311,311,flye
MRSA_r10.3_SUP_50,gatA_1,gatA_2,0,1,155,155,flye
MRSA_r10.3_SUP_50,gatB_1,gatB_2,0,1,92,92,flye
MRSA_r10.3_SUP_50,gatC_1,gatC_2,0,1,419,419,flye
MRSA_r10.3_SUP_50,gatD_1,gatD_2,0,1,347,347,flye
MRSA_r10.3_SUP_50,tarI2,tarI2,1,1,238,238,flye
MRSA_r10.3_SUP_50,tarJ',tarJ',1,1,341,341,flye
MRSA_r10.3_SUP_50,tarK,tarK,1,1,564,564,flye
MRSA_r10.3_SUP_50,tarF,tarF,1,1,389,389,flye
MRSA_r10.3_SUP_50,tarI1,tarI1,1,1,238,238,flye
MRSA_r10.3_SUP_50,tarJ,tarJ,1,1,341,341,flye
MRSA_r10.3_SUP_50,tarL,tarL,1,1,562,562,flye
MRSA_r10.3_SUP_50,tarS,tarS,1,1,574,574,flye
MRSA_r10.3_SUP_50,scdA,scdA,1,1,224,224,flye
MRSA_r10.3_SUP_50,ypdA,ypdA,1,1,584,584,flye
MRSA_r10.3_SUP_50,lytR,lytR,1,1,246,246,flye
MRSA_r10.3_SUP_50,lrgA,lrgA,1,1,145,145,flye
MRSA_r10.3_SUP_50,lrgB,lrgB,1,1,233,233,flye
MRSA_r10.3_SUP_50,yydK,yydK,1,1,234,234,flye
MRSA_r10.3_SUP_50,ptsG_3,ptsG_1,0,1,263,263,flye
MRSA_r10.3_SUP_50,bglA,bglA,1,1,478,478,flye
MRSA_r10.3_SUP_50,COQ5_2,COQ5_2,1,1,253,253,flye
MRSA_r10.3_SUP_50,rbsK,rbsK,1,1,304,304,flye
MRSA_r10.3_SUP_50,rbsD,rbsD,1,1,134,134,flye
MRSA_r10.3_SUP_50,glcU_1,glcU_1,1,1,293,293,flye
MRSA_r10.3_SUP_50,degA,degA,1,1,332,332,flye
MRSA_r10.3_SUP_50,norB_2,norB_2,1,1,458,458,flye
MRSA_r10.3_SUP_50,yxeI,yxeI,1,1,330,330,flye
MRSA_r10.3_SUP_50,lytM,lytM,1,1,316,316,flye
MRSA_r10.3_SUP_50,lnrL_1,lnrL_1,1,1,219,219,flye
MRSA_r10.3_SUP_50,esxA,esxA,1,1,97,97,flye
MRSA_r10.3_SUP_50,esaA,esaA,1,1,1009,1009,flye
MRSA_r10.3_SUP_50,esaB,esaB,1,1,80,80,flye
MRSA_r10.3_SUP_50,essB,essB,1,1,444,444,flye
MRSA_r10.3_SUP_50,essC,essC,1,1,1482,1482,flye
MRSA_r10.3_SUP_50,essG_1,essG_4,0,1,166,166,flye
MRSA_r10.3_SUP_50,essG_2,essG_3,0,1,166,166,flye
MRSA_r10.3_SUP_50,essG_3,essG_2,0,1,118,118,flye
MRSA_r10.3_SUP_50,essG_4,essG_1,0,1,90,90,flye
MRSA_r10.3_SUP_50,focA,focA,1,1,274,274,flye
MRSA_r10.3_SUP_50,brnQ_2,brnQ_2,1,1,435,435,flye
MRSA_r10.3_SUP_50,hel,hel,1,1,296,296,flye
MRSA_r10.3_SUP_50,hrtA_1,hrtA_1,1,1,225,225,flye
MRSA_r10.3_SUP_50,RBKS,RBKS,1,1,372,372,flye
MRSA_r10.3_SUP_50,psuG,psuG,1,1,307,307,flye
MRSA_r10.3_SUP_50,nupC_1,nupC_2,0,1,406,406,flye
MRSA_r10.3_SUP_50,sglT,sglT,1,1,510,510,flye
MRSA_r10.3_SUP_50,nanA,nanA,1,1,293,293,flye
MRSA_r10.3_SUP_50,bglK,bglK,1,1,286,286,flye
MRSA_r10.3_SUP_50,ybbH_2,ybbH_1,0,1,266,266,flye
MRSA_r10.3_SUP_50,nanE,nanE,1,1,222,222,flye
MRSA_r10.3_SUP_50,lip2,lip2,1,1,691,691,flye
MRSA_r10.3_SUP_50,ulaA,ulaA,1,1,448,448,flye
MRSA_r10.3_SUP_50,cmtB,cmtB,1,1,147,147,flye
MRSA_r10.3_SUP_50,slyA_1,slyA_2,0,1,139,139,flye
MRSA_r10.3_SUP_50,mepA,mepA,1,1,451,451,flye
MRSA_r10.3_SUP_50,glpT,glpT,1,1,452,452,flye
MRSA_r10.3_SUP_50,mhqA_1,mhqA_1,1,1,308,308,flye
MRSA_r10.3_SUP_50,luxA,luxA,1,1,353,353,flye
MRSA_r10.3_SUP_50,ydaF,ydaF,1,1,181,181,flye
MRSA_r10.3_SUP_50,efeM,efeM,1,1,284,284,flye
MRSA_r10.3_SUP_50,efeN,efeN,1,1,409,409,flye
MRSA_r10.3_SUP_50,tatC2,tatC2,1,1,233,233,flye
MRSA_r10.3_SUP_50,tatAy,tatAy,1,1,71,71,flye
MRSA_r10.3_SUP_50,btuD_1,btuD_5,0,1,280,280,flye
MRSA_r10.3_SUP_50,metE,metE,1,1,742,742,flye
MRSA_r10.3_SUP_50,yitJ,yitJ,1,1,613,613,flye
MRSA_r10.3_SUP_50,metC,metC,1,1,386,386,flye
MRSA_r10.3_SUP_50,metI,metI,1,1,367,367,flye
MRSA_r10.3_SUP_50,spo0J,spo0J,1,1,281,281,flye
MRSA_r10.3_SUP_50,mscS,mscS,1,1,293,293,flye
MRSA_r10.3_SUP_50,ychF,ychF,1,1,365,365,flye
MRSA_r10.3_SUP_50,rpsF,rpsF,1,1,98,98,flye
MRSA_r10.3_SUP_50,ssbA_1,ssbA_3,0,1,167,167,flye
MRSA_r10.3_SUP_50,rpsR,rpsR,1,1,80,80,flye
MRSA_r10.3_SUP_50,xerC_3,xerC_6,0,1,404,404,flye
MRSA_r10.3_SUP_50,gpmA_1,gpmA_1,1,1,193,193,flye
MRSA_r10.3_SUP_50,ahpF,ahpF,1,1,507,507,flye
MRSA_r10.3_SUP_50,ahpC,ahpC,1,1,189,189,flye
MRSA_r10.3_SUP_50,nfrA,nfrA,1,1,251,251,flye
MRSA_r10.3_SUP_50,tcyP,tcyP,1,1,462,462,flye
MRSA_r10.3_SUP_50,xpt,xpt,1,1,192,192,flye
MRSA_r10.3_SUP_50,pucK,pucK,1,1,422,422,flye
MRSA_r10.3_SUP_50,guaB,guaB,1,1,488,488,flye
MRSA_r10.3_SUP_50,guaA,guaA,1,1,513,513,flye
MRSA_r10.3_SUP_50,qorB,qorB,1,1,281,281,flye
MRSA_r10.3_SUP_50,ssl1,ssl1,1,1,226,226,flye
MRSA_r10.3_SUP_50,ssl4_1,ssl4_2,0,1,233,233,flye
MRSA_r10.3_SUP_50,ssl4_2,ssl4_1,0,1,343,343,flye
MRSA_r10.3_SUP_50,ssl3,ssl3,1,1,306,306,flye
MRSA_r10.3_SUP_50,ssl5_1,ssl5_2,0,1,234,234,flye
MRSA_r10.3_SUP_50,ssl7_1,ssl7_2,0,1,231,231,flye
MRSA_r10.3_SUP_50,ssl7_2,ssl7_1,0,1,232,232,flye
MRSA_r10.3_SUP_50,hsdM,hsdM,1,1,518,518,flye
MRSA_r10.3_SUP_50,ssl5_2,ssl5_1,0,1,232,232,flye
MRSA_r10.3_SUP_50,lpl2_1,lpl2_6,0,1,270,270,flye
MRSA_r10.3_SUP_50,lpl2_2,lpl2_5,0,1,257,257,flye
MRSA_r10.3_SUP_50,lpl2_3,lpl2_4,0,1,136,136,flye
MRSA_r10.3_SUP_50,lpl2_4,lpl2_3,0,1,123,123,flye
MRSA_r10.3_SUP_50,lpl2_5,lpl2_2,0,1,256,256,flye
MRSA_r10.3_SUP_50,lpl2_6,lpl2_1,0,1,267,267,flye
MRSA_r10.3_SUP_50,yciC_1,yciC_2,0,1,400,400,flye
MRSA_r10.3_SUP_50,ndhB,ndhB,1,1,494,494,flye
MRSA_r10.3_SUP_50,est_1,est_2,0,1,244,244,flye
MRSA_r10.3_SUP_50,mccA,mccA,1,1,311,311,flye
MRSA_r10.3_SUP_50,mccB,mccB,1,1,380,380,flye
MRSA_r10.3_SUP_50,metN,metN,1,1,341,341,flye
MRSA_r10.3_SUP_50,metP_1,metP_2,0,1,219,219,flye
MRSA_r10.3_SUP_50,metQ_1,metQ_2,0,1,280,280,flye
MRSA_r10.3_SUP_50,sle1,,0,0,341,0,flye
MRSA_r10.3_SUP_50,hdfR_1,hdfR_1,1,1,294,294,flye
MRSA_r10.3_SUP_50,gltA,gltA,1,1,1499,1499,flye
MRSA_r10.3_SUP_50,gltB,gltB,1,1,487,487,flye
MRSA_r10.3_SUP_50,treP_1,treP_1,1,1,475,475,flye
MRSA_r10.3_SUP_50,treA,treA,1,1,546,546,flye
MRSA_r10.3_SUP_50,treR_1,treR_2,0,1,242,242,flye
MRSA_r10.3_SUP_50,ruvB_1,ruvB_2,0,1,565,565,flye
MRSA_r10.3_SUP_50,recR,recR,1,1,198,198,flye
MRSA_r10.3_SUP_50,speA,speA,1,1,445,445,flye
MRSA_r10.3_SUP_50,tmk,tmk,1,1,205,205,flye
MRSA_r10.3_SUP_50,darA,darA,1,1,109,109,flye
MRSA_r10.3_SUP_50,yabA,yabA,1,1,115,115,flye
MRSA_r10.3_SUP_50,yfiC,yfiC,1,1,241,241,flye
MRSA_r10.3_SUP_50,rsmI,rsmI,1,1,279,279,flye
MRSA_r10.3_SUP_50,metG,metG,1,1,657,657,flye
MRSA_r10.3_SUP_50,dtd3,dtd3,1,1,257,257,flye
MRSA_r10.3_SUP_50,rnmV_1,rnmV_2,0,1,178,178,flye
MRSA_r10.3_SUP_50,rsmA,rsmA,1,1,297,297,flye
MRSA_r10.3_SUP_50,veg,veg,1,1,87,87,flye
MRSA_r10.3_SUP_50,ispE,ispE,1,1,282,282,flye
MRSA_r10.3_SUP_50,purR,purR,1,1,274,274,flye
MRSA_r10.3_SUP_50,yabJ,yabJ,1,1,126,126,flye
MRSA_r10.3_SUP_50,spoVG,spoVG,1,1,100,100,flye
MRSA_r10.3_SUP_50,glmU,glmU,1,1,450,450,flye
MRSA_r10.3_SUP_50,prs,prs,1,1,321,321,flye
MRSA_r10.3_SUP_50,rplY,rplY,1,1,217,217,flye
MRSA_r10.3_SUP_50,pth,pth,1,1,190,190,flye
MRSA_r10.3_SUP_50,mfd,mfd,1,1,1168,1168,flye
MRSA_r10.3_SUP_50,divIC,divIC,1,1,130,130,flye
MRSA_r10.3_SUP_50,pnp_1,pnp_2,0,1,133,133,flye
MRSA_r10.3_SUP_50,tilS,tilS,1,1,431,431,flye
MRSA_r10.3_SUP_50,hpt,hpt,1,1,179,179,flye
MRSA_r10.3_SUP_50,ftsH,ftsH,1,1,697,697,flye
MRSA_r10.3_SUP_50,hslO,hslO,1,1,293,293,flye
MRSA_r10.3_SUP_50,cysK,cysK,1,1,310,310,flye
MRSA_r10.3_SUP_50,folP,folP,1,1,267,267,flye
MRSA_r10.3_SUP_50,folB,folB,1,1,121,121,flye
MRSA_r10.3_SUP_50,folK,folK,1,1,158,158,flye
MRSA_r10.3_SUP_50,lysS,lysS,1,1,495,495,flye
MRSA_r10.3_SUP_50,gabR,gabR,1,1,460,460,flye
MRSA_r10.3_SUP_50,pdxS,pdxS,1,1,295,295,flye
MRSA_r10.3_SUP_50,pdxT,pdxT,1,1,186,186,flye
MRSA_r10.3_SUP_50,nupC_2,nupC_1,0,1,404,404,flye
MRSA_r10.3_SUP_50,ctsR,ctsR,1,1,156,156,flye
MRSA_r10.3_SUP_50,mcsA,mcsA,1,1,188,188,flye
MRSA_r10.3_SUP_50,mcsB,mcsB,1,1,336,336,flye
MRSA_r10.3_SUP_50,clpC,clpC,1,1,818,818,flye
MRSA_r10.3_SUP_50,radA,radA,1,1,454,454,flye
MRSA_r10.3_SUP_50,yacL,yacL,1,1,357,357,flye
MRSA_r10.3_SUP_50,gltX,gltX,1,1,484,484,flye
MRSA_r10.3_SUP_50,cysE,cysE,1,1,226,226,flye
MRSA_r10.3_SUP_50,cysS,cysS,1,1,466,466,flye
MRSA_r10.3_SUP_50,mrnC,mrnC,1,1,134,134,flye
MRSA_r10.3_SUP_50,yacP,yacP,1,1,174,174,flye
MRSA_r10.3_SUP_50,secE,secE,1,1,60,60,flye
MRSA_r10.3_SUP_50,nusG,nusG,1,1,182,182,flye
MRSA_r10.3_SUP_50,rplK,rplK,1,1,140,140,flye
MRSA_r10.3_SUP_50,rplA,rplA,1,1,229,229,flye
MRSA_r10.3_SUP_50,rplJ,rplJ,1,1,166,166,flye
MRSA_r10.3_SUP_50,rplL,rplL,1,1,122,122,flye
MRSA_r10.3_SUP_50,rsmC,rsmC,1,1,202,202,flye
MRSA_r10.3_SUP_50,rpoB,rpoB,1,1,1183,1183,flye
MRSA_r10.3_SUP_50,rpoC,rpoC,1,1,1207,1207,flye
MRSA_r10.3_SUP_50,rplGB,rplGB,1,1,84,84,flye
MRSA_r10.3_SUP_50,rpsL,rpsL,1,1,137,137,flye
MRSA_r10.3_SUP_50,rpsG,rpsG,1,1,156,156,flye
MRSA_r10.3_SUP_50,fusA,fusA,1,1,693,693,flye
MRSA_r10.3_SUP_50,tuf,tuf,1,1,394,394,flye
MRSA_r10.3_SUP_50,scmP_2,scmP_2,1,1,391,391,flye
MRSA_r10.3_SUP_50,hchA,hchA,1,1,292,292,flye
MRSA_r10.3_SUP_50,araB,araB,1,1,545,545,flye
MRSA_r10.3_SUP_50,ilvE,ilvE,1,1,358,358,flye
MRSA_r10.3_SUP_50,ppaX_1,ppaX_2,0,1,227,227,flye
MRSA_r10.3_SUP_50,dck,dck,1,1,220,220,flye
MRSA_r10.3_SUP_50,dgk,dgk,1,1,205,205,flye
MRSA_r10.3_SUP_50,tadA_1,tadA_2,0,1,156,156,flye
MRSA_r10.3_SUP_50,ywtE_1,ywtE_2,0,1,289,289,flye
MRSA_r10.3_SUP_50,azo1,azo1,1,1,188,188,flye
MRSA_r10.3_SUP_50,bbp,bbp,1,1,1137,1137,flye
MRSA_r10.3_SUP_50,gtfA_1,gtfA_2,0,1,490,490,flye
MRSA_r10.3_SUP_50,gtfA_2,gtfA_1,0,1,496,496,flye
MRSA_r10.3_SUP_50,folE2,folE2,1,1,292,292,flye
MRSA_r10.3_SUP_50,bshB2,bshB2,1,1,221,221,flye
MRSA_r10.3_SUP_50,yojF,yojF,1,1,120,120,flye
MRSA_r10.3_SUP_50,nagB_1,nagB_2,0,1,252,252,flye
MRSA_r10.3_SUP_50,hxlB,hxlB,1,1,182,182,flye
MRSA_r10.3_SUP_50,gph,gph,1,1,215,215,flye
MRSA_r10.3_SUP_50,proP,proP,1,1,466,466,flye
MRSA_r10.3_SUP_50,menE_1,menE_2,0,1,458,458,flye
MRSA_r10.3_SUP_50,yhfS,yhfS,1,1,379,379,flye
MRSA_r10.3_SUP_50,pdxK,pdxK,1,1,276,276,flye
MRSA_r10.3_SUP_50,ung,ung,1,1,218,218,flye
MRSA_r10.3_SUP_50,pta,pta,1,1,328,328,flye
MRSA_r10.3_SUP_50,lipL,lipL,1,1,278,278,flye
MRSA_r10.3_SUP_50,galK,galK,1,1,306,306,flye
MRSA_r10.3_SUP_50,rclA,rclA,1,1,440,440,flye
MRSA_r10.3_SUP_50,iolS,iolS,1,1,312,312,flye
MRSA_r10.3_SUP_50,ywqN,ywqN,1,1,178,178,flye
MRSA_r10.3_SUP_50,adh,adh,1,1,336,336,flye
MRSA_r10.3_SUP_50,ywiB,ywiB,1,1,138,138,flye
MRSA_r10.3_SUP_50,argS,argS,1,1,553,553,flye
MRSA_r10.3_SUP_50,nth_1,nth_2,0,1,211,211,flye
MRSA_r10.3_SUP_50,btuF,btuF,1,1,295,295,flye
MRSA_r10.3_SUP_50,hdl IVa,hdl IVa,1,1,239,239,flye
MRSA_r10.3_SUP_50,pip,pip,1,1,262,262,flye
MRSA_r10.3_SUP_50,sarA,sarA,1,1,124,124,flye
MRSA_r10.3_SUP_50,xerD_1,xerD_2,0,1,186,186,flye
MRSA_r10.3_SUP_50,mrpA,mrpA,1,1,800,800,flye
MRSA_r10.3_SUP_50,mrpB,mrpB,1,1,141,141,flye
MRSA_r10.3_SUP_50,mnhC1_1,mnhC1_2,0,1,114,114,flye
MRSA_r10.3_SUP_50,mnhD1_1,mnhD1_2,0,1,498,498,flye
MRSA_r10.3_SUP_50,mrpE,mrpE,1,1,160,160,flye
MRSA_r10.3_SUP_50,mrpF,mrpF,1,1,100,100,flye
MRSA_r10.3_SUP_50,mrpG,mrpG,1,1,120,120,flye
MRSA_r10.3_SUP_50,nhaK_1,nhaK_1,1,1,680,680,flye
MRSA_r10.3_SUP_50,pbuE_1,pbuE_1,1,1,382,382,flye
MRSA_r10.3_SUP_50,ppaX_2,ppaX_1,0,1,82,82,flye
MRSA_r10.3_SUP_50,mntA,mntA,1,1,309,309,flye
MRSA_r10.3_SUP_50,mntB,mntB,1,1,278,278,flye
MRSA_r10.3_SUP_50,scaC,scaC,1,1,247,247,flye
MRSA_r10.3_SUP_50,mntR,mntR,1,1,214,214,flye
MRSA_r10.3_SUP_50,tarA,tarA,1,1,254,254,flye
MRSA_r10.3_SUP_50,tagH_1,tagH_2,0,1,264,264,flye
MRSA_r10.3_SUP_50,tagG,tagG,1,1,270,270,flye
MRSA_r10.3_SUP_50,tarB,tarB,1,1,367,367,flye
MRSA_r10.3_SUP_50,tagX,tagX,1,1,353,353,flye
MRSA_r10.3_SUP_50,tarD,tarD,1,1,132,132,flye
MRSA_r10.3_SUP_50,bmrA,bmrA,1,1,575,575,flye
MRSA_r10.3_SUP_50,nupG,nupG,1,1,409,409,flye
MRSA_r10.3_SUP_50,fepC,fepC,1,1,265,265,flye
MRSA_r10.3_SUP_50,feuB,feuB,1,1,334,334,flye
MRSA_r10.3_SUP_50,feuC,feuC,1,1,338,338,flye
MRSA_r10.3_SUP_50,dhaK,dhaK,1,1,322,322,flye
MRSA_r10.3_SUP_50,dhaL,dhaL,1,1,194,194,flye
MRSA_r10.3_SUP_50,dhaM,dhaM,1,1,120,120,flye
MRSA_r10.3_SUP_50,aes,aes,1,1,347,347,flye
MRSA_r10.3_SUP_50,graR_1,graR_1,1,1,224,224,flye
MRSA_r10.3_SUP_50,graS_1,graS_1,1,1,346,346,flye
MRSA_r10.3_SUP_50,bceA_1,bceA_1,1,1,253,253,flye
MRSA_r10.3_SUP_50,bceB_1,bceB_1,1,1,629,629,flye
MRSA_r10.3_SUP_50,rhaR,rhaR,1,1,647,647,flye
MRSA_r10.3_SUP_50,sarX,sarX,1,1,141,141,flye
MRSA_r10.3_SUP_50,oxyR,oxyR,1,1,288,288,flye
MRSA_r10.3_SUP_50,setC,setC,1,1,430,430,flye
MRSA_r10.3_SUP_50,bin3,bin3,1,1,105,105,flye
MRSA_r10.3_SUP_50,sdpR,sdpR,1,1,104,104,flye
MRSA_r10.3_SUP_50,arsB_1,arsB_2,0,1,429,429,flye
MRSA_r10.3_SUP_50,arsC,arsC,1,1,131,131,flye
MRSA_r10.3_SUP_50,pre,pre,1,1,108,108,flye
MRSA_r10.3_SUP_50,bcrR,bcrR,1,1,113,113,flye
MRSA_r10.3_SUP_50,cysL,cysL,1,1,273,273,flye
MRSA_r10.3_SUP_50,hin_1,hin_2,0,1,191,191,flye
MRSA_r10.3_SUP_50,copB,,0,0,681,0,flye
MRSA_r10.3_SUP_50,mco,mco,1,1,477,477,flye
MRSA_r10.3_SUP_50,cadA,cadA,1,1,726,726,flye
MRSA_r10.3_SUP_50,cadC,cadC,1,1,121,121,flye
MRSA_r10.3_SUP_50,uppP,uppP,1,1,291,291,flye
MRSA_r10.3_SUP_50,cydD,cydD,1,1,543,543,flye
MRSA_r10.3_SUP_50,mgrA,mgrA,1,1,147,147,flye
MRSA_r10.3_SUP_50,yciC_2,yciC_1,0,1,308,308,flye
MRSA_r10.3_SUP_50,ydhF,ydhF,1,1,302,302,flye
MRSA_r10.3_SUP_50,phrB,phrB,1,1,457,457,flye
MRSA_r10.3_SUP_50,tetA,tetA,1,1,388,388,flye
MRSA_r10.3_SUP_50,ybaK,ybaK,1,1,160,160,flye
MRSA_r10.3_SUP_50,ydjF,ydjF,1,1,254,254,flye
MRSA_r10.3_SUP_50,lacC_1,lacC_1,1,1,306,306,flye
MRSA_r10.3_SUP_50,fruA,fruA,1,1,652,652,flye
MRSA_r10.3_SUP_50,nagA,nagA,1,1,393,393,flye
MRSA_r10.3_SUP_50,csbB,csbB,1,1,327,327,flye
MRSA_r10.3_SUP_50,saeS,saeS,1,1,351,351,flye
MRSA_r10.3_SUP_50,saeR,saeR,1,1,228,228,flye
MRSA_r10.3_SUP_50,queE,queE,1,1,237,237,flye
MRSA_r10.3_SUP_50,queD,queD,1,1,139,139,flye
MRSA_r10.3_SUP_50,queC,queC,1,1,222,222,flye
MRSA_r10.3_SUP_50,trpG_1,trpG_2,0,1,197,197,flye
MRSA_r10.3_SUP_50,menF,menF,1,1,383,383,flye
MRSA_r10.3_SUP_50,pxpB_1,pxpB_2,0,1,236,236,flye
MRSA_r10.3_SUP_50,pxpC_1,pxpC_2,0,1,334,334,flye
MRSA_r10.3_SUP_50,ltaS,ltaS,1,1,646,646,flye
MRSA_r10.3_SUP_50,ettA,ettA,1,1,625,625,flye
MRSA_r10.3_SUP_50,recQ_1,recQ_2,0,1,593,593,flye
MRSA_r10.3_SUP_50,btuD_2,btuD_4,0,1,325,325,flye
MRSA_r10.3_SUP_50,hisC_1,hisC_2,0,1,352,352,flye
MRSA_r10.3_SUP_50,dtpT,dtpT,1,1,501,501,flye
MRSA_r10.3_SUP_50,queF,queF,1,1,166,166,flye
MRSA_r10.3_SUP_50,cntI,cntI,1,1,288,288,flye
MRSA_r10.3_SUP_50,nrdI,nrdI,1,1,132,132,flye
MRSA_r10.3_SUP_50,nrdE,nrdE,1,1,701,701,flye
MRSA_r10.3_SUP_50,nrdF,nrdF,1,1,323,323,flye
MRSA_r10.3_SUP_50,yclN,yclN,1,1,323,323,flye
MRSA_r10.3_SUP_50,yclO,yclO,1,1,318,318,flye
MRSA_r10.3_SUP_50,yclP,yclP,1,1,253,253,flye
MRSA_r10.3_SUP_50,yclQ,yclQ,1,1,342,342,flye
MRSA_r10.3_SUP_50,murB,murB,1,1,307,307,flye
MRSA_r10.3_SUP_50,garK_1,garK_1,1,1,374,374,flye
MRSA_r10.3_SUP_50,pepT_1,pepT_2,0,1,408,408,flye
MRSA_r10.3_SUP_50,yjjP,yjjP,1,1,253,253,flye
MRSA_r10.3_SUP_50,tagO,tagO,1,1,351,351,flye
MRSA_r10.3_SUP_50,comFA,comFA,1,1,360,360,flye
MRSA_r10.3_SUP_50,hpf,hpf,1,1,190,190,flye
MRSA_r10.3_SUP_50,secA1_1,secA1_1,1,1,843,843,flye
MRSA_r10.3_SUP_50,prfB,,0,0,330,0,flye
MRSA_r10.3_SUP_50,yfbR,yfbR,1,1,216,216,flye
MRSA_r10.3_SUP_50,uvrB_1,uvrB_1,1,1,661,661,flye
MRSA_r10.3_SUP_50,uvrA,uvrA,1,1,948,948,flye
MRSA_r10.3_SUP_50,hprK,hprK,1,1,310,310,flye
MRSA_r10.3_SUP_50,lgt,lgt,1,1,280,280,flye
MRSA_r10.3_SUP_50,maa,maa,1,1,161,161,flye
MRSA_r10.3_SUP_50,trxB,trxB,1,1,311,311,flye
MRSA_r10.3_SUP_50,whiA,,0,0,314,0,flye
MRSA_r10.3_SUP_50,clpP_1,clpP_3,0,1,195,195,flye
MRSA_r10.3_SUP_50,mleS,mleS,1,1,544,544,flye
MRSA_r10.3_SUP_50,cggR,cggR,1,1,337,337,flye
MRSA_r10.3_SUP_50,gapA1,gapA1,1,1,336,336,flye
MRSA_r10.3_SUP_50,pgk,pgk,1,1,396,396,flye
MRSA_r10.3_SUP_50,tpiA,tpiA,1,1,253,253,flye
MRSA_r10.3_SUP_50,gpmI,gpmI,1,1,505,505,flye
MRSA_r10.3_SUP_50,eno,eno,1,1,434,434,flye
MRSA_r10.3_SUP_50,secG,secG,1,1,77,77,flye
MRSA_r10.3_SUP_50,est_2,est_1,0,1,246,246,flye
MRSA_r10.3_SUP_50,rnr,rnr,1,1,790,790,flye
MRSA_r10.3_SUP_50,smpB,smpB,1,1,154,154,flye
MRSA_r10.3_SUP_50,ssp,ssp,1,1,341,341,flye
MRSA_r10.3_SUP_50,nuc,nuc,1,1,228,228,flye
MRSA_r10.3_SUP_50,cspA_1,cspA_2,0,1,66,66,flye
MRSA_r10.3_SUP_50,pspB,pspB,1,1,194,194,flye
MRSA_r10.3_SUP_50,argO_1,argO_1,1,1,205,205,flye
MRSA_r10.3_SUP_50,aroD,aroD,1,1,238,238,flye
MRSA_r10.3_SUP_50,ydbP,ydbP,1,1,106,106,flye
MRSA_r10.3_SUP_50,mgsR,mgsR,1,1,118,118,flye
MRSA_r10.3_SUP_50,gcvH,gcvH,1,1,126,126,flye
MRSA_r10.3_SUP_50,rnmV_2,rnmV_1,0,1,129,129,flye
MRSA_r10.3_SUP_50,metN2,metN2,1,1,341,341,flye
MRSA_r10.3_SUP_50,metP_2,metP_1,0,1,231,231,flye
MRSA_r10.3_SUP_50,metQ_2,metQ_1,0,1,273,273,flye
MRSA_r10.3_SUP_50,sufC,sufC,1,1,253,253,flye
MRSA_r10.3_SUP_50,csd,csd,1,1,413,413,flye
MRSA_r10.3_SUP_50,sufU,sufU,1,1,154,154,flye
MRSA_r10.3_SUP_50,pnoA,pnoA,1,1,355,355,flye
MRSA_r10.3_SUP_50,lipA_1,lipA_1,1,1,305,305,flye
MRSA_r10.3_SUP_50,yutF,yutF,1,1,259,259,flye
MRSA_r10.3_SUP_50,ghrB_1,ghrB_2,0,1,319,319,flye
MRSA_r10.3_SUP_50,dltA_2,dltA_1,0,1,485,485,flye
MRSA_r10.3_SUP_50,patA,patA,1,1,404,404,flye
MRSA_r10.3_SUP_50,dltC,dltC,1,1,78,78,flye
MRSA_r10.3_SUP_50,dltD,dltD,1,1,391,391,flye
MRSA_r10.3_SUP_50,nfuA,nfuA,1,1,80,80,flye
MRSA_r10.3_SUP_50,yjlD,yjlD,1,1,354,354,flye
MRSA_r10.3_SUP_50,pepA_1,pepA_2,0,1,491,491,flye
MRSA_r10.3_SUP_50,mnhG1,mnhG1,1,1,118,118,flye
MRSA_r10.3_SUP_50,mnhF1,mnhF1,1,1,97,97,flye
MRSA_r10.3_SUP_50,mnhE1,mnhE1,1,1,159,159,flye
MRSA_r10.3_SUP_50,mnhD1_2,mnhD1_1,0,1,498,498,flye
MRSA_r10.3_SUP_50,mnhC1_2,mnhC1_1,0,1,113,113,flye
MRSA_r10.3_SUP_50,mnhB1,mnhB1,1,1,142,142,flye
MRSA_r10.3_SUP_50,mnhA1,mnhA1,1,1,801,801,flye
MRSA_r10.3_SUP_50,kapB,kapB,1,1,127,127,flye
MRSA_r10.3_SUP_50,yugI,yugI,1,1,125,125,flye
MRSA_r10.3_SUP_50,rocD2_2,rocD2_1,0,1,396,396,flye
MRSA_r10.3_SUP_50,gluD,gluD,1,1,414,414,flye
MRSA_r10.3_SUP_50,glpQ_1,glpQ_2,0,1,309,309,flye
MRSA_r10.3_SUP_50,argH,argH,1,1,459,459,flye
MRSA_r10.3_SUP_50,argG,argG,1,1,401,401,flye
MRSA_r10.3_SUP_50,pgi,,0,0,443,0,flye
MRSA_r10.3_SUP_50,ydjZ,ydjZ,1,1,191,191,flye
MRSA_r10.3_SUP_50,spsB_1,spsB_2,0,1,174,174,flye
MRSA_r10.3_SUP_50,spsB_2,spsB_1,0,1,191,191,flye
MRSA_r10.3_SUP_50,addB,addB,1,1,1158,1158,flye
MRSA_r10.3_SUP_50,addA,addA,1,1,1217,1217,flye
MRSA_r10.3_SUP_50,cdr,cdr,1,1,438,438,flye
MRSA_r10.3_SUP_50,yitU,yitU,1,1,274,274,flye
MRSA_r10.3_SUP_50,sufT,sufT,1,1,102,102,flye
MRSA_r10.3_SUP_50,oatA_1,oatA_1,1,1,604,604,flye
MRSA_r10.3_SUP_50,clpB,clpB,1,1,869,869,flye
MRSA_r10.3_SUP_50,ampR,ampR,1,1,289,289,flye
MRSA_r10.3_SUP_50,leuA_1,leuA_2,0,1,381,381,flye
MRSA_r10.3_SUP_50,map_1,map_3,0,1,144,144,flye
MRSA_r10.3_SUP_50,fabH,fabH,1,1,313,313,flye
MRSA_r10.3_SUP_50,fabF,fabF,1,1,414,414,flye
MRSA_r10.3_SUP_50,oppB,oppB,1,1,308,308,flye
MRSA_r10.3_SUP_50,oppC,oppC,1,1,356,356,flye
MRSA_r10.3_SUP_50,oppD_1,oppD_2,0,1,360,360,flye
MRSA_r10.3_SUP_50,oppF_1,oppF_2,0,1,313,313,flye
MRSA_r10.3_SUP_50,dppE,dppE,1,1,551,551,flye
MRSA_r10.3_SUP_50,appA,appA,1,1,451,451,flye
MRSA_r10.3_SUP_50,oppD_2,oppD_1,0,1,328,328,flye
MRSA_r10.3_SUP_50,oppF_2,oppF_1,0,1,326,326,flye
MRSA_r10.3_SUP_50,dppC,dppC,1,1,293,293,flye
MRSA_r10.3_SUP_50,trpS,trpS,1,1,329,329,flye
MRSA_r10.3_SUP_50,spxA,spxA,1,1,131,131,flye
MRSA_r10.3_SUP_50,mecA_2,mecA_1,0,1,239,239,flye
MRSA_r10.3_SUP_50,pepF1_1,pepF1_2,0,1,602,602,flye
MRSA_r10.3_SUP_50,yjbI,yjbI,1,1,121,121,flye
MRSA_r10.3_SUP_50,yjbK,yjbK,1,1,197,197,flye
MRSA_r10.3_SUP_50,yjbM,yjbM,1,1,211,211,flye
MRSA_r10.3_SUP_50,nadK,nadK,1,1,269,269,flye
MRSA_r10.3_SUP_50,mgtE,mgtE,1,1,461,461,flye
MRSA_r10.3_SUP_50,kefB,kefB,1,1,614,614,flye
MRSA_r10.3_SUP_50,fabI,fabI,1,1,256,256,flye
MRSA_r10.3_SUP_50,acp,acp,1,1,522,522,flye
MRSA_r10.3_SUP_50,ltaA,ltaA,1,1,396,396,flye
MRSA_r10.3_SUP_50,ugtP,ugtP,1,1,391,391,flye
MRSA_r10.3_SUP_50,murE,murE,1,1,494,494,flye
MRSA_r10.3_SUP_50,prfC,prfC,1,1,520,520,flye
MRSA_r10.3_SUP_50,ktrB_1,,0,0,452,0,flye
MRSA_r10.3_SUP_50,tarM,tarM,1,1,493,493,flye
MRSA_r10.3_SUP_50,catD,catD,1,1,118,118,flye
MRSA_r10.3_SUP_50,yfmC_1,yfmC_1,1,1,319,319,flye
MRSA_r10.3_SUP_50,menA,menA,1,1,312,312,flye
MRSA_r10.3_SUP_50,pchA,pchA,1,1,453,453,flye
MRSA_r10.3_SUP_50,menD,menD,1,1,557,557,flye
MRSA_r10.3_SUP_50,menH,menH,1,1,267,267,flye
MRSA_r10.3_SUP_50,menB,menB,1,1,273,273,flye
MRSA_r10.3_SUP_50,sspC,sspC,1,1,109,109,flye
MRSA_r10.3_SUP_50,sspB,sspB,1,1,393,393,flye
MRSA_r10.3_SUP_50,sspA,sspA,1,1,357,357,flye
MRSA_r10.3_SUP_50,dapX,dapX,1,1,384,384,flye
MRSA_r10.3_SUP_50,slyA_2,slyA_1,0,1,139,139,flye
MRSA_r10.3_SUP_50,atl_1,atl_2,0,1,1257,1257,flye
MRSA_r10.3_SUP_50,tagU_1,tagU_1,1,1,408,408,flye
MRSA_r10.3_SUP_50,fmtA,fmtA,1,1,397,397,flye
MRSA_r10.3_SUP_50,qoxD,qoxD,1,1,96,96,flye
MRSA_r10.3_SUP_50,qoxC,qoxC,1,1,201,201,flye
MRSA_r10.3_SUP_50,qoxB,qoxB,1,1,662,662,flye
MRSA_r10.3_SUP_50,qoxA,qoxA,1,1,366,366,flye
MRSA_r10.3_SUP_50,folD,folD,1,1,286,286,flye
MRSA_r10.3_SUP_50,purE,purE,1,1,160,160,flye
MRSA_r10.3_SUP_50,purK,purK,1,1,374,374,flye
MRSA_r10.3_SUP_50,purC,purC,1,1,234,234,flye
MRSA_r10.3_SUP_50,purS,purS,1,1,87,87,flye
MRSA_r10.3_SUP_50,purQ,purQ,1,1,223,223,flye
MRSA_r10.3_SUP_50,purL,purL,1,1,729,729,flye
MRSA_r10.3_SUP_50,purF,purF,1,1,494,494,flye
MRSA_r10.3_SUP_50,purM,purM,1,1,342,342,flye
MRSA_r10.3_SUP_50,purN,purN,1,1,188,188,flye
MRSA_r10.3_SUP_50,purH,purH,1,1,492,492,flye
MRSA_r10.3_SUP_50,purD,purD,1,1,415,415,flye
MRSA_r10.3_SUP_50,ecfT_1,ecfT_1,1,1,268,268,flye
MRSA_r10.3_SUP_50,ykoD_1,ykoD_1,1,1,466,466,flye
MRSA_r10.3_SUP_50,ykoE,ykoE,1,1,191,191,flye
MRSA_r10.3_SUP_50,rlmI,rlmI,1,1,390,390,flye
MRSA_r10.3_SUP_50,ptsH,ptsH,1,1,88,88,flye
MRSA_r10.3_SUP_50,ptsI,ptsI,1,1,572,572,flye
MRSA_r10.3_SUP_50,ythA,ythA,1,1,453,453,flye
MRSA_r10.3_SUP_50,ythB,ythB,1,1,339,339,flye
MRSA_r10.3_SUP_50,ktrA,ktrA,1,1,220,220,flye
MRSA_r10.3_SUP_50,rnj1,rnj1,1,1,565,565,flye
MRSA_r10.3_SUP_50,def,def,1,1,183,183,flye
MRSA_r10.3_SUP_50,pdhA,pdhA,1,1,370,370,flye
MRSA_r10.3_SUP_50,pdhB,pdhB,1,1,325,325,flye
MRSA_r10.3_SUP_50,pdhC_1,pdhC_2,0,1,430,430,flye
MRSA_r10.3_SUP_50,pdhD,pdhD,1,1,468,468,flye
MRSA_r10.3_SUP_50,potA,potA,1,1,364,364,flye
MRSA_r10.3_SUP_50,potB,potB,1,1,265,265,flye
MRSA_r10.3_SUP_50,ydcV,ydcV,1,1,269,269,flye
MRSA_r10.3_SUP_50,potD,potD,1,1,357,357,flye
MRSA_r10.3_SUP_50,mntH_1,mntH_2,0,1,450,450,flye
MRSA_r10.3_SUP_50,suhB,suhB,1,1,275,275,flye
MRSA_r10.3_SUP_50,typA,typA,1,1,615,615,flye
MRSA_r10.3_SUP_50,ftsW,ftsW,1,1,408,408,flye
MRSA_r10.3_SUP_50,pycA,pycA,1,1,1150,1150,flye
MRSA_r10.3_SUP_50,ctaA,ctaA,1,1,306,306,flye
MRSA_r10.3_SUP_50,ctaB2,ctaB2,1,1,303,303,flye
MRSA_r10.3_SUP_50,rsmD,rsmD,1,1,180,180,flye
MRSA_r10.3_SUP_50,coaD,coaD,1,1,160,160,flye
MRSA_r10.3_SUP_50,tmcAL,tmcAL,1,1,379,379,flye
MRSA_r10.3_SUP_50,rpmF,rpmF,1,1,57,57,flye
MRSA_r10.3_SUP_50,isdB,isdB,1,1,652,652,flye
MRSA_r10.3_SUP_50,isdA,isdA,1,1,354,354,flye
MRSA_r10.3_SUP_50,isdC,isdC,1,1,227,227,flye
MRSA_r10.3_SUP_50,isdE,isdE,1,1,292,292,flye
MRSA_r10.3_SUP_50,isdF,isdF,1,1,322,322,flye
MRSA_r10.3_SUP_50,srtB,srtB,1,1,244,244,flye
MRSA_r10.3_SUP_50,isdG_1,isdG_1,1,1,107,107,flye
MRSA_r10.3_SUP_50,pheS,pheS,1,1,352,352,flye
MRSA_r10.3_SUP_50,pheT,pheT,1,1,800,800,flye
MRSA_r10.3_SUP_50,rnhC,rnhC,1,1,329,329,flye
MRSA_r10.3_SUP_50,zapA,zapA,1,1,88,88,flye
MRSA_r10.3_SUP_50,polX,polX,1,1,570,570,flye
MRSA_r10.3_SUP_50,mutS2,mutS2,1,1,782,782,flye
MRSA_r10.3_SUP_50,trxA,trxA,1,1,104,104,flye
MRSA_r10.3_SUP_50,uvrC,uvrC,1,1,593,593,flye
MRSA_r10.3_SUP_50,sdhC,sdhC,1,1,204,204,flye
MRSA_r10.3_SUP_50,frdA,frdA,1,1,588,588,flye
MRSA_r10.3_SUP_50,frdB,frdB,1,1,271,271,flye
MRSA_r10.3_SUP_50,murI,murI,1,1,266,266,flye
MRSA_r10.3_SUP_50,fib,fib,1,1,165,165,flye
MRSA_r10.3_SUP_50,scn_2,scn_2,1,1,116,116,flye
MRSA_r10.3_SUP_50,hly_1,hly_2,0,1,206,206,flye
MRSA_r10.3_SUP_50,hly_2,hly_1,0,1,112,112,flye
MRSA_r10.3_SUP_50,argF,argF,1,1,333,333,flye
MRSA_r10.3_SUP_50,arcC1,arcC1,1,1,311,311,flye
MRSA_r10.3_SUP_50,yfnB,yfnB,1,1,228,228,flye
MRSA_r10.3_SUP_50,bshC,bshC,1,1,537,537,flye
MRSA_r10.3_SUP_50,mraZ,mraZ,1,1,143,143,flye
MRSA_r10.3_SUP_50,rsmH_1,rsmH_2,0,1,311,311,flye
MRSA_r10.3_SUP_50,ftsL,ftsL,1,1,133,133,flye
MRSA_r10.3_SUP_50,pbpB,pbpB,1,1,744,744,flye
MRSA_r10.3_SUP_50,mraY,mraY,1,1,321,321,flye
MRSA_r10.3_SUP_50,murD,murD,1,1,449,449,flye
MRSA_r10.3_SUP_50,divIB,divIB,1,1,439,439,flye
MRSA_r10.3_SUP_50,ftsA,ftsA,1,1,468,468,flye
MRSA_r10.3_SUP_50,ftsZ,ftsZ,1,1,390,390,flye
MRSA_r10.3_SUP_50,yggS,yggS,1,1,222,222,flye
MRSA_r10.3_SUP_50,sepF,sepF,1,1,187,187,flye
MRSA_r10.3_SUP_50,divIVA,divIVA,1,1,198,198,flye
MRSA_r10.3_SUP_50,ileS,ileS,1,1,917,917,flye
MRSA_r10.3_SUP_50,catE_1,catE_1,1,1,265,265,flye
MRSA_r10.3_SUP_50,lspA,lspA,1,1,163,163,flye
MRSA_r10.3_SUP_50,rluD_1,rluD_2,0,1,305,305,flye
MRSA_r10.3_SUP_50,pyrR,pyrR,1,1,175,175,flye
MRSA_r10.3_SUP_50,pyrP,pyrP,1,1,435,435,flye
MRSA_r10.3_SUP_50,pyrB,pyrB,1,1,293,293,flye
MRSA_r10.3_SUP_50,pyrC,pyrC,1,1,425,425,flye
MRSA_r10.3_SUP_50,carA_2,carA_1,0,1,366,366,flye
MRSA_r10.3_SUP_50,carB,carB,1,1,1057,1057,flye
MRSA_r10.3_SUP_50,pyrF,pyrF,1,1,230,230,flye
MRSA_r10.3_SUP_50,pyrE,pyrE,1,1,203,203,flye
MRSA_r10.3_SUP_50,rqcH,rqcH,1,1,565,565,flye
MRSA_r10.3_SUP_50,gmk,gmk,1,1,207,207,flye
MRSA_r10.3_SUP_50,rpoZ,rpoZ,1,1,72,72,flye
MRSA_r10.3_SUP_50,coaBC,coaBC,1,1,399,399,flye
MRSA_r10.3_SUP_50,priA,priA,1,1,802,802,flye
MRSA_r10.3_SUP_50,def1,def1,1,1,162,162,flye
MRSA_r10.3_SUP_50,fmt,fmt,1,1,311,311,flye
MRSA_r10.3_SUP_50,rsmB,rsmB,1,1,435,435,flye
MRSA_r10.3_SUP_50,rlmN,rlmN,1,1,364,364,flye
MRSA_r10.3_SUP_50,stp,stp,1,1,247,247,flye
MRSA_r10.3_SUP_50,prkC,prkC,1,1,664,664,flye
MRSA_r10.3_SUP_50,rsgA,rsgA,1,1,291,291,flye
MRSA_r10.3_SUP_50,rpe,rpe,1,1,214,214,flye
MRSA_r10.3_SUP_50,thiN,,0,0,213,0,flye
MRSA_r10.3_SUP_50,rpmB,rpmB,1,1,62,62,flye
MRSA_r10.3_SUP_50,recG,recG,1,1,686,686,flye
MRSA_r10.3_SUP_50,fapR,fapR,1,1,185,185,flye
MRSA_r10.3_SUP_50,plsX,plsX,1,1,328,328,flye
MRSA_r10.3_SUP_50,fabD,fabD,1,1,308,308,flye
MRSA_r10.3_SUP_50,fabG,fabG,1,1,244,244,flye
MRSA_r10.3_SUP_50,acpP,acpP,1,1,77,77,flye
MRSA_r10.3_SUP_50,rnc,rnc,1,1,243,243,flye
MRSA_r10.3_SUP_50,smc_1,smc,0,1,1188,1188,flye
MRSA_r10.3_SUP_50,ftsY,ftsY,1,1,416,416,flye
MRSA_r10.3_SUP_50,ffh,ffh,1,1,455,455,flye
MRSA_r10.3_SUP_50,rpsP,rpsP,1,1,91,91,flye
MRSA_r10.3_SUP_50,rimM,rimM,1,1,167,167,flye
MRSA_r10.3_SUP_50,trmD,trmD,1,1,245,245,flye
MRSA_r10.3_SUP_50,rplS,rplS,1,1,116,116,flye
MRSA_r10.3_SUP_50,rbgA,rbgA,1,1,294,294,flye
MRSA_r10.3_SUP_50,rnhB,rnhB,1,1,255,255,flye
MRSA_r10.3_SUP_50,sucC,sucC,1,1,388,388,flye
MRSA_r10.3_SUP_50,sucD,sucD,1,1,302,302,flye
MRSA_r10.3_SUP_50,lytN,lytN,1,1,372,372,flye
MRSA_r10.3_SUP_50,femA_1,femA_2,0,1,414,414,flye
MRSA_r10.3_SUP_50,topA,topA,1,1,691,691,flye
MRSA_r10.3_SUP_50,trmFO,trmFO,1,1,435,435,flye
MRSA_r10.3_SUP_50,xerC_4,xerC_5,0,1,298,298,flye
MRSA_r10.3_SUP_50,hslV,hslV,1,1,181,181,flye
MRSA_r10.3_SUP_50,hslU,hslU,1,1,467,467,flye
MRSA_r10.3_SUP_50,codY,codY,1,1,257,257,flye
MRSA_r10.3_SUP_50,rpsB,rpsB,1,1,255,255,flye
MRSA_r10.3_SUP_50,tsf,tsf,1,1,293,293,flye
MRSA_r10.3_SUP_50,pyrH,pyrH,1,1,240,240,flye
MRSA_r10.3_SUP_50,frr,frr,1,1,184,184,flye
MRSA_r10.3_SUP_50,uppS,uppS,1,1,256,256,flye
MRSA_r10.3_SUP_50,proS,proS,1,1,567,567,flye
MRSA_r10.3_SUP_50,polC,,0,0,1438,0,flye
MRSA_r10.3_SUP_50,rimP,rimP,1,1,155,155,flye
MRSA_r10.3_SUP_50,nusA,,0,0,391,0,flye
MRSA_r10.3_SUP_50,rplGA,rplGA,1,1,105,105,flye
MRSA_r10.3_SUP_50,infB_1,infB_2,0,1,705,705,flye
MRSA_r10.3_SUP_50,rbfA,rbfA,1,1,116,116,flye
MRSA_r10.3_SUP_50,truB,truB,1,1,305,305,flye
MRSA_r10.3_SUP_50,ribF,,0,0,323,0,flye
MRSA_r10.3_SUP_50,rpsO,rpsO,1,1,89,89,flye
MRSA_r10.3_SUP_50,pnp_2,pnp_1,0,1,698,698,flye
MRSA_r10.3_SUP_50,rnj2,rnj2,1,1,557,557,flye
MRSA_r10.3_SUP_50,ftsK,ftsK,1,1,789,789,flye
MRSA_r10.3_SUP_50,gamR,gamR,1,1,237,237,flye
MRSA_r10.3_SUP_50,phaB,phaB,1,1,234,234,flye
MRSA_r10.3_SUP_50,pgsA,pgsA,1,1,192,192,flye
MRSA_r10.3_SUP_50,cinA,cinA,1,1,383,383,flye
MRSA_r10.3_SUP_50,recA,recA,1,1,347,347,flye
MRSA_r10.3_SUP_50,rny,rny,1,1,519,519,flye
MRSA_r10.3_SUP_50,ymdB,ymdB,1,1,265,265,flye
MRSA_r10.3_SUP_50,miaB,miaB,1,1,514,514,flye
MRSA_r10.3_SUP_50,ymcA,ymcA,1,1,121,121,flye
MRSA_r10.3_SUP_50,mutS_1,mutS_2,0,1,872,872,flye
MRSA_r10.3_SUP_50,mutL,mutL,1,1,669,669,flye
MRSA_r10.3_SUP_50,glpP,glpP,1,1,177,177,flye
MRSA_r10.3_SUP_50,glpF,glpF,1,1,272,272,flye
MRSA_r10.3_SUP_50,glpK,glpK,1,1,498,498,flye
MRSA_r10.3_SUP_50,glpD,glpD,1,1,557,557,flye
MRSA_r10.3_SUP_50,miaA,miaA,1,1,311,311,flye
MRSA_r10.3_SUP_50,hfq,hfq,1,1,77,77,flye
MRSA_r10.3_SUP_50,bsaA_1,bsaA_1,1,1,158,158,flye
MRSA_r10.3_SUP_50,hflX,hflX,1,1,412,412,flye
MRSA_r10.3_SUP_50,glnR,glnR,1,1,122,122,flye
MRSA_r10.3_SUP_50,glnA,glnA,1,1,446,446,flye
MRSA_r10.3_SUP_50,infB_2,infB_1,0,1,615,615,flye
MRSA_r10.3_SUP_50,ltaE,ltaE,1,1,341,341,flye
MRSA_r10.3_SUP_50,cls_1,cls_2,0,1,493,493,flye
MRSA_r10.3_SUP_50,btuD_3,btuD_3,1,1,299,299,flye
MRSA_r10.3_SUP_50,desR,desR,1,1,168,168,flye
MRSA_r10.3_SUP_50,nucH,nucH,1,1,177,177,flye
MRSA_r10.3_SUP_50,yclM,yclM,1,1,460,460,flye
MRSA_r10.3_SUP_50,thrC,thrC,1,1,353,353,flye
MRSA_r10.3_SUP_50,thrB,thrB,1,1,304,304,flye
MRSA_r10.3_SUP_50,lysP_1,lysP_2,0,1,484,484,flye
MRSA_r10.3_SUP_50,katA,katA,1,1,505,505,flye
MRSA_r10.3_SUP_50,rpmG2_1,rpmG2_2,0,1,49,49,flye
MRSA_r10.3_SUP_50,rpsN2,rpsN2,1,1,89,89,flye
MRSA_r10.3_SUP_50,guaC,guaC,1,1,325,325,flye
MRSA_r10.3_SUP_50,lexA_1,lexA_2,0,1,207,207,flye
MRSA_r10.3_SUP_50,tkt,tkt,1,1,662,662,flye
MRSA_r10.3_SUP_50,sbcD,,0,0,373,0,flye
MRSA_r10.3_SUP_50,sbcC,sbcC,1,1,1009,1009,flye
MRSA_r10.3_SUP_50,mscL,mscL,1,1,120,120,flye
MRSA_r10.3_SUP_50,opuD_1,opuD_1,1,1,548,548,flye
MRSA_r10.3_SUP_50,acnA,acnA,1,1,901,901,flye
MRSA_r10.3_SUP_50,plsY,plsY,1,1,202,202,flye
MRSA_r10.3_SUP_50,parE,parE,1,1,663,663,flye
MRSA_r10.3_SUP_50,parC,parC,1,1,800,800,flye
MRSA_r10.3_SUP_50,alsT,alsT,1,1,486,486,flye
MRSA_r10.3_SUP_50,glcT,glcT,1,1,283,283,flye
MRSA_r10.3_SUP_50,mprF,mprF,1,1,840,840,flye
MRSA_r10.3_SUP_50,msrA1,msrA1,1,1,169,169,flye
MRSA_r10.3_SUP_50,msrR,msrR,1,1,327,327,flye
MRSA_r10.3_SUP_50,umuC,umuC,1,1,420,420,flye
MRSA_r10.3_SUP_50,ysdC_1,ysdC_1,1,1,343,343,flye
MRSA_r10.3_SUP_50,trpE,trpE,1,1,468,468,flye
MRSA_r10.3_SUP_50,trpG_2,trpG_1,0,1,188,188,flye
MRSA_r10.3_SUP_50,trpD2,trpD2,1,1,257,257,flye
MRSA_r10.3_SUP_50,trpC,trpC,1,1,260,260,flye
MRSA_r10.3_SUP_50,trpF,trpF,1,1,211,211,flye
MRSA_r10.3_SUP_50,trpB,trpB,1,1,404,404,flye
MRSA_r10.3_SUP_50,trpA,trpA,1,1,242,242,flye
MRSA_r10.3_SUP_50,femA_2,femA_1,0,1,420,420,flye
MRSA_r10.3_SUP_50,femB,femB,1,1,419,419,flye
MRSA_r10.3_SUP_50,nikE,nikE,1,1,233,233,flye
MRSA_r10.3_SUP_50,nikD,nikD,1,1,257,257,flye
MRSA_r10.3_SUP_50,nikC,nikC,1,1,276,276,flye
MRSA_r10.3_SUP_50,nikB,nikB,1,1,328,328,flye
MRSA_r10.3_SUP_50,pepF1_2,pepF1_1,0,1,604,604,flye
MRSA_r10.3_SUP_50,phoU,phoU,1,1,213,213,flye
MRSA_r10.3_SUP_50,pstB3,pstB3,1,1,283,283,flye
MRSA_r10.3_SUP_50,pstA,pstA,1,1,305,305,flye
MRSA_r10.3_SUP_50,pstS,pstS,1,1,327,327,flye
MRSA_r10.3_SUP_50,cvfB,cvfB,1,1,300,300,flye
MRSA_r10.3_SUP_50,ybiT,ybiT,1,1,533,533,flye
MRSA_r10.3_SUP_50,lysC,lysC,1,1,401,401,flye
MRSA_r10.3_SUP_50,asd,asd,1,1,329,329,flye
MRSA_r10.3_SUP_50,dapA,dapA,1,1,295,295,flye
MRSA_r10.3_SUP_50,dapB,dapB,1,1,240,240,flye
MRSA_r10.3_SUP_50,dapH_2,dapH_1,0,1,239,239,flye
MRSA_r10.3_SUP_50,scmP_3,scmP_1,0,1,383,383,flye
MRSA_r10.3_SUP_50,alr1_1,alr1_2,0,1,361,361,flye
MRSA_r10.3_SUP_50,lysA,lysA,1,1,421,421,flye
MRSA_r10.3_SUP_50,cspA_2,cspA_1,0,1,66,66,flye
MRSA_r10.3_SUP_50,yccX,yccX,1,1,89,89,flye
MRSA_r10.3_SUP_50,brnQ_3,brnQ_1,0,1,447,447,flye
MRSA_r10.3_SUP_50,nirQ,nirQ,1,1,263,263,flye
MRSA_r10.3_SUP_50,mhqA_2,,0,0,269,0,flye
MRSA_r10.3_SUP_50,odhB,odhB,1,1,423,423,flye
MRSA_r10.3_SUP_50,odhA,odhA,1,1,932,932,flye
MRSA_r10.3_SUP_50,arlS,arlS,1,1,451,451,flye
MRSA_r10.3_SUP_50,arlR,arlR,1,1,219,219,flye
MRSA_r10.3_SUP_50,murG,murG,1,1,356,356,flye
MRSA_r10.3_SUP_50,crr,crr,1,1,166,166,flye
MRSA_r10.3_SUP_50,msrB,msrB,1,1,142,142,flye
MRSA_r10.3_SUP_50,msrA2,msrA2,1,1,177,177,flye
MRSA_r10.3_SUP_50,folA,folA,1,1,159,159,flye
MRSA_r10.3_SUP_50,thyA,thyA,1,1,318,318,flye
MRSA_r10.3_SUP_50,rnhA,rnhA,1,1,133,133,flye
MRSA_r10.3_SUP_50,ebh,,0,0,10746,0,flye
MRSA_r10.3_SUP_50,norB_3,norB_1,0,1,463,463,flye
MRSA_r10.3_SUP_50,steT,steT,1,1,440,440,flye
MRSA_r10.3_SUP_50,tdcB,tdcB,1,1,346,346,flye
MRSA_r10.3_SUP_50,ald1,ald1,1,1,372,372,flye
MRSA_r10.3_SUP_50,ypcP,ypcP,1,1,292,292,flye
MRSA_r10.3_SUP_50,der_1,der_2,0,1,1146,1146,flye
MRSA_r10.3_SUP_50,rlmL,rlmL,1,1,381,381,flye
MRSA_r10.3_SUP_50,gpsB,gpsB,1,1,114,114,flye
MRSA_r10.3_SUP_50,recU,recU,1,1,208,208,flye
MRSA_r10.3_SUP_50,ponA,ponA,1,1,716,716,flye
MRSA_r10.3_SUP_50,nth_2,nth_1,0,1,219,219,flye
MRSA_r10.3_SUP_50,dnaD,dnaD,1,1,228,228,flye
MRSA_r10.3_SUP_50,asnS,asnS,1,1,430,430,flye
MRSA_r10.3_SUP_50,dinG_1,dinG_2,0,1,897,897,flye
MRSA_r10.3_SUP_50,birA,birA,1,1,323,323,flye
MRSA_r10.3_SUP_50,cca,cca,1,1,400,400,flye
MRSA_r10.3_SUP_50,bshA,bshA,1,1,380,380,flye
MRSA_r10.3_SUP_50,ypjD,,0,0,105,0,flye
MRSA_r10.3_SUP_50,bepA,bepA,1,1,414,414,flye
MRSA_r10.3_SUP_50,aroA_1,aroA_2,0,1,432,432,flye
MRSA_r10.3_SUP_50,aroB,aroB,1,1,354,354,flye
MRSA_r10.3_SUP_50,aroC,aroC,1,1,388,388,flye
MRSA_r10.3_SUP_50,ndk,ndk,1,1,149,149,flye
MRSA_r10.3_SUP_50,hepT,hepT,1,1,319,319,flye
MRSA_r10.3_SUP_50,menG,menG,1,1,241,241,flye
MRSA_r10.3_SUP_50,hup,hup,1,1,90,90,flye
MRSA_r10.3_SUP_50,gpsA,gpsA,1,1,332,332,flye
MRSA_r10.3_SUP_50,der_2,der_1,0,1,436,436,flye
MRSA_r10.3_SUP_50,rpsA,rpsA,1,1,391,391,flye
MRSA_r10.3_SUP_50,cmk,cmk,1,1,219,219,flye
MRSA_r10.3_SUP_50,ansA,ansA,1,1,322,322,flye
MRSA_r10.3_SUP_50,ebpS,ebpS,1,1,486,486,flye
MRSA_r10.3_SUP_50,recQ_2,recQ_1,0,1,459,459,flye
MRSA_r10.3_SUP_50,ribU,ribU,1,1,181,181,flye
MRSA_r10.3_SUP_50,smc_2,,0,0,2066,0,flye
MRSA_r10.3_SUP_50,clpP_2,,0,0,257,0,flye
MRSA_r10.3_SUP_50,xerC_5,xerC_4,0,1,401,401,flye
MRSA_r10.3_SUP_50,srrB,,0,0,583,0,flye
MRSA_r10.3_SUP_50,srrA,srrA,1,1,241,241,flye
MRSA_r10.3_SUP_50,rluB,rluB,1,1,245,245,flye
MRSA_r10.3_SUP_50,scpB,scpB,1,1,180,180,flye
MRSA_r10.3_SUP_50,scpA,scpA,1,1,251,251,flye
MRSA_r10.3_SUP_50,xerD_2,xerD_1,0,1,295,295,flye
MRSA_r10.3_SUP_50,fur,fur,1,1,149,149,flye
MRSA_r10.3_SUP_50,nudF,nudF,1,1,180,180,flye
MRSA_r10.3_SUP_50,yajO,yajO,1,1,302,302,flye
MRSA_r10.3_SUP_50,proC,proC,1,1,271,271,flye
MRSA_r10.3_SUP_50,rnz,rnz,1,1,306,306,flye
MRSA_r10.3_SUP_50,zwf,zwf,1,1,494,494,flye
MRSA_r10.3_SUP_50,malL,malL,1,1,549,549,flye
MRSA_r10.3_SUP_50,malR,malR,1,1,339,339,flye
MRSA_r10.3_SUP_50,psuK,psuK,1,1,299,299,flye
MRSA_r10.3_SUP_50,entS,entS,1,1,369,369,flye
MRSA_r10.3_SUP_50,gnd,gnd,1,1,468,468,flye
MRSA_r10.3_SUP_50,pepT_2,pepT_1,0,1,377,377,flye
MRSA_r10.3_SUP_50,pdhC_2,pdhC_1,0,1,424,424,flye
MRSA_r10.3_SUP_50,bfmBAB,bfmBAB,1,1,327,327,flye
MRSA_r10.3_SUP_50,bfmBAA,bfmBAA,1,1,330,330,flye
MRSA_r10.3_SUP_50,recN,recN,1,1,559,559,flye
MRSA_r10.3_SUP_50,argR_1,argR_1,1,1,150,150,flye
MRSA_r10.3_SUP_50,xseB,xseB,1,1,76,76,flye
MRSA_r10.3_SUP_50,xseA,xseA,1,1,445,445,flye
MRSA_r10.3_SUP_50,nusB,nusB,1,1,129,129,flye
MRSA_r10.3_SUP_50,cfiB,cfiB,1,1,451,451,flye
MRSA_r10.3_SUP_50,accB_1,accB_2,0,1,154,154,flye
MRSA_r10.3_SUP_50,efp,efp,1,1,185,185,flye
MRSA_r10.3_SUP_50,ypdF,ypdF,1,1,353,353,flye
MRSA_r10.3_SUP_50,lipM,lipM,1,1,276,276,flye
MRSA_r10.3_SUP_50,yibN,yibN,1,1,128,128,flye
MRSA_r10.3_SUP_50,gcvPB,gcvPB,1,1,490,490,flye
MRSA_r10.3_SUP_50,gcvPA,gcvPA,1,1,448,448,flye
MRSA_r10.3_SUP_50,gcvT,gcvT,1,1,363,363,flye
MRSA_r10.3_SUP_50,aroK,aroK,1,1,174,174,flye
MRSA_r10.3_SUP_50,comGC,comGC,1,1,103,103,flye
MRSA_r10.3_SUP_50,comGA,comGA,1,1,324,324,flye
MRSA_r10.3_SUP_50,glcK,glcK,1,1,328,328,flye
MRSA_r10.3_SUP_50,gluP,gluP,1,1,487,487,flye
MRSA_r10.3_SUP_50,yqgN,yqgN,1,1,197,197,flye
MRSA_r10.3_SUP_50,rpmG2_2,rpmG2_1,0,1,49,49,flye
MRSA_r10.3_SUP_50,pbpH,pbpH,1,1,691,691,flye
MRSA_r10.3_SUP_50,sodA,sodA,1,1,199,199,flye
MRSA_r10.3_SUP_50,zur,zur,1,1,136,136,flye
MRSA_r10.3_SUP_50,znuB,znuB,1,1,290,290,flye
MRSA_r10.3_SUP_50,btuD_4,btuD_2,0,1,261,261,flye
MRSA_r10.3_SUP_50,nfo,nfo,1,1,296,296,flye
MRSA_r10.3_SUP_50,cshB,cshB,1,1,448,448,flye
MRSA_r10.3_SUP_50,trmK,,0,0,225,0,flye
MRSA_r10.3_SUP_50,sigA,sigA,1,1,368,368,flye
MRSA_r10.3_SUP_50,dnaG,dnaG,1,1,599,599,flye
MRSA_r10.3_SUP_50,yqfL,yqfL,1,1,272,272,flye
MRSA_r10.3_SUP_50,ccpN,ccpN,1,1,179,179,flye
MRSA_r10.3_SUP_50,glyQS,glyQS,1,1,463,463,flye
MRSA_r10.3_SUP_50,recO,recO,1,1,248,248,flye
MRSA_r10.3_SUP_50,era,era,1,1,299,299,flye
MRSA_r10.3_SUP_50,cdd,cdd,1,1,134,134,flye
MRSA_r10.3_SUP_50,dgkA,dgkA,1,1,114,114,flye
MRSA_r10.3_SUP_50,ybeY,ybeY,1,1,155,155,flye
MRSA_r10.3_SUP_50,rpsU,rpsU,1,1,58,58,flye
MRSA_r10.3_SUP_50,mtaB,mtaB,1,1,448,448,flye
MRSA_r10.3_SUP_50,rsmE,rsmE,1,1,250,250,flye
MRSA_r10.3_SUP_50,prmA,prmA,1,1,312,312,flye
MRSA_r10.3_SUP_50,dnaJ,dnaJ,1,1,379,379,flye
MRSA_r10.3_SUP_50,dnaK,dnaK,1,1,610,610,flye
MRSA_r10.3_SUP_50,grpE,grpE,1,1,208,208,flye
MRSA_r10.3_SUP_50,hrcA,hrcA,1,1,325,325,flye
MRSA_r10.3_SUP_50,hemW,hemW,1,1,385,385,flye
MRSA_r10.3_SUP_50,lepA,lepA,1,1,607,607,flye
MRSA_r10.3_SUP_50,rpsT,rpsT,1,1,83,83,flye
MRSA_r10.3_SUP_50,yqeN,yqeN,1,1,324,324,flye
MRSA_r10.3_SUP_50,comEC,,0,0,733,0,flye
MRSA_r10.3_SUP_50,tadA_2,tadA_1,0,1,143,143,flye
MRSA_r10.3_SUP_50,comEA,comEA,1,1,225,225,flye
MRSA_r10.3_SUP_50,tam,tam,1,1,238,238,flye
MRSA_r10.3_SUP_50,rsfS,rsfS,1,1,117,117,flye
MRSA_r10.3_SUP_50,nadD,nadD,1,1,189,189,flye
MRSA_r10.3_SUP_50,yhbY,yhbY,1,1,96,96,flye
MRSA_r10.3_SUP_50,aroE,aroE,1,1,268,268,flye
MRSA_r10.3_SUP_50,yqeH,yqeH,1,1,366,366,flye
MRSA_r10.3_SUP_50,mtnN,mtnN,1,1,228,228,flye
MRSA_r10.3_SUP_50,entA_1,entA_4,0,1,62,62,flye
MRSA_r10.3_SUP_50,entA_2,entA_3,0,1,167,167,flye
MRSA_r10.3_SUP_50,mntH_2,mntH_1,0,1,410,410,flye
MRSA_r10.3_SUP_50,pxpA,pxpA,1,1,250,250,flye
MRSA_r10.3_SUP_50,accC,accC,1,1,453,453,flye
MRSA_r10.3_SUP_50,accB_2,accB_1,0,1,149,149,flye
MRSA_r10.3_SUP_50,pxpC_2,pxpC_1,0,1,336,336,flye
MRSA_r10.3_SUP_50,pxpB_2,pxpB_1,0,1,244,244,flye
MRSA_r10.3_SUP_50,greA,greA,1,1,158,158,flye
MRSA_r10.3_SUP_50,udk,udk,1,1,207,207,flye
MRSA_r10.3_SUP_50,rlhA,rlhA,1,1,307,307,flye
MRSA_r10.3_SUP_50,trmR,trmR,1,1,212,212,flye
MRSA_r10.3_SUP_50,yrrK,yrrK,1,1,142,142,flye
MRSA_r10.3_SUP_50,alaS,alaS,1,1,877,877,flye
MRSA_r10.3_SUP_50,recD2,recD2,1,1,825,825,flye
MRSA_r10.3_SUP_50,yrrB,yrrB,1,1,222,222,flye
MRSA_r10.3_SUP_50,mnmA,mnmA,1,1,372,372,flye
MRSA_r10.3_SUP_50,iscS_1,iscS_2,0,1,380,380,flye
MRSA_r10.3_SUP_50,cymR,cymR,1,1,140,140,flye
MRSA_r10.3_SUP_50,aspS,aspS,1,1,588,588,flye
MRSA_r10.3_SUP_50,hisS,hisS,1,1,420,420,flye
MRSA_r10.3_SUP_50,dtd,dtd,1,1,150,150,flye
MRSA_r10.3_SUP_50,relA,,0,0,736,0,flye
MRSA_r10.3_SUP_50,apt,apt,1,1,172,172,flye
MRSA_r10.3_SUP_50,secDF,secDF,1,1,759,759,flye
MRSA_r10.3_SUP_50,yajC,yajC,1,1,86,86,flye
MRSA_r10.3_SUP_50,tgt,tgt,1,1,379,379,flye
MRSA_r10.3_SUP_50,queA,queA,1,1,341,341,flye
MRSA_r10.3_SUP_50,ruvB_2,ruvB_1,0,1,334,334,flye
MRSA_r10.3_SUP_50,ruvA,ruvA,1,1,200,200,flye
MRSA_r10.3_SUP_50,obg,obg,1,1,430,430,flye
MRSA_r10.3_SUP_50,rpmA,rpmA,1,1,94,94,flye
MRSA_r10.3_SUP_50,rplU,rplU,1,1,102,102,flye
MRSA_r10.3_SUP_50,mreC,mreC,1,1,280,280,flye
MRSA_r10.3_SUP_50,comC,comC,1,1,235,235,flye
MRSA_r10.3_SUP_50,fpgS,fpgS,1,1,423,423,flye
MRSA_r10.3_SUP_50,valS,valS,1,1,876,876,flye
MRSA_r10.3_SUP_50,tag,tag,1,1,186,186,flye
MRSA_r10.3_SUP_50,hemL1,hemL1,1,1,428,428,flye
MRSA_r10.3_SUP_50,hemB,hemB,1,1,324,324,flye
MRSA_r10.3_SUP_50,hemC,hemC,1,1,308,308,flye
MRSA_r10.3_SUP_50,hemA,hemA,1,1,448,448,flye
MRSA_r10.3_SUP_50,engB,engB,1,1,196,196,flye
MRSA_r10.3_SUP_50,clpX,clpX,1,1,420,420,flye
MRSA_r10.3_SUP_50,tig,tig,1,1,433,433,flye
MRSA_r10.3_SUP_50,rplT,rplT,1,1,118,118,flye
MRSA_r10.3_SUP_50,rpmI,rpmI,1,1,66,66,flye
MRSA_r10.3_SUP_50,infC,infC,1,1,186,186,flye
MRSA_r10.3_SUP_50,lysP_2,lysP_1,0,1,497,497,flye
MRSA_r10.3_SUP_50,thrS,thrS,1,1,645,645,flye
MRSA_r10.3_SUP_50,dnaI,dnaI,1,1,306,306,flye
MRSA_r10.3_SUP_50,dnaB,dnaB,1,1,466,466,flye
MRSA_r10.3_SUP_50,nrdR,nrdR,1,1,156,156,flye
MRSA_r10.3_SUP_50,gapA2,gapA2,1,1,341,341,flye
MRSA_r10.3_SUP_50,coaE,coaE,1,1,207,207,flye
MRSA_r10.3_SUP_50,mutM,mutM,1,1,290,290,flye
MRSA_r10.3_SUP_50,polA,polA,1,1,876,876,flye
MRSA_r10.3_SUP_50,sasA,sasA,1,1,554,554,flye
MRSA_r10.3_SUP_50,phoP,phoP,1,1,233,233,flye
MRSA_r10.3_SUP_50,icd,icd,1,1,422,422,flye
MRSA_r10.3_SUP_50,citZ,citZ,1,1,373,373,flye
MRSA_r10.3_SUP_50,cycA_1,cycA_1,1,1,453,453,flye
MRSA_r10.3_SUP_50,pyk,pyk,1,1,585,585,flye
MRSA_r10.3_SUP_50,pfkA,pfkA,1,1,322,322,flye
MRSA_r10.3_SUP_50,accA,accA,1,1,314,314,flye
MRSA_r10.3_SUP_50,accD,accD,1,1,285,285,flye
MRSA_r10.3_SUP_50,dnaE,dnaE,1,1,1065,1065,flye
MRSA_r10.3_SUP_50,nrnA,nrnA,1,1,313,313,flye
MRSA_r10.3_SUP_50,IMPDH,IMPDH,1,1,432,432,flye
MRSA_r10.3_SUP_50,ald2,ald2,1,1,372,372,flye
MRSA_r10.3_SUP_50,ackA,ackA,1,1,400,400,flye
MRSA_r10.3_SUP_50,tpx,tpx,1,1,164,164,flye
MRSA_r10.3_SUP_50,yfcA,yfcA,1,1,256,256,flye
MRSA_r10.3_SUP_50,thiI,thiI,1,1,407,407,flye
MRSA_r10.3_SUP_50,iscS_2,iscS_1,0,1,388,388,flye
MRSA_r10.3_SUP_50,ezrA,ezrA,1,1,564,564,flye
MRSA_r10.3_SUP_50,msrC,msrC,1,1,154,154,flye
MRSA_r10.3_SUP_50,rpsD,rpsD,1,1,200,200,flye
MRSA_r10.3_SUP_50,glpQ_2,glpQ_1,0,1,247,247,flye
MRSA_r10.3_SUP_50,serA,serA,1,1,534,534,flye
MRSA_r10.3_SUP_50,nagP,nagP,1,1,488,488,flye
MRSA_r10.3_SUP_50,plsC,plsC,1,1,205,205,flye
MRSA_r10.3_SUP_50,tyrS,tyrS,1,1,420,420,flye
MRSA_r10.3_SUP_50,mrcA,mrcA,1,1,301,301,flye
MRSA_r10.3_SUP_50,isdH_1,isdH_2,0,1,535,535,flye
MRSA_r10.3_SUP_50,isdH_2,isdH_1,0,1,278,278,flye
MRSA_r10.3_SUP_50,fhs,fhs,1,1,555,555,flye
MRSA_r10.3_SUP_50,acsA_1,acsA_1,1,1,568,568,flye
MRSA_r10.3_SUP_50,acuA,acuA,1,1,210,210,flye
MRSA_r10.3_SUP_50,acuC,acuC,1,1,389,389,flye
MRSA_r10.3_SUP_50,ccpA,ccpA,1,1,329,329,flye
MRSA_r10.3_SUP_50,aroA_2,aroA_1,0,1,363,363,flye
MRSA_r10.3_SUP_50,murC,murC,1,1,437,437,flye
MRSA_r10.3_SUP_50,ytpP,ytpP,1,1,103,103,flye
MRSA_r10.3_SUP_50,pepA_2,pepA_1,0,1,358,358,flye
MRSA_r10.3_SUP_50,ytnP,ytnP,1,1,280,280,flye
MRSA_r10.3_SUP_50,hin_2,hin_1,0,1,197,197,flye
MRSA_r10.3_SUP_50,blaI,blaI,1,1,126,126,flye
MRSA_r10.3_SUP_50,blaR1,blaR1,1,1,585,585,flye
MRSA_r10.3_SUP_50,blaZ,blaZ,1,1,281,281,flye
MRSA_r10.3_SUP_50,trmB,trmB,1,1,214,214,flye
MRSA_r10.3_SUP_50,dat,dat,1,1,282,282,flye
MRSA_r10.3_SUP_50,rsuA,rsuA,1,1,231,231,flye
MRSA_r10.3_SUP_50,murJ,murJ,1,1,553,553,flye
MRSA_r10.3_SUP_50,leuS,leuS,1,1,805,805,flye
MRSA_r10.3_SUP_50,mdtH,mdtH,1,1,393,393,flye
MRSA_r10.3_SUP_50,rsmH_2,rsmH_1,0,1,187,187,flye
MRSA_r10.3_SUP_50,rot,rot,1,1,133,133,flye
MRSA_r10.3_SUP_50,ytpA,ytpA,1,1,275,275,flye
MRSA_r10.3_SUP_50,putB,putB,1,1,333,333,flye
MRSA_r10.3_SUP_50,ribH,ribH,1,1,154,154,flye
MRSA_r10.3_SUP_50,ribBA,ribBA,1,1,393,393,flye
MRSA_r10.3_SUP_50,ribE,ribE,1,1,210,210,flye
MRSA_r10.3_SUP_50,ribD,ribD,1,1,347,347,flye
MRSA_r10.3_SUP_50,arsB_2,arsB_1,0,1,430,430,flye
MRSA_r10.3_SUP_50,atl_2,atl_1,0,1,284,284,flye
MRSA_r10.3_SUP_50,sigS,sigS,1,1,156,156,flye
MRSA_r10.3_SUP_50,tal,tal,1,1,237,237,flye
MRSA_r10.3_SUP_50,crcB_1,crcB_2,0,1,121,121,flye
MRSA_r10.3_SUP_50,crcB_2,crcB_1,0,1,117,117,flye
MRSA_r10.3_SUP_50,yvgN,yvgN,1,1,277,277,flye
MRSA_r10.3_SUP_50,metK,metK,1,1,397,397,flye
MRSA_r10.3_SUP_50,pckA,pckA,1,1,530,530,flye
MRSA_r10.3_SUP_50,ytkD,ytkD,1,1,159,159,flye
MRSA_r10.3_SUP_50,menC,menC,1,1,333,333,flye
MRSA_r10.3_SUP_50,menE_2,menE_1,0,1,492,492,flye
MRSA_r10.3_SUP_50,hylB,hylB,1,1,806,806,flye
MRSA_r10.3_SUP_50,prmC_1,prmC_2,0,1,518,518,flye
MRSA_r10.3_SUP_50,splF_1,splF_2,0,1,183,183,flye
MRSA_r10.3_SUP_50,splF_2,splF_1,0,1,41,41,flye
MRSA_r10.3_SUP_50,splE_1,splE_3,0,1,238,238,flye
MRSA_r10.3_SUP_50,splB_1,splB_2,0,1,74,74,flye
MRSA_r10.3_SUP_50,splE_2,splE_2,1,1,113,113,flye
MRSA_r10.3_SUP_50,splE_3,splE_1,0,1,238,238,flye
MRSA_r10.3_SUP_50,splC,splC,1,1,239,239,flye
MRSA_r10.3_SUP_50,splB_2,splB_1,0,1,54,54,flye
MRSA_r10.3_SUP_50,entG,entG,1,1,258,258,flye
MRSA_r10.3_SUP_50,entA_3,entA_2,0,1,251,251,flye
MRSA_r10.3_SUP_50,entB,entB,1,1,261,261,flye
MRSA_r10.3_SUP_50,entE,entE,1,1,254,254,flye
MRSA_r10.3_SUP_50,ydeN,ydeN,1,1,184,184,flye
MRSA_r10.3_SUP_50,hemY,,0,0,466,0,flye
MRSA_r10.3_SUP_50,hemH,hemH,1,1,307,307,flye
MRSA_r10.3_SUP_50,hemE,hemE,1,1,345,345,flye
MRSA_r10.3_SUP_50,traP,traP,1,1,167,167,flye
MRSA_r10.3_SUP_50,ecsA,ecsA,1,1,246,246,flye
MRSA_r10.3_SUP_50,hit,hit,1,1,140,140,flye
MRSA_r10.3_SUP_50,prsA,prsA,1,1,320,320,flye
MRSA_r10.3_SUP_50,yhaM,yhaM,1,1,313,313,flye
MRSA_r10.3_SUP_50,cpdA_1,cpdA_1,1,1,398,398,flye
MRSA_r10.3_SUP_50,liaR,liaR,1,1,207,207,flye
MRSA_r10.3_SUP_50,rluD_2,rluD_1,0,1,273,273,flye
MRSA_r10.3_SUP_50,fumC,fumC,1,1,461,461,flye
MRSA_r10.3_SUP_50,nagB_2,nagB_1,0,1,199,199,flye
MRSA_r10.3_SUP_50,trmL,trmL,1,1,156,156,flye
MRSA_r10.3_SUP_50,queG,queG,1,1,375,375,flye
MRSA_r10.3_SUP_50,tcyC_1,tcyC_1,1,1,242,242,flye
MRSA_r10.3_SUP_50,mltF,mltF,1,1,485,485,flye
MRSA_r10.3_SUP_50,perR,perR,1,1,148,148,flye
MRSA_r10.3_SUP_50,ghrB_2,ghrB_1,0,1,319,319,flye
MRSA_r10.3_SUP_50,bcp,bcp,1,1,151,151,flye
MRSA_r10.3_SUP_50,hemL2,hemL2,1,1,429,429,flye
MRSA_r10.3_SUP_50,mutY,mutY,1,1,345,345,flye
MRSA_r10.3_SUP_50,yfhP,yfhP,1,1,325,325,flye
MRSA_r10.3_SUP_50,tagH_2,tagH_1,0,1,505,505,flye
MRSA_r10.3_SUP_50,yfhH,yfhH,1,1,104,104,flye
MRSA_r10.3_SUP_50,recX,recX,1,1,272,272,flye
MRSA_r10.3_SUP_50,mgt,mgt,1,1,269,269,flye
MRSA_r10.3_SUP_50,pepS,pepS,1,1,415,415,flye
MRSA_r10.3_SUP_50,ptpA,ptpA,1,1,154,154,flye
MRSA_r10.3_SUP_50,vraR,vraR,1,1,209,209,flye
MRSA_r10.3_SUP_50,vraS,vraS,1,1,347,347,flye
MRSA_r10.3_SUP_50,map_2,map_2,1,1,252,252,flye
MRSA_r10.3_SUP_50,gatD_2,gatD_1,0,1,243,243,flye
MRSA_r10.3_SUP_50,murT,murT,1,1,437,437,flye
MRSA_r10.3_SUP_50,ftnA,ftnA,1,1,166,166,flye
MRSA_r10.3_SUP_50,dinB,dinB,1,1,356,356,flye
MRSA_r10.3_SUP_50,rlmCD,rlmCD,1,1,453,453,flye
MRSA_r10.3_SUP_50,dagK,dagK,1,1,315,315,flye
MRSA_r10.3_SUP_50,gatB_2,gatB_1,0,1,475,475,flye
MRSA_r10.3_SUP_50,gatA_2,gatA_1,0,1,485,485,flye
MRSA_r10.3_SUP_50,gatC_2,gatC_1,0,1,100,100,flye
MRSA_r10.3_SUP_50,putP,putP,1,1,512,512,flye
MRSA_r10.3_SUP_50,ligA,ligA,1,1,667,667,flye
MRSA_r10.3_SUP_50,pcrA,pcrA,1,1,730,730,flye
MRSA_r10.3_SUP_50,pcrB,pcrB,1,1,230,230,flye
MRSA_r10.3_SUP_50,purB,purB,1,1,431,431,flye
MRSA_r10.3_SUP_50,sspP,sspP,1,1,388,388,flye
MRSA_r10.3_SUP_50,nadE,nadE,1,1,273,273,flye
MRSA_r10.3_SUP_50,pncB2,pncB2,1,1,489,489,flye
MRSA_r10.3_SUP_50,nos,nos,1,1,358,358,flye
MRSA_r10.3_SUP_50,pheA,pheA,1,1,264,264,flye
MRSA_r10.3_SUP_50,sdcS,sdcS,1,1,520,520,flye
MRSA_r10.3_SUP_50,rutB,rutB,1,1,186,186,flye
MRSA_r10.3_SUP_50,ppaC,ppaC,1,1,309,309,flye
MRSA_r10.3_SUP_50,aldH1,aldH1,1,1,459,459,flye
MRSA_r10.3_SUP_50,bcrA_1,bcrA_1,1,1,290,290,flye
MRSA_r10.3_SUP_50,btuD_5,btuD_1,0,1,298,298,flye
MRSA_r10.3_SUP_50,ytrA,ytrA,1,1,126,126,flye
MRSA_r10.3_SUP_50,hisC_2,hisC_1,0,1,428,428,flye
MRSA_r10.3_SUP_50,map_3,map_1,0,1,689,689,flye
MRSA_r10.3_SUP_50,hlb_1,hlb_2,0,1,66,66,flye
MRSA_r10.3_SUP_50,scn_3,scn_1,0,1,116,116,flye
MRSA_r10.3_SUP_50,chp,chp,1,1,149,149,flye
MRSA_r10.3_SUP_50,sak,sak,1,1,163,163,flye
MRSA_r10.3_SUP_50,entA_4,entA_1,0,1,257,257,flye
MRSA_r10.3_SUP_50,clpP_3,clpP_1,0,1,245,245,flye
MRSA_r10.3_SUP_50,dut,dut,1,1,180,180,flye
MRSA_r10.3_SUP_50,ssbA_2,ssbA_2,1,1,156,156,flye
MRSA_r10.3_SUP_50,lexA_2,lexA_1,0,1,237,237,flye
MRSA_r10.3_SUP_50,dinG_2,dinG_1,0,1,310,310,flye
MRSA_r10.3_SUP_50,xerC_8,xerC_1,0,1,345,345,flye
MRSA_r10.3_SUP_50,hlb_2,hlb_1,0,1,231,231,flye
MRSA_r10.3_SUP_50,dapE,dapE,1,1,407,407,flye
MRSA_r10.3_SUP_50,ktrB_2,,0,0,435,0,flye
MRSA_r10.3_SUP_50,groL,groL,1,1,538,538,flye
MRSA_r10.3_SUP_50,groS,groS,1,1,94,94,flye
MRSA_r10.3_SUP_50,MroQ,MroQ,1,1,247,247,flye
MRSA_r10.3_SUP_50,yafV,yafV,1,1,261,261,flye
MRSA_r10.3_SUP_50,agrB,agrB,1,1,205,205,flye
MRSA_r10.3_SUP_50,agrA,agrA,1,1,238,238,flye
MRSA_r10.3_SUP_50,scrK,scrK,1,1,319,319,flye
MRSA_r10.3_SUP_50,scrB,scrB,1,1,497,497,flye
MRSA_r10.3_SUP_50,treR_2,treR_1,0,1,316,316,flye
MRSA_r10.3_SUP_50,nrgA,nrgA,1,1,416,416,flye
MRSA_r10.3_SUP_50,yeeD,yeeD,1,1,74,74,flye
MRSA_r10.3_SUP_50,rex,rex,1,1,211,211,flye
MRSA_r10.3_SUP_50,yheS,yheS,1,1,642,642,flye
MRSA_r10.3_SUP_50,mutS_2,mutS_1,0,1,536,536,flye
MRSA_r10.3_SUP_50,tsaD,tsaD,1,1,341,341,flye
MRSA_r10.3_SUP_50,rimI,rimI,1,1,154,154,flye
MRSA_r10.3_SUP_50,tsaB,tsaB,1,1,220,220,flye
MRSA_r10.3_SUP_50,tsaE,tsaE,1,1,164,164,flye
MRSA_r10.3_SUP_50,ilvD,ilvD,1,1,562,562,flye
MRSA_r10.3_SUP_50,ilvB,ilvB,1,1,589,589,flye
MRSA_r10.3_SUP_50,ilvC,ilvC,1,1,334,334,flye
MRSA_r10.3_SUP_50,leuA_2,leuA_1,0,1,509,509,flye
MRSA_r10.3_SUP_50,leuB,leuB,1,1,348,348,flye
MRSA_r10.3_SUP_50,leuC,leuC,1,1,455,455,flye
MRSA_r10.3_SUP_50,leuD,leuD,1,1,190,190,flye
MRSA_r10.3_SUP_50,ilvA,ilvA,1,1,422,422,flye
MRSA_r10.3_SUP_50,yhgF,yhgF,1,1,712,712,flye
MRSA_r10.3_SUP_50,sigB,sigB,1,1,256,256,flye
MRSA_r10.3_SUP_50,rsbW,rsbW,1,1,159,159,flye
MRSA_r10.3_SUP_50,rsbV,rsbV,1,1,108,108,flye
MRSA_r10.3_SUP_50,rsbU,rsbU,1,1,333,333,flye
MRSA_r10.3_SUP_50,mazF,mazF,1,1,120,120,flye
MRSA_r10.3_SUP_50,mazE,mazE,1,1,56,56,flye
MRSA_r10.3_SUP_50,alr1_2,alr1_1,0,1,382,382,flye
MRSA_r10.3_SUP_50,acpS,acpS,1,1,119,119,flye
MRSA_r10.3_SUP_50,kdpC_3,kdpC_1,0,1,186,186,flye
MRSA_r10.3_SUP_50,kdpB_2,kdpB_1,0,1,675,675,flye
MRSA_r10.3_SUP_50,kdpA_2,kdpA_1,0,1,558,558,flye
MRSA_r10.3_SUP_50,kdpD_2,kdpD_1,0,1,885,885,flye
MRSA_r10.3_SUP_50,kdpE_2,kdpE_1,0,1,231,231,flye
MRSA_r10.3_SUP_50,cshA,cshA,1,1,506,506,flye
MRSA_r10.3_SUP_50,murF,murF,1,1,452,452,flye
MRSA_r10.3_SUP_50,ddl,ddl,1,1,356,356,flye
MRSA_r10.3_SUP_50,rodA,rodA,1,1,400,400,flye
MRSA_r10.3_SUP_50,cls_2,cls_1,0,1,494,494,flye
MRSA_r10.3_SUP_50,yedJ,yedJ,1,1,215,215,flye
MRSA_r10.3_SUP_50,yidC,yidC,1,1,290,290,flye
MRSA_r10.3_SUP_50,thiE,thiE,1,1,213,213,flye
MRSA_r10.3_SUP_50,thiM,thiM,1,1,263,263,flye
MRSA_r10.3_SUP_50,thiD,thiD,1,1,276,276,flye
MRSA_r10.3_SUP_50,tenA,tenA,1,1,229,229,flye
MRSA_r10.3_SUP_50,sceD,sceD,1,1,231,231,flye
MRSA_r10.3_SUP_50,ssbA_3,ssbA_1,0,1,131,131,flye
MRSA_r10.3_SUP_50,fabZ,fabZ,1,1,146,146,flye
MRSA_r10.3_SUP_50,murA1,murA1,1,1,421,421,flye
MRSA_r10.3_SUP_50,atpC,atpC,1,1,134,134,flye
MRSA_r10.3_SUP_50,atpD,atpD,1,1,470,470,flye
MRSA_r10.3_SUP_50,atpG,atpG,1,1,288,288,flye
MRSA_r10.3_SUP_50,atpA,atpA,1,1,502,502,flye
MRSA_r10.3_SUP_50,atpH,atpH,1,1,179,179,flye
MRSA_r10.3_SUP_50,atpF,atpF,1,1,173,173,flye
MRSA_r10.3_SUP_50,atpE,atpE,1,1,70,70,flye
MRSA_r10.3_SUP_50,atpB,atpB,1,1,242,242,flye
MRSA_r10.3_SUP_50,mnaA_2,mnaA_1,0,1,376,376,flye
MRSA_r10.3_SUP_50,upp,upp,1,1,209,209,flye
MRSA_r10.3_SUP_50,glyA,glyA,1,1,412,412,flye
MRSA_r10.3_SUP_50,ptpB,ptpB,1,1,139,139,flye
MRSA_r10.3_SUP_50,ywlC,ywlC,1,1,348,348,flye
MRSA_r10.3_SUP_50,prmC_2,prmC_1,0,1,278,278,flye
MRSA_r10.3_SUP_50,prfA,prfA,1,1,358,358,flye
MRSA_r10.3_SUP_50,tdk,tdk,1,1,199,199,flye
MRSA_r10.3_SUP_50,rpmE2,rpmE2,1,1,84,84,flye
MRSA_r10.3_SUP_50,rho,rho,1,1,438,438,flye
MRSA_r10.3_SUP_50,yodB,yodB,1,1,111,111,flye
MRSA_r10.3_SUP_50,murA2,murA2,1,1,419,419,flye
MRSA_r10.3_SUP_50,fba,fba,1,1,286,286,flye
MRSA_r10.3_SUP_50,pyrG,pyrG,1,1,536,536,flye
MRSA_r10.3_SUP_50,rpoE,rpoE,1,1,176,176,flye
MRSA_r10.3_SUP_50,coaW,coaW,1,1,267,267,flye
MRSA_r10.3_SUP_50,abgB,abgB,1,1,394,394,flye
MRSA_r10.3_SUP_50,luxS,luxS,1,1,156,156,flye
MRSA_r10.3_SUP_50,pdp,pdp,1,1,433,433,flye
MRSA_r10.3_SUP_50,deoC2,deoC2,1,1,220,220,flye
MRSA_r10.3_SUP_50,deoD1,deoD1,1,1,236,236,flye
MRSA_r10.3_SUP_50,dps,dps,1,1,147,147,flye
MRSA_r10.3_SUP_50,gmuF,gmuF,1,1,312,312,flye
MRSA_r10.3_SUP_50,yhfK,yhfK,1,1,221,221,flye
MRSA_r10.3_SUP_50,czrA,czrA,1,1,106,106,flye
MRSA_r10.3_SUP_50,czcD_2,czcD_1,0,1,326,326,flye
MRSA_r10.3_SUP_50,ywtE_2,ywtE_1,0,1,285,285,flye
MRSA_r10.3_SUP_50,ylmA,ylmA,1,1,260,260,flye
MRSA_r10.3_SUP_50,glmS,glmS,1,1,601,601,flye
MRSA_r10.3_SUP_50,mtlA,mtlA,1,1,512,512,flye
MRSA_r10.3_SUP_50,mtlF,mtlF,1,1,144,144,flye
MRSA_r10.3_SUP_50,mtlD,mtlD,1,1,368,368,flye
MRSA_r10.3_SUP_50,glmM,glmM,1,1,451,451,flye
MRSA_r10.3_SUP_50,cdaR,cdaR,1,1,310,310,flye
MRSA_r10.3_SUP_50,cdaA,cdaA,1,1,269,269,flye
MRSA_r10.3_SUP_50,arg,,0,0,302,0,flye
MRSA_r10.3_SUP_50,salA,salA,1,1,354,354,flye
MRSA_r10.3_SUP_50,emrY,emrY,1,1,362,362,flye
MRSA_r10.3_SUP_50,ribZ,ribZ,1,1,131,131,flye
MRSA_r10.3_SUP_50,sepA,sepA,1,1,155,155,flye
MRSA_r10.3_SUP_50,sdrM,sdrM,1,1,447,447,flye
MRSA_r10.3_SUP_50,ydjM,ydjM,1,1,171,171,flye
MRSA_r10.3_SUP_50,fecD,fecD,1,1,322,322,flye
MRSA_r10.3_SUP_50,yfiZ_2,yfiZ_2,1,1,343,343,flye
MRSA_r10.3_SUP_50,yfmC_2,yfmC_2,1,1,327,327,flye
MRSA_r10.3_SUP_50,orr,orr,1,1,356,356,flye
MRSA_r10.3_SUP_50,opuD_2,opuD_3,0,1,520,520,flye
MRSA_r10.3_SUP_50,yfmJ,yfmJ,1,1,334,334,flye
MRSA_r10.3_SUP_50,lacG,lacG,1,1,470,470,flye
MRSA_r10.3_SUP_50,lacE,lacE,1,1,570,570,flye
MRSA_r10.3_SUP_50,lacF,lacF,1,1,103,103,flye
MRSA_r10.3_SUP_50,lacD,lacD,1,1,326,326,flye
MRSA_r10.3_SUP_50,lacC_2,lacC_2,1,1,310,310,flye
MRSA_r10.3_SUP_50,lacB,lacB,1,1,171,171,flye
MRSA_r10.3_SUP_50,lacA,lacA,1,1,142,142,flye
MRSA_r10.3_SUP_50,lacR,lacR,1,1,251,251,flye
MRSA_r10.3_SUP_50,cobB,cobB,1,1,246,246,flye
MRSA_r10.3_SUP_50,adhR,adhR,1,1,138,138,flye
MRSA_r10.3_SUP_50,map_4,map_4,1,1,141,141,flye
MRSA_r10.3_SUP_50,aldC_1,aldC_2,0,1,234,234,flye
MRSA_r10.3_SUP_50,alsS,alsS,1,1,554,554,flye
MRSA_r10.3_SUP_50,rpsI,rpsI,1,1,132,132,flye
MRSA_r10.3_SUP_50,rplM,rplM,1,1,145,145,flye
MRSA_r10.3_SUP_50,truA,truA,1,1,264,264,flye
MRSA_r10.3_SUP_50,ecfT_2,ecfT_2,1,1,268,268,flye
MRSA_r10.3_SUP_50,ecfA2,ecfA2,1,1,286,286,flye
MRSA_r10.3_SUP_50,ecfA1,ecfA1,1,1,269,269,flye
MRSA_r10.3_SUP_50,rplQ,rplQ,1,1,122,122,flye
MRSA_r10.3_SUP_50,rpoA,rpoA,1,1,314,314,flye
MRSA_r10.3_SUP_50,rpsK,rpsK,1,1,129,129,flye
MRSA_r10.3_SUP_50,rpsM,rpsM,1,1,121,121,flye
MRSA_r10.3_SUP_50,rpmJ,rpmJ,1,1,37,37,flye
MRSA_r10.3_SUP_50,infA,infA,1,1,72,72,flye
MRSA_r10.3_SUP_50,adk,adk,1,1,215,215,flye
MRSA_r10.3_SUP_50,secY_1,secY_2,0,1,430,430,flye
MRSA_r10.3_SUP_50,rplO,rplO,1,1,146,146,flye
MRSA_r10.3_SUP_50,rpmD,rpmD,1,1,59,59,flye
MRSA_r10.3_SUP_50,rpsE,rpsE,1,1,166,166,flye
MRSA_r10.3_SUP_50,rplR,rplR,1,1,119,119,flye
MRSA_r10.3_SUP_50,rplF,rplF,1,1,178,178,flye
MRSA_r10.3_SUP_50,rpsH,rpsH,1,1,132,132,flye
MRSA_r10.3_SUP_50,rpsZ,rpsZ,1,1,61,61,flye
MRSA_r10.3_SUP_50,rplE,rplE,1,1,179,179,flye
MRSA_r10.3_SUP_50,rplX,rplX,1,1,105,105,flye
MRSA_r10.3_SUP_50,rplN,rplN,1,1,122,122,flye
MRSA_r10.3_SUP_50,rpsQ,rpsQ,1,1,87,87,flye
MRSA_r10.3_SUP_50,rpmC,rpmC,1,1,69,69,flye
MRSA_r10.3_SUP_50,rplP,rplP,1,1,144,144,flye
MRSA_r10.3_SUP_50,rpsC,rpsC,1,1,217,217,flye
MRSA_r10.3_SUP_50,rplV,rplV,1,1,117,117,flye
MRSA_r10.3_SUP_50,rpsS,rpsS,1,1,92,92,flye
MRSA_r10.3_SUP_50,rplB,rplB,1,1,277,277,flye
MRSA_r10.3_SUP_50,rplW,rplW,1,1,91,91,flye
MRSA_r10.3_SUP_50,rplD,rplD,1,1,207,207,flye
MRSA_r10.3_SUP_50,rplC,rplC,1,1,220,220,flye
MRSA_r10.3_SUP_50,rpsJ,rpsJ,1,1,102,102,flye
MRSA_r10.3_SUP_50,pbuG,pbuG,1,1,444,444,flye
MRSA_r10.3_SUP_50,topB,topB,1,1,711,711,flye
MRSA_r10.3_SUP_50,glcU_2,glcU_2,1,1,287,287,flye
MRSA_r10.3_SUP_50,swrC,swrC,1,1,1055,1055,flye
MRSA_r10.3_SUP_50,femX,femX,1,1,421,421,flye
MRSA_r10.3_SUP_50,yfcJ,yfcJ,1,1,403,403,flye
MRSA_r10.3_SUP_50,sarV,sarV,1,1,116,116,flye
MRSA_r10.3_SUP_50,moaA,,0,0,340,0,flye
MRSA_r10.3_SUP_50,mobA,mobA,1,1,199,199,flye
MRSA_r10.3_SUP_50,moaD,moaD,1,1,77,77,flye
MRSA_r10.3_SUP_50,moaE,moaE,1,1,148,148,flye
MRSA_r10.3_SUP_50,moeA,moeA,1,1,419,419,flye
MRSA_r10.3_SUP_50,moaC,moaC,1,1,164,164,flye
MRSA_r10.3_SUP_50,moaB,moaB,1,1,168,168,flye
MRSA_r10.3_SUP_50,cysA,cysA,1,1,201,201,flye
MRSA_r10.3_SUP_50,modB,modB,1,1,223,223,flye
MRSA_r10.3_SUP_50,modA,modA,1,1,260,260,flye
MRSA_r10.3_SUP_50,fdhD,fdhD,1,1,265,265,flye
MRSA_r10.3_SUP_50,bioY,bioY,1,1,184,184,flye
MRSA_r10.3_SUP_50,rihB,rihB,1,1,313,313,flye
MRSA_r10.3_SUP_50,fhuD,fhuD,1,1,302,302,flye
MRSA_r10.3_SUP_50,ydbM,ydbM,1,1,390,390,flye
MRSA_r10.3_SUP_50,ureA,ureA,1,1,100,100,flye
MRSA_r10.3_SUP_50,ureB,ureB,1,1,136,136,flye
MRSA_r10.3_SUP_50,ureC,ureC,1,1,571,571,flye
MRSA_r10.3_SUP_50,ureE,ureE,1,1,150,150,flye
MRSA_r10.3_SUP_50,ureF,ureF,1,1,229,229,flye
MRSA_r10.3_SUP_50,ureG,ureG,1,1,204,204,flye
MRSA_r10.3_SUP_50,ureD1,ureD1,1,1,278,278,flye
MRSA_r10.3_SUP_50,sarR,sarR,1,1,115,115,flye
MRSA_r10.3_SUP_50,rhaS_2,rhaS_2,1,1,651,651,flye
MRSA_r10.3_SUP_50,ssaA2,ssaA2,1,1,269,269,flye
MRSA_r10.3_SUP_50,mleN_1,mleN_2,0,1,465,465,flye
MRSA_r10.3_SUP_50,odh,odh,1,1,360,360,flye
MRSA_r10.3_SUP_50,auaG,auaG,1,1,374,374,flye
MRSA_r10.3_SUP_50,atl_3,atl_3,1,1,258,258,flye
MRSA_r10.3_SUP_50,tagU_2,tagU_2,1,1,315,315,flye
MRSA_r10.3_SUP_50,cysQ,cysQ,1,1,265,265,flye
MRSA_r10.3_SUP_50,ybbH_3,ybbH_3,1,1,290,290,flye
MRSA_r10.3_SUP_50,yifK,yifK,1,1,459,459,flye
MRSA_r10.3_SUP_50,panS_1,panS_2,0,1,113,113,flye
MRSA_r10.3_SUP_50,panS_2,panS_1,0,1,178,178,flye
MRSA_r10.3_SUP_50,malP,malP,1,1,534,534,flye
MRSA_r10.3_SUP_50,glvR,glvR,1,1,254,254,flye
MRSA_r10.3_SUP_50,mleN_2,mleN_1,0,1,436,436,flye
MRSA_r10.3_SUP_50,yghA,yghA,1,1,293,293,flye
MRSA_r10.3_SUP_50,scmP_4,scmP_4,1,1,302,302,flye
MRSA_r10.3_SUP_50,hutI,hutI,1,1,412,412,flye
MRSA_r10.3_SUP_50,hutU,hutU,1,1,553,553,flye
MRSA_r10.3_SUP_50,hdfR_2,hdfR_2,1,1,294,294,flye
MRSA_r10.3_SUP_50,fosB,fosB,1,1,139,139,flye
MRSA_r10.3_SUP_50,hutG,hutG,1,1,311,311,flye
MRSA_r10.3_SUP_50,lyrA,lyrA,1,1,419,419,flye
MRSA_r10.3_SUP_50,rpiA,rpiA,1,1,228,228,flye
MRSA_r10.3_SUP_50,yiiM,yiiM,1,1,217,217,flye
MRSA_r10.3_SUP_50,mro,mro,1,1,339,339,flye
MRSA_r10.3_SUP_50,yhaP,yhaP,1,1,410,410,flye
MRSA_r10.3_SUP_50,lnrL_2,lnrL_3,0,1,299,299,flye
MRSA_r10.3_SUP_50,gltS,gltS,1,1,402,402,flye
MRSA_r10.3_SUP_50,fni,fni,1,1,349,349,flye
MRSA_r10.3_SUP_50,zntB,zntB,1,1,315,315,flye
MRSA_r10.3_SUP_50,mdtD,mdtD,1,1,645,645,flye
MRSA_r10.3_SUP_50,aaeA,aaeA,1,1,215,215,flye
MRSA_r10.3_SUP_50,bcr_1,bcr_2,0,1,402,402,flye
MRSA_r10.3_SUP_50,tcaA,tcaA,1,1,460,460,flye
MRSA_r10.3_SUP_50,tcaR,tcaR,1,1,151,151,flye
MRSA_r10.3_SUP_50,hrtA_2,hrtA_2,1,1,221,221,flye
MRSA_r10.3_SUP_50,hssR,hssR,1,1,224,224,flye
MRSA_r10.3_SUP_50,hssS,hssS,1,1,457,457,flye
MRSA_r10.3_SUP_50,lnrL_3,lnrL_2,0,1,242,242,flye
MRSA_r10.3_SUP_50,ybhR,ybhR,1,1,360,360,flye
MRSA_r10.3_SUP_50,mqo1,mqo1,1,1,492,492,flye
MRSA_r10.3_SUP_50,lctP_2,lctP_2,1,1,532,532,flye
MRSA_r10.3_SUP_50,paiA,paiA,1,1,171,171,flye
MRSA_r10.3_SUP_50,yhfP,yhfP,1,1,334,334,flye
MRSA_r10.3_SUP_50,treP_2,treP_2,1,1,480,480,flye
MRSA_r10.3_SUP_50,ydaG,ydaG,1,1,140,140,flye
MRSA_r10.3_SUP_50,gltT,gltT,1,1,425,425,flye
MRSA_r10.3_SUP_50,sarZ,sarZ,1,1,148,148,flye
MRSA_r10.3_SUP_50,narT,narT,1,1,389,389,flye
MRSA_r10.3_SUP_50,mta,mta,1,1,95,95,flye
MRSA_r10.3_SUP_50,nreC,nreC,1,1,217,217,flye
MRSA_r10.3_SUP_50,nreB,nreB,1,1,344,344,flye
MRSA_r10.3_SUP_50,narX,narX,1,1,225,225,flye
MRSA_r10.3_SUP_50,narH,narH,1,1,519,519,flye
MRSA_r10.3_SUP_50,narG,,0,0,1229,0,flye
MRSA_r10.3_SUP_50,cysG,cysG,1,1,325,325,flye
MRSA_r10.3_SUP_50,nasE,nasE,1,1,104,104,flye
MRSA_r10.3_SUP_50,nasD,nasD,1,1,801,801,flye
MRSA_r10.3_SUP_50,sirB,sirB,1,1,250,250,flye
MRSA_r10.3_SUP_50,ytmI,ytmI,1,1,178,178,flye
MRSA_r10.3_SUP_50,nirC,nirC,1,1,274,274,flye
MRSA_r10.3_SUP_50,yoeB,yoeB,1,1,88,88,flye
MRSA_r10.3_SUP_50,yefM,yefM,1,1,83,83,flye
MRSA_r10.3_SUP_50,bdbD,bdbD,1,1,199,199,flye
MRSA_r10.3_SUP_50,femA_3,femA_3,1,1,416,416,flye
MRSA_r10.3_SUP_50,tcyC_2,tcyC_2,1,1,243,243,flye
MRSA_r10.3_SUP_50,tcyB,tcyB,1,1,242,242,flye
MRSA_r10.3_SUP_50,farB_2,farB_2,1,1,479,479,flye
MRSA_r10.3_SUP_50,gpmA_2,gpmA_2,1,1,228,228,flye
MRSA_r10.3_SUP_50,mneS,mneS,1,1,288,288,flye
MRSA_r10.3_SUP_50,sbi,sbi,1,1,437,437,flye
MRSA_r10.3_SUP_50,hlgA,hlgA,1,1,321,321,flye
MRSA_r10.3_SUP_50,hlgC,hlgC,1,1,315,315,flye
MRSA_r10.3_SUP_50,hlgB,,0,0,325,0,flye
MRSA_r10.3_SUP_50,bioW,bioW,1,1,230,230,flye
MRSA_r10.3_SUP_50,bioB,bioB,1,1,335,335,flye
MRSA_r10.3_SUP_50,bioK,bioK,1,1,452,452,flye
MRSA_r10.3_SUP_50,bioD,bioD,1,1,228,228,flye
MRSA_r10.3_SUP_50,garK_2,garK_2,1,1,380,380,flye
MRSA_r10.3_SUP_50,bcr_2,bcr_1,0,1,403,403,flye
MRSA_r10.3_SUP_50,cpdA_2,cpdA_2,1,1,268,268,flye
MRSA_r10.3_SUP_50,cycA_2,cycA_2,1,1,469,469,flye
MRSA_r10.3_SUP_50,nhaK_2,nhaK_2,1,1,692,692,flye
MRSA_r10.3_SUP_50,kimA,kimA,1,1,609,609,flye
MRSA_r10.3_SUP_50,flp,flp,1,1,499,499,flye
MRSA_r10.3_SUP_50,hldD,hldD,1,1,283,283,flye
MRSA_r10.3_SUP_50,panE,panE,1,1,311,311,flye
MRSA_r10.3_SUP_50,norB_4,norB_4,1,1,466,466,flye
MRSA_r10.3_SUP_50,opuCD,opuCD,1,1,231,231,flye
MRSA_r10.3_SUP_50,opuCC,opuCC,1,1,313,313,flye
MRSA_r10.3_SUP_50,opuCB,opuCB,1,1,211,211,flye
MRSA_r10.3_SUP_50,opuCA,opuCA,1,1,408,408,flye
MRSA_r10.3_SUP_50,yveA,yveA,1,1,545,545,flye
MRSA_r10.3_SUP_50,pnbA,pnbA,1,1,450,450,flye
MRSA_r10.3_SUP_50,pbuE_2,pbuE_2,1,1,395,395,flye
MRSA_r10.3_SUP_50,fetB,fetB,1,1,258,258,flye
MRSA_r10.3_SUP_50,fetA,fetA,1,1,220,220,flye
MRSA_r10.3_SUP_50,ysdC_2,ysdC_2,1,1,358,358,flye
MRSA_r10.3_SUP_50,yehR,yehR,1,1,151,151,flye
MRSA_r10.3_SUP_50,cntE,cntE,1,1,397,397,flye
MRSA_r10.3_SUP_50,cntF,cntF,1,1,249,249,flye
MRSA_r10.3_SUP_50,cntD,cntD,1,1,271,271,flye
MRSA_r10.3_SUP_50,cntC,cntC,1,1,289,289,flye
MRSA_r10.3_SUP_50,cntB,cntB,1,1,311,311,flye
MRSA_r10.3_SUP_50,cntA,cntA,1,1,532,532,flye
MRSA_r10.3_SUP_50,cntM,cntM,1,1,433,433,flye
MRSA_r10.3_SUP_50,cntL,cntL,1,1,272,272,flye
MRSA_r10.3_SUP_50,cntK,cntK,1,1,273,273,flye
MRSA_r10.3_SUP_50,bacC,bacC,1,1,272,272,flye
MRSA_r10.3_SUP_50,abgT,abgT,1,1,512,512,flye
MRSA_r10.3_SUP_50,uvrB_2,uvrB_2,1,1,953,953,flye
MRSA_r10.3_SUP_50,nudG,nudG,1,1,130,130,flye
MRSA_r10.3_SUP_50,pgcA,pgcA,1,1,545,545,flye
MRSA_r10.3_SUP_50,gtaB,gtaB,1,1,288,288,flye
MRSA_r10.3_SUP_50,fnbA,fnbA,1,1,965,965,flye
MRSA_r10.3_SUP_50,gntT,gntT,1,1,452,452,flye
MRSA_r10.3_SUP_50,xylB,xylB,1,1,517,517,flye
MRSA_r10.3_SUP_50,ywaC,ywaC,1,1,230,230,flye
MRSA_r10.3_SUP_50,sauU,sauU,1,1,425,425,flye
MRSA_r10.3_SUP_50,argO_2,argO_2,1,1,205,205,flye
MRSA_r10.3_SUP_50,norG,norG,1,1,470,470,flye
MRSA_r10.3_SUP_50,bcrA_2,bcrA_2,1,1,231,231,flye
MRSA_r10.3_SUP_50,fbp,fbp,1,1,654,654,flye
MRSA_r10.3_SUP_50,mhqD,mhqD,1,1,197,197,flye
MRSA_r10.3_SUP_50,mhqA_3,mhqA_2,0,1,322,322,flye
MRSA_r10.3_SUP_50,mhqR,mhqR,1,1,144,144,flye
MRSA_r10.3_SUP_50,yjdJ,yjdJ,1,1,94,94,flye
MRSA_r10.3_SUP_50,catE_2,catE_2,1,1,268,268,flye
MRSA_r10.3_SUP_50,ldhD_1,ldhD_2,0,1,330,330,flye
MRSA_r10.3_SUP_50,ybjI,ybjI,1,1,266,266,flye
MRSA_r10.3_SUP_50,srtA,srtA,1,1,206,206,flye
MRSA_r10.3_SUP_50,pitA,pitA,1,1,163,163,flye
MRSA_r10.3_SUP_50,sdhA,sdhA,1,1,299,299,flye
MRSA_r10.3_SUP_50,yicL,yicL,1,1,307,307,flye
MRSA_r10.3_SUP_50,glcB,glcB,1,1,707,707,flye
MRSA_r10.3_SUP_50,ydaP,ydaP,1,1,579,579,flye
MRSA_r10.3_SUP_50,cidB,cidB,1,1,229,229,flye
MRSA_r10.3_SUP_50,cidA,cidA,1,1,131,131,flye
MRSA_r10.3_SUP_50,cynR,cynR,1,1,287,287,flye
MRSA_r10.3_SUP_50,mvaA,mvaA,1,1,426,426,flye
MRSA_r10.3_SUP_50,mvaS,mvaS,1,1,388,388,flye
MRSA_r10.3_SUP_50,ogt,ogt,1,1,173,173,flye
MRSA_r10.3_SUP_50,clpL,clpL,1,1,701,701,flye
MRSA_r10.3_SUP_50,feoB,feoB,1,1,664,664,flye
MRSA_r10.3_SUP_50,ydfJ,ydfJ,1,1,829,829,flye
MRSA_r10.3_SUP_50,rocA,rocA,1,1,514,514,flye
MRSA_r10.3_SUP_50,copA,copA,1,1,802,802,flye
MRSA_r10.3_SUP_50,copZ,copZ,1,1,68,68,flye
MRSA_r10.3_SUP_50,ldhD_2,ldhD_1,0,1,342,342,flye
MRSA_r10.3_SUP_50,bacF,bacF,1,1,384,384,flye
MRSA_r10.3_SUP_50,crtN,crtN,1,1,502,502,flye
MRSA_r10.3_SUP_50,crtM_1,crtM_2,0,1,169,169,flye
MRSA_r10.3_SUP_50,crtM_2,crtM_1,0,1,94,94,flye
MRSA_r10.3_SUP_50,crtQ,,0,0,375,0,flye
MRSA_r10.3_SUP_50,crtP,crtP,1,1,497,497,flye
MRSA_r10.3_SUP_50,ssaA,ssaA,1,1,255,255,flye
MRSA_r10.3_SUP_50,oatA_2,oatA_2,1,1,603,603,flye
MRSA_r10.3_SUP_50,isaA,isaA,1,1,233,233,flye
MRSA_r10.3_SUP_50,cpnA,cpnA,1,1,234,234,flye
MRSA_r10.3_SUP_50,pyrD,pyrD,1,1,354,354,flye
MRSA_r10.3_SUP_50,queH,queH,1,1,240,240,flye
MRSA_r10.3_SUP_50,cocE,cocE,1,1,560,560,flye
MRSA_r10.3_SUP_50,panD,panD,1,1,127,127,flye
MRSA_r10.3_SUP_50,panC,panC,1,1,283,283,flye
MRSA_r10.3_SUP_50,panB,panB,1,1,272,272,flye
MRSA_r10.3_SUP_50,aldC_2,aldC_1,0,1,234,234,flye
MRSA_r10.3_SUP_50,ldh2,ldh2,1,1,319,319,flye
MRSA_r10.3_SUP_50,yhdG,yhdG,1,1,482,482,flye
MRSA_r10.3_SUP_50,fda,fda,1,1,296,296,flye
MRSA_r10.3_SUP_50,mqo2,mqo2,1,1,498,498,flye
MRSA_r10.3_SUP_50,acsA_2,acsA_2,1,1,539,539,flye
MRSA_r10.3_SUP_50,isdG_2,isdG_2,1,1,147,147,flye
MRSA_r10.3_SUP_50,betA,betA,1,1,569,569,flye
MRSA_r10.3_SUP_50,gbsA,gbsA,1,1,496,496,flye
MRSA_r10.3_SUP_50,opcR,opcR,1,1,187,187,flye
MRSA_r10.3_SUP_50,opuD_3,opuD_2,0,1,540,540,flye
MRSA_r10.3_SUP_50,nrdD,nrdD,1,1,616,616,flye
MRSA_r10.3_SUP_50,citN,citN,1,1,456,456,flye
MRSA_r10.3_SUP_50,sirC,sirC,1,1,202,202,flye
MRSA_r10.3_SUP_50,cysJ,cysJ,1,1,626,626,flye
MRSA_r10.3_SUP_50,bsaA_2,bsaA_2,1,1,165,165,flye
MRSA_r10.3_SUP_50,bceB_2,bceB_3,0,1,666,666,flye
MRSA_r10.3_SUP_50,yxdL,yxdL,1,1,251,251,flye
MRSA_r10.3_SUP_50,graS_2,graS_2,1,1,295,295,flye
MRSA_r10.3_SUP_50,graR_2,graR_2,1,1,221,221,flye
MRSA_r10.3_SUP_50,phoB,phoB,1,1,457,457,flye
MRSA_r10.3_SUP_50,clfB,clfB,1,1,873,873,flye
MRSA_r10.3_SUP_50,arcR,arcR,1,1,234,234,flye
MRSA_r10.3_SUP_50,arcC2,arcC2,1,1,313,313,flye
MRSA_r10.3_SUP_50,arcD,arcD,1,1,476,476,flye
MRSA_r10.3_SUP_50,arcB,arcB,1,1,336,336,flye
MRSA_r10.3_SUP_50,arcA,arcA,1,1,411,411,flye
MRSA_r10.3_SUP_50,argR_2,argR_2,1,1,149,149,flye
MRSA_r10.3_SUP_50,aur,aur,1,1,509,509,flye
MRSA_r10.3_SUP_50,isaB,isaB,1,1,175,175,flye
MRSA_r10.3_SUP_50,manR,manR,1,1,624,624,flye
MRSA_r10.3_SUP_50,manP,manP,1,1,650,650,flye
MRSA_r10.3_SUP_50,yvyI,yvyI,1,1,312,312,flye
MRSA_r10.3_SUP_50,gtfB,gtfB,1,1,452,452,flye
MRSA_r10.3_SUP_50,gtfA_3,gtfA_3,1,1,502,502,flye
MRSA_r10.3_SUP_50,secA1_2,secA1_2,1,1,796,796,flye
MRSA_r10.3_SUP_50,asp2,asp2,1,1,523,523,flye
MRSA_r10.3_SUP_50,asp1,asp1,1,1,452,452,flye
MRSA_r10.3_SUP_50,secY_2,secY_1,0,1,403,403,flye
MRSA_r10.3_SUP_50,sraP,sraP,1,1,1351,1351,flye
MRSA_r10.3_SUP_50,msrAB,msrAB,1,1,158,158,flye
MRSA_r10.3_SUP_50,ywqE_2,ywqE_2,1,1,255,255,flye
MRSA_r10.3_SUP_50,ywqD_2,ywqD_2,1,1,230,230,flye
MRSA_r10.3_SUP_50,cap8A_2,cap8A_2,1,1,220,220,flye
MRSA_r10.3_SUP_50,icaR,icaR,1,1,186,186,flye
MRSA_r10.3_SUP_50,icaA,,0,0,412,0,flye
MRSA_r10.3_SUP_50,icaD,icaD,1,1,101,101,flye
MRSA_r10.3_SUP_50,icaB,icaB,1,1,290,290,flye
MRSA_r10.3_SUP_50,icaC,icaC,1,1,350,350,flye
MRSA_r10.3_SUP_50,lipA_2,lipA_2,1,1,681,681,flye
MRSA_r10.3_SUP_50,hisI,hisI,1,1,210,210,flye
MRSA_r10.3_SUP_50,hisF,hisF,1,1,252,252,flye
MRSA_r10.3_SUP_50,hisA,hisA,1,1,234,234,flye
MRSA_r10.3_SUP_50,hisH,hisH,1,1,192,192,flye
MRSA_r10.3_SUP_50,hisB,hisB,1,1,192,192,flye
MRSA_r10.3_SUP_50,hisC_3,hisC_3,1,1,337,337,flye
MRSA_r10.3_SUP_50,hisD,hisD,1,1,416,416,flye
MRSA_r10.3_SUP_50,hisG,hisG,1,1,204,204,flye
MRSA_r10.3_SUP_50,hisZ,hisZ,1,1,272,272,flye
MRSA_r10.3_SUP_50,ykoC,ykoC,1,1,277,277,flye
MRSA_r10.3_SUP_50,ykoD_2,ykoD_2,1,1,570,570,flye
MRSA_r10.3_SUP_50,salL,salL,1,1,282,282,flye
MRSA_r10.3_SUP_50,pcp,pcp,1,1,212,212,flye
MRSA_r10.3_SUP_50,cna,cna,1,1,1183,1183,flye
MRSA_r10.3_SUP_50,yflS,yflS,1,1,472,472,flye
MRSA_r10.3_SUP_50,rarD,rarD,1,1,302,302,flye
MRSA_r10.3_SUP_50,nixA,nixA,1,1,338,338,flye
MRSA_r10.3_SUP_50,nhoA,nhoA,1,1,266,266,flye
MRSA_r10.3_SUP_50,bceA_2,bceA_2,1,1,252,252,flye
MRSA_r10.3_SUP_50,bceB_3,bceB_2,0,1,626,626,flye
MRSA_r10.3_SUP_50,cspLA,cspLA,1,1,66,66,flye
MRSA_r10.3_SUP_50,noc,noc,1,1,279,279,flye
MRSA_r10.3_SUP_50,rsmG,rsmG,1,1,239,239,flye
MRSA_r10.3_SUP_50,mnmG,mnmG,1,1,625,625,flye
MRSA_r10.3_SUP_50,mnmE,mnmE,1,1,459,459,flye
MRSA_r10.3_SUP_50,rnpA,rnpA,1,1,115,115,flye
MRSA_r10.3_SUP_50,rpmH,rpmH,1,1,45,45,flye
