CHROM,POS,TYPE,REF,ALT,EVIDENCE,FTYPE,STRAND,NT_POS,AA_POS,EFFECT,LOCUS_TAG,GENE,PRODUCT
NC_002516.2,169283,del,CG,C,C:111 CG:0
NC_002516.2,183697,snp,T,G,G:129 T:0
NC_002516.2,411125,del,AC,A,A:60 AC:0
NC_002516.2,413850,snp,T,C,C:51 T:0
NC_002516.2,667028,ins,G,GC,GC:118 G:0
NC_002516.2,721611,snp,C,T,T:55 C:1
NC_002516.2,721622,snp,C,T,T:50 C:0
NC_002516.2,721663,complex,TCCCAGGA,CTCCGGGG,CTCCGGGG:16 TCCCAGGA:0
NC_002516.2,740419,ins,G,GC,GC:99 G:0
NC_002516.2,816529,ins,G,GC,GC:109 G:0
NC_002516.2,891099,ins,A,AC,AC:92 A:0
NC_002516.2,1116213,ins,G,GC,GC:130 G:0
NC_002516.2,1215657,ins,A,AG,AG:88 A:0
NC_002516.2,1275766,del,GA,G,G:100 GA:0
NC_002516.2,1440622,del,CA,C,C:81 CA:0
NC_002516.2,1445357,ins,A,AG,AG:126 A:0
NC_002516.2,1467483,complex,C,GCG,GCG:98 C:0
NC_002516.2,1589438,snp,G,C,C:126 G:0
NC_002516.2,1835045,ins,G,GC,GC:98 G:0
NC_002516.2,2169348,ins,A,AG,AG:84 A:0
NC_002516.2,2186927,ins,G,GC,GC:52 G:0
NC_002516.2,2195457,ins,G,GC,GC:97 G:0
NC_002516.2,2239547,snp,T,G,G:89 T:0
NC_002516.2,2239555,ins,A,AG,AG:76 A:0
NC_002516.2,2342110,ins,C,CT,CT:97 C:0
NC_002516.2,2355771,ins,A,AG,AG:113 A:0
NC_002516.2,2356681,del,GC,G,G:78 GC:0
NC_002516.2,2532046,ins,G,GC,GC:89 G:0
NC_002516.2,2669175,snp,G,C,C:121 G:0
NC_002516.2,2753522,ins,G,GC,GC:87 G:0
NC_002516.2,2807693,del,TCGGCCAGC,T,T:81 TCGGCCAGC:0
NC_002516.2,2807982,snp,T,A,A:96 T:0
NC_002516.2,3016844,ins,G,GC,GC:93 G:0
NC_002516.2,3083196,ins,A,AG,AG:110 A:0
NC_002516.2,3919508,ins,G,GC,GC:115 G:0
NC_002516.2,4212201,snp,A,G,G:100 A:0
NC_002516.2,4344266,snp,A,G,G:129 A:0
NC_002516.2,4448855,complex,CG,GC,GC:84 CG:0
NC_002516.2,4539468,ins,G,GC,GC:64 G:0
NC_002516.2,4869855,snp,T,G,G:119 T:0
NC_002516.2,4888194,ins,A,AG,AG:109 A:0
NC_002516.2,4924552,complex,CG,GC,GC:139 CG:0
NC_002516.2,5033101,ins,G,GC,GC:54 G:0
NC_002516.2,5036893,snp,C,A,A:120 C:0
NC_002516.2,5071543,del,AACTG,A,A:101 AACTG:0
NC_002516.2,5472415,ins,C,CG,CG:113 C:0
NC_002516.2,5655220,ins,C,CCGG,CCGG:106 C:1
NC_002516.2,5743461,mnp,CG,GC,GC:120 CG:0
NC_002516.2,6079222,snp,A,G,G:104 A:0
NC_002516.2,6098781,snp,G,C,C:107 G:0
NC_002516.2,6115455,snp,T,G,G:127 T:0
