Sample name,Ref Gene name,test Gene name,name match,Gene found,Ref gene length (AA),Test gene length (AA),Notes
MRSA_r10,dnaA,dnaA,1,1,453,453,flye
MRSA_r10,dnaN,dnaN,1,1,377,377,flye
MRSA_r10,recF,recF,1,1,370,370,flye
MRSA_r10,gyrB,gyrB,1,1,644,644,flye
MRSA_r10,gyrA,gyrA,1,1,886,886,flye
MRSA_r10,nnrD,nnrD,1,1,270,270,flye
MRSA_r10,hutH,hutH,1,1,504,504,flye
MRSA_r10,serS,serS,1,1,428,428,flye
MRSA_r10,metXA,metXA,1,1,322,322,flye
MRSA_r10,gdpP,gdpP,1,1,655,655,flye
MRSA_r10,rplI,rplI,1,1,148,148,flye
MRSA_r10,dnaC,,0,0,466,0,flye
MRSA_r10,purA,purA,1,1,427,427,flye
MRSA_r10,walR,walR,1,1,233,233,flye
MRSA_r10,walK,walK,1,1,608,608,flye
MRSA_r10,yycI,yycI,1,1,262,262,flye
MRSA_r10,yycJ,yycJ,1,1,263,263,flye
MRSA_r10,rlmH,rlmH,1,1,159,159,flye
MRSA_r10,ble,ble,1,1,134,134,flye
MRSA_r10,knt,knt,1,1,247,247,flye
MRSA_r10,ugpQ,ugpQ,1,1,247,247,flye
MRSA_r10,mecA_1,mecA_2,0,1,668,668,flye
MRSA_r10,mecR1,mecR1,1,1,585,585,flye
MRSA_r10,mecI,mecI,1,1,114,114,flye
MRSA_r10,nagC,nagC,1,1,369,369,flye
MRSA_r10,glpE_1,glpE_2,0,1,101,101,flye
MRSA_r10,gloB,gloB,1,1,312,312,flye
MRSA_r10,glpE_2,glpE_1,0,1,354,354,flye
MRSA_r10,COQ5_3,COQ5_3,1,1,220,220,flye
MRSA_r10,ermA1_2,ermA1_2,1,1,243,243,flye
MRSA_r10,ant1_2,ant1_2,1,1,260,260,flye
MRSA_r10,xerC_6,xerC_7,0,1,630,630,flye
MRSA_r10,xerC_7,xerC_6,0,1,361,361,flye
MRSA_r10,kdpE_1,kdpE_1,1,1,231,231,flye
MRSA_r10,kdpD_1,kdpD_1,1,1,889,889,flye
MRSA_r10,kdpA_1,kdpA_1,1,1,558,558,flye
MRSA_r10,kdpB_1,kdpB_1,1,1,673,673,flye
MRSA_r10,kdpC_1,kdpC_2,0,1,120,120,flye
MRSA_r10,kdpC_2,kdpC_1,0,1,65,65,flye
MRSA_r10,mcrC,mcrC,1,1,346,346,flye
MRSA_r10,farB_1,farB_1,1,1,442,442,flye
MRSA_r10,dus,dus,1,1,328,328,flye
MRSA_r10,plc,plc,1,1,328,328,flye
MRSA_r10,rhaS_1,rhaS_1,1,1,745,745,flye
MRSA_r10,scmP_1,scmP_3,0,1,392,392,flye
MRSA_r10,norB_1,norB_3,0,1,462,462,flye
MRSA_r10,lctP_1,lctP_1,1,1,530,530,flye
MRSA_r10,spa,spa,1,1,516,516,flye
MRSA_r10,sarS,sarS,1,1,250,250,flye
MRSA_r10,yfhA,yfhA,1,1,332,332,flye
MRSA_r10,yfiZ_1,yfiZ_1,1,1,331,331,flye
MRSA_r10,yfiY,yfiY,1,1,330,330,flye
MRSA_r10,sbnA,sbnA,1,1,326,326,flye
MRSA_r10,sbnB,sbnB,1,1,336,336,flye
MRSA_r10,sbnC,sbnC,1,1,584,584,flye
MRSA_r10,sbnD,sbnD,1,1,418,418,flye
MRSA_r10,sbnE,sbnE,1,1,578,578,flye
MRSA_r10,sbnF,sbnF,1,1,592,592,flye
MRSA_r10,garL,garL,1,1,258,258,flye
MRSA_r10,sbnH,sbnH,1,1,400,400,flye
MRSA_r10,sbnI,sbnI,1,1,254,254,flye
MRSA_r10,butA,butA,1,1,258,258,flye
MRSA_r10,wbgU,wbgU,1,1,323,323,flye
MRSA_r10,wbnH,wbnH,1,1,388,388,flye
MRSA_r10,sodM,sodM,1,1,199,199,flye
MRSA_r10,deoD,deoD,1,1,235,235,flye
MRSA_r10,tet(38),tet(38),1,1,452,452,flye
MRSA_r10,deoC1,deoC1,1,1,220,220,flye
MRSA_r10,deoB,deoB,1,1,392,392,flye
MRSA_r10,phnE_1,phnE_2,0,1,271,271,flye
MRSA_r10,phnE_2,phnE_1,0,1,266,266,flye
MRSA_r10,glnQ,glnQ,1,1,257,257,flye
MRSA_r10,phnD2,phnD2,1,1,318,318,flye
MRSA_r10,yfkN,yfkN,1,1,511,511,flye
MRSA_r10,adhE,adhE,1,1,869,869,flye
MRSA_r10,cap8A_1,cap8A_1,1,1,222,222,flye
MRSA_r10,ywqD_1,ywqD_1,1,1,228,228,flye
MRSA_r10,ywqE_1,ywqE_1,1,1,254,254,flye
MRSA_r10,pglF,pglF,1,1,607,607,flye
MRSA_r10,capD,capD,1,1,342,342,flye
MRSA_r10,wbjC,wbjC,1,1,369,369,flye
MRSA_r10,wbpI,wbpI,1,1,374,374,flye
MRSA_r10,dapH_1,dapH_2,0,1,185,185,flye
MRSA_r10,epsL,epsL,1,1,185,185,flye
MRSA_r10,fcl,fcl,1,1,295,295,flye
MRSA_r10,wecC,wecC,1,1,420,420,flye
MRSA_r10,mnaA_1,mnaA_1,1,1,381,381,flye
MRSA_r10,isdI,isdI,1,1,108,108,flye
MRSA_r10,ybaN,ybaN,1,1,127,127,flye
MRSA_r10,aldA,aldA,1,1,495,495,flye
MRSA_r10,czcD_1,czcD_1,1,1,319,319,flye
MRSA_r10,nrtD,nrtD,1,1,246,246,flye
MRSA_r10,ssuC,ssuC,1,1,253,253,flye
MRSA_r10,mdrP,mdrP,1,1,416,416,flye
MRSA_r10,dltA_1,dltA_2,0,1,2391,2391,flye
MRSA_r10,yagU,yagU,1,1,164,164,flye
MRSA_r10,argB,argB,1,1,256,256,flye
MRSA_r10,argJ,argJ,1,1,413,413,flye
MRSA_r10,argC,argC,1,1,344,344,flye
MRSA_r10,rocD2_1,rocD2_2,0,1,394,394,flye
MRSA_r10,brnQ_1,brnQ_3,0,1,451,451,flye
MRSA_r10,yecD,yecD,1,1,185,185,flye
MRSA_r10,ipdC,ipdC,1,1,546,546,flye
MRSA_r10,ptsG_1,ptsG_3,0,1,681,681,flye
MRSA_r10,murQ,murQ,1,1,298,298,flye
MRSA_r10,ybbH_1,ybbH_2,0,1,292,292,flye
MRSA_r10,hsdR,hsdR,1,1,929,929,flye
MRSA_r10,gsiA,gsiA,1,1,530,530,flye
MRSA_r10,ggt,ggt,1,1,668,668,flye
MRSA_r10,azoR,azoR,1,1,208,208,flye
MRSA_r10,msmX,msmX,1,1,365,365,flye
MRSA_r10,cycB,cycB,1,1,423,423,flye
MRSA_r10,malG,malG,1,1,279,279,flye
MRSA_r10,gfo,gfo,1,1,358,358,flye
MRSA_r10,iolG,iolG,1,1,346,346,flye
MRSA_r10,uhpT,uhpT,1,1,459,459,flye
MRSA_r10,pflB,pflB,1,1,749,749,flye
MRSA_r10,pflA,pflA,1,1,251,251,flye
MRSA_r10,scn_1,scn_2,0,1,114,114,flye
MRSA_r10,fadA,fadA,1,1,394,394,flye
MRSA_r10,fadN,fadN,1,1,753,753,flye
MRSA_r10,caiA,caiA,1,1,403,403,flye
MRSA_r10,lcfB,lcfB,1,1,501,501,flye
MRSA_r10,carA_1,carA_2,0,1,520,520,flye
MRSA_r10,nikA,nikA,1,1,491,491,flye
MRSA_r10,hmp,hmp,1,1,381,381,flye
MRSA_r10,ldh1,ldh1,1,1,317,317,flye
MRSA_r10,ptsG_2,ptsG_2,1,1,509,509,flye
MRSA_r10,rihA,rihA,1,1,311,311,flye
MRSA_r10,gatA_1,gatA_1,1,1,155,155,flye
MRSA_r10,gatB_1,gatB_1,1,1,92,92,flye
MRSA_r10,gatC_1,gatC_1,1,1,419,419,flye
MRSA_r10,gatD_1,gatD_2,0,1,347,347,flye
MRSA_r10,tarI2,tarI2,1,1,238,238,flye
MRSA_r10,tarJ',tarJ',1,1,341,341,flye
MRSA_r10,tarK,tarK,1,1,564,564,flye
MRSA_r10,tarF,tarF,1,1,389,389,flye
MRSA_r10,tarI1,tarI1,1,1,238,238,flye
MRSA_r10,tarJ,tarJ,1,1,341,341,flye
MRSA_r10,tarL,tarL,1,1,562,562,flye
MRSA_r10,tarS,tarS,1,1,574,574,flye
MRSA_r10,scdA,scdA,1,1,224,224,flye
MRSA_r10,ypdA,ypdA,1,1,584,584,flye
MRSA_r10,lytR,lytR,1,1,246,246,flye
MRSA_r10,lrgA,lrgA,1,1,145,145,flye
MRSA_r10,lrgB,lrgB,1,1,233,233,flye
MRSA_r10,yydK,yydK,1,1,234,234,flye
MRSA_r10,ptsG_3,ptsG_1,0,1,263,263,flye
MRSA_r10,bglA,bglA,1,1,478,478,flye
MRSA_r10,COQ5_2,COQ5_2,1,1,253,253,flye
MRSA_r10,rbsK,rbsK,1,1,304,304,flye
MRSA_r10,rbsD,rbsD,1,1,134,134,flye
MRSA_r10,glcU_1,glcU_1,1,1,293,293,flye
MRSA_r10,degA,degA,1,1,332,332,flye
MRSA_r10,norB_2,norB_2,1,1,458,458,flye
MRSA_r10,yxeI,yxeI,1,1,330,330,flye
MRSA_r10,lytM,lytM,1,1,316,316,flye
MRSA_r10,lnrL_1,lnrL_1,1,1,219,219,flye
MRSA_r10,esxA,esxA,1,1,97,97,flye
MRSA_r10,esaA,esaA,1,1,1009,1009,flye
MRSA_r10,esaB,esaB,1,1,80,80,flye
MRSA_r10,essB,essB,1,1,444,444,flye
MRSA_r10,essC,essC,1,1,1482,1482,flye
MRSA_r10,essG_1,essG_4,0,1,166,166,flye
MRSA_r10,essG_2,essG_3,0,1,166,166,flye
MRSA_r10,essG_3,essG_2,0,1,118,118,flye
MRSA_r10,essG_4,essG_1,0,1,90,90,flye
MRSA_r10,focA,focA,1,1,274,274,flye
MRSA_r10,brnQ_2,brnQ_2,1,1,435,435,flye
MRSA_r10,hel,hel,1,1,296,296,flye
MRSA_r10,hrtA_1,hrtA_1,1,1,225,225,flye
MRSA_r10,RBKS,RBKS,1,1,372,372,flye
MRSA_r10,psuG,psuG,1,1,307,307,flye
MRSA_r10,nupC_1,nupC_2,0,1,406,406,flye
MRSA_r10,sglT,sglT,1,1,510,510,flye
MRSA_r10,nanA,nanA,1,1,293,293,flye
MRSA_r10,bglK,bglK,1,1,286,286,flye
MRSA_r10,ybbH_2,ybbH_1,0,1,266,266,flye
MRSA_r10,nanE,nanE,1,1,222,222,flye
MRSA_r10,lip2,lip2,1,1,691,691,flye
MRSA_r10,ulaA,ulaA,1,1,448,448,flye
MRSA_r10,cmtB,cmtB,1,1,147,147,flye
MRSA_r10,slyA_1,slyA_2,0,1,139,139,flye
MRSA_r10,mepA,mepA,1,1,451,451,flye
MRSA_r10,glpT,,0,0,452,0,flye
MRSA_r10,mhqA_1,mhqA_2,0,1,308,308,flye
MRSA_r10,luxA,luxA,1,1,353,353,flye
MRSA_r10,ydaF,ydaF,1,1,181,181,flye
MRSA_r10,efeM,efeM,1,1,284,284,flye
MRSA_r10,efeN,efeN,1,1,409,409,flye
MRSA_r10,tatC2,tatC2,1,1,233,233,flye
MRSA_r10,tatAy,tatAy,1,1,71,71,flye
MRSA_r10,btuD_1,btuD_4,0,1,280,280,flye
MRSA_r10,metE,metE,1,1,742,742,flye
MRSA_r10,yitJ,yitJ,1,1,613,613,flye
MRSA_r10,metC,metC,1,1,386,386,flye
MRSA_r10,metI,metI,1,1,367,367,flye
MRSA_r10,spo0J,spo0J,1,1,281,281,flye
MRSA_r10,mscS,mscS,1,1,293,293,flye
MRSA_r10,ychF,ychF,1,1,365,365,flye
MRSA_r10,rpsF,rpsF,1,1,98,98,flye
MRSA_r10,ssbA_1,ssbA_1,1,1,167,167,flye
MRSA_r10,rpsR,rpsR,1,1,80,80,flye
MRSA_r10,xerC_3,xerC_5,0,1,404,404,flye
MRSA_r10,gpmA_1,gpmA_1,1,1,193,193,flye
MRSA_r10,ahpF,ahpF,1,1,507,507,flye
MRSA_r10,ahpC,ahpC,1,1,189,189,flye
MRSA_r10,nfrA,nfrA,1,1,251,251,flye
MRSA_r10,tcyP,tcyP,1,1,462,462,flye
MRSA_r10,xpt,xpt,1,1,192,192,flye
MRSA_r10,pucK,pucK,1,1,422,422,flye
MRSA_r10,guaB,guaB,1,1,488,488,flye
MRSA_r10,guaA,guaA,1,1,513,513,flye
MRSA_r10,qorB,qorB,1,1,281,281,flye
MRSA_r10,ssl1,ssl1,1,1,226,226,flye
MRSA_r10,ssl4_1,ssl4_2,0,1,233,233,flye
MRSA_r10,ssl4_2,ssl4_1,0,1,343,343,flye
MRSA_r10,ssl3,ssl3,1,1,306,306,flye
MRSA_r10,ssl5_1,ssl5_2,0,1,234,234,flye
MRSA_r10,ssl7_1,ssl7_2,0,1,231,231,flye
MRSA_r10,ssl7_2,ssl7_1,0,1,232,232,flye
MRSA_r10,hsdM,hsdM,1,1,518,518,flye
MRSA_r10,ssl5_2,ssl5_1,0,1,232,232,flye
MRSA_r10,lpl2_1,lpl2_6,0,1,270,270,flye
MRSA_r10,lpl2_2,lpl2_5,0,1,257,257,flye
MRSA_r10,lpl2_3,lpl2_4,0,1,136,136,flye
MRSA_r10,lpl2_4,lpl2_3,0,1,123,123,flye
MRSA_r10,lpl2_5,lpl2_2,0,1,256,256,flye
MRSA_r10,lpl2_6,lpl2_1,0,1,267,267,flye
MRSA_r10,yciC_1,yciC_2,0,1,400,400,flye
MRSA_r10,ndhB,ndhB,1,1,494,494,flye
MRSA_r10,est_1,est_2,0,1,244,244,flye
MRSA_r10,mccA,,0,0,311,0,flye
MRSA_r10,mccB,mccB,1,1,380,380,flye
MRSA_r10,metN,metN,1,1,341,341,flye
MRSA_r10,metP_1,metP_2,0,1,219,219,flye
MRSA_r10,metQ_1,metQ_2,0,1,280,280,flye
MRSA_r10,sle1,sle1,1,1,341,341,flye
MRSA_r10,hdfR_1,hdfR_1,1,1,294,294,flye
MRSA_r10,gltA,gltA,1,1,1499,1499,flye
MRSA_r10,gltB,gltB,1,1,487,487,flye
MRSA_r10,treP_1,treP_1,1,1,475,475,flye
MRSA_r10,treA,treA,1,1,546,546,flye
MRSA_r10,treR_1,treR_1,1,1,242,242,flye
MRSA_r10,ruvB_1,ruvB_2,0,1,565,565,flye
MRSA_r10,recR,recR,1,1,198,198,flye
MRSA_r10,speA,speA,1,1,445,445,flye
MRSA_r10,tmk,tmk,1,1,205,205,flye
MRSA_r10,darA,darA,1,1,109,109,flye
MRSA_r10,yabA,yabA,1,1,115,115,flye
MRSA_r10,yfiC,yfiC,1,1,241,241,flye
MRSA_r10,rsmI,rsmI,1,1,279,279,flye
MRSA_r10,metG,metG,1,1,657,657,flye
MRSA_r10,dtd3,dtd3,1,1,257,257,flye
MRSA_r10,rnmV_1,rnmV_2,0,1,178,178,flye
MRSA_r10,rsmA,rsmA,1,1,297,297,flye
MRSA_r10,veg,veg,1,1,87,87,flye
MRSA_r10,ispE,ispE,1,1,282,282,flye
MRSA_r10,purR,purR,1,1,274,274,flye
MRSA_r10,yabJ,yabJ,1,1,126,126,flye
MRSA_r10,spoVG,spoVG,1,1,100,100,flye
MRSA_r10,glmU,glmU,1,1,450,450,flye
MRSA_r10,prs,prs,1,1,321,321,flye
MRSA_r10,rplY,rplY,1,1,217,217,flye
MRSA_r10,pth,pth,1,1,190,190,flye
MRSA_r10,mfd,mfd,1,1,1168,1168,flye
MRSA_r10,divIC,divIC,1,1,130,130,flye
MRSA_r10,pnp_1,pnp_2,0,1,133,133,flye
MRSA_r10,tilS,tilS,1,1,431,431,flye
MRSA_r10,hpt,hpt,1,1,179,179,flye
MRSA_r10,ftsH,ftsH,1,1,697,697,flye
MRSA_r10,hslO,hslO,1,1,293,293,flye
MRSA_r10,cysK,cysK,1,1,310,310,flye
MRSA_r10,folP,folP,1,1,267,267,flye
MRSA_r10,folB,folB,1,1,121,121,flye
MRSA_r10,folK,folK,1,1,158,158,flye
MRSA_r10,lysS,lysS,1,1,495,495,flye
MRSA_r10,gabR,gabR,1,1,460,460,flye
MRSA_r10,pdxS,pdxS,1,1,295,295,flye
MRSA_r10,pdxT,pdxT,1,1,186,186,flye
MRSA_r10,nupC_2,nupC_1,0,1,404,404,flye
MRSA_r10,ctsR,ctsR,1,1,156,156,flye
MRSA_r10,mcsA,mcsA,1,1,188,188,flye
MRSA_r10,mcsB,mcsB,1,1,336,336,flye
MRSA_r10,clpC,clpC,1,1,818,818,flye
MRSA_r10,radA,radA,1,1,454,454,flye
MRSA_r10,yacL,yacL,1,1,357,357,flye
MRSA_r10,gltX,gltX,1,1,484,484,flye
MRSA_r10,cysE,cysE,1,1,226,226,flye
MRSA_r10,cysS,cysS,1,1,466,466,flye
MRSA_r10,mrnC,mrnC,1,1,134,134,flye
MRSA_r10,yacP,yacP,1,1,174,174,flye
MRSA_r10,secE,secE,1,1,60,60,flye
MRSA_r10,nusG,nusG,1,1,182,182,flye
MRSA_r10,rplK,rplK,1,1,140,140,flye
MRSA_r10,rplA,rplA,1,1,229,229,flye
MRSA_r10,rplJ,rplJ,1,1,166,166,flye
MRSA_r10,rplL,rplL,1,1,122,122,flye
MRSA_r10,rsmC,rsmC,1,1,202,202,flye
MRSA_r10,rpoB,rpoB,1,1,1183,1183,flye
MRSA_r10,rpoC,rpoC,1,1,1207,1207,flye
MRSA_r10,rplGB,rplGB,1,1,84,84,flye
MRSA_r10,rpsL,rpsL,1,1,137,137,flye
MRSA_r10,rpsG,rpsG,1,1,156,156,flye
MRSA_r10,fusA,fusA,1,1,693,693,flye
MRSA_r10,tuf,tuf,1,1,394,394,flye
MRSA_r10,scmP_2,scmP_2,1,1,391,391,flye
MRSA_r10,hchA,hchA,1,1,292,292,flye
MRSA_r10,araB,araB,1,1,545,545,flye
MRSA_r10,ilvE,ilvE,1,1,358,358,flye
MRSA_r10,ppaX_1,ppaX_2,0,1,227,227,flye
MRSA_r10,dck,dck,1,1,220,220,flye
MRSA_r10,dgk,dgk,1,1,205,205,flye
MRSA_r10,tadA_1,tadA_2,0,1,156,156,flye
MRSA_r10,ywtE_1,ywtE_1,1,1,289,289,flye
MRSA_r10,azo1,azo1,1,1,188,188,flye
MRSA_r10,bbp,bbp,1,1,1137,1137,flye
MRSA_r10,gtfA_1,gtfA_2,0,1,490,490,flye
MRSA_r10,gtfA_2,gtfA_1,0,1,496,496,flye
MRSA_r10,folE2,folE2,1,1,292,292,flye
MRSA_r10,bshB2,bshB2,1,1,221,221,flye
MRSA_r10,yojF,yojF,1,1,120,120,flye
MRSA_r10,nagB_1,nagB_2,0,1,252,252,flye
MRSA_r10,hxlB,hxlB,1,1,182,182,flye
MRSA_r10,gph,gph,1,1,215,215,flye
MRSA_r10,proP,proP,1,1,466,466,flye
MRSA_r10,menE_1,menE_2,0,1,458,458,flye
MRSA_r10,yhfS,yhfS,1,1,379,379,flye
MRSA_r10,pdxK,pdxK,1,1,276,276,flye
MRSA_r10,ung,ung,1,1,218,218,flye
MRSA_r10,pta,pta,1,1,328,328,flye
MRSA_r10,lipL,lipL,1,1,278,278,flye
MRSA_r10,galK,galK,1,1,306,306,flye
MRSA_r10,rclA,rclA,1,1,440,440,flye
MRSA_r10,iolS,iolS,1,1,312,312,flye
MRSA_r10,ywqN,ywqN,1,1,178,178,flye
MRSA_r10,adh,adh,1,1,336,336,flye
MRSA_r10,ywiB,ywiB,1,1,138,138,flye
MRSA_r10,argS,argS,1,1,553,553,flye
MRSA_r10,nth_1,nth_2,0,1,211,211,flye
MRSA_r10,btuF,btuF,1,1,295,295,flye
MRSA_r10,hdl IVa,hdl IVa,1,1,239,239,flye
MRSA_r10,pip,pip,1,1,262,262,flye
MRSA_r10,sarA,sarA,1,1,124,124,flye
MRSA_r10,xerD_1,xerD_2,0,1,186,186,flye
MRSA_r10,mrpA,mrpA,1,1,800,800,flye
MRSA_r10,mrpB,mrpB,1,1,141,141,flye
MRSA_r10,mnhC1_1,mnhC1_2,0,1,114,114,flye
MRSA_r10,mnhD1_1,mnhD1_2,0,1,498,498,flye
MRSA_r10,mrpE,mrpE,1,1,160,160,flye
MRSA_r10,mrpF,mrpF,1,1,100,100,flye
MRSA_r10,mrpG,mrpG,1,1,120,120,flye
MRSA_r10,nhaK_1,nhaK_1,1,1,680,680,flye
MRSA_r10,pbuE_1,pbuE_1,1,1,382,382,flye
MRSA_r10,ppaX_2,ppaX_1,0,1,82,82,flye
MRSA_r10,mntA,mntA,1,1,309,309,flye
MRSA_r10,mntB,mntB,1,1,278,278,flye
MRSA_r10,scaC,scaC,1,1,247,247,flye
MRSA_r10,mntR,mntR,1,1,214,214,flye
MRSA_r10,tarA,tarA,1,1,254,254,flye
MRSA_r10,tagH_1,tagH_2,0,1,264,264,flye
MRSA_r10,tagG,tagG,1,1,270,270,flye
MRSA_r10,tarB,tarB,1,1,367,367,flye
MRSA_r10,tagX,tagX,1,1,353,353,flye
MRSA_r10,tarD,tarD,1,1,132,132,flye
MRSA_r10,bmrA,bmrA,1,1,575,575,flye
MRSA_r10,nupG,nupG,1,1,409,409,flye
MRSA_r10,fepC,fepC,1,1,265,265,flye
MRSA_r10,feuB,feuB,1,1,334,334,flye
MRSA_r10,feuC,feuC,1,1,338,338,flye
MRSA_r10,dhaK,dhaK,1,1,322,322,flye
MRSA_r10,dhaL,dhaL,1,1,194,194,flye
MRSA_r10,dhaM,dhaM,1,1,120,120,flye
MRSA_r10,aes,aes,1,1,347,347,flye
MRSA_r10,graR_1,graR_1,1,1,224,224,flye
MRSA_r10,graS_1,graS_1,1,1,346,346,flye
MRSA_r10,bceA_1,bceA_1,1,1,253,253,flye
MRSA_r10,bceB_1,bceB_1,1,1,629,629,flye
MRSA_r10,rhaR,rhaR,1,1,647,647,flye
MRSA_r10,sarX,sarX,1,1,141,141,flye
MRSA_r10,oxyR,oxyR,1,1,288,288,flye
MRSA_r10,setC,setC,1,1,430,430,flye
MRSA_r10,bin3,bin3,1,1,105,105,flye
MRSA_r10,sdpR,sdpR,1,1,104,104,flye
MRSA_r10,arsB_1,arsB_2,0,1,429,429,flye
MRSA_r10,arsC,arsC,1,1,131,131,flye
MRSA_r10,pre,pre,1,1,108,108,flye
MRSA_r10,bcrR,bcrR,1,1,113,113,flye
MRSA_r10,cysL,cysL,1,1,273,273,flye
MRSA_r10,hin_1,hin_2,0,1,191,191,flye
MRSA_r10,copB,copB,1,1,681,681,flye
MRSA_r10,mco,mco,1,1,477,477,flye
MRSA_r10,cadA,cadA,1,1,726,726,flye
MRSA_r10,cadC,cadC,1,1,121,121,flye
MRSA_r10,uppP,uppP,1,1,291,291,flye
MRSA_r10,cydD,cydD,1,1,543,543,flye
MRSA_r10,mgrA,mgrA,1,1,147,147,flye
MRSA_r10,yciC_2,yciC_1,0,1,308,308,flye
MRSA_r10,ydhF,ydhF,1,1,302,302,flye
MRSA_r10,phrB,phrB,1,1,457,457,flye
MRSA_r10,tetA,tetA,1,1,388,388,flye
MRSA_r10,ybaK,ybaK,1,1,160,160,flye
MRSA_r10,ydjF,ydjF,1,1,254,254,flye
MRSA_r10,lacC_1,lacC_1,1,1,306,306,flye
MRSA_r10,fruA,fruA,1,1,652,652,flye
MRSA_r10,nagA,nagA,1,1,393,393,flye
MRSA_r10,csbB,csbB,1,1,327,327,flye
MRSA_r10,saeS,saeS,1,1,351,351,flye
MRSA_r10,saeR,saeR,1,1,228,228,flye
MRSA_r10,queE,queE,1,1,237,237,flye
MRSA_r10,queD,queD,1,1,139,139,flye
MRSA_r10,queC,queC,1,1,222,222,flye
MRSA_r10,trpG_1,trpG_2,0,1,197,197,flye
MRSA_r10,menF,menF,1,1,383,383,flye
MRSA_r10,pxpB_1,pxpB_2,0,1,236,236,flye
MRSA_r10,pxpC_1,pxpC_2,0,1,334,334,flye
MRSA_r10,ltaS,ltaS,1,1,646,646,flye
MRSA_r10,ettA,ettA,1,1,625,625,flye
MRSA_r10,recQ_1,recQ_2,0,1,593,593,flye
MRSA_r10,btuD_2,btuD_3,0,1,325,325,flye
MRSA_r10,hisC_1,hisC_1,1,1,352,352,flye
MRSA_r10,dtpT,dtpT,1,1,501,501,flye
MRSA_r10,queF,queF,1,1,166,166,flye
MRSA_r10,cntI,cntI,1,1,288,288,flye
MRSA_r10,nrdI,nrdI,1,1,132,132,flye
MRSA_r10,nrdE,nrdE,1,1,701,701,flye
MRSA_r10,nrdF,nrdF,1,1,323,323,flye
MRSA_r10,yclN,yclN,1,1,323,323,flye
MRSA_r10,yclO,yclO,1,1,318,318,flye
MRSA_r10,yclP,yclP,1,1,253,253,flye
MRSA_r10,yclQ,yclQ,1,1,342,342,flye
MRSA_r10,murB,murB,1,1,307,307,flye
MRSA_r10,garK_1,garK_1,1,1,374,374,flye
MRSA_r10,pepT_1,pepT_2,0,1,408,408,flye
MRSA_r10,yjjP,yjjP,1,1,253,253,flye
MRSA_r10,tagO,tagO,1,1,351,351,flye
MRSA_r10,comFA,comFA,1,1,360,360,flye
MRSA_r10,hpf,hpf,1,1,190,190,flye
MRSA_r10,secA1_1,secA1_1,1,1,843,843,flye
MRSA_r10,prfB,prfB,1,1,330,330,flye
MRSA_r10,yfbR,yfbR,1,1,216,216,flye
MRSA_r10,uvrB_1,uvrB_1,1,1,661,661,flye
MRSA_r10,uvrA,uvrA,1,1,948,948,flye
MRSA_r10,hprK,hprK,1,1,310,310,flye
MRSA_r10,lgt,lgt,1,1,280,280,flye
MRSA_r10,maa,maa,1,1,161,161,flye
MRSA_r10,trxB,trxB,1,1,311,311,flye
MRSA_r10,whiA,whiA,1,1,314,314,flye
MRSA_r10,clpP_1,clpP_2,0,1,195,195,flye
MRSA_r10,mleS,mleS,1,1,544,544,flye
MRSA_r10,cggR,cggR,1,1,337,337,flye
MRSA_r10,gapA1,gapA1,1,1,336,336,flye
MRSA_r10,pgk,pgk,1,1,396,396,flye
MRSA_r10,tpiA,tpiA,1,1,253,253,flye
MRSA_r10,gpmI,gpmI,1,1,505,505,flye
MRSA_r10,eno,eno,1,1,434,434,flye
MRSA_r10,secG,secG,1,1,77,77,flye
MRSA_r10,est_2,est_1,0,1,246,246,flye
MRSA_r10,rnr,rnr,1,1,790,790,flye
MRSA_r10,smpB,smpB,1,1,154,154,flye
MRSA_r10,ssp,ssp,1,1,341,341,flye
MRSA_r10,nuc,nuc,1,1,228,228,flye
MRSA_r10,cspA_1,cspA_2,0,1,66,66,flye
MRSA_r10,pspB,pspB,1,1,194,194,flye
MRSA_r10,argO_1,argO_1,1,1,205,205,flye
MRSA_r10,aroD,aroD,1,1,238,238,flye
MRSA_r10,ydbP,ydbP,1,1,106,106,flye
MRSA_r10,mgsR,mgsR,1,1,118,118,flye
MRSA_r10,gcvH,gcvH,1,1,126,126,flye
MRSA_r10,rnmV_2,rnmV_1,0,1,129,129,flye
MRSA_r10,metN2,metN2,1,1,341,341,flye
MRSA_r10,metP_2,metP_1,0,1,231,231,flye
MRSA_r10,metQ_2,metQ_1,0,1,273,273,flye
MRSA_r10,sufC,sufC,1,1,253,253,flye
MRSA_r10,csd,csd,1,1,413,413,flye
MRSA_r10,sufU,sufU,1,1,154,154,flye
MRSA_r10,pnoA,pnoA,1,1,355,355,flye
MRSA_r10,lipA_1,lipA_1,1,1,305,305,flye
MRSA_r10,yutF,yutF,1,1,259,259,flye
MRSA_r10,ghrB_1,ghrB_2,0,1,319,319,flye
MRSA_r10,dltA_2,dltA_1,0,1,485,485,flye
MRSA_r10,patA,patA,1,1,404,404,flye
MRSA_r10,dltC,dltC,1,1,78,78,flye
MRSA_r10,dltD,dltD,1,1,391,391,flye
MRSA_r10,nfuA,nfuA,1,1,80,80,flye
MRSA_r10,yjlD,yjlD,1,1,354,354,flye
MRSA_r10,pepA_1,pepA_2,0,1,491,491,flye
MRSA_r10,mnhG1,mnhG1,1,1,118,118,flye
MRSA_r10,mnhF1,mnhF1,1,1,97,97,flye
MRSA_r10,mnhE1,mnhE1,1,1,159,159,flye
MRSA_r10,mnhD1_2,mnhD1_1,0,1,498,498,flye
MRSA_r10,mnhC1_2,mnhC1_1,0,1,113,113,flye
MRSA_r10,mnhB1,mnhB1,1,1,142,142,flye
MRSA_r10,mnhA1,mnhA1,1,1,801,801,flye
MRSA_r10,kapB,kapB,1,1,127,127,flye
MRSA_r10,yugI,yugI,1,1,125,125,flye
MRSA_r10,rocD2_2,rocD2_1,0,1,396,396,flye
MRSA_r10,gluD,gluD,1,1,414,414,flye
MRSA_r10,glpQ_1,glpQ_2,0,1,309,309,flye
MRSA_r10,argH,argH,1,1,459,459,flye
MRSA_r10,argG,argG,1,1,401,401,flye
MRSA_r10,pgi,pgi,1,1,443,443,flye
MRSA_r10,ydjZ,ydjZ,1,1,191,191,flye
MRSA_r10,spsB_1,spsB_2,0,1,174,174,flye
MRSA_r10,spsB_2,spsB_1,0,1,191,191,flye
MRSA_r10,addB,addB,1,1,1158,1158,flye
MRSA_r10,addA,addA,1,1,1217,1217,flye
MRSA_r10,cdr,cdr,1,1,438,438,flye
MRSA_r10,yitU,yitU,1,1,274,274,flye
MRSA_r10,sufT,sufT,1,1,102,102,flye
MRSA_r10,oatA_1,oatA_1,1,1,604,604,flye
MRSA_r10,clpB,clpB,1,1,869,869,flye
MRSA_r10,ampR,ampR,1,1,289,289,flye
MRSA_r10,leuA_1,leuA_1,1,1,381,381,flye
MRSA_r10,map_1,map_2,0,1,144,144,flye
MRSA_r10,fabH,fabH,1,1,313,313,flye
MRSA_r10,fabF,fabF,1,1,414,414,flye
MRSA_r10,oppB,oppB,1,1,308,308,flye
MRSA_r10,oppC,oppC,1,1,356,356,flye
MRSA_r10,oppD_1,oppD_2,0,1,360,360,flye
MRSA_r10,oppF_1,oppF_2,0,1,313,313,flye
MRSA_r10,dppE,dppE,1,1,551,551,flye
MRSA_r10,appA,appA,1,1,451,451,flye
MRSA_r10,oppD_2,oppD_1,0,1,328,328,flye
MRSA_r10,oppF_2,oppF_1,0,1,326,326,flye
MRSA_r10,dppC,dppC,1,1,293,293,flye
MRSA_r10,trpS,trpS,1,1,329,329,flye
MRSA_r10,spxA,spxA,1,1,131,131,flye
MRSA_r10,mecA_2,mecA_1,0,1,239,239,flye
MRSA_r10,pepF1_1,pepF1_2,0,1,602,602,flye
MRSA_r10,yjbI,yjbI,1,1,121,121,flye
MRSA_r10,yjbK,yjbK,1,1,197,197,flye
MRSA_r10,yjbM,yjbM,1,1,211,211,flye
MRSA_r10,nadK,nadK,1,1,269,269,flye
MRSA_r10,mgtE,mgtE,1,1,461,461,flye
MRSA_r10,kefB,kefB,1,1,614,614,flye
MRSA_r10,fabI,fabI,1,1,256,256,flye
MRSA_r10,acp,acp,1,1,522,522,flye
MRSA_r10,ltaA,ltaA,1,1,396,396,flye
MRSA_r10,ugtP,ugtP,1,1,391,391,flye
MRSA_r10,murE,murE,1,1,494,494,flye
MRSA_r10,prfC,prfC,1,1,520,520,flye
MRSA_r10,ktrB_1,ktrB_1,1,1,452,452,flye
MRSA_r10,tarM,tarM,1,1,493,493,flye
MRSA_r10,catD,catD,1,1,118,118,flye
MRSA_r10,yfmC_1,yfmC_1,1,1,319,319,flye
MRSA_r10,menA,menA,1,1,312,312,flye
MRSA_r10,pchA,pchA,1,1,453,453,flye
MRSA_r10,menD,menD,1,1,557,557,flye
MRSA_r10,menH,menH,1,1,267,267,flye
MRSA_r10,menB,menB,1,1,273,273,flye
MRSA_r10,sspC,sspC,1,1,109,109,flye
MRSA_r10,sspB,sspB,1,1,393,393,flye
MRSA_r10,sspA,sspA,1,1,357,357,flye
MRSA_r10,dapX,dapX,1,1,384,384,flye
MRSA_r10,slyA_2,slyA_1,0,1,139,139,flye
MRSA_r10,atl_1,atl_2,0,1,1257,1257,flye
MRSA_r10,tagU_1,tagU_1,1,1,408,408,flye
MRSA_r10,fmtA,fmtA,1,1,397,397,flye
MRSA_r10,qoxD,qoxD,1,1,96,96,flye
MRSA_r10,qoxC,qoxC,1,1,201,201,flye
MRSA_r10,qoxB,qoxB,1,1,662,662,flye
MRSA_r10,qoxA,qoxA,1,1,366,366,flye
MRSA_r10,folD,folD,1,1,286,286,flye
MRSA_r10,purE,purE,1,1,160,160,flye
MRSA_r10,purK,purK,1,1,374,374,flye
MRSA_r10,purC,purC,1,1,234,234,flye
MRSA_r10,purS,purS,1,1,87,87,flye
MRSA_r10,purQ,purQ,1,1,223,223,flye
MRSA_r10,purL,purL,1,1,729,729,flye
MRSA_r10,purF,purF,1,1,494,494,flye
MRSA_r10,purM,purM,1,1,342,342,flye
MRSA_r10,purN,purN,1,1,188,188,flye
MRSA_r10,purH,purH,1,1,492,492,flye
MRSA_r10,purD,purD,1,1,415,415,flye
MRSA_r10,ecfT_1,ecfT_1,1,1,268,268,flye
MRSA_r10,ykoD_1,ykoD_1,1,1,466,466,flye
MRSA_r10,ykoE,ykoE,1,1,191,191,flye
MRSA_r10,rlmI,rlmI,1,1,390,390,flye
MRSA_r10,ptsH,ptsH,1,1,88,88,flye
MRSA_r10,ptsI,ptsI,1,1,572,572,flye
MRSA_r10,ythA,ythA,1,1,453,453,flye
MRSA_r10,ythB,ythB,1,1,339,339,flye
MRSA_r10,ktrA,ktrA,1,1,220,220,flye
MRSA_r10,rnj1,rnj1,1,1,565,565,flye
MRSA_r10,def,def,1,1,183,183,flye
MRSA_r10,pdhA,pdhA,1,1,370,370,flye
MRSA_r10,pdhB,pdhB,1,1,325,325,flye
MRSA_r10,pdhC_1,pdhC_2,0,1,430,430,flye
MRSA_r10,pdhD,pdhD,1,1,468,468,flye
MRSA_r10,potA,potA,1,1,364,364,flye
MRSA_r10,potB,potB,1,1,265,265,flye
MRSA_r10,ydcV,ydcV,1,1,269,269,flye
MRSA_r10,potD,potD,1,1,357,357,flye
MRSA_r10,mntH_1,mntH_2,0,1,450,450,flye
MRSA_r10,suhB,suhB,1,1,275,275,flye
MRSA_r10,typA,typA,1,1,615,615,flye
MRSA_r10,ftsW,ftsW,1,1,408,408,flye
MRSA_r10,pycA,pycA,1,1,1150,1150,flye
MRSA_r10,ctaA,ctaA,1,1,306,306,flye
MRSA_r10,ctaB2,ctaB2,1,1,303,303,flye
MRSA_r10,rsmD,rsmD,1,1,180,180,flye
MRSA_r10,coaD,coaD,1,1,160,160,flye
MRSA_r10,tmcAL,tmcAL,1,1,379,379,flye
MRSA_r10,rpmF,rpmF,1,1,57,57,flye
MRSA_r10,isdB,isdB,1,1,652,652,flye
MRSA_r10,isdA,isdA,1,1,354,354,flye
MRSA_r10,isdC,isdC,1,1,227,227,flye
MRSA_r10,isdE,isdE,1,1,292,292,flye
MRSA_r10,isdF,isdF,1,1,322,322,flye
MRSA_r10,srtB,srtB,1,1,244,244,flye
MRSA_r10,isdG_1,isdG_1,1,1,107,107,flye
MRSA_r10,pheS,pheS,1,1,352,352,flye
MRSA_r10,pheT,pheT,1,1,800,800,flye
MRSA_r10,rnhC,rnhC,1,1,329,329,flye
MRSA_r10,zapA,zapA,1,1,88,88,flye
MRSA_r10,polX,polX,1,1,570,570,flye
MRSA_r10,mutS2,mutS2,1,1,782,782,flye
MRSA_r10,trxA,trxA,1,1,104,104,flye
MRSA_r10,uvrC,uvrC,1,1,593,593,flye
MRSA_r10,sdhC,sdhC,1,1,204,204,flye
MRSA_r10,frdA,frdA,1,1,588,588,flye
MRSA_r10,frdB,frdB,1,1,271,271,flye
MRSA_r10,murI,murI,1,1,266,266,flye
MRSA_r10,fib,fib,1,1,165,165,flye
MRSA_r10,scn_2,scn_1,0,1,116,116,flye
MRSA_r10,hly_1,hly_2,0,1,206,206,flye
MRSA_r10,hly_2,hly_1,0,1,112,112,flye
MRSA_r10,argF,argF,1,1,333,333,flye
MRSA_r10,arcC1,arcC1,1,1,311,311,flye
MRSA_r10,yfnB,yfnB,1,1,228,228,flye
MRSA_r10,bshC,bshC,1,1,537,537,flye
MRSA_r10,mraZ,mraZ,1,1,143,143,flye
MRSA_r10,rsmH_1,rsmH_2,0,1,311,311,flye
MRSA_r10,ftsL,ftsL,1,1,133,133,flye
MRSA_r10,pbpB,pbpB,1,1,744,744,flye
MRSA_r10,mraY,mraY,1,1,321,321,flye
MRSA_r10,murD,murD,1,1,449,449,flye
MRSA_r10,divIB,divIB,1,1,439,439,flye
MRSA_r10,ftsA,ftsA,1,1,468,468,flye
MRSA_r10,ftsZ,ftsZ,1,1,390,390,flye
MRSA_r10,yggS,yggS,1,1,222,222,flye
MRSA_r10,sepF,sepF,1,1,187,187,flye
MRSA_r10,divIVA,divIVA,1,1,198,198,flye
MRSA_r10,ileS,ileS,1,1,917,917,flye
MRSA_r10,catE_1,catE_1,1,1,265,265,flye
MRSA_r10,lspA,lspA,1,1,163,163,flye
MRSA_r10,rluD_1,rluD_2,0,1,305,305,flye
MRSA_r10,pyrR,pyrR,1,1,175,175,flye
MRSA_r10,pyrP,pyrP,1,1,435,435,flye
MRSA_r10,pyrB,pyrB,1,1,293,293,flye
MRSA_r10,pyrC,pyrC,1,1,425,425,flye
MRSA_r10,carA_2,carA_1,0,1,366,366,flye
MRSA_r10,carB,carB,1,1,1057,1057,flye
MRSA_r10,pyrF,pyrF,1,1,230,230,flye
MRSA_r10,pyrE,pyrE,1,1,203,203,flye
MRSA_r10,rqcH,rqcH,1,1,565,565,flye
MRSA_r10,gmk,gmk,1,1,207,207,flye
MRSA_r10,rpoZ,rpoZ,1,1,72,72,flye
MRSA_r10,coaBC,coaBC,1,1,399,399,flye
MRSA_r10,priA,priA,1,1,802,802,flye
MRSA_r10,def1,def1,1,1,162,162,flye
MRSA_r10,fmt,fmt,1,1,311,311,flye
MRSA_r10,rsmB,rsmB,1,1,435,435,flye
MRSA_r10,rlmN,rlmN,1,1,364,364,flye
MRSA_r10,stp,stp,1,1,247,247,flye
MRSA_r10,prkC,prkC,1,1,664,664,flye
MRSA_r10,rsgA,rsgA,1,1,291,291,flye
MRSA_r10,rpe,rpe,1,1,214,214,flye
MRSA_r10,thiN,thiN,1,1,213,213,flye
MRSA_r10,rpmB,rpmB,1,1,62,62,flye
MRSA_r10,recG,recG,1,1,686,686,flye
MRSA_r10,fapR,fapR,1,1,185,185,flye
MRSA_r10,plsX,plsX,1,1,328,328,flye
MRSA_r10,fabD,fabD,1,1,308,308,flye
MRSA_r10,fabG,fabG,1,1,244,244,flye
MRSA_r10,acpP,acpP,1,1,77,77,flye
MRSA_r10,rnc,rnc,1,1,243,243,flye
MRSA_r10,smc_1,smc_2,0,1,1188,1188,flye
MRSA_r10,ftsY,ftsY,1,1,416,416,flye
MRSA_r10,ffh,ffh,1,1,455,455,flye
MRSA_r10,rpsP,rpsP,1,1,91,91,flye
MRSA_r10,rimM,rimM,1,1,167,167,flye
MRSA_r10,trmD,trmD,1,1,245,245,flye
MRSA_r10,rplS,rplS,1,1,116,116,flye
MRSA_r10,rbgA,rbgA,1,1,294,294,flye
MRSA_r10,rnhB,rnhB,1,1,255,255,flye
MRSA_r10,sucC,sucC,1,1,388,388,flye
MRSA_r10,sucD,sucD,1,1,302,302,flye
MRSA_r10,lytN,lytN,1,1,372,372,flye
MRSA_r10,femA_1,femA_2,0,1,414,414,flye
MRSA_r10,topA,topA,1,1,691,691,flye
MRSA_r10,trmFO,trmFO,1,1,435,435,flye
MRSA_r10,xerC_4,xerC_4,1,1,298,298,flye
MRSA_r10,hslV,hslV,1,1,181,181,flye
MRSA_r10,hslU,hslU,1,1,467,467,flye
MRSA_r10,codY,codY,1,1,257,257,flye
MRSA_r10,rpsB,rpsB,1,1,255,255,flye
MRSA_r10,tsf,tsf,1,1,293,293,flye
MRSA_r10,pyrH,pyrH,1,1,240,240,flye
MRSA_r10,frr,frr,1,1,184,184,flye
MRSA_r10,uppS,uppS,1,1,256,256,flye
MRSA_r10,proS,proS,1,1,567,567,flye
MRSA_r10,polC,polC,1,1,1438,1438,flye
MRSA_r10,rimP,rimP,1,1,155,155,flye
MRSA_r10,nusA,nusA,1,1,391,391,flye
MRSA_r10,rplGA,rplGA,1,1,105,105,flye
MRSA_r10,infB_1,infB_2,0,1,705,705,flye
MRSA_r10,rbfA,rbfA,1,1,116,116,flye
MRSA_r10,truB,truB,1,1,305,305,flye
MRSA_r10,ribF,,0,0,323,0,flye
MRSA_r10,rpsO,rpsO,1,1,89,89,flye
MRSA_r10,pnp_2,pnp_1,0,1,698,698,flye
MRSA_r10,rnj2,rnj2,1,1,557,557,flye
MRSA_r10,ftsK,ftsK,1,1,789,789,flye
MRSA_r10,gamR,,0,0,237,0,flye
MRSA_r10,phaB,phaB,1,1,234,234,flye
MRSA_r10,pgsA,pgsA,1,1,192,192,flye
MRSA_r10,cinA,cinA,1,1,383,383,flye
MRSA_r10,recA,recA,1,1,347,347,flye
MRSA_r10,rny,rny,1,1,519,519,flye
MRSA_r10,ymdB,ymdB,1,1,265,265,flye
MRSA_r10,miaB,miaB,1,1,514,514,flye
MRSA_r10,ymcA,ymcA,1,1,121,121,flye
MRSA_r10,mutS_1,mutS_1,1,1,872,872,flye
MRSA_r10,mutL,mutL,1,1,669,669,flye
MRSA_r10,glpP,glpP,1,1,177,177,flye
MRSA_r10,glpF,glpF,1,1,272,272,flye
MRSA_r10,glpK,glpK,1,1,498,498,flye
MRSA_r10,glpD,glpD,1,1,557,557,flye
MRSA_r10,miaA,miaA,1,1,311,311,flye
MRSA_r10,hfq,hfq,1,1,77,77,flye
MRSA_r10,bsaA_1,bsaA_1,1,1,158,158,flye
MRSA_r10,hflX,hflX,1,1,412,412,flye
MRSA_r10,glnR,glnR,1,1,122,122,flye
MRSA_r10,glnA,glnA,1,1,446,446,flye
MRSA_r10,infB_2,infB_1,0,1,615,615,flye
MRSA_r10,ltaE,ltaE,1,1,341,341,flye
MRSA_r10,cls_1,cls_1,1,1,493,493,flye
MRSA_r10,btuD_3,btuD_2,0,1,299,299,flye
MRSA_r10,desR,desR,1,1,168,168,flye
MRSA_r10,nucH,nucH,1,1,177,177,flye
MRSA_r10,yclM,yclM,1,1,460,460,flye
MRSA_r10,thrC,thrC,1,1,353,353,flye
MRSA_r10,thrB,thrB,1,1,304,304,flye
MRSA_r10,lysP_1,lysP_2,0,1,484,484,flye
MRSA_r10,katA,katA,1,1,505,505,flye
MRSA_r10,rpmG2_1,rpmG2_2,0,1,49,49,flye
MRSA_r10,rpsN2,rpsN2,1,1,89,89,flye
MRSA_r10,guaC,guaC,1,1,325,325,flye
MRSA_r10,lexA_1,lexA_1,1,1,207,207,flye
MRSA_r10,tkt,tkt,1,1,662,662,flye
MRSA_r10,sbcD,sbcD,1,1,373,373,flye
MRSA_r10,sbcC,sbcC,1,1,1009,1009,flye
MRSA_r10,mscL,mscL,1,1,120,120,flye
MRSA_r10,opuD_1,opuD_1,1,1,548,548,flye
MRSA_r10,acnA,acnA,1,1,901,901,flye
MRSA_r10,plsY,plsY,1,1,202,202,flye
MRSA_r10,parE,parE,1,1,663,663,flye
MRSA_r10,parC,parC,1,1,800,800,flye
MRSA_r10,alsT,alsT,1,1,486,486,flye
MRSA_r10,glcT,glcT,1,1,283,283,flye
MRSA_r10,mprF,mprF,1,1,840,840,flye
MRSA_r10,msrA1,msrA1,1,1,169,169,flye
MRSA_r10,msrR,msrR,1,1,327,327,flye
MRSA_r10,umuC,umuC,1,1,420,420,flye
MRSA_r10,ysdC_1,ysdC_1,1,1,343,343,flye
MRSA_r10,trpE,trpE,1,1,468,468,flye
MRSA_r10,trpG_2,trpG_1,0,1,188,188,flye
MRSA_r10,trpD2,trpD2,1,1,257,257,flye
MRSA_r10,trpC,trpC,1,1,260,260,flye
MRSA_r10,trpF,trpF,1,1,211,211,flye
MRSA_r10,trpB,trpB,1,1,404,404,flye
MRSA_r10,trpA,trpA,1,1,242,242,flye
MRSA_r10,femA_2,femA_1,0,1,420,420,flye
MRSA_r10,femB,femB,1,1,419,419,flye
MRSA_r10,nikE,nikE,1,1,233,233,flye
MRSA_r10,nikD,nikD,1,1,257,257,flye
MRSA_r10,nikC,nikC,1,1,276,276,flye
MRSA_r10,nikB,nikB,1,1,328,328,flye
MRSA_r10,pepF1_2,pepF1_1,0,1,604,604,flye
MRSA_r10,phoU,phoU,1,1,213,213,flye
MRSA_r10,pstB3,pstB3,1,1,283,283,flye
MRSA_r10,pstA,pstA,1,1,305,305,flye
MRSA_r10,pstS,pstS,1,1,327,327,flye
MRSA_r10,cvfB,cvfB,1,1,300,300,flye
MRSA_r10,ybiT,ybiT,1,1,533,533,flye
MRSA_r10,lysC,lysC,1,1,401,401,flye
MRSA_r10,asd,asd,1,1,329,329,flye
MRSA_r10,dapA,dapA,1,1,295,295,flye
MRSA_r10,dapB,dapB,1,1,240,240,flye
MRSA_r10,dapH_2,dapH_1,0,1,239,239,flye
MRSA_r10,scmP_3,scmP_1,0,1,383,383,flye
MRSA_r10,alr1_1,alr1_1,1,1,361,361,flye
MRSA_r10,lysA,lysA,1,1,421,421,flye
MRSA_r10,cspA_2,cspA_1,0,1,66,66,flye
MRSA_r10,yccX,yccX,1,1,89,89,flye
MRSA_r10,brnQ_3,brnQ_1,0,1,447,447,flye
MRSA_r10,nirQ,nirQ,1,1,263,263,flye
MRSA_r10,mhqA_2,mhqA_1,0,1,269,269,flye
MRSA_r10,odhB,odhB,1,1,423,423,flye
MRSA_r10,odhA,odhA,1,1,932,932,flye
MRSA_r10,arlS,arlS,1,1,451,451,flye
MRSA_r10,arlR,arlR,1,1,219,219,flye
MRSA_r10,murG,murG,1,1,356,356,flye
MRSA_r10,crr,crr,1,1,166,166,flye
MRSA_r10,msrB,msrB,1,1,142,142,flye
MRSA_r10,msrA2,msrA2,1,1,177,177,flye
MRSA_r10,folA,folA,1,1,159,159,flye
MRSA_r10,thyA,thyA,1,1,318,318,flye
MRSA_r10,rnhA,rnhA,1,1,133,133,flye
MRSA_r10,ebh,ebh,1,1,10746,10746,flye
MRSA_r10,norB_3,norB_1,0,1,463,463,flye
MRSA_r10,steT,steT,1,1,440,440,flye
MRSA_r10,tdcB,tdcB,1,1,346,346,flye
MRSA_r10,ald1,ald1,1,1,372,372,flye
MRSA_r10,ypcP,ypcP,1,1,292,292,flye
MRSA_r10,der_1,der_2,0,1,1146,1146,flye
MRSA_r10,rlmL,rlmL,1,1,381,381,flye
MRSA_r10,gpsB,gpsB,1,1,114,114,flye
MRSA_r10,recU,recU,1,1,208,208,flye
MRSA_r10,ponA,ponA,1,1,716,716,flye
MRSA_r10,nth_2,nth_1,0,1,219,219,flye
MRSA_r10,dnaD,dnaD,1,1,228,228,flye
MRSA_r10,asnS,asnS,1,1,430,430,flye
MRSA_r10,dinG_1,dinG_1,1,1,897,897,flye
MRSA_r10,birA,birA,1,1,323,323,flye
MRSA_r10,cca,cca,1,1,400,400,flye
MRSA_r10,bshA,bshA,1,1,380,380,flye
MRSA_r10,ypjD,,0,0,105,0,flye
MRSA_r10,bepA,bepA,1,1,414,414,flye
MRSA_r10,aroA_1,aroA_2,0,1,432,432,flye
MRSA_r10,aroB,aroB,1,1,354,354,flye
MRSA_r10,aroC,,0,0,388,0,flye
MRSA_r10,ndk,ndk,1,1,149,149,flye
MRSA_r10,hepT,hepT,1,1,319,319,flye
MRSA_r10,menG,menG,1,1,241,241,flye
MRSA_r10,hup,hup,1,1,90,90,flye
MRSA_r10,gpsA,gpsA,1,1,332,332,flye
MRSA_r10,der_2,der_1,0,1,436,436,flye
MRSA_r10,rpsA,rpsA,1,1,391,391,flye
MRSA_r10,cmk,cmk,1,1,219,219,flye
MRSA_r10,ansA,ansA,1,1,322,322,flye
MRSA_r10,ebpS,ebpS,1,1,486,486,flye
MRSA_r10,recQ_2,recQ_1,0,1,459,459,flye
MRSA_r10,ribU,ribU,1,1,181,181,flye
MRSA_r10,smc_2,,0,0,2066,0,flye
MRSA_r10,clpP_2,clpP_1,0,1,257,257,flye
MRSA_r10,xerC_5,xerC_3,0,1,401,401,flye
MRSA_r10,srrB,,0,0,583,0,flye
MRSA_r10,srrA,srrA,1,1,241,241,flye
MRSA_r10,rluB,rluB,1,1,245,245,flye
MRSA_r10,scpB,scpB,1,1,180,180,flye
MRSA_r10,scpA,scpA,1,1,251,251,flye
MRSA_r10,xerD_2,xerD_1,0,1,295,295,flye
MRSA_r10,fur,fur,1,1,149,149,flye
MRSA_r10,nudF,nudF,1,1,180,180,flye
MRSA_r10,yajO,yajO,1,1,302,302,flye
MRSA_r10,proC,proC,1,1,271,271,flye
MRSA_r10,rnz,rnz,1,1,306,306,flye
MRSA_r10,zwf,zwf,1,1,494,494,flye
MRSA_r10,malL,malL,1,1,549,549,flye
MRSA_r10,malR,malR,1,1,339,339,flye
MRSA_r10,psuK,psuK,1,1,299,299,flye
MRSA_r10,entS,entS,1,1,369,369,flye
MRSA_r10,gnd,gnd,1,1,468,468,flye
MRSA_r10,pepT_2,pepT_1,0,1,377,377,flye
MRSA_r10,pdhC_2,pdhC_1,0,1,424,424,flye
MRSA_r10,bfmBAB,bfmBAB,1,1,327,327,flye
MRSA_r10,bfmBAA,bfmBAA,1,1,330,330,flye
MRSA_r10,recN,recN,1,1,559,559,flye
MRSA_r10,argR_1,argR_1,1,1,150,150,flye
MRSA_r10,xseB,xseB,1,1,76,76,flye
MRSA_r10,xseA,xseA,1,1,445,445,flye
MRSA_r10,nusB,nusB,1,1,129,129,flye
MRSA_r10,cfiB,cfiB,1,1,451,451,flye
MRSA_r10,accB_1,accB_2,0,1,154,154,flye
MRSA_r10,efp,efp,1,1,185,185,flye
MRSA_r10,ypdF,ypdF,1,1,353,353,flye
MRSA_r10,lipM,lipM,1,1,276,276,flye
MRSA_r10,yibN,yibN,1,1,128,128,flye
MRSA_r10,gcvPB,gcvPB,1,1,490,490,flye
MRSA_r10,gcvPA,gcvPA,1,1,448,448,flye
MRSA_r10,gcvT,gcvT,1,1,363,363,flye
MRSA_r10,aroK,aroK,1,1,174,174,flye
MRSA_r10,comGC,comGC,1,1,103,103,flye
MRSA_r10,comGA,comGA,1,1,324,324,flye
MRSA_r10,glcK,glcK,1,1,328,328,flye
MRSA_r10,gluP,gluP,1,1,487,487,flye
MRSA_r10,yqgN,yqgN,1,1,197,197,flye
MRSA_r10,rpmG2_2,rpmG2_1,0,1,49,49,flye
MRSA_r10,pbpH,pbpH,1,1,691,691,flye
MRSA_r10,sodA,sodA,1,1,199,199,flye
MRSA_r10,zur,zur,1,1,136,136,flye
MRSA_r10,znuB,znuB,1,1,290,290,flye
MRSA_r10,btuD_4,btuD_1,0,1,261,261,flye
MRSA_r10,nfo,nfo,1,1,296,296,flye
MRSA_r10,cshB,cshB,1,1,448,448,flye
MRSA_r10,trmK,trmK,1,1,225,225,flye
MRSA_r10,sigA,sigA,1,1,368,368,flye
MRSA_r10,dnaG,dnaG,1,1,599,599,flye
MRSA_r10,yqfL,yqfL,1,1,272,272,flye
MRSA_r10,ccpN,ccpN,1,1,179,179,flye
MRSA_r10,glyQS,glyQS,1,1,463,463,flye
MRSA_r10,recO,recO,1,1,248,248,flye
MRSA_r10,era,era,1,1,299,299,flye
MRSA_r10,cdd,cdd,1,1,134,134,flye
MRSA_r10,dgkA,dgkA,1,1,114,114,flye
MRSA_r10,ybeY,ybeY,1,1,155,155,flye
MRSA_r10,rpsU,rpsU,1,1,58,58,flye
MRSA_r10,mtaB,mtaB,1,1,448,448,flye
MRSA_r10,rsmE,rsmE,1,1,250,250,flye
MRSA_r10,prmA,prmA,1,1,312,312,flye
MRSA_r10,dnaJ,dnaJ,1,1,379,379,flye
MRSA_r10,dnaK,dnaK,1,1,610,610,flye
MRSA_r10,grpE,grpE,1,1,208,208,flye
MRSA_r10,hrcA,,0,0,325,0,flye
MRSA_r10,hemW,hemW,1,1,385,385,flye
MRSA_r10,lepA,lepA,1,1,607,607,flye
MRSA_r10,rpsT,rpsT,1,1,83,83,flye
MRSA_r10,yqeN,yqeN,1,1,324,324,flye
MRSA_r10,comEC,,0,0,733,0,flye
MRSA_r10,tadA_2,tadA_1,0,1,143,143,flye
MRSA_r10,comEA,comEA,1,1,225,225,flye
MRSA_r10,tam,tam,1,1,238,238,flye
MRSA_r10,rsfS,rsfS,1,1,117,117,flye
MRSA_r10,nadD,nadD,1,1,189,189,flye
MRSA_r10,yhbY,yhbY,1,1,96,96,flye
MRSA_r10,aroE,aroE,1,1,268,268,flye
MRSA_r10,yqeH,yqeH,1,1,366,366,flye
MRSA_r10,mtnN,mtnN,1,1,228,228,flye
MRSA_r10,entA_1,entA_3,0,1,62,62,flye
MRSA_r10,entA_2,entA_2,1,1,167,167,flye
MRSA_r10,mntH_2,mntH_1,0,1,410,410,flye
MRSA_r10,pxpA,pxpA,1,1,250,250,flye
MRSA_r10,accC,accC,1,1,453,453,flye
MRSA_r10,accB_2,accB_1,0,1,149,149,flye
MRSA_r10,pxpC_2,pxpC_1,0,1,336,336,flye
MRSA_r10,pxpB_2,pxpB_1,0,1,244,244,flye
MRSA_r10,greA,greA,1,1,158,158,flye
MRSA_r10,udk,udk,1,1,207,207,flye
MRSA_r10,rlhA,rlhA,1,1,307,307,flye
MRSA_r10,trmR,trmR,1,1,212,212,flye
MRSA_r10,yrrK,yrrK,1,1,142,142,flye
MRSA_r10,alaS,alaS,1,1,877,877,flye
MRSA_r10,recD2,recD2,1,1,825,825,flye
MRSA_r10,yrrB,yrrB,1,1,222,222,flye
MRSA_r10,mnmA,mnmA,1,1,372,372,flye
MRSA_r10,iscS_1,iscS_2,0,1,380,380,flye
MRSA_r10,cymR,cymR,1,1,140,140,flye
MRSA_r10,aspS,aspS,1,1,588,588,flye
MRSA_r10,hisS,hisS,1,1,420,420,flye
MRSA_r10,dtd,dtd,1,1,150,150,flye
MRSA_r10,relA,relA,1,1,736,736,flye
MRSA_r10,apt,apt,1,1,172,172,flye
MRSA_r10,secDF,secDF,1,1,759,759,flye
MRSA_r10,yajC,yajC,1,1,86,86,flye
MRSA_r10,tgt,tgt,1,1,379,379,flye
MRSA_r10,queA,queA,1,1,341,341,flye
MRSA_r10,ruvB_2,ruvB_1,0,1,334,334,flye
MRSA_r10,ruvA,ruvA,1,1,200,200,flye
MRSA_r10,obg,obg,1,1,430,430,flye
MRSA_r10,rpmA,rpmA,1,1,94,94,flye
MRSA_r10,rplU,rplU,1,1,102,102,flye
MRSA_r10,mreC,mreC,1,1,280,280,flye
MRSA_r10,comC,comC,1,1,235,235,flye
MRSA_r10,fpgS,fpgS,1,1,423,423,flye
MRSA_r10,valS,valS,1,1,876,876,flye
MRSA_r10,tag,tag,1,1,186,186,flye
MRSA_r10,hemL1,hemL1,1,1,428,428,flye
MRSA_r10,hemB,hemB,1,1,324,324,flye
MRSA_r10,hemC,hemC,1,1,308,308,flye
MRSA_r10,hemA,hemA,1,1,448,448,flye
MRSA_r10,engB,engB,1,1,196,196,flye
MRSA_r10,clpX,clpX,1,1,420,420,flye
MRSA_r10,tig,tig,1,1,433,433,flye
MRSA_r10,rplT,rplT,1,1,118,118,flye
MRSA_r10,rpmI,rpmI,1,1,66,66,flye
MRSA_r10,infC,infC,1,1,186,186,flye
MRSA_r10,lysP_2,lysP_1,0,1,497,497,flye
MRSA_r10,thrS,thrS,1,1,645,645,flye
MRSA_r10,dnaI,dnaI,1,1,306,306,flye
MRSA_r10,dnaB,dnaB,1,1,466,466,flye
MRSA_r10,nrdR,nrdR,1,1,156,156,flye
MRSA_r10,gapA2,gapA2,1,1,341,341,flye
MRSA_r10,coaE,coaE,1,1,207,207,flye
MRSA_r10,mutM,mutM,1,1,290,290,flye
MRSA_r10,polA,polA,1,1,876,876,flye
MRSA_r10,sasA,sasA,1,1,554,554,flye
MRSA_r10,phoP,phoP,1,1,233,233,flye
MRSA_r10,icd,icd,1,1,422,422,flye
MRSA_r10,citZ,citZ,1,1,373,373,flye
MRSA_r10,cycA_1,cycA_1,1,1,453,453,flye
MRSA_r10,pyk,pyk,1,1,585,585,flye
MRSA_r10,pfkA,pfkA,1,1,322,322,flye
MRSA_r10,accA,accA,1,1,314,314,flye
MRSA_r10,accD,accD,1,1,285,285,flye
MRSA_r10,dnaE,dnaE,1,1,1065,1065,flye
MRSA_r10,nrnA,nrnA,1,1,313,313,flye
MRSA_r10,IMPDH,IMPDH,1,1,432,432,flye
MRSA_r10,ald2,ald2,1,1,372,372,flye
MRSA_r10,ackA,ackA,1,1,400,400,flye
MRSA_r10,tpx,tpx,1,1,164,164,flye
MRSA_r10,yfcA,yfcA,1,1,256,256,flye
MRSA_r10,thiI,thiI,1,1,407,407,flye
MRSA_r10,iscS_2,iscS_1,0,1,388,388,flye
MRSA_r10,ezrA,ezrA,1,1,564,564,flye
MRSA_r10,msrC,msrC,1,1,154,154,flye
MRSA_r10,rpsD,rpsD,1,1,200,200,flye
MRSA_r10,glpQ_2,glpQ_1,0,1,247,247,flye
MRSA_r10,serA,serA,1,1,534,534,flye
MRSA_r10,nagP,nagP,1,1,488,488,flye
MRSA_r10,plsC,plsC,1,1,205,205,flye
MRSA_r10,tyrS,tyrS,1,1,420,420,flye
MRSA_r10,mrcA,mrcA,1,1,301,301,flye
MRSA_r10,isdH_1,isdH_2,0,1,535,535,flye
MRSA_r10,isdH_2,isdH_1,0,1,278,278,flye
MRSA_r10,fhs,fhs,1,1,555,555,flye
MRSA_r10,acsA_1,acsA_1,1,1,568,568,flye
MRSA_r10,acuA,acuA,1,1,210,210,flye
MRSA_r10,acuC,acuC,1,1,389,389,flye
MRSA_r10,ccpA,ccpA,1,1,329,329,flye
MRSA_r10,aroA_2,aroA_1,0,1,363,363,flye
MRSA_r10,murC,murC,1,1,437,437,flye
MRSA_r10,ytpP,ytpP,1,1,103,103,flye
MRSA_r10,pepA_2,pepA_1,0,1,358,358,flye
MRSA_r10,ytnP,ytnP,1,1,280,280,flye
MRSA_r10,hin_2,hin_1,0,1,197,197,flye
MRSA_r10,blaI,blaI,1,1,126,126,flye
MRSA_r10,blaR1,blaR1,1,1,585,585,flye
MRSA_r10,blaZ,blaZ,1,1,281,281,flye
MRSA_r10,trmB,trmB,1,1,214,214,flye
MRSA_r10,dat,dat,1,1,282,282,flye
MRSA_r10,rsuA,rsuA,1,1,231,231,flye
MRSA_r10,murJ,murJ,1,1,553,553,flye
MRSA_r10,leuS,leuS,1,1,805,805,flye
MRSA_r10,mdtH,mdtH,1,1,393,393,flye
MRSA_r10,rsmH_2,rsmH_1,0,1,187,187,flye
MRSA_r10,rot,rot,1,1,133,133,flye
MRSA_r10,ytpA,ytpA,1,1,275,275,flye
MRSA_r10,putB,putB,1,1,333,333,flye
MRSA_r10,ribH,ribH,1,1,154,154,flye
MRSA_r10,ribBA,ribBA,1,1,393,393,flye
MRSA_r10,ribE,ribE,1,1,210,210,flye
MRSA_r10,ribD,ribD,1,1,347,347,flye
MRSA_r10,arsB_2,arsB_1,0,1,430,430,flye
MRSA_r10,atl_2,atl_1,0,1,284,284,flye
MRSA_r10,sigS,sigS,1,1,156,156,flye
MRSA_r10,tal,tal,1,1,237,237,flye
MRSA_r10,crcB_1,crcB_2,0,1,121,121,flye
MRSA_r10,crcB_2,crcB_1,0,1,117,117,flye
MRSA_r10,yvgN,yvgN,1,1,277,277,flye
MRSA_r10,metK,metK,1,1,397,397,flye
MRSA_r10,pckA,pckA,1,1,530,530,flye
MRSA_r10,ytkD,ytkD,1,1,159,159,flye
MRSA_r10,menC,menC,1,1,333,333,flye
MRSA_r10,menE_2,menE_1,0,1,492,492,flye
MRSA_r10,hylB,hylB,1,1,806,806,flye
MRSA_r10,prmC_1,prmC_1,1,1,518,518,flye
MRSA_r10,splF_1,splF_2,0,1,183,183,flye
MRSA_r10,splF_2,splF_1,0,1,41,41,flye
MRSA_r10,splE_1,splE_3,0,1,238,238,flye
MRSA_r10,splB_1,splB_2,0,1,74,74,flye
MRSA_r10,splE_2,splE_2,1,1,113,113,flye
MRSA_r10,splE_3,splE_1,0,1,238,238,flye
MRSA_r10,splC,splC,1,1,239,239,flye
MRSA_r10,splB_2,splB_1,0,1,54,54,flye
MRSA_r10,entG,entG,1,1,258,258,flye
MRSA_r10,entA_3,entA_1,0,1,251,251,flye
MRSA_r10,entB,entB,1,1,261,261,flye
MRSA_r10,entE,entE,1,1,254,254,flye
MRSA_r10,ydeN,ydeN,1,1,184,184,flye
MRSA_r10,hemY,,0,0,466,0,flye
MRSA_r10,hemH,hemH,1,1,307,307,flye
MRSA_r10,hemE,hemE,1,1,345,345,flye
MRSA_r10,traP,traP,1,1,167,167,flye
MRSA_r10,ecsA,ecsA,1,1,246,246,flye
MRSA_r10,hit,hit,1,1,140,140,flye
MRSA_r10,prsA,prsA,1,1,320,320,flye
MRSA_r10,yhaM,yhaM,1,1,313,313,flye
MRSA_r10,cpdA_1,cpdA_1,1,1,398,398,flye
MRSA_r10,liaR,liaR,1,1,207,207,flye
MRSA_r10,rluD_2,rluD_1,0,1,273,273,flye
MRSA_r10,fumC,fumC,1,1,461,461,flye
MRSA_r10,nagB_2,nagB_1,0,1,199,199,flye
MRSA_r10,trmL,trmL,1,1,156,156,flye
MRSA_r10,queG,queG,1,1,375,375,flye
MRSA_r10,tcyC_1,tcyC_1,1,1,242,242,flye
MRSA_r10,mltF,mltF,1,1,485,485,flye
MRSA_r10,perR,perR,1,1,148,148,flye
MRSA_r10,ghrB_2,ghrB_1,0,1,319,319,flye
MRSA_r10,bcp,bcp,1,1,151,151,flye
MRSA_r10,hemL2,hemL2,1,1,429,429,flye
MRSA_r10,mutY,mutY,1,1,345,345,flye
MRSA_r10,yfhP,yfhP,1,1,325,325,flye
MRSA_r10,tagH_2,tagH_1,0,1,505,505,flye
MRSA_r10,yfhH,yfhH,1,1,104,104,flye
MRSA_r10,recX,recX,1,1,272,272,flye
MRSA_r10,mgt,mgt,1,1,269,269,flye
MRSA_r10,pepS,pepS,1,1,415,415,flye
MRSA_r10,ptpA,ptpA,1,1,154,154,flye
MRSA_r10,vraR,vraR,1,1,209,209,flye
MRSA_r10,vraS,vraS,1,1,347,347,flye
MRSA_r10,map_2,map_1,0,1,252,252,flye
MRSA_r10,gatD_2,gatD_1,0,1,243,243,flye
MRSA_r10,murT,murT,1,1,437,437,flye
MRSA_r10,ftnA,ftnA,1,1,166,166,flye
MRSA_r10,dinB,dinB,1,1,356,356,flye
MRSA_r10,rlmCD,rlmCD,1,1,453,453,flye
MRSA_r10,dagK,dagK,1,1,315,315,flye
MRSA_r10,gatB_2,gatB_2,1,1,475,475,flye
MRSA_r10,gatA_2,gatA_2,1,1,485,485,flye
MRSA_r10,gatC_2,gatC_2,1,1,100,100,flye
MRSA_r10,putP,putP,1,1,512,512,flye
MRSA_r10,ligA,ligA,1,1,667,667,flye
MRSA_r10,pcrA,pcrA,1,1,730,730,flye
MRSA_r10,pcrB,pcrB,1,1,230,230,flye
MRSA_r10,purB,purB,1,1,431,431,flye
MRSA_r10,sspP,sspP,1,1,388,388,flye
MRSA_r10,nadE,nadE,1,1,273,273,flye
MRSA_r10,pncB2,pncB2,1,1,489,489,flye
MRSA_r10,nos,nos,1,1,358,358,flye
MRSA_r10,pheA,pheA,1,1,264,264,flye
MRSA_r10,sdcS,sdcS,1,1,520,520,flye
MRSA_r10,rutB,rutB,1,1,186,186,flye
MRSA_r10,ppaC,ppaC,1,1,309,309,flye
MRSA_r10,aldH1,aldH1,1,1,459,459,flye
MRSA_r10,bcrA_1,bcrA_2,0,1,290,290,flye
MRSA_r10,btuD_5,btuD_5,1,1,298,298,flye
MRSA_r10,ytrA,ytrA,1,1,126,126,flye
MRSA_r10,hisC_2,hisC_3,0,1,428,428,flye
MRSA_r10,map_3,map_4,0,1,689,689,flye
MRSA_r10,hlb_1,hlb_2,0,1,66,66,flye
MRSA_r10,scn_3,scn_3,1,1,116,116,flye
MRSA_r10,chp,chp,1,1,149,149,flye
MRSA_r10,sak,sak,1,1,163,163,flye
MRSA_r10,entA_4,entA_4,1,1,257,257,flye
MRSA_r10,clpP_3,clpP_3,1,1,245,245,flye
MRSA_r10,dut,dut,1,1,180,180,flye
MRSA_r10,ssbA_2,ssbA_3,0,1,156,156,flye
MRSA_r10,lexA_2,,0,0,237,0,flye
MRSA_r10,dinG_2,dinG_2,1,1,310,310,flye
MRSA_r10,xerC_8,xerC_8,1,1,345,345,flye
MRSA_r10,hlb_2,hlb_1,0,1,231,231,flye
MRSA_r10,dapE,dapE,1,1,407,407,flye
MRSA_r10,ktrB_2,ktrB_2,1,1,435,435,flye
MRSA_r10,groL,groL,1,1,538,538,flye
MRSA_r10,groS,groS,1,1,94,94,flye
MRSA_r10,MroQ,MroQ,1,1,247,247,flye
MRSA_r10,yafV,yafV,1,1,261,261,flye
MRSA_r10,agrB,agrB,1,1,205,205,flye
MRSA_r10,agrA,agrA,1,1,238,238,flye
MRSA_r10,scrK,scrK,1,1,319,319,flye
MRSA_r10,scrB,scrB,1,1,497,497,flye
MRSA_r10,treR_2,treR_2,1,1,316,316,flye
MRSA_r10,nrgA,nrgA,1,1,416,416,flye
MRSA_r10,yeeD,yeeD,1,1,74,74,flye
MRSA_r10,rex,rex,1,1,211,211,flye
MRSA_r10,yheS,yheS,1,1,642,642,flye
MRSA_r10,mutS_2,mutS_2,1,1,536,536,flye
MRSA_r10,tsaD,tsaD,1,1,341,341,flye
MRSA_r10,rimI,rimI,1,1,154,154,flye
MRSA_r10,tsaB,tsaB,1,1,220,220,flye
MRSA_r10,tsaE,tsaE,1,1,164,164,flye
MRSA_r10,ilvD,ilvD,1,1,562,562,flye
MRSA_r10,ilvB,ilvB,1,1,589,589,flye
MRSA_r10,ilvC,ilvC,1,1,334,334,flye
MRSA_r10,leuA_2,leuA_2,1,1,509,509,flye
MRSA_r10,leuB,leuB,1,1,348,348,flye
MRSA_r10,leuC,leuC,1,1,455,455,flye
MRSA_r10,leuD,leuD,1,1,190,190,flye
MRSA_r10,ilvA,ilvA,1,1,422,422,flye
MRSA_r10,yhgF,yhgF,1,1,712,712,flye
MRSA_r10,sigB,sigB,1,1,256,256,flye
MRSA_r10,rsbW,rsbW,1,1,159,159,flye
MRSA_r10,rsbV,rsbV,1,1,108,108,flye
MRSA_r10,rsbU,rsbU,1,1,333,333,flye
MRSA_r10,mazF,mazF,1,1,120,120,flye
MRSA_r10,mazE,mazE,1,1,56,56,flye
MRSA_r10,alr1_2,alr1_2,1,1,382,382,flye
MRSA_r10,acpS,acpS,1,1,119,119,flye
MRSA_r10,kdpC_3,kdpC_3,1,1,186,186,flye
MRSA_r10,kdpB_2,kdpB_2,1,1,675,675,flye
MRSA_r10,kdpA_2,kdpA_2,1,1,558,558,flye
MRSA_r10,kdpD_2,kdpD_2,1,1,885,885,flye
MRSA_r10,kdpE_2,kdpE_2,1,1,231,231,flye
MRSA_r10,cshA,cshA,1,1,506,506,flye
MRSA_r10,murF,murF,1,1,452,452,flye
MRSA_r10,ddl,ddl,1,1,356,356,flye
MRSA_r10,rodA,rodA,1,1,400,400,flye
MRSA_r10,cls_2,cls_2,1,1,494,494,flye
MRSA_r10,yedJ,yedJ,1,1,215,215,flye
MRSA_r10,yidC,yidC,1,1,290,290,flye
MRSA_r10,thiE,thiE,1,1,213,213,flye
MRSA_r10,thiM,thiM,1,1,263,263,flye
MRSA_r10,thiD,thiD,1,1,276,276,flye
MRSA_r10,tenA,tenA,1,1,229,229,flye
MRSA_r10,sceD,sceD,1,1,231,231,flye
MRSA_r10,ssbA_3,ssbA_2,0,1,131,131,flye
MRSA_r10,fabZ,fabZ,1,1,146,146,flye
MRSA_r10,murA1,murA1,1,1,421,421,flye
MRSA_r10,atpC,atpC,1,1,134,134,flye
MRSA_r10,atpD,atpD,1,1,470,470,flye
MRSA_r10,atpG,atpG,1,1,288,288,flye
MRSA_r10,atpA,atpA,1,1,502,502,flye
MRSA_r10,atpH,atpH,1,1,179,179,flye
MRSA_r10,atpF,atpF,1,1,173,173,flye
MRSA_r10,atpE,atpE,1,1,70,70,flye
MRSA_r10,atpB,atpB,1,1,242,242,flye
MRSA_r10,mnaA_2,mnaA_2,1,1,376,376,flye
MRSA_r10,upp,upp,1,1,209,209,flye
MRSA_r10,glyA,glyA,1,1,412,412,flye
MRSA_r10,ptpB,ptpB,1,1,139,139,flye
MRSA_r10,ywlC,ywlC,1,1,348,348,flye
MRSA_r10,prmC_2,prmC_2,1,1,278,278,flye
MRSA_r10,prfA,prfA,1,1,358,358,flye
MRSA_r10,tdk,tdk,1,1,199,199,flye
MRSA_r10,rpmE2,rpmE2,1,1,84,84,flye
MRSA_r10,rho,rho,1,1,438,438,flye
MRSA_r10,yodB,yodB,1,1,111,111,flye
MRSA_r10,murA2,murA2,1,1,419,419,flye
MRSA_r10,fba,fba,1,1,286,286,flye
MRSA_r10,pyrG,pyrG,1,1,536,536,flye
MRSA_r10,rpoE,rpoE,1,1,176,176,flye
MRSA_r10,coaW,coaW,1,1,267,267,flye
MRSA_r10,abgB,abgB,1,1,394,394,flye
MRSA_r10,luxS,luxS,1,1,156,156,flye
MRSA_r10,pdp,pdp,1,1,433,433,flye
MRSA_r10,deoC2,deoC2,1,1,220,220,flye
MRSA_r10,deoD1,deoD1,1,1,236,236,flye
MRSA_r10,dps,dps,1,1,147,147,flye
MRSA_r10,gmuF,gmuF,1,1,312,312,flye
MRSA_r10,yhfK,yhfK,1,1,221,221,flye
MRSA_r10,czrA,czrA,1,1,106,106,flye
MRSA_r10,czcD_2,czcD_2,1,1,326,326,flye
MRSA_r10,ywtE_2,ywtE_2,1,1,285,285,flye
MRSA_r10,ylmA,ylmA,1,1,260,260,flye
MRSA_r10,glmS,glmS,1,1,601,601,flye
MRSA_r10,mtlA,mtlA,1,1,512,512,flye
MRSA_r10,mtlF,mtlF,1,1,144,144,flye
MRSA_r10,mtlD,mtlD,1,1,368,368,flye
MRSA_r10,glmM,glmM,1,1,451,451,flye
MRSA_r10,cdaR,cdaR,1,1,310,310,flye
MRSA_r10,cdaA,cdaA,1,1,269,269,flye
MRSA_r10,arg,arg,1,1,302,302,flye
MRSA_r10,salA,salA,1,1,354,354,flye
MRSA_r10,emrY,emrY,1,1,362,362,flye
MRSA_r10,ribZ,ribZ,1,1,131,131,flye
MRSA_r10,sepA,sepA,1,1,155,155,flye
MRSA_r10,sdrM,sdrM,1,1,447,447,flye
MRSA_r10,ydjM,ydjM,1,1,171,171,flye
MRSA_r10,fecD,fecD,1,1,322,322,flye
MRSA_r10,yfiZ_2,yfiZ_2,1,1,343,343,flye
MRSA_r10,yfmC_2,yfmC_2,1,1,327,327,flye
MRSA_r10,orr,orr,1,1,356,356,flye
MRSA_r10,opuD_2,opuD_3,0,1,520,520,flye
MRSA_r10,yfmJ,yfmJ,1,1,334,334,flye
MRSA_r10,lacG,lacG,1,1,470,470,flye
MRSA_r10,lacE,lacE,1,1,570,570,flye
MRSA_r10,lacF,lacF,1,1,103,103,flye
MRSA_r10,lacD,lacD,1,1,326,326,flye
MRSA_r10,lacC_2,lacC_2,1,1,310,310,flye
MRSA_r10,lacB,lacB,1,1,171,171,flye
MRSA_r10,lacA,lacA,1,1,142,142,flye
MRSA_r10,lacR,lacR,1,1,251,251,flye
MRSA_r10,cobB,cobB,1,1,246,246,flye
MRSA_r10,adhR,adhR,1,1,138,138,flye
MRSA_r10,map_4,map_3,0,1,141,141,flye
MRSA_r10,aldC_1,aldC_2,0,1,234,234,flye
MRSA_r10,alsS,alsS,1,1,554,554,flye
MRSA_r10,rpsI,rpsI,1,1,132,132,flye
MRSA_r10,rplM,rplM,1,1,145,145,flye
MRSA_r10,truA,truA,1,1,264,264,flye
MRSA_r10,ecfT_2,ecfT_2,1,1,268,268,flye
MRSA_r10,ecfA2,ecfA2,1,1,286,286,flye
MRSA_r10,ecfA1,ecfA1,1,1,269,269,flye
MRSA_r10,rplQ,rplQ,1,1,122,122,flye
MRSA_r10,rpoA,rpoA,1,1,314,314,flye
MRSA_r10,rpsK,rpsK,1,1,129,129,flye
MRSA_r10,rpsM,rpsM,1,1,121,121,flye
MRSA_r10,rpmJ,rpmJ,1,1,37,37,flye
MRSA_r10,infA,infA,1,1,72,72,flye
MRSA_r10,adk,adk,1,1,215,215,flye
MRSA_r10,secY_1,secY_2,0,1,430,430,flye
MRSA_r10,rplO,rplO,1,1,146,146,flye
MRSA_r10,rpmD,rpmD,1,1,59,59,flye
MRSA_r10,rpsE,rpsE,1,1,166,166,flye
MRSA_r10,rplR,rplR,1,1,119,119,flye
MRSA_r10,rplF,rplF,1,1,178,178,flye
MRSA_r10,rpsH,rpsH,1,1,132,132,flye
MRSA_r10,rpsZ,rpsZ,1,1,61,61,flye
MRSA_r10,rplE,rplE,1,1,179,179,flye
MRSA_r10,rplX,rplX,1,1,105,105,flye
MRSA_r10,rplN,rplN,1,1,122,122,flye
MRSA_r10,rpsQ,rpsQ,1,1,87,87,flye
MRSA_r10,rpmC,rpmC,1,1,69,69,flye
MRSA_r10,rplP,rplP,1,1,144,144,flye
MRSA_r10,rpsC,rpsC,1,1,217,217,flye
MRSA_r10,rplV,rplV,1,1,117,117,flye
MRSA_r10,rpsS,rpsS,1,1,92,92,flye
MRSA_r10,rplB,rplB,1,1,277,277,flye
MRSA_r10,rplW,rplW,1,1,91,91,flye
MRSA_r10,rplD,rplD,1,1,207,207,flye
MRSA_r10,rplC,rplC,1,1,220,220,flye
MRSA_r10,rpsJ,rpsJ,1,1,102,102,flye
MRSA_r10,pbuG,pbuG,1,1,444,444,flye
MRSA_r10,topB,topB,1,1,711,711,flye
MRSA_r10,glcU_2,glcU_2,1,1,287,287,flye
MRSA_r10,swrC,swrC,1,1,1055,1055,flye
MRSA_r10,femX,femX,1,1,421,421,flye
MRSA_r10,yfcJ,yfcJ,1,1,403,403,flye
MRSA_r10,sarV,sarV,1,1,116,116,flye
MRSA_r10,moaA,,0,0,340,0,flye
MRSA_r10,mobA,mobA,1,1,199,199,flye
MRSA_r10,moaD,moaD,1,1,77,77,flye
MRSA_r10,moaE,moaE,1,1,148,148,flye
MRSA_r10,moeA,moeA,1,1,419,419,flye
MRSA_r10,moaC,moaC,1,1,164,164,flye
MRSA_r10,moaB,moaB,1,1,168,168,flye
MRSA_r10,cysA,cysA,1,1,201,201,flye
MRSA_r10,modB,modB,1,1,223,223,flye
MRSA_r10,modA,modA,1,1,260,260,flye
MRSA_r10,fdhD,fdhD,1,1,265,265,flye
MRSA_r10,bioY,bioY,1,1,184,184,flye
MRSA_r10,rihB,rihB,1,1,313,313,flye
MRSA_r10,fhuD,fhuD,1,1,302,302,flye
MRSA_r10,ydbM,ydbM,1,1,390,390,flye
MRSA_r10,ureA,ureA,1,1,100,100,flye
MRSA_r10,ureB,ureB,1,1,136,136,flye
MRSA_r10,ureC,ureC,1,1,571,571,flye
MRSA_r10,ureE,ureE,1,1,150,150,flye
MRSA_r10,ureF,ureF,1,1,229,229,flye
MRSA_r10,ureG,ureG,1,1,204,204,flye
MRSA_r10,ureD1,ureD1,1,1,278,278,flye
MRSA_r10,sarR,sarR,1,1,115,115,flye
MRSA_r10,rhaS_2,rhaS_2,1,1,651,651,flye
MRSA_r10,ssaA2,ssaA2,1,1,269,269,flye
MRSA_r10,mleN_1,mleN_2,0,1,465,465,flye
MRSA_r10,odh,odh,1,1,360,360,flye
MRSA_r10,auaG,auaG,1,1,374,374,flye
MRSA_r10,atl_3,atl_3,1,1,258,258,flye
MRSA_r10,tagU_2,tagU_2,1,1,315,315,flye
MRSA_r10,cysQ,cysQ,1,1,265,265,flye
MRSA_r10,ybbH_3,ybbH_3,1,1,290,290,flye
MRSA_r10,yifK,yifK,1,1,459,459,flye
MRSA_r10,panS_1,panS_2,0,1,113,113,flye
MRSA_r10,panS_2,panS_1,0,1,178,178,flye
MRSA_r10,malP,malP,1,1,534,534,flye
MRSA_r10,glvR,glvR,1,1,254,254,flye
MRSA_r10,mleN_2,mleN_1,0,1,436,436,flye
MRSA_r10,yghA,yghA,1,1,293,293,flye
MRSA_r10,scmP_4,scmP_4,1,1,302,302,flye
MRSA_r10,hutI,hutI,1,1,412,412,flye
MRSA_r10,hutU,hutU,1,1,553,553,flye
MRSA_r10,hdfR_2,hdfR_2,1,1,294,294,flye
MRSA_r10,fosB,fosB,1,1,139,139,flye
MRSA_r10,hutG,hutG,1,1,311,311,flye
MRSA_r10,lyrA,lyrA,1,1,419,419,flye
MRSA_r10,rpiA,rpiA,1,1,228,228,flye
MRSA_r10,yiiM,yiiM,1,1,217,217,flye
MRSA_r10,mro,mro,1,1,339,339,flye
MRSA_r10,yhaP,yhaP,1,1,410,410,flye
MRSA_r10,lnrL_2,lnrL_3,0,1,299,299,flye
MRSA_r10,gltS,gltS,1,1,402,402,flye
MRSA_r10,fni,fni,1,1,349,349,flye
MRSA_r10,zntB,zntB,1,1,315,315,flye
MRSA_r10,mdtD,mdtD,1,1,645,645,flye
MRSA_r10,aaeA,aaeA,1,1,215,215,flye
MRSA_r10,bcr_1,bcr_2,0,1,402,402,flye
MRSA_r10,tcaA,tcaA,1,1,460,460,flye
MRSA_r10,tcaR,tcaR,1,1,151,151,flye
MRSA_r10,hrtA_2,hrtA_2,1,1,221,221,flye
MRSA_r10,hssR,hssR,1,1,224,224,flye
MRSA_r10,hssS,hssS,1,1,457,457,flye
MRSA_r10,lnrL_3,lnrL_2,0,1,242,242,flye
MRSA_r10,ybhR,ybhR,1,1,360,360,flye
MRSA_r10,mqo1,mqo1,1,1,492,492,flye
MRSA_r10,lctP_2,lctP_2,1,1,532,532,flye
MRSA_r10,paiA,paiA,1,1,171,171,flye
MRSA_r10,yhfP,yhfP,1,1,334,334,flye
MRSA_r10,treP_2,treP_2,1,1,480,480,flye
MRSA_r10,ydaG,ydaG,1,1,140,140,flye
MRSA_r10,gltT,gltT,1,1,425,425,flye
MRSA_r10,sarZ,sarZ,1,1,148,148,flye
MRSA_r10,narT,narT,1,1,389,389,flye
MRSA_r10,mta,mta,1,1,95,95,flye
MRSA_r10,nreC,nreC,1,1,217,217,flye
MRSA_r10,nreB,nreB,1,1,344,344,flye
MRSA_r10,narX,narX,1,1,225,225,flye
MRSA_r10,narH,narH,1,1,519,519,flye
MRSA_r10,narG,narG,1,1,1229,1229,flye
MRSA_r10,cysG,cysG,1,1,325,325,flye
MRSA_r10,nasE,nasE,1,1,104,104,flye
MRSA_r10,nasD,nasD,1,1,801,801,flye
MRSA_r10,sirB,sirB,1,1,250,250,flye
MRSA_r10,ytmI,ytmI,1,1,178,178,flye
MRSA_r10,nirC,nirC,1,1,274,274,flye
MRSA_r10,yoeB,yoeB,1,1,88,88,flye
MRSA_r10,yefM,yefM,1,1,83,83,flye
MRSA_r10,bdbD,bdbD,1,1,199,199,flye
MRSA_r10,femA_3,femA_3,1,1,416,416,flye
MRSA_r10,tcyC_2,tcyC_2,1,1,243,243,flye
MRSA_r10,tcyB,tcyB,1,1,242,242,flye
MRSA_r10,farB_2,farB_2,1,1,479,479,flye
MRSA_r10,gpmA_2,gpmA_2,1,1,228,228,flye
MRSA_r10,mneS,mneS,1,1,288,288,flye
MRSA_r10,sbi,sbi,1,1,437,437,flye
MRSA_r10,hlgA,hlgA,1,1,321,321,flye
MRSA_r10,hlgC,hlgC,1,1,315,315,flye
MRSA_r10,hlgB,hlgB,1,1,325,325,flye
MRSA_r10,bioW,bioW,1,1,230,230,flye
MRSA_r10,bioB,bioB,1,1,335,335,flye
MRSA_r10,bioK,bioK,1,1,452,452,flye
MRSA_r10,bioD,bioD,1,1,228,228,flye
MRSA_r10,garK_2,garK_2,1,1,380,380,flye
MRSA_r10,bcr_2,bcr_1,0,1,403,403,flye
MRSA_r10,cpdA_2,cpdA_2,1,1,268,268,flye
MRSA_r10,cycA_2,cycA_2,1,1,469,469,flye
MRSA_r10,nhaK_2,nhaK_2,1,1,692,692,flye
MRSA_r10,kimA,kimA,1,1,609,609,flye
MRSA_r10,flp,flp,1,1,499,499,flye
MRSA_r10,hldD,hldD,1,1,283,283,flye
MRSA_r10,panE,panE,1,1,311,311,flye
MRSA_r10,norB_4,norB_4,1,1,466,466,flye
MRSA_r10,opuCD,opuCD,1,1,231,231,flye
MRSA_r10,opuCC,opuCC,1,1,313,313,flye
MRSA_r10,opuCB,opuCB,1,1,211,211,flye
MRSA_r10,opuCA,opuCA,1,1,408,408,flye
MRSA_r10,yveA,yveA,1,1,545,545,flye
MRSA_r10,pnbA,pnbA,1,1,450,450,flye
MRSA_r10,pbuE_2,pbuE_2,1,1,395,395,flye
MRSA_r10,fetB,fetB,1,1,258,258,flye
MRSA_r10,fetA,fetA,1,1,220,220,flye
MRSA_r10,ysdC_2,ysdC_2,1,1,358,358,flye
MRSA_r10,yehR,yehR,1,1,151,151,flye
MRSA_r10,cntE,cntE,1,1,397,397,flye
MRSA_r10,cntF,cntF,1,1,249,249,flye
MRSA_r10,cntD,cntD,1,1,271,271,flye
MRSA_r10,cntC,cntC,1,1,289,289,flye
MRSA_r10,cntB,cntB,1,1,311,311,flye
MRSA_r10,cntA,cntA,1,1,532,532,flye
MRSA_r10,cntM,cntM,1,1,433,433,flye
MRSA_r10,cntL,cntL,1,1,272,272,flye
MRSA_r10,cntK,cntK,1,1,273,273,flye
MRSA_r10,bacC,bacC,1,1,272,272,flye
MRSA_r10,abgT,abgT,1,1,512,512,flye
MRSA_r10,uvrB_2,uvrB_2,1,1,953,953,flye
MRSA_r10,nudG,nudG,1,1,130,130,flye
MRSA_r10,pgcA,pgcA,1,1,545,545,flye
MRSA_r10,gtaB,gtaB,1,1,288,288,flye
MRSA_r10,fnbA,fnbA,1,1,965,965,flye
MRSA_r10,gntT,gntT,1,1,452,452,flye
MRSA_r10,xylB,xylB,1,1,517,517,flye
MRSA_r10,ywaC,ywaC,1,1,230,230,flye
MRSA_r10,sauU,sauU,1,1,425,425,flye
MRSA_r10,argO_2,,0,0,205,0,flye
MRSA_r10,norG,norG,1,1,470,470,flye
MRSA_r10,bcrA_2,bcrA_1,0,1,231,231,flye
MRSA_r10,fbp,fbp,1,1,654,654,flye
MRSA_r10,mhqD,mhqD,1,1,197,197,flye
MRSA_r10,mhqA_3,mhqA_3,1,1,322,322,flye
MRSA_r10,mhqR,mhqR,1,1,144,144,flye
MRSA_r10,yjdJ,yjdJ,1,1,94,94,flye
MRSA_r10,catE_2,catE_2,1,1,268,268,flye
MRSA_r10,ldhD_1,ldhD_2,0,1,330,330,flye
MRSA_r10,ybjI,ybjI,1,1,266,266,flye
MRSA_r10,srtA,srtA,1,1,206,206,flye
MRSA_r10,pitA,pitA,1,1,163,163,flye
MRSA_r10,sdhA,sdhA,1,1,299,299,flye
MRSA_r10,yicL,yicL,1,1,307,307,flye
MRSA_r10,glcB,glcB,1,1,707,707,flye
MRSA_r10,ydaP,ydaP,1,1,579,579,flye
MRSA_r10,cidB,cidB,1,1,229,229,flye
MRSA_r10,cidA,cidA,1,1,131,131,flye
MRSA_r10,cynR,cynR,1,1,287,287,flye
MRSA_r10,mvaA,mvaA,1,1,426,426,flye
MRSA_r10,mvaS,mvaS,1,1,388,388,flye
MRSA_r10,ogt,ogt,1,1,173,173,flye
MRSA_r10,clpL,clpL,1,1,701,701,flye
MRSA_r10,feoB,feoB,1,1,664,664,flye
MRSA_r10,ydfJ,ydfJ,1,1,829,829,flye
MRSA_r10,rocA,rocA,1,1,514,514,flye
MRSA_r10,copA,copA,1,1,802,802,flye
MRSA_r10,copZ,copZ,1,1,68,68,flye
MRSA_r10,ldhD_2,ldhD_1,0,1,342,342,flye
MRSA_r10,bacF,bacF,1,1,384,384,flye
MRSA_r10,crtN,crtN,1,1,502,502,flye
MRSA_r10,crtM_1,crtM_2,0,1,169,169,flye
MRSA_r10,crtM_2,crtM_1,0,1,94,94,flye
MRSA_r10,crtQ,,0,0,375,0,flye
MRSA_r10,crtP,crtP,1,1,497,497,flye
MRSA_r10,ssaA,ssaA,1,1,255,255,flye
MRSA_r10,oatA_2,oatA_2,1,1,603,603,flye
MRSA_r10,isaA,isaA,1,1,233,233,flye
MRSA_r10,cpnA,cpnA,1,1,234,234,flye
MRSA_r10,pyrD,pyrD,1,1,354,354,flye
MRSA_r10,queH,queH,1,1,240,240,flye
MRSA_r10,cocE,cocE,1,1,560,560,flye
MRSA_r10,panD,panD,1,1,127,127,flye
MRSA_r10,panC,panC,1,1,283,283,flye
MRSA_r10,panB,panB,1,1,272,272,flye
MRSA_r10,aldC_2,aldC_1,0,1,234,234,flye
MRSA_r10,ldh2,ldh2,1,1,319,319,flye
MRSA_r10,yhdG,yhdG,1,1,482,482,flye
MRSA_r10,fda,fda,1,1,296,296,flye
MRSA_r10,mqo2,mqo2,1,1,498,498,flye
MRSA_r10,acsA_2,acsA_2,1,1,539,539,flye
MRSA_r10,isdG_2,isdG_2,1,1,147,147,flye
MRSA_r10,betA,betA,1,1,569,569,flye
MRSA_r10,gbsA,gbsA,1,1,496,496,flye
MRSA_r10,opcR,opcR,1,1,187,187,flye
MRSA_r10,opuD_3,opuD_2,0,1,540,540,flye
MRSA_r10,nrdD,nrdD,1,1,616,616,flye
MRSA_r10,citN,citN,1,1,456,456,flye
MRSA_r10,sirC,sirC,1,1,202,202,flye
MRSA_r10,cysJ,cysJ,1,1,626,626,flye
MRSA_r10,bsaA_2,bsaA_2,1,1,165,165,flye
MRSA_r10,bceB_2,bceB_3,0,1,666,666,flye
MRSA_r10,yxdL,yxdL,1,1,251,251,flye
MRSA_r10,graS_2,graS_2,1,1,295,295,flye
MRSA_r10,graR_2,graR_2,1,1,221,221,flye
MRSA_r10,phoB,phoB,1,1,457,457,flye
MRSA_r10,clfB,clfB,1,1,873,873,flye
MRSA_r10,arcR,arcR,1,1,234,234,flye
MRSA_r10,arcC2,arcC2,1,1,313,313,flye
MRSA_r10,arcD,arcD,1,1,476,476,flye
MRSA_r10,arcB,arcB,1,1,336,336,flye
MRSA_r10,arcA,arcA,1,1,411,411,flye
MRSA_r10,argR_2,argR_2,1,1,149,149,flye
MRSA_r10,aur,aur,1,1,509,509,flye
MRSA_r10,isaB,isaB,1,1,175,175,flye
MRSA_r10,manR,manR,1,1,624,624,flye
MRSA_r10,manP,manP,1,1,650,650,flye
MRSA_r10,yvyI,yvyI,1,1,312,312,flye
MRSA_r10,gtfB,gtfB,1,1,452,452,flye
MRSA_r10,gtfA_3,gtfA_3,1,1,502,502,flye
MRSA_r10,secA1_2,secA1_2,1,1,796,796,flye
MRSA_r10,asp2,asp2,1,1,523,523,flye
MRSA_r10,asp1,asp1,1,1,452,452,flye
MRSA_r10,secY_2,secY_1,0,1,403,403,flye
MRSA_r10,sraP,sraP,1,1,1351,1351,flye
MRSA_r10,msrAB,msrAB,1,1,158,158,flye
MRSA_r10,ywqE_2,ywqE_2,1,1,255,255,flye
MRSA_r10,ywqD_2,ywqD_2,1,1,230,230,flye
MRSA_r10,cap8A_2,cap8A_2,1,1,220,220,flye
MRSA_r10,icaR,icaR,1,1,186,186,flye
MRSA_r10,icaA,,0,0,412,0,flye
MRSA_r10,icaD,icaD,1,1,101,101,flye
MRSA_r10,icaB,icaB,1,1,290,290,flye
MRSA_r10,icaC,icaC,1,1,350,350,flye
MRSA_r10,lipA_2,lipA_2,1,1,681,681,flye
MRSA_r10,hisI,hisI,1,1,210,210,flye
MRSA_r10,hisF,hisF,1,1,252,252,flye
MRSA_r10,hisA,hisA,1,1,234,234,flye
MRSA_r10,hisH,hisH,1,1,192,192,flye
MRSA_r10,hisB,hisB,1,1,192,192,flye
MRSA_r10,hisC_3,hisC_2,0,1,337,337,flye
MRSA_r10,hisD,hisD,1,1,416,416,flye
MRSA_r10,hisG,hisG,1,1,204,204,flye
MRSA_r10,hisZ,hisZ,1,1,272,272,flye
MRSA_r10,ykoC,ykoC,1,1,277,277,flye
MRSA_r10,ykoD_2,ykoD_2,1,1,570,570,flye
MRSA_r10,salL,salL,1,1,282,282,flye
MRSA_r10,pcp,pcp,1,1,212,212,flye
MRSA_r10,cna,cna,1,1,1183,1183,flye
MRSA_r10,yflS,yflS,1,1,472,472,flye
MRSA_r10,rarD,rarD,1,1,302,302,flye
MRSA_r10,nixA,nixA,1,1,338,338,flye
MRSA_r10,nhoA,nhoA,1,1,266,266,flye
MRSA_r10,bceA_2,bceA_2,1,1,252,252,flye
MRSA_r10,bceB_3,bceB_2,0,1,626,626,flye
MRSA_r10,cspLA,cspLA,1,1,66,66,flye
MRSA_r10,noc,noc,1,1,279,279,flye
MRSA_r10,rsmG,rsmG,1,1,239,239,flye
MRSA_r10,mnmG,mnmG,1,1,625,625,flye
MRSA_r10,mnmE,mnmE,1,1,459,459,flye
MRSA_r10,rnpA,rnpA,1,1,115,115,flye
MRSA_r10,rpmH,rpmH,1,1,45,45,flye
