Sample name,Ref Gene name,test Gene name,name match,Gene found,Ref gene length (AA),Test gene length (AA),Notes
MRSA_r10.4_sup_dup_10,dnaA,dnaA,1,1,453,453,flye
MRSA_r10.4_sup_dup_10,dnaN,dnaN,1,1,377,377,flye
MRSA_r10.4_sup_dup_10,recF,recF,1,1,370,370,flye
MRSA_r10.4_sup_dup_10,gyrB,,0,0,644,0,flye
MRSA_r10.4_sup_dup_10,gyrA,gyrA,1,1,886,886,flye
MRSA_r10.4_sup_dup_10,nnrD,nnrD,1,1,270,270,flye
MRSA_r10.4_sup_dup_10,hutH,hutH,1,1,504,504,flye
MRSA_r10.4_sup_dup_10,serS,serS,1,1,428,428,flye
MRSA_r10.4_sup_dup_10,metXA,metXA,1,1,322,322,flye
MRSA_r10.4_sup_dup_10,gdpP,gdpP,1,1,655,655,flye
MRSA_r10.4_sup_dup_10,rplI,rplI,1,1,148,148,flye
MRSA_r10.4_sup_dup_10,dnaC,dnaC,1,1,466,466,flye
MRSA_r10.4_sup_dup_10,purA,purA,1,1,427,427,flye
MRSA_r10.4_sup_dup_10,walR,walR,1,1,233,233,flye
MRSA_r10.4_sup_dup_10,walK,walK,1,1,608,608,flye
MRSA_r10.4_sup_dup_10,yycI,yycI,1,1,262,262,flye
MRSA_r10.4_sup_dup_10,yycJ,yycJ,1,1,263,263,flye
MRSA_r10.4_sup_dup_10,rlmH,rlmH,1,1,159,159,flye
MRSA_r10.4_sup_dup_10,ble,ble,1,1,134,134,flye
MRSA_r10.4_sup_dup_10,knt,knt,1,1,247,247,flye
MRSA_r10.4_sup_dup_10,ugpQ,ugpQ,1,1,247,247,flye
MRSA_r10.4_sup_dup_10,mecA_1,mecA_1,1,1,668,668,flye
MRSA_r10.4_sup_dup_10,mecR1,mecR1,1,1,585,585,flye
MRSA_r10.4_sup_dup_10,mecI,mecI,1,1,114,114,flye
MRSA_r10.4_sup_dup_10,nagC,nagC,1,1,369,369,flye
MRSA_r10.4_sup_dup_10,glpE_1,glpE_1,1,1,101,101,flye
MRSA_r10.4_sup_dup_10,gloB,gloB,1,1,312,312,flye
MRSA_r10.4_sup_dup_10,glpE_2,glpE_2,1,1,354,354,flye
MRSA_r10.4_sup_dup_10,COQ5_3,COQ5_3,1,1,220,220,flye
MRSA_r10.4_sup_dup_10,ermA1_2,ermA1_2,1,1,243,243,flye
MRSA_r10.4_sup_dup_10,ant1_2,ant1_2,1,1,260,260,flye
MRSA_r10.4_sup_dup_10,xerC_6,xerC_6,1,1,630,630,flye
MRSA_r10.4_sup_dup_10,xerC_7,xerC_7,1,1,361,361,flye
MRSA_r10.4_sup_dup_10,kdpE_1,kdpE_2,0,1,231,231,flye
MRSA_r10.4_sup_dup_10,kdpD_1,kdpD_2,0,1,889,889,flye
MRSA_r10.4_sup_dup_10,kdpA_1,kdpA_2,0,1,558,558,flye
MRSA_r10.4_sup_dup_10,kdpB_1,kdpB_2,0,1,673,673,flye
MRSA_r10.4_sup_dup_10,kdpC_1,kdpC_2,0,1,120,120,flye
MRSA_r10.4_sup_dup_10,kdpC_2,kdpC_3,0,1,65,65,flye
MRSA_r10.4_sup_dup_10,mcrC,mcrC,1,1,346,346,flye
MRSA_r10.4_sup_dup_10,farB_1,farB_2,0,1,442,442,flye
MRSA_r10.4_sup_dup_10,dus,dus,1,1,328,328,flye
MRSA_r10.4_sup_dup_10,plc,plc,1,1,328,328,flye
MRSA_r10.4_sup_dup_10,rhaS_1,rhaS_2,0,1,745,745,flye
MRSA_r10.4_sup_dup_10,scmP_1,scmP_2,0,1,392,392,flye
MRSA_r10.4_sup_dup_10,norB_1,norB_2,0,1,462,462,flye
MRSA_r10.4_sup_dup_10,lctP_1,lctP_2,0,1,530,530,flye
MRSA_r10.4_sup_dup_10,spa,spa,1,1,516,516,flye
MRSA_r10.4_sup_dup_10,sarS,sarS,1,1,250,250,flye
MRSA_r10.4_sup_dup_10,yfhA,yfhA,1,1,332,332,flye
MRSA_r10.4_sup_dup_10,yfiZ_1,yfiZ_2,0,1,331,331,flye
MRSA_r10.4_sup_dup_10,yfiY,yfiY,1,1,330,330,flye
MRSA_r10.4_sup_dup_10,sbnA,sbnA,1,1,326,326,flye
MRSA_r10.4_sup_dup_10,sbnB,sbnB,1,1,336,336,flye
MRSA_r10.4_sup_dup_10,sbnC,sbnC,1,1,584,584,flye
MRSA_r10.4_sup_dup_10,sbnD,sbnD,1,1,418,418,flye
MRSA_r10.4_sup_dup_10,sbnE,sbnE,1,1,578,578,flye
MRSA_r10.4_sup_dup_10,sbnF,sbnF,1,1,592,592,flye
MRSA_r10.4_sup_dup_10,garL,garL,1,1,258,258,flye
MRSA_r10.4_sup_dup_10,sbnH,sbnH,1,1,400,400,flye
MRSA_r10.4_sup_dup_10,sbnI,sbnI,1,1,254,254,flye
MRSA_r10.4_sup_dup_10,butA,butA,1,1,258,258,flye
MRSA_r10.4_sup_dup_10,wbgU,wbgU,1,1,323,323,flye
MRSA_r10.4_sup_dup_10,wbnH,wbnH,1,1,388,388,flye
MRSA_r10.4_sup_dup_10,sodM,sodM,1,1,199,199,flye
MRSA_r10.4_sup_dup_10,deoD,deoD,1,1,235,235,flye
MRSA_r10.4_sup_dup_10,tet(38),tet(38),1,1,452,452,flye
MRSA_r10.4_sup_dup_10,deoC1,deoC1,1,1,220,220,flye
MRSA_r10.4_sup_dup_10,deoB,deoB,1,1,392,392,flye
MRSA_r10.4_sup_dup_10,phnE_1,,0,0,271,0,flye
MRSA_r10.4_sup_dup_10,phnE_2,phnE_2,1,1,266,266,flye
MRSA_r10.4_sup_dup_10,glnQ,glnQ,1,1,257,257,flye
MRSA_r10.4_sup_dup_10,phnD2,phnD2,1,1,318,318,flye
MRSA_r10.4_sup_dup_10,yfkN,yfkN,1,1,511,511,flye
MRSA_r10.4_sup_dup_10,adhE,adhE,1,1,869,869,flye
MRSA_r10.4_sup_dup_10,cap8A_1,cap8A_2,0,1,222,222,flye
MRSA_r10.4_sup_dup_10,ywqD_1,ywqD_2,0,1,228,228,flye
MRSA_r10.4_sup_dup_10,ywqE_1,ywqE_2,0,1,254,254,flye
MRSA_r10.4_sup_dup_10,pglF,pglF,1,1,607,607,flye
MRSA_r10.4_sup_dup_10,capD,capD,1,1,342,342,flye
MRSA_r10.4_sup_dup_10,wbjC,wbjC,1,1,369,369,flye
MRSA_r10.4_sup_dup_10,wbpI,wbpI,1,1,374,374,flye
MRSA_r10.4_sup_dup_10,dapH_1,dapH_1,1,1,185,185,flye
MRSA_r10.4_sup_dup_10,epsL,epsL,1,1,185,185,flye
MRSA_r10.4_sup_dup_10,fcl,fcl,1,1,295,295,flye
MRSA_r10.4_sup_dup_10,wecC,wecC,1,1,420,420,flye
MRSA_r10.4_sup_dup_10,mnaA_1,mnaA_2,0,1,381,381,flye
MRSA_r10.4_sup_dup_10,isdI,isdI,1,1,108,108,flye
MRSA_r10.4_sup_dup_10,ybaN,ybaN,1,1,127,127,flye
MRSA_r10.4_sup_dup_10,aldA,aldA,1,1,495,495,flye
MRSA_r10.4_sup_dup_10,czcD_1,czcD_2,0,1,319,319,flye
MRSA_r10.4_sup_dup_10,nrtD,nrtD,1,1,246,246,flye
MRSA_r10.4_sup_dup_10,ssuC,ssuC,1,1,253,253,flye
MRSA_r10.4_sup_dup_10,mdrP,mdrP,1,1,416,416,flye
MRSA_r10.4_sup_dup_10,dltA_1,dltA_1,1,1,2391,2391,flye
MRSA_r10.4_sup_dup_10,yagU,yagU,1,1,164,164,flye
MRSA_r10.4_sup_dup_10,argB,argB,1,1,256,256,flye
MRSA_r10.4_sup_dup_10,argJ,argJ,1,1,413,413,flye
MRSA_r10.4_sup_dup_10,argC,argC,1,1,344,344,flye
MRSA_r10.4_sup_dup_10,rocD2_1,rocD2_1,1,1,394,394,flye
MRSA_r10.4_sup_dup_10,brnQ_1,brnQ_1,1,1,451,451,flye
MRSA_r10.4_sup_dup_10,yecD,yecD,1,1,185,185,flye
MRSA_r10.4_sup_dup_10,ipdC,ipdC,1,1,546,546,flye
MRSA_r10.4_sup_dup_10,ptsG_1,ptsG_1,1,1,681,681,flye
MRSA_r10.4_sup_dup_10,murQ,murQ,1,1,298,298,flye
MRSA_r10.4_sup_dup_10,ybbH_1,ybbH_2,0,1,292,292,flye
MRSA_r10.4_sup_dup_10,hsdR,hsdR,1,1,929,929,flye
MRSA_r10.4_sup_dup_10,gsiA,gsiA,1,1,530,530,flye
MRSA_r10.4_sup_dup_10,ggt,ggt,1,1,668,668,flye
MRSA_r10.4_sup_dup_10,azoR,azoR,1,1,208,208,flye
MRSA_r10.4_sup_dup_10,msmX,msmX,1,1,365,365,flye
MRSA_r10.4_sup_dup_10,cycB,cycB,1,1,423,423,flye
MRSA_r10.4_sup_dup_10,malG,malG,1,1,279,279,flye
MRSA_r10.4_sup_dup_10,gfo,gfo,1,1,358,358,flye
MRSA_r10.4_sup_dup_10,iolG,iolG,1,1,346,346,flye
MRSA_r10.4_sup_dup_10,uhpT,uhpT,1,1,459,459,flye
MRSA_r10.4_sup_dup_10,pflB,pflB,1,1,749,749,flye
MRSA_r10.4_sup_dup_10,pflA,pflA,1,1,251,251,flye
MRSA_r10.4_sup_dup_10,scn_1,scn_1,1,1,114,114,flye
MRSA_r10.4_sup_dup_10,fadA,fadA,1,1,394,394,flye
MRSA_r10.4_sup_dup_10,fadN,fadN,1,1,753,753,flye
MRSA_r10.4_sup_dup_10,caiA,caiA,1,1,403,403,flye
MRSA_r10.4_sup_dup_10,lcfB,lcfB,1,1,501,501,flye
MRSA_r10.4_sup_dup_10,carA_1,carA_1,1,1,520,520,flye
MRSA_r10.4_sup_dup_10,nikA,nikA,1,1,491,491,flye
MRSA_r10.4_sup_dup_10,hmp,hmp,1,1,381,381,flye
MRSA_r10.4_sup_dup_10,ldh1,ldh1,1,1,317,317,flye
MRSA_r10.4_sup_dup_10,ptsG_2,ptsG_2,1,1,509,509,flye
MRSA_r10.4_sup_dup_10,rihA,rihA,1,1,311,311,flye
MRSA_r10.4_sup_dup_10,gatA_1,gatA_1,1,1,155,155,flye
MRSA_r10.4_sup_dup_10,gatB_1,gatB_1,1,1,92,92,flye
MRSA_r10.4_sup_dup_10,gatC_1,gatC_1,1,1,419,419,flye
MRSA_r10.4_sup_dup_10,gatD_1,gatD_1,1,1,347,347,flye
MRSA_r10.4_sup_dup_10,tarI2,tarI2,1,1,238,238,flye
MRSA_r10.4_sup_dup_10,tarJ',tarJ',1,1,341,341,flye
MRSA_r10.4_sup_dup_10,tarK,tarK,1,1,564,564,flye
MRSA_r10.4_sup_dup_10,tarF,tarF,1,1,389,389,flye
MRSA_r10.4_sup_dup_10,tarI1,tarI1,1,1,238,238,flye
MRSA_r10.4_sup_dup_10,tarJ,tarJ,1,1,341,341,flye
MRSA_r10.4_sup_dup_10,tarL,tarL,1,1,562,562,flye
MRSA_r10.4_sup_dup_10,tarS,tarS,1,1,574,574,flye
MRSA_r10.4_sup_dup_10,scdA,scdA,1,1,224,224,flye
MRSA_r10.4_sup_dup_10,ypdA,ypdA,1,1,584,584,flye
MRSA_r10.4_sup_dup_10,lytR,lytR,1,1,246,246,flye
MRSA_r10.4_sup_dup_10,lrgA,lrgA,1,1,145,145,flye
MRSA_r10.4_sup_dup_10,lrgB,lrgB,1,1,233,233,flye
MRSA_r10.4_sup_dup_10,yydK,yydK,1,1,234,234,flye
MRSA_r10.4_sup_dup_10,ptsG_3,ptsG_3,1,1,263,263,flye
MRSA_r10.4_sup_dup_10,bglA,bglA,1,1,478,478,flye
MRSA_r10.4_sup_dup_10,COQ5_2,COQ5_2,1,1,253,253,flye
MRSA_r10.4_sup_dup_10,rbsK,rbsK,1,1,304,304,flye
MRSA_r10.4_sup_dup_10,rbsD,rbsD,1,1,134,134,flye
MRSA_r10.4_sup_dup_10,glcU_1,glcU_2,0,1,293,293,flye
MRSA_r10.4_sup_dup_10,degA,degA,1,1,332,332,flye
MRSA_r10.4_sup_dup_10,norB_2,,0,0,458,0,flye
MRSA_r10.4_sup_dup_10,yxeI,,0,0,330,0,flye
MRSA_r10.4_sup_dup_10,lytM,lytM,1,1,316,316,flye
MRSA_r10.4_sup_dup_10,lnrL_1,lnrL_3,0,1,219,219,flye
MRSA_r10.4_sup_dup_10,esxA,esxA,1,1,97,97,flye
MRSA_r10.4_sup_dup_10,esaA,esaA,1,1,1009,1009,flye
MRSA_r10.4_sup_dup_10,esaB,esaB,1,1,80,80,flye
MRSA_r10.4_sup_dup_10,essB,essB,1,1,444,444,flye
MRSA_r10.4_sup_dup_10,essC,essC,1,1,1482,1482,flye
MRSA_r10.4_sup_dup_10,essG_1,essG_1,1,1,166,166,flye
MRSA_r10.4_sup_dup_10,essG_2,essG_2,1,1,166,166,flye
MRSA_r10.4_sup_dup_10,essG_3,essG_3,1,1,118,118,flye
MRSA_r10.4_sup_dup_10,essG_4,essG_4,1,1,90,90,flye
MRSA_r10.4_sup_dup_10,focA,focA,1,1,274,274,flye
MRSA_r10.4_sup_dup_10,brnQ_2,brnQ_2,1,1,435,435,flye
MRSA_r10.4_sup_dup_10,hel,hel,1,1,296,296,flye
MRSA_r10.4_sup_dup_10,hrtA_1,hrtA_2,0,1,225,225,flye
MRSA_r10.4_sup_dup_10,RBKS,RBKS,1,1,372,372,flye
MRSA_r10.4_sup_dup_10,psuG,psuG,1,1,307,307,flye
MRSA_r10.4_sup_dup_10,nupC_1,nupC_1,1,1,406,406,flye
MRSA_r10.4_sup_dup_10,sglT,sglT,1,1,510,510,flye
MRSA_r10.4_sup_dup_10,nanA,nanA,1,1,293,293,flye
MRSA_r10.4_sup_dup_10,bglK,bglK,1,1,286,286,flye
MRSA_r10.4_sup_dup_10,ybbH_2,ybbH_3,0,1,266,266,flye
MRSA_r10.4_sup_dup_10,nanE,nanE,1,1,222,222,flye
MRSA_r10.4_sup_dup_10,lip2,lip2,1,1,691,691,flye
MRSA_r10.4_sup_dup_10,ulaA,ulaA,1,1,448,448,flye
MRSA_r10.4_sup_dup_10,cmtB,cmtB,1,1,147,147,flye
MRSA_r10.4_sup_dup_10,slyA_1,slyA_1,1,1,139,139,flye
MRSA_r10.4_sup_dup_10,mepA,mepA,1,1,451,451,flye
MRSA_r10.4_sup_dup_10,glpT,glpT,1,1,452,452,flye
MRSA_r10.4_sup_dup_10,mhqA_1,mhqA_2,0,1,308,308,flye
MRSA_r10.4_sup_dup_10,luxA,luxA,1,1,353,353,flye
MRSA_r10.4_sup_dup_10,ydaF,ydaF,1,1,181,181,flye
MRSA_r10.4_sup_dup_10,efeM,efeM,1,1,284,284,flye
MRSA_r10.4_sup_dup_10,efeN,efeN,1,1,409,409,flye
MRSA_r10.4_sup_dup_10,tatC2,tatC2,1,1,233,233,flye
MRSA_r10.4_sup_dup_10,tatAy,tatAy,1,1,71,71,flye
MRSA_r10.4_sup_dup_10,btuD_1,btuD_1,1,1,280,280,flye
MRSA_r10.4_sup_dup_10,metE,metE,1,1,742,742,flye
MRSA_r10.4_sup_dup_10,yitJ,yitJ,1,1,613,613,flye
MRSA_r10.4_sup_dup_10,metC,metC,1,1,386,386,flye
MRSA_r10.4_sup_dup_10,metI,metI,1,1,367,367,flye
MRSA_r10.4_sup_dup_10,spo0J,spo0J,1,1,281,281,flye
MRSA_r10.4_sup_dup_10,mscS,mscS,1,1,293,293,flye
MRSA_r10.4_sup_dup_10,ychF,ychF,1,1,365,365,flye
MRSA_r10.4_sup_dup_10,rpsF,rpsF,1,1,98,98,flye
MRSA_r10.4_sup_dup_10,ssbA_1,ssbA_2,0,1,167,167,flye
MRSA_r10.4_sup_dup_10,rpsR,rpsR,1,1,80,80,flye
MRSA_r10.4_sup_dup_10,xerC_3,xerC_3,1,1,404,404,flye
MRSA_r10.4_sup_dup_10,gpmA_1,gpmA_2,0,1,193,193,flye
MRSA_r10.4_sup_dup_10,ahpF,ahpF,1,1,507,507,flye
MRSA_r10.4_sup_dup_10,ahpC,ahpC,1,1,189,189,flye
MRSA_r10.4_sup_dup_10,nfrA,nfrA,1,1,251,251,flye
MRSA_r10.4_sup_dup_10,tcyP,tcyP,1,1,462,462,flye
MRSA_r10.4_sup_dup_10,xpt,xpt,1,1,192,192,flye
MRSA_r10.4_sup_dup_10,pucK,pucK,1,1,422,422,flye
MRSA_r10.4_sup_dup_10,guaB,guaB,1,1,488,488,flye
MRSA_r10.4_sup_dup_10,guaA,guaA,1,1,513,513,flye
MRSA_r10.4_sup_dup_10,qorB,qorB,1,1,281,281,flye
MRSA_r10.4_sup_dup_10,ssl1,ssl1,1,1,226,226,flye
MRSA_r10.4_sup_dup_10,ssl4_1,ssl4_1,1,1,233,233,flye
MRSA_r10.4_sup_dup_10,ssl4_2,ssl4_2,1,1,343,343,flye
MRSA_r10.4_sup_dup_10,ssl3,ssl3,1,1,306,306,flye
MRSA_r10.4_sup_dup_10,ssl5_1,ssl5_1,1,1,234,234,flye
MRSA_r10.4_sup_dup_10,ssl7_1,ssl7_1,1,1,231,231,flye
MRSA_r10.4_sup_dup_10,ssl7_2,ssl7_2,1,1,232,232,flye
MRSA_r10.4_sup_dup_10,hsdM,hsdM,1,1,518,518,flye
MRSA_r10.4_sup_dup_10,ssl5_2,ssl5_2,1,1,232,232,flye
MRSA_r10.4_sup_dup_10,lpl2_1,lpl2_1,1,1,270,270,flye
MRSA_r10.4_sup_dup_10,lpl2_2,lpl2_2,1,1,257,257,flye
MRSA_r10.4_sup_dup_10,lpl2_3,lpl2_3,1,1,136,136,flye
MRSA_r10.4_sup_dup_10,lpl2_4,lpl2_4,1,1,123,123,flye
MRSA_r10.4_sup_dup_10,lpl2_5,lpl2_5,1,1,256,256,flye
MRSA_r10.4_sup_dup_10,lpl2_6,lpl2_6,1,1,267,267,flye
MRSA_r10.4_sup_dup_10,yciC_1,yciC_1,1,1,400,400,flye
MRSA_r10.4_sup_dup_10,ndhB,ndhB,1,1,494,494,flye
MRSA_r10.4_sup_dup_10,est_1,est_1,1,1,244,244,flye
MRSA_r10.4_sup_dup_10,mccA,mccA,1,1,311,311,flye
MRSA_r10.4_sup_dup_10,mccB,mccB,1,1,380,380,flye
MRSA_r10.4_sup_dup_10,metN,metN,1,1,341,341,flye
MRSA_r10.4_sup_dup_10,metP_1,metP_1,1,1,219,219,flye
MRSA_r10.4_sup_dup_10,metQ_1,metQ_1,1,1,280,280,flye
MRSA_r10.4_sup_dup_10,sle1,sle1,1,1,341,341,flye
MRSA_r10.4_sup_dup_10,hdfR_1,hdfR_2,0,1,294,294,flye
MRSA_r10.4_sup_dup_10,gltA,gltA,1,1,1499,1499,flye
MRSA_r10.4_sup_dup_10,gltB,gltB,1,1,487,487,flye
MRSA_r10.4_sup_dup_10,treP_1,treP_3,0,1,475,475,flye
MRSA_r10.4_sup_dup_10,treA,treA,1,1,546,546,flye
MRSA_r10.4_sup_dup_10,treR_1,treR_1,1,1,242,242,flye
MRSA_r10.4_sup_dup_10,ruvB_1,ruvB_1,1,1,565,565,flye
MRSA_r10.4_sup_dup_10,recR,recR,1,1,198,198,flye
MRSA_r10.4_sup_dup_10,speA,speA,1,1,445,445,flye
MRSA_r10.4_sup_dup_10,tmk,tmk,1,1,205,205,flye
MRSA_r10.4_sup_dup_10,darA,darA,1,1,109,109,flye
MRSA_r10.4_sup_dup_10,yabA,yabA,1,1,115,115,flye
MRSA_r10.4_sup_dup_10,yfiC,yfiC,1,1,241,241,flye
MRSA_r10.4_sup_dup_10,rsmI,rsmI,1,1,279,279,flye
MRSA_r10.4_sup_dup_10,metG,metG,1,1,657,657,flye
MRSA_r10.4_sup_dup_10,dtd3,dtd3,1,1,257,257,flye
MRSA_r10.4_sup_dup_10,rnmV_1,rnmV_1,1,1,178,178,flye
MRSA_r10.4_sup_dup_10,rsmA,rsmA,1,1,297,297,flye
MRSA_r10.4_sup_dup_10,veg,veg,1,1,87,87,flye
MRSA_r10.4_sup_dup_10,ispE,ispE,1,1,282,282,flye
MRSA_r10.4_sup_dup_10,purR,purR,1,1,274,274,flye
MRSA_r10.4_sup_dup_10,yabJ,yabJ,1,1,126,126,flye
MRSA_r10.4_sup_dup_10,spoVG,spoVG,1,1,100,100,flye
MRSA_r10.4_sup_dup_10,glmU,glmU,1,1,450,450,flye
MRSA_r10.4_sup_dup_10,prs,prs,1,1,321,321,flye
MRSA_r10.4_sup_dup_10,rplY,rplY,1,1,217,217,flye
MRSA_r10.4_sup_dup_10,pth,pth,1,1,190,190,flye
MRSA_r10.4_sup_dup_10,mfd,,0,0,1168,0,flye
MRSA_r10.4_sup_dup_10,divIC,divIC,1,1,130,130,flye
MRSA_r10.4_sup_dup_10,pnp_1,pnp_1,1,1,133,133,flye
MRSA_r10.4_sup_dup_10,tilS,tilS,1,1,431,431,flye
MRSA_r10.4_sup_dup_10,hpt,hpt,1,1,179,179,flye
MRSA_r10.4_sup_dup_10,ftsH,ftsH,1,1,697,697,flye
MRSA_r10.4_sup_dup_10,hslO,hslO,1,1,293,293,flye
MRSA_r10.4_sup_dup_10,cysK,cysK,1,1,310,310,flye
MRSA_r10.4_sup_dup_10,folP,folP,1,1,267,267,flye
MRSA_r10.4_sup_dup_10,folB,folB,1,1,121,121,flye
MRSA_r10.4_sup_dup_10,folK,folK,1,1,158,158,flye
MRSA_r10.4_sup_dup_10,lysS,lysS,1,1,495,495,flye
MRSA_r10.4_sup_dup_10,gabR,gabR,1,1,460,460,flye
MRSA_r10.4_sup_dup_10,pdxS,pdxS,1,1,295,295,flye
MRSA_r10.4_sup_dup_10,pdxT,pdxT,1,1,186,186,flye
MRSA_r10.4_sup_dup_10,nupC_2,nupC_2,1,1,404,404,flye
MRSA_r10.4_sup_dup_10,ctsR,ctsR,1,1,156,156,flye
MRSA_r10.4_sup_dup_10,mcsA,mcsA,1,1,188,188,flye
MRSA_r10.4_sup_dup_10,mcsB,mcsB,1,1,336,336,flye
MRSA_r10.4_sup_dup_10,clpC,clpC,1,1,818,818,flye
MRSA_r10.4_sup_dup_10,radA,radA,1,1,454,454,flye
MRSA_r10.4_sup_dup_10,yacL,yacL,1,1,357,357,flye
MRSA_r10.4_sup_dup_10,gltX,gltX,1,1,484,484,flye
MRSA_r10.4_sup_dup_10,cysE,cysE,1,1,226,226,flye
MRSA_r10.4_sup_dup_10,cysS,cysS,1,1,466,466,flye
MRSA_r10.4_sup_dup_10,mrnC,mrnC,1,1,134,134,flye
MRSA_r10.4_sup_dup_10,yacP,yacP,1,1,174,174,flye
MRSA_r10.4_sup_dup_10,secE,secE,1,1,60,60,flye
MRSA_r10.4_sup_dup_10,nusG,nusG,1,1,182,182,flye
MRSA_r10.4_sup_dup_10,rplK,rplK,1,1,140,140,flye
MRSA_r10.4_sup_dup_10,rplA,rplA,1,1,229,229,flye
MRSA_r10.4_sup_dup_10,rplJ,rplJ,1,1,166,166,flye
MRSA_r10.4_sup_dup_10,rplL,rplL,1,1,122,122,flye
MRSA_r10.4_sup_dup_10,rsmC,rsmC,1,1,202,202,flye
MRSA_r10.4_sup_dup_10,rpoB,rpoB,1,1,1183,1183,flye
MRSA_r10.4_sup_dup_10,rpoC,rpoC,1,1,1207,1207,flye
MRSA_r10.4_sup_dup_10,rplGB,rplGB,1,1,84,84,flye
MRSA_r10.4_sup_dup_10,rpsL,rpsL,1,1,137,137,flye
MRSA_r10.4_sup_dup_10,rpsG,rpsG,1,1,156,156,flye
MRSA_r10.4_sup_dup_10,fusA,fusA,1,1,693,693,flye
MRSA_r10.4_sup_dup_10,tuf,tuf,1,1,394,394,flye
MRSA_r10.4_sup_dup_10,scmP_2,scmP_3,0,1,391,391,flye
MRSA_r10.4_sup_dup_10,hchA,hchA,1,1,292,292,flye
MRSA_r10.4_sup_dup_10,araB,araB,1,1,545,545,flye
MRSA_r10.4_sup_dup_10,ilvE,ilvE,1,1,358,358,flye
MRSA_r10.4_sup_dup_10,ppaX_1,ppaX_1,1,1,227,227,flye
MRSA_r10.4_sup_dup_10,dck,dck,1,1,220,220,flye
MRSA_r10.4_sup_dup_10,dgk,dgk,1,1,205,205,flye
MRSA_r10.4_sup_dup_10,tadA_1,tadA_1,1,1,156,156,flye
MRSA_r10.4_sup_dup_10,ywtE_1,ywtE_2,0,1,289,289,flye
MRSA_r10.4_sup_dup_10,azo1,azo1,1,1,188,188,flye
MRSA_r10.4_sup_dup_10,bbp,bbp,1,1,1137,1137,flye
MRSA_r10.4_sup_dup_10,gtfA_1,gtfA_2,0,1,490,490,flye
MRSA_r10.4_sup_dup_10,gtfA_2,gtfA_3,0,1,496,496,flye
MRSA_r10.4_sup_dup_10,folE2,folE2,1,1,292,292,flye
MRSA_r10.4_sup_dup_10,bshB2,bshB2,1,1,221,221,flye
MRSA_r10.4_sup_dup_10,yojF,yojF,1,1,120,120,flye
MRSA_r10.4_sup_dup_10,nagB_1,nagB_1,1,1,252,252,flye
MRSA_r10.4_sup_dup_10,hxlB,hxlB,1,1,182,182,flye
MRSA_r10.4_sup_dup_10,gph,gph,1,1,215,215,flye
MRSA_r10.4_sup_dup_10,proP,proP,1,1,466,466,flye
MRSA_r10.4_sup_dup_10,menE_1,menE_1,1,1,458,458,flye
MRSA_r10.4_sup_dup_10,yhfS,yhfS,1,1,379,379,flye
MRSA_r10.4_sup_dup_10,pdxK,pdxK,1,1,276,276,flye
MRSA_r10.4_sup_dup_10,ung,ung,1,1,218,218,flye
MRSA_r10.4_sup_dup_10,pta,pta,1,1,328,328,flye
MRSA_r10.4_sup_dup_10,lipL,lipL,1,1,278,278,flye
MRSA_r10.4_sup_dup_10,galK,galK,1,1,306,306,flye
MRSA_r10.4_sup_dup_10,rclA,rclA,1,1,440,440,flye
MRSA_r10.4_sup_dup_10,iolS,iolS,1,1,312,312,flye
MRSA_r10.4_sup_dup_10,ywqN,ywqN,1,1,178,178,flye
MRSA_r10.4_sup_dup_10,adh,adh,1,1,336,336,flye
MRSA_r10.4_sup_dup_10,ywiB,ywiB,1,1,138,138,flye
MRSA_r10.4_sup_dup_10,argS,argS,1,1,553,553,flye
MRSA_r10.4_sup_dup_10,nth_1,nth_1,1,1,211,211,flye
MRSA_r10.4_sup_dup_10,btuF,btuF,1,1,295,295,flye
MRSA_r10.4_sup_dup_10,hdl IVa,hdl IVa,1,1,239,239,flye
MRSA_r10.4_sup_dup_10,pip,pip,1,1,262,262,flye
MRSA_r10.4_sup_dup_10,sarA,sarA,1,1,124,124,flye
MRSA_r10.4_sup_dup_10,xerD_1,xerD_1,1,1,186,186,flye
MRSA_r10.4_sup_dup_10,mrpA,mrpA,1,1,800,800,flye
MRSA_r10.4_sup_dup_10,mrpB,mrpB,1,1,141,141,flye
MRSA_r10.4_sup_dup_10,mnhC1_1,mnhC1_1,1,1,114,114,flye
MRSA_r10.4_sup_dup_10,mnhD1_1,mnhD1_1,1,1,498,498,flye
MRSA_r10.4_sup_dup_10,mrpE,mrpE,1,1,160,160,flye
MRSA_r10.4_sup_dup_10,mrpF,mrpF,1,1,100,100,flye
MRSA_r10.4_sup_dup_10,mrpG,mrpG,1,1,120,120,flye
MRSA_r10.4_sup_dup_10,nhaK_1,nhaK_2,0,1,680,680,flye
MRSA_r10.4_sup_dup_10,pbuE_1,pbuE_2,0,1,382,382,flye
MRSA_r10.4_sup_dup_10,ppaX_2,ppaX_2,1,1,82,82,flye
MRSA_r10.4_sup_dup_10,mntA,mntA,1,1,309,309,flye
MRSA_r10.4_sup_dup_10,mntB,mntB,1,1,278,278,flye
MRSA_r10.4_sup_dup_10,scaC,scaC,1,1,247,247,flye
MRSA_r10.4_sup_dup_10,mntR,mntR,1,1,214,214,flye
MRSA_r10.4_sup_dup_10,tarA,tarA,1,1,254,254,flye
MRSA_r10.4_sup_dup_10,tagH_1,tagH_1,1,1,264,264,flye
MRSA_r10.4_sup_dup_10,tagG,tagG,1,1,270,270,flye
MRSA_r10.4_sup_dup_10,tarB,tarB,1,1,367,367,flye
MRSA_r10.4_sup_dup_10,tagX,tagX,1,1,353,353,flye
MRSA_r10.4_sup_dup_10,tarD,tarD,1,1,132,132,flye
MRSA_r10.4_sup_dup_10,bmrA,bmrA,1,1,575,575,flye
MRSA_r10.4_sup_dup_10,nupG,nupG,1,1,409,409,flye
MRSA_r10.4_sup_dup_10,fepC,fepC,1,1,265,265,flye
MRSA_r10.4_sup_dup_10,feuB,feuB,1,1,334,334,flye
MRSA_r10.4_sup_dup_10,feuC,feuC,1,1,338,338,flye
MRSA_r10.4_sup_dup_10,dhaK,dhaK,1,1,322,322,flye
MRSA_r10.4_sup_dup_10,dhaL,dhaL,1,1,194,194,flye
MRSA_r10.4_sup_dup_10,dhaM,dhaM,1,1,120,120,flye
MRSA_r10.4_sup_dup_10,aes,aes,1,1,347,347,flye
MRSA_r10.4_sup_dup_10,graR_1,graR_2,0,1,224,224,flye
MRSA_r10.4_sup_dup_10,graS_1,graS_2,0,1,346,346,flye
MRSA_r10.4_sup_dup_10,bceA_1,bceA_2,0,1,253,253,flye
MRSA_r10.4_sup_dup_10,bceB_1,bceB_3,0,1,629,629,flye
MRSA_r10.4_sup_dup_10,rhaR,rhaR,1,1,647,647,flye
MRSA_r10.4_sup_dup_10,sarX,sarX,1,1,141,141,flye
MRSA_r10.4_sup_dup_10,oxyR,oxyR,1,1,288,288,flye
MRSA_r10.4_sup_dup_10,setC,setC,1,1,430,430,flye
MRSA_r10.4_sup_dup_10,bin3,bin3,1,1,105,105,flye
MRSA_r10.4_sup_dup_10,sdpR,sdpR,1,1,104,104,flye
MRSA_r10.4_sup_dup_10,arsB_1,arsB_1,1,1,429,429,flye
MRSA_r10.4_sup_dup_10,arsC,arsC,1,1,131,131,flye
MRSA_r10.4_sup_dup_10,pre,pre,1,1,108,108,flye
MRSA_r10.4_sup_dup_10,bcrR,bcrR,1,1,113,113,flye
MRSA_r10.4_sup_dup_10,cysL,cysL,1,1,273,273,flye
MRSA_r10.4_sup_dup_10,hin_1,hin_1,1,1,191,191,flye
MRSA_r10.4_sup_dup_10,copB,copB,1,1,681,681,flye
MRSA_r10.4_sup_dup_10,mco,mco,1,1,477,477,flye
MRSA_r10.4_sup_dup_10,cadA,cadA,1,1,726,726,flye
MRSA_r10.4_sup_dup_10,cadC,cadC,1,1,121,121,flye
MRSA_r10.4_sup_dup_10,uppP,uppP,1,1,291,291,flye
MRSA_r10.4_sup_dup_10,cydD,cydD,1,1,543,543,flye
MRSA_r10.4_sup_dup_10,mgrA,mgrA,1,1,147,147,flye
MRSA_r10.4_sup_dup_10,yciC_2,yciC_2,1,1,308,308,flye
MRSA_r10.4_sup_dup_10,ydhF,ydhF,1,1,302,302,flye
MRSA_r10.4_sup_dup_10,phrB,phrB,1,1,457,457,flye
MRSA_r10.4_sup_dup_10,tetA,tetA,1,1,388,388,flye
MRSA_r10.4_sup_dup_10,ybaK,ybaK,1,1,160,160,flye
MRSA_r10.4_sup_dup_10,ydjF,ydjF,1,1,254,254,flye
MRSA_r10.4_sup_dup_10,lacC_1,lacC_2,0,1,306,306,flye
MRSA_r10.4_sup_dup_10,fruA,fruA,1,1,652,652,flye
MRSA_r10.4_sup_dup_10,nagA,nagA,1,1,393,393,flye
MRSA_r10.4_sup_dup_10,csbB,csbB,1,1,327,327,flye
MRSA_r10.4_sup_dup_10,saeS,saeS,1,1,351,351,flye
MRSA_r10.4_sup_dup_10,saeR,saeR,1,1,228,228,flye
MRSA_r10.4_sup_dup_10,queE,queE,1,1,237,237,flye
MRSA_r10.4_sup_dup_10,queD,queD,1,1,139,139,flye
MRSA_r10.4_sup_dup_10,queC,queC,1,1,222,222,flye
MRSA_r10.4_sup_dup_10,trpG_1,trpG_1,1,1,197,197,flye
MRSA_r10.4_sup_dup_10,menF,menF,1,1,383,383,flye
MRSA_r10.4_sup_dup_10,pxpB_1,pxpB_1,1,1,236,236,flye
MRSA_r10.4_sup_dup_10,pxpC_1,pxpC_1,1,1,334,334,flye
MRSA_r10.4_sup_dup_10,ltaS,ltaS,1,1,646,646,flye
MRSA_r10.4_sup_dup_10,ettA,ettA,1,1,625,625,flye
MRSA_r10.4_sup_dup_10,recQ_1,recQ_1,1,1,593,593,flye
MRSA_r10.4_sup_dup_10,btuD_2,btuD_2,1,1,325,325,flye
MRSA_r10.4_sup_dup_10,hisC_1,hisC_2,0,1,352,352,flye
MRSA_r10.4_sup_dup_10,dtpT,dtpT,1,1,501,501,flye
MRSA_r10.4_sup_dup_10,queF,queF,1,1,166,166,flye
MRSA_r10.4_sup_dup_10,cntI,cntI,1,1,288,288,flye
MRSA_r10.4_sup_dup_10,nrdI,nrdI,1,1,132,132,flye
MRSA_r10.4_sup_dup_10,nrdE,nrdE,1,1,701,701,flye
MRSA_r10.4_sup_dup_10,nrdF,nrdF,1,1,323,323,flye
MRSA_r10.4_sup_dup_10,yclN,yclN,1,1,323,323,flye
MRSA_r10.4_sup_dup_10,yclO,yclO,1,1,318,318,flye
MRSA_r10.4_sup_dup_10,yclP,yclP,1,1,253,253,flye
MRSA_r10.4_sup_dup_10,yclQ,yclQ,1,1,342,342,flye
MRSA_r10.4_sup_dup_10,murB,murB,1,1,307,307,flye
MRSA_r10.4_sup_dup_10,garK_1,garK_2,0,1,374,374,flye
MRSA_r10.4_sup_dup_10,pepT_1,pepT_1,1,1,408,408,flye
MRSA_r10.4_sup_dup_10,yjjP,yjjP,1,1,253,253,flye
MRSA_r10.4_sup_dup_10,tagO,tagO,1,1,351,351,flye
MRSA_r10.4_sup_dup_10,comFA,comFA,1,1,360,360,flye
MRSA_r10.4_sup_dup_10,hpf,hpf,1,1,190,190,flye
MRSA_r10.4_sup_dup_10,secA1_1,secA1_2,0,1,843,843,flye
MRSA_r10.4_sup_dup_10,prfB,prfB,1,1,330,330,flye
MRSA_r10.4_sup_dup_10,yfbR,yfbR,1,1,216,216,flye
MRSA_r10.4_sup_dup_10,uvrB_1,uvrB_2,0,1,661,661,flye
MRSA_r10.4_sup_dup_10,uvrA,uvrA,1,1,948,948,flye
MRSA_r10.4_sup_dup_10,hprK,hprK,1,1,310,310,flye
MRSA_r10.4_sup_dup_10,lgt,lgt,1,1,280,280,flye
MRSA_r10.4_sup_dup_10,maa,maa,1,1,161,161,flye
MRSA_r10.4_sup_dup_10,trxB,trxB,1,1,311,311,flye
MRSA_r10.4_sup_dup_10,whiA,whiA,1,1,314,314,flye
MRSA_r10.4_sup_dup_10,clpP_1,clpP_1,1,1,195,195,flye
MRSA_r10.4_sup_dup_10,mleS,mleS,1,1,544,544,flye
MRSA_r10.4_sup_dup_10,cggR,cggR,1,1,337,337,flye
MRSA_r10.4_sup_dup_10,gapA1,gapA1,1,1,336,336,flye
MRSA_r10.4_sup_dup_10,pgk,pgk,1,1,396,396,flye
MRSA_r10.4_sup_dup_10,tpiA,tpiA,1,1,253,253,flye
MRSA_r10.4_sup_dup_10,gpmI,gpmI,1,1,505,505,flye
MRSA_r10.4_sup_dup_10,eno,eno,1,1,434,434,flye
MRSA_r10.4_sup_dup_10,secG,secG,1,1,77,77,flye
MRSA_r10.4_sup_dup_10,est_2,est_2,1,1,246,246,flye
MRSA_r10.4_sup_dup_10,rnr,rnr,1,1,790,790,flye
MRSA_r10.4_sup_dup_10,smpB,smpB,1,1,154,154,flye
MRSA_r10.4_sup_dup_10,ssp,ssp,1,1,341,341,flye
MRSA_r10.4_sup_dup_10,nuc,nuc,1,1,228,228,flye
MRSA_r10.4_sup_dup_10,cspA_1,cspA_1,1,1,66,66,flye
MRSA_r10.4_sup_dup_10,pspB,pspB,1,1,194,194,flye
MRSA_r10.4_sup_dup_10,argO_1,argO_2,0,1,205,205,flye
MRSA_r10.4_sup_dup_10,aroD,aroD,1,1,238,238,flye
MRSA_r10.4_sup_dup_10,ydbP,ydbP,1,1,106,106,flye
MRSA_r10.4_sup_dup_10,mgsR,mgsR,1,1,118,118,flye
MRSA_r10.4_sup_dup_10,gcvH,gcvH,1,1,126,126,flye
MRSA_r10.4_sup_dup_10,rnmV_2,rnmV_2,1,1,129,129,flye
MRSA_r10.4_sup_dup_10,metN2,metN2,1,1,341,341,flye
MRSA_r10.4_sup_dup_10,metP_2,metP_2,1,1,231,231,flye
MRSA_r10.4_sup_dup_10,metQ_2,metQ_2,1,1,273,273,flye
MRSA_r10.4_sup_dup_10,sufC,sufC,1,1,253,253,flye
MRSA_r10.4_sup_dup_10,csd,csd,1,1,413,413,flye
MRSA_r10.4_sup_dup_10,sufU,sufU,1,1,154,154,flye
MRSA_r10.4_sup_dup_10,pnoA,pnoA,1,1,355,355,flye
MRSA_r10.4_sup_dup_10,lipA_1,lipA_2,0,1,305,305,flye
MRSA_r10.4_sup_dup_10,yutF,yutF,1,1,259,259,flye
MRSA_r10.4_sup_dup_10,ghrB_1,ghrB_1,1,1,319,319,flye
MRSA_r10.4_sup_dup_10,dltA_2,dltA_2,1,1,485,485,flye
MRSA_r10.4_sup_dup_10,patA,patA,1,1,404,404,flye
MRSA_r10.4_sup_dup_10,dltC,dltC,1,1,78,78,flye
MRSA_r10.4_sup_dup_10,dltD,dltD,1,1,391,391,flye
MRSA_r10.4_sup_dup_10,nfuA,nfuA,1,1,80,80,flye
MRSA_r10.4_sup_dup_10,yjlD,yjlD,1,1,354,354,flye
MRSA_r10.4_sup_dup_10,pepA_1,pepA_1,1,1,491,491,flye
MRSA_r10.4_sup_dup_10,mnhG1,mnhG1,1,1,118,118,flye
MRSA_r10.4_sup_dup_10,mnhF1,mnhF1,1,1,97,97,flye
MRSA_r10.4_sup_dup_10,mnhE1,mnhE1,1,1,159,159,flye
MRSA_r10.4_sup_dup_10,mnhD1_2,mnhD1_2,1,1,498,498,flye
MRSA_r10.4_sup_dup_10,mnhC1_2,mnhC1_2,1,1,113,113,flye
MRSA_r10.4_sup_dup_10,mnhB1,mnhB1,1,1,142,142,flye
MRSA_r10.4_sup_dup_10,mnhA1,mnhA1,1,1,801,801,flye
MRSA_r10.4_sup_dup_10,kapB,kapB,1,1,127,127,flye
MRSA_r10.4_sup_dup_10,yugI,yugI,1,1,125,125,flye
MRSA_r10.4_sup_dup_10,rocD2_2,rocD2_2,1,1,396,396,flye
MRSA_r10.4_sup_dup_10,gluD,gluD,1,1,414,414,flye
MRSA_r10.4_sup_dup_10,glpQ_1,glpQ_1,1,1,309,309,flye
MRSA_r10.4_sup_dup_10,argH,argH,1,1,459,459,flye
MRSA_r10.4_sup_dup_10,argG,argG,1,1,401,401,flye
MRSA_r10.4_sup_dup_10,pgi,pgi,1,1,443,443,flye
MRSA_r10.4_sup_dup_10,ydjZ,ydjZ,1,1,191,191,flye
MRSA_r10.4_sup_dup_10,spsB_1,spsB_1,1,1,174,174,flye
MRSA_r10.4_sup_dup_10,spsB_2,spsB_2,1,1,191,191,flye
MRSA_r10.4_sup_dup_10,addB,addB,1,1,1158,1158,flye
MRSA_r10.4_sup_dup_10,addA,addA,1,1,1217,1217,flye
MRSA_r10.4_sup_dup_10,cdr,cdr,1,1,438,438,flye
MRSA_r10.4_sup_dup_10,yitU,yitU,1,1,274,274,flye
MRSA_r10.4_sup_dup_10,sufT,sufT,1,1,102,102,flye
MRSA_r10.4_sup_dup_10,oatA_1,oatA_2,0,1,604,604,flye
MRSA_r10.4_sup_dup_10,clpB,clpB,1,1,869,869,flye
MRSA_r10.4_sup_dup_10,ampR,ampR,1,1,289,289,flye
MRSA_r10.4_sup_dup_10,leuA_1,leuA_1,1,1,381,381,flye
MRSA_r10.4_sup_dup_10,map_1,map_2,0,1,144,144,flye
MRSA_r10.4_sup_dup_10,fabH,fabH,1,1,313,313,flye
MRSA_r10.4_sup_dup_10,fabF,fabF,1,1,414,414,flye
MRSA_r10.4_sup_dup_10,oppB,oppB,1,1,308,308,flye
MRSA_r10.4_sup_dup_10,oppC,oppC,1,1,356,356,flye
MRSA_r10.4_sup_dup_10,oppD_1,oppD_1,1,1,360,360,flye
MRSA_r10.4_sup_dup_10,oppF_1,oppF_1,1,1,313,313,flye
MRSA_r10.4_sup_dup_10,dppE,dppE,1,1,551,551,flye
MRSA_r10.4_sup_dup_10,appA,appA,1,1,451,451,flye
MRSA_r10.4_sup_dup_10,oppD_2,oppD_2,1,1,328,328,flye
MRSA_r10.4_sup_dup_10,oppF_2,oppF_2,1,1,326,326,flye
MRSA_r10.4_sup_dup_10,dppC,dppC,1,1,293,293,flye
MRSA_r10.4_sup_dup_10,trpS,trpS,1,1,329,329,flye
MRSA_r10.4_sup_dup_10,spxA,spxA,1,1,131,131,flye
MRSA_r10.4_sup_dup_10,mecA_2,mecA_2,1,1,239,239,flye
MRSA_r10.4_sup_dup_10,pepF1_1,pepF1_1,1,1,602,602,flye
MRSA_r10.4_sup_dup_10,yjbI,yjbI,1,1,121,121,flye
MRSA_r10.4_sup_dup_10,yjbK,yjbK,1,1,197,197,flye
MRSA_r10.4_sup_dup_10,yjbM,yjbM,1,1,211,211,flye
MRSA_r10.4_sup_dup_10,nadK,nadK,1,1,269,269,flye
MRSA_r10.4_sup_dup_10,mgtE,mgtE,1,1,461,461,flye
MRSA_r10.4_sup_dup_10,kefB,kefB,1,1,614,614,flye
MRSA_r10.4_sup_dup_10,fabI,fabI,1,1,256,256,flye
MRSA_r10.4_sup_dup_10,acp,acp,1,1,522,522,flye
MRSA_r10.4_sup_dup_10,ltaA,ltaA,1,1,396,396,flye
MRSA_r10.4_sup_dup_10,ugtP,ugtP,1,1,391,391,flye
MRSA_r10.4_sup_dup_10,murE,murE,1,1,494,494,flye
MRSA_r10.4_sup_dup_10,prfC,prfC,1,1,520,520,flye
MRSA_r10.4_sup_dup_10,ktrB_1,ktrB_1,1,1,452,452,flye
MRSA_r10.4_sup_dup_10,tarM,tarM,1,1,493,493,flye
MRSA_r10.4_sup_dup_10,catD,catD,1,1,118,118,flye
MRSA_r10.4_sup_dup_10,yfmC_1,yfmC_2,0,1,319,319,flye
MRSA_r10.4_sup_dup_10,menA,menA,1,1,312,312,flye
MRSA_r10.4_sup_dup_10,pchA,pchA,1,1,453,453,flye
MRSA_r10.4_sup_dup_10,menD,menD,1,1,557,557,flye
MRSA_r10.4_sup_dup_10,menH,menH,1,1,267,267,flye
MRSA_r10.4_sup_dup_10,menB,menB,1,1,273,273,flye
MRSA_r10.4_sup_dup_10,sspC,sspC,1,1,109,109,flye
MRSA_r10.4_sup_dup_10,sspB,sspB,1,1,393,393,flye
MRSA_r10.4_sup_dup_10,sspA,sspA,1,1,357,357,flye
MRSA_r10.4_sup_dup_10,dapX,dapX,1,1,384,384,flye
MRSA_r10.4_sup_dup_10,slyA_2,slyA_2,1,1,139,139,flye
MRSA_r10.4_sup_dup_10,atl_1,atl_2,0,1,1257,1257,flye
MRSA_r10.4_sup_dup_10,tagU_1,tagU_2,0,1,408,408,flye
MRSA_r10.4_sup_dup_10,fmtA,fmtA,1,1,397,397,flye
MRSA_r10.4_sup_dup_10,qoxD,qoxD,1,1,96,96,flye
MRSA_r10.4_sup_dup_10,qoxC,qoxC,1,1,201,201,flye
MRSA_r10.4_sup_dup_10,qoxB,qoxB,1,1,662,662,flye
MRSA_r10.4_sup_dup_10,qoxA,qoxA,1,1,366,366,flye
MRSA_r10.4_sup_dup_10,folD,folD,1,1,286,286,flye
MRSA_r10.4_sup_dup_10,purE,purE,1,1,160,160,flye
MRSA_r10.4_sup_dup_10,purK,purK,1,1,374,374,flye
MRSA_r10.4_sup_dup_10,purC,purC,1,1,234,234,flye
MRSA_r10.4_sup_dup_10,purS,purS,1,1,87,87,flye
MRSA_r10.4_sup_dup_10,purQ,purQ,1,1,223,223,flye
MRSA_r10.4_sup_dup_10,purL,purL,1,1,729,729,flye
MRSA_r10.4_sup_dup_10,purF,purF,1,1,494,494,flye
MRSA_r10.4_sup_dup_10,purM,purM,1,1,342,342,flye
MRSA_r10.4_sup_dup_10,purN,purN,1,1,188,188,flye
MRSA_r10.4_sup_dup_10,purH,purH,1,1,492,492,flye
MRSA_r10.4_sup_dup_10,purD,purD,1,1,415,415,flye
MRSA_r10.4_sup_dup_10,ecfT_1,ecfT_2,0,1,268,268,flye
MRSA_r10.4_sup_dup_10,ykoD_1,ykoD_2,0,1,466,466,flye
MRSA_r10.4_sup_dup_10,ykoE,ykoE,1,1,191,191,flye
MRSA_r10.4_sup_dup_10,rlmI,rlmI,1,1,390,390,flye
MRSA_r10.4_sup_dup_10,ptsH,ptsH,1,1,88,88,flye
MRSA_r10.4_sup_dup_10,ptsI,ptsI,1,1,572,572,flye
MRSA_r10.4_sup_dup_10,ythA,ythA,1,1,453,453,flye
MRSA_r10.4_sup_dup_10,ythB,ythB,1,1,339,339,flye
MRSA_r10.4_sup_dup_10,ktrA,ktrA,1,1,220,220,flye
MRSA_r10.4_sup_dup_10,rnj1,rnj1,1,1,565,565,flye
MRSA_r10.4_sup_dup_10,def,def,1,1,183,183,flye
MRSA_r10.4_sup_dup_10,pdhA,pdhA,1,1,370,370,flye
MRSA_r10.4_sup_dup_10,pdhB,pdhB,1,1,325,325,flye
MRSA_r10.4_sup_dup_10,pdhC_1,pdhC_1,1,1,430,430,flye
MRSA_r10.4_sup_dup_10,pdhD,pdhD,1,1,468,468,flye
MRSA_r10.4_sup_dup_10,potA,potA,1,1,364,364,flye
MRSA_r10.4_sup_dup_10,potB,potB,1,1,265,265,flye
MRSA_r10.4_sup_dup_10,ydcV,ydcV,1,1,269,269,flye
MRSA_r10.4_sup_dup_10,potD,potD,1,1,357,357,flye
MRSA_r10.4_sup_dup_10,mntH_1,mntH_1,1,1,450,450,flye
MRSA_r10.4_sup_dup_10,suhB,suhB,1,1,275,275,flye
MRSA_r10.4_sup_dup_10,typA,typA,1,1,615,615,flye
MRSA_r10.4_sup_dup_10,ftsW,ftsW,1,1,408,408,flye
MRSA_r10.4_sup_dup_10,pycA,pycA,1,1,1150,1150,flye
MRSA_r10.4_sup_dup_10,ctaA,ctaA,1,1,306,306,flye
MRSA_r10.4_sup_dup_10,ctaB2,ctaB2,1,1,303,303,flye
MRSA_r10.4_sup_dup_10,rsmD,rsmD,1,1,180,180,flye
MRSA_r10.4_sup_dup_10,coaD,coaD,1,1,160,160,flye
MRSA_r10.4_sup_dup_10,tmcAL,tmcAL,1,1,379,379,flye
MRSA_r10.4_sup_dup_10,rpmF,rpmF,1,1,57,57,flye
MRSA_r10.4_sup_dup_10,isdB,isdB,1,1,652,652,flye
MRSA_r10.4_sup_dup_10,isdA,isdA,1,1,354,354,flye
MRSA_r10.4_sup_dup_10,isdC,isdC,1,1,227,227,flye
MRSA_r10.4_sup_dup_10,isdE,isdE,1,1,292,292,flye
MRSA_r10.4_sup_dup_10,isdF,isdF,1,1,322,322,flye
MRSA_r10.4_sup_dup_10,srtB,srtB,1,1,244,244,flye
MRSA_r10.4_sup_dup_10,isdG_1,isdG_2,0,1,107,107,flye
MRSA_r10.4_sup_dup_10,pheS,pheS,1,1,352,352,flye
MRSA_r10.4_sup_dup_10,pheT,pheT,1,1,800,800,flye
MRSA_r10.4_sup_dup_10,rnhC,rnhC,1,1,329,329,flye
MRSA_r10.4_sup_dup_10,zapA,zapA,1,1,88,88,flye
MRSA_r10.4_sup_dup_10,polX,polX,1,1,570,570,flye
MRSA_r10.4_sup_dup_10,mutS2,mutS2,1,1,782,782,flye
MRSA_r10.4_sup_dup_10,trxA,trxA,1,1,104,104,flye
MRSA_r10.4_sup_dup_10,uvrC,uvrC,1,1,593,593,flye
MRSA_r10.4_sup_dup_10,sdhC,sdhC,1,1,204,204,flye
MRSA_r10.4_sup_dup_10,frdA,frdA,1,1,588,588,flye
MRSA_r10.4_sup_dup_10,frdB,frdB,1,1,271,271,flye
MRSA_r10.4_sup_dup_10,murI,murI,1,1,266,266,flye
MRSA_r10.4_sup_dup_10,fib,fib,1,1,165,165,flye
MRSA_r10.4_sup_dup_10,scn_2,scn_2,1,1,116,116,flye
MRSA_r10.4_sup_dup_10,hly_1,hly_1,1,1,206,206,flye
MRSA_r10.4_sup_dup_10,hly_2,hly_2,1,1,112,112,flye
MRSA_r10.4_sup_dup_10,argF,argF,1,1,333,333,flye
MRSA_r10.4_sup_dup_10,arcC1,arcC1,1,1,311,311,flye
MRSA_r10.4_sup_dup_10,yfnB,yfnB,1,1,228,228,flye
MRSA_r10.4_sup_dup_10,bshC,bshC,1,1,537,537,flye
MRSA_r10.4_sup_dup_10,mraZ,mraZ,1,1,143,143,flye
MRSA_r10.4_sup_dup_10,rsmH_1,rsmH_1,1,1,311,311,flye
MRSA_r10.4_sup_dup_10,ftsL,ftsL,1,1,133,133,flye
MRSA_r10.4_sup_dup_10,pbpB,pbpB,1,1,744,744,flye
MRSA_r10.4_sup_dup_10,mraY,mraY,1,1,321,321,flye
MRSA_r10.4_sup_dup_10,murD,murD,1,1,449,449,flye
MRSA_r10.4_sup_dup_10,divIB,divIB,1,1,439,439,flye
MRSA_r10.4_sup_dup_10,ftsA,ftsA,1,1,468,468,flye
MRSA_r10.4_sup_dup_10,ftsZ,ftsZ,1,1,390,390,flye
MRSA_r10.4_sup_dup_10,yggS,yggS,1,1,222,222,flye
MRSA_r10.4_sup_dup_10,sepF,sepF,1,1,187,187,flye
MRSA_r10.4_sup_dup_10,divIVA,divIVA,1,1,198,198,flye
MRSA_r10.4_sup_dup_10,ileS,ileS,1,1,917,917,flye
MRSA_r10.4_sup_dup_10,catE_1,catE_2,0,1,265,265,flye
MRSA_r10.4_sup_dup_10,lspA,lspA,1,1,163,163,flye
MRSA_r10.4_sup_dup_10,rluD_1,rluD_1,1,1,305,305,flye
MRSA_r10.4_sup_dup_10,pyrR,pyrR,1,1,175,175,flye
MRSA_r10.4_sup_dup_10,pyrP,pyrP,1,1,435,435,flye
MRSA_r10.4_sup_dup_10,pyrB,pyrB,1,1,293,293,flye
MRSA_r10.4_sup_dup_10,pyrC,pyrC,1,1,425,425,flye
MRSA_r10.4_sup_dup_10,carA_2,carA_2,1,1,366,366,flye
MRSA_r10.4_sup_dup_10,carB,carB,1,1,1057,1057,flye
MRSA_r10.4_sup_dup_10,pyrF,pyrF,1,1,230,230,flye
MRSA_r10.4_sup_dup_10,pyrE,pyrE,1,1,203,203,flye
MRSA_r10.4_sup_dup_10,rqcH,rqcH,1,1,565,565,flye
MRSA_r10.4_sup_dup_10,gmk,gmk,1,1,207,207,flye
MRSA_r10.4_sup_dup_10,rpoZ,rpoZ,1,1,72,72,flye
MRSA_r10.4_sup_dup_10,coaBC,coaBC,1,1,399,399,flye
MRSA_r10.4_sup_dup_10,priA,priA,1,1,802,802,flye
MRSA_r10.4_sup_dup_10,def1,def1,1,1,162,162,flye
MRSA_r10.4_sup_dup_10,fmt,fmt,1,1,311,311,flye
MRSA_r10.4_sup_dup_10,rsmB,rsmB,1,1,435,435,flye
MRSA_r10.4_sup_dup_10,rlmN,rlmN,1,1,364,364,flye
MRSA_r10.4_sup_dup_10,stp,stp,1,1,247,247,flye
MRSA_r10.4_sup_dup_10,prkC,prkC,1,1,664,664,flye
MRSA_r10.4_sup_dup_10,rsgA,rsgA,1,1,291,291,flye
MRSA_r10.4_sup_dup_10,rpe,rpe,1,1,214,214,flye
MRSA_r10.4_sup_dup_10,thiN,thiN,1,1,213,213,flye
MRSA_r10.4_sup_dup_10,rpmB,rpmB,1,1,62,62,flye
MRSA_r10.4_sup_dup_10,recG,recG,1,1,686,686,flye
MRSA_r10.4_sup_dup_10,fapR,fapR,1,1,185,185,flye
MRSA_r10.4_sup_dup_10,plsX,plsX,1,1,328,328,flye
MRSA_r10.4_sup_dup_10,fabD,fabD,1,1,308,308,flye
MRSA_r10.4_sup_dup_10,fabG,fabG,1,1,244,244,flye
MRSA_r10.4_sup_dup_10,acpP,acpP,1,1,77,77,flye
MRSA_r10.4_sup_dup_10,rnc,rnc,1,1,243,243,flye
MRSA_r10.4_sup_dup_10,smc_1,smc_1,1,1,1188,1188,flye
MRSA_r10.4_sup_dup_10,ftsY,ftsY,1,1,416,416,flye
MRSA_r10.4_sup_dup_10,ffh,ffh,1,1,455,455,flye
MRSA_r10.4_sup_dup_10,rpsP,rpsP,1,1,91,91,flye
MRSA_r10.4_sup_dup_10,rimM,rimM,1,1,167,167,flye
MRSA_r10.4_sup_dup_10,trmD,trmD,1,1,245,245,flye
MRSA_r10.4_sup_dup_10,rplS,rplS,1,1,116,116,flye
MRSA_r10.4_sup_dup_10,rbgA,rbgA,1,1,294,294,flye
MRSA_r10.4_sup_dup_10,rnhB,rnhB,1,1,255,255,flye
MRSA_r10.4_sup_dup_10,sucC,sucC,1,1,388,388,flye
MRSA_r10.4_sup_dup_10,sucD,sucD,1,1,302,302,flye
MRSA_r10.4_sup_dup_10,lytN,lytN,1,1,372,372,flye
MRSA_r10.4_sup_dup_10,femA_1,femA_2,0,1,414,414,flye
MRSA_r10.4_sup_dup_10,topA,topA,1,1,691,691,flye
MRSA_r10.4_sup_dup_10,trmFO,trmFO,1,1,435,435,flye
MRSA_r10.4_sup_dup_10,xerC_4,xerC_4,1,1,298,298,flye
MRSA_r10.4_sup_dup_10,hslV,hslV,1,1,181,181,flye
MRSA_r10.4_sup_dup_10,hslU,hslU,1,1,467,467,flye
MRSA_r10.4_sup_dup_10,codY,codY,1,1,257,257,flye
MRSA_r10.4_sup_dup_10,rpsB,rpsB,1,1,255,255,flye
MRSA_r10.4_sup_dup_10,tsf,tsf,1,1,293,293,flye
MRSA_r10.4_sup_dup_10,pyrH,pyrH,1,1,240,240,flye
MRSA_r10.4_sup_dup_10,frr,frr,1,1,184,184,flye
MRSA_r10.4_sup_dup_10,uppS,uppS,1,1,256,256,flye
MRSA_r10.4_sup_dup_10,proS,proS,1,1,567,567,flye
MRSA_r10.4_sup_dup_10,polC,polC,1,1,1438,1438,flye
MRSA_r10.4_sup_dup_10,rimP,rimP,1,1,155,155,flye
MRSA_r10.4_sup_dup_10,nusA,nusA,1,1,391,391,flye
MRSA_r10.4_sup_dup_10,rplGA,rplGA,1,1,105,105,flye
MRSA_r10.4_sup_dup_10,infB_1,infB_1,1,1,705,705,flye
MRSA_r10.4_sup_dup_10,rbfA,rbfA,1,1,116,116,flye
MRSA_r10.4_sup_dup_10,truB,truB,1,1,305,305,flye
MRSA_r10.4_sup_dup_10,ribF,ribF,1,1,323,323,flye
MRSA_r10.4_sup_dup_10,rpsO,rpsO,1,1,89,89,flye
MRSA_r10.4_sup_dup_10,pnp_2,pnp_2,1,1,698,698,flye
MRSA_r10.4_sup_dup_10,rnj2,rnj2,1,1,557,557,flye
MRSA_r10.4_sup_dup_10,ftsK,ftsK,1,1,789,789,flye
MRSA_r10.4_sup_dup_10,gamR,gamR,1,1,237,237,flye
MRSA_r10.4_sup_dup_10,phaB,phaB,1,1,234,234,flye
MRSA_r10.4_sup_dup_10,pgsA,pgsA,1,1,192,192,flye
MRSA_r10.4_sup_dup_10,cinA,cinA,1,1,383,383,flye
MRSA_r10.4_sup_dup_10,recA,recA,1,1,347,347,flye
MRSA_r10.4_sup_dup_10,rny,rny,1,1,519,519,flye
MRSA_r10.4_sup_dup_10,ymdB,ymdB,1,1,265,265,flye
MRSA_r10.4_sup_dup_10,miaB,miaB,1,1,514,514,flye
MRSA_r10.4_sup_dup_10,ymcA,ymcA,1,1,121,121,flye
MRSA_r10.4_sup_dup_10,mutS_1,mutS_1,1,1,872,872,flye
MRSA_r10.4_sup_dup_10,mutL,mutL,1,1,669,669,flye
MRSA_r10.4_sup_dup_10,glpP,glpP,1,1,177,177,flye
MRSA_r10.4_sup_dup_10,glpF,glpF,1,1,272,272,flye
MRSA_r10.4_sup_dup_10,glpK,glpK,1,1,498,498,flye
MRSA_r10.4_sup_dup_10,glpD,glpD,1,1,557,557,flye
MRSA_r10.4_sup_dup_10,miaA,miaA,1,1,311,311,flye
MRSA_r10.4_sup_dup_10,hfq,hfq,1,1,77,77,flye
MRSA_r10.4_sup_dup_10,bsaA_1,bsaA_2,0,1,158,158,flye
MRSA_r10.4_sup_dup_10,hflX,hflX,1,1,412,412,flye
MRSA_r10.4_sup_dup_10,glnR,glnR,1,1,122,122,flye
MRSA_r10.4_sup_dup_10,glnA,glnA,1,1,446,446,flye
MRSA_r10.4_sup_dup_10,infB_2,infB_2,1,1,615,615,flye
MRSA_r10.4_sup_dup_10,ltaE,ltaE,1,1,341,341,flye
MRSA_r10.4_sup_dup_10,cls_1,cls_2,0,1,493,493,flye
MRSA_r10.4_sup_dup_10,btuD_3,btuD_3,1,1,299,299,flye
MRSA_r10.4_sup_dup_10,desR,desR,1,1,168,168,flye
MRSA_r10.4_sup_dup_10,nucH,nucH,1,1,177,177,flye
MRSA_r10.4_sup_dup_10,yclM,yclM,1,1,460,460,flye
MRSA_r10.4_sup_dup_10,thrC,thrC,1,1,353,353,flye
MRSA_r10.4_sup_dup_10,thrB,thrB,1,1,304,304,flye
MRSA_r10.4_sup_dup_10,lysP_1,lysP_1,1,1,484,484,flye
MRSA_r10.4_sup_dup_10,katA,katA,1,1,505,505,flye
MRSA_r10.4_sup_dup_10,rpmG2_1,rpmG2_1,1,1,49,49,flye
MRSA_r10.4_sup_dup_10,rpsN2,rpsN2,1,1,89,89,flye
MRSA_r10.4_sup_dup_10,guaC,guaC,1,1,325,325,flye
MRSA_r10.4_sup_dup_10,lexA_1,lexA_1,1,1,207,207,flye
MRSA_r10.4_sup_dup_10,tkt,tkt,1,1,662,662,flye
MRSA_r10.4_sup_dup_10,sbcD,,0,0,373,0,flye
MRSA_r10.4_sup_dup_10,sbcC,sbcC,1,1,1009,1009,flye
MRSA_r10.4_sup_dup_10,mscL,mscL,1,1,120,120,flye
MRSA_r10.4_sup_dup_10,opuD_1,opuD_3,0,1,548,548,flye
MRSA_r10.4_sup_dup_10,acnA,acnA,1,1,901,901,flye
MRSA_r10.4_sup_dup_10,plsY,plsY,1,1,202,202,flye
MRSA_r10.4_sup_dup_10,parE,parE,1,1,663,663,flye
MRSA_r10.4_sup_dup_10,parC,parC,1,1,800,800,flye
MRSA_r10.4_sup_dup_10,alsT,alsT,1,1,486,486,flye
MRSA_r10.4_sup_dup_10,glcT,glcT,1,1,283,283,flye
MRSA_r10.4_sup_dup_10,mprF,mprF,1,1,840,840,flye
MRSA_r10.4_sup_dup_10,msrA1,msrA1,1,1,169,169,flye
MRSA_r10.4_sup_dup_10,msrR,msrR,1,1,327,327,flye
MRSA_r10.4_sup_dup_10,umuC,umuC,1,1,420,420,flye
MRSA_r10.4_sup_dup_10,ysdC_1,ysdC_2,0,1,343,343,flye
MRSA_r10.4_sup_dup_10,trpE,trpE,1,1,468,468,flye
MRSA_r10.4_sup_dup_10,trpG_2,trpG_2,1,1,188,188,flye
MRSA_r10.4_sup_dup_10,trpD2,trpD2,1,1,257,257,flye
MRSA_r10.4_sup_dup_10,trpC,trpC,1,1,260,260,flye
MRSA_r10.4_sup_dup_10,trpF,trpF,1,1,211,211,flye
MRSA_r10.4_sup_dup_10,trpB,trpB,1,1,404,404,flye
MRSA_r10.4_sup_dup_10,trpA,trpA,1,1,242,242,flye
MRSA_r10.4_sup_dup_10,femA_2,femA_3,0,1,420,420,flye
MRSA_r10.4_sup_dup_10,femB,femB,1,1,419,419,flye
MRSA_r10.4_sup_dup_10,nikE,nikE,1,1,233,233,flye
MRSA_r10.4_sup_dup_10,nikD,nikD,1,1,257,257,flye
MRSA_r10.4_sup_dup_10,nikC,nikC,1,1,276,276,flye
MRSA_r10.4_sup_dup_10,nikB,nikB,1,1,328,328,flye
MRSA_r10.4_sup_dup_10,pepF1_2,pepF1_2,1,1,604,604,flye
MRSA_r10.4_sup_dup_10,phoU,phoU,1,1,213,213,flye
MRSA_r10.4_sup_dup_10,pstB3,pstB3,1,1,283,283,flye
MRSA_r10.4_sup_dup_10,pstA,pstA,1,1,305,305,flye
MRSA_r10.4_sup_dup_10,pstS,pstS,1,1,327,327,flye
MRSA_r10.4_sup_dup_10,cvfB,cvfB,1,1,300,300,flye
MRSA_r10.4_sup_dup_10,ybiT,ybiT,1,1,533,533,flye
MRSA_r10.4_sup_dup_10,lysC,lysC,1,1,401,401,flye
MRSA_r10.4_sup_dup_10,asd,asd,1,1,329,329,flye
MRSA_r10.4_sup_dup_10,dapA,dapA,1,1,295,295,flye
MRSA_r10.4_sup_dup_10,dapB,dapB,1,1,240,240,flye
MRSA_r10.4_sup_dup_10,dapH_2,dapH_2,1,1,239,239,flye
MRSA_r10.4_sup_dup_10,scmP_3,scmP_4,0,1,383,383,flye
MRSA_r10.4_sup_dup_10,alr1_1,alr1_2,0,1,361,361,flye
MRSA_r10.4_sup_dup_10,lysA,lysA,1,1,421,421,flye
MRSA_r10.4_sup_dup_10,cspA_2,cspA_2,1,1,66,66,flye
MRSA_r10.4_sup_dup_10,yccX,yccX,1,1,89,89,flye
MRSA_r10.4_sup_dup_10,brnQ_3,brnQ_3,1,1,447,447,flye
MRSA_r10.4_sup_dup_10,nirQ,nirQ,1,1,263,263,flye
MRSA_r10.4_sup_dup_10,mhqA_2,mhqA_3,0,1,269,269,flye
MRSA_r10.4_sup_dup_10,odhB,odhB,1,1,423,423,flye
MRSA_r10.4_sup_dup_10,odhA,odhA,1,1,932,932,flye
MRSA_r10.4_sup_dup_10,arlS,arlS,1,1,451,451,flye
MRSA_r10.4_sup_dup_10,arlR,arlR,1,1,219,219,flye
MRSA_r10.4_sup_dup_10,murG,murG,1,1,356,356,flye
MRSA_r10.4_sup_dup_10,crr,crr,1,1,166,166,flye
MRSA_r10.4_sup_dup_10,msrB,msrB,1,1,142,142,flye
MRSA_r10.4_sup_dup_10,msrA2,,0,0,177,0,flye
MRSA_r10.4_sup_dup_10,folA,folA,1,1,159,159,flye
MRSA_r10.4_sup_dup_10,thyA,thyA,1,1,318,318,flye
MRSA_r10.4_sup_dup_10,rnhA,,0,0,133,0,flye
MRSA_r10.4_sup_dup_10,ebh,ebh,1,1,10746,10746,flye
MRSA_r10.4_sup_dup_10,norB_3,norB_4,0,1,463,463,flye
MRSA_r10.4_sup_dup_10,steT,steT,1,1,440,440,flye
MRSA_r10.4_sup_dup_10,tdcB,tdcB,1,1,346,346,flye
MRSA_r10.4_sup_dup_10,ald1,ald1,1,1,372,372,flye
MRSA_r10.4_sup_dup_10,ypcP,ypcP,1,1,292,292,flye
MRSA_r10.4_sup_dup_10,der_1,der_1,1,1,1146,1146,flye
MRSA_r10.4_sup_dup_10,rlmL,rlmL,1,1,381,381,flye
MRSA_r10.4_sup_dup_10,gpsB,gpsB,1,1,114,114,flye
MRSA_r10.4_sup_dup_10,recU,recU,1,1,208,208,flye
MRSA_r10.4_sup_dup_10,ponA,ponA,1,1,716,716,flye
MRSA_r10.4_sup_dup_10,nth_2,nth_2,1,1,219,219,flye
MRSA_r10.4_sup_dup_10,dnaD,dnaD,1,1,228,228,flye
MRSA_r10.4_sup_dup_10,asnS,asnS,1,1,430,430,flye
MRSA_r10.4_sup_dup_10,dinG_1,dinG_1,1,1,897,897,flye
MRSA_r10.4_sup_dup_10,birA,birA,1,1,323,323,flye
MRSA_r10.4_sup_dup_10,cca,cca,1,1,400,400,flye
MRSA_r10.4_sup_dup_10,bshA,bshA,1,1,380,380,flye
MRSA_r10.4_sup_dup_10,ypjD,ypjD,1,1,105,105,flye
MRSA_r10.4_sup_dup_10,bepA,bepA,1,1,414,414,flye
MRSA_r10.4_sup_dup_10,aroA_1,aroA_1,1,1,432,432,flye
MRSA_r10.4_sup_dup_10,aroB,aroB,1,1,354,354,flye
MRSA_r10.4_sup_dup_10,aroC,aroC,1,1,388,388,flye
MRSA_r10.4_sup_dup_10,ndk,ndk,1,1,149,149,flye
MRSA_r10.4_sup_dup_10,hepT,hepT,1,1,319,319,flye
MRSA_r10.4_sup_dup_10,menG,menG,1,1,241,241,flye
MRSA_r10.4_sup_dup_10,hup,hup,1,1,90,90,flye
MRSA_r10.4_sup_dup_10,gpsA,gpsA,1,1,332,332,flye
MRSA_r10.4_sup_dup_10,der_2,der_2,1,1,436,436,flye
MRSA_r10.4_sup_dup_10,rpsA,rpsA,1,1,391,391,flye
MRSA_r10.4_sup_dup_10,cmk,cmk,1,1,219,219,flye
MRSA_r10.4_sup_dup_10,ansA,ansA,1,1,322,322,flye
MRSA_r10.4_sup_dup_10,ebpS,ebpS,1,1,486,486,flye
MRSA_r10.4_sup_dup_10,recQ_2,recQ_2,1,1,459,459,flye
MRSA_r10.4_sup_dup_10,ribU,ribU,1,1,181,181,flye
MRSA_r10.4_sup_dup_10,smc_2,,0,0,2066,0,flye
MRSA_r10.4_sup_dup_10,clpP_2,clpP_2,1,1,257,257,flye
MRSA_r10.4_sup_dup_10,xerC_5,xerC_5,1,1,401,401,flye
MRSA_r10.4_sup_dup_10,srrB,srrB,1,1,583,583,flye
MRSA_r10.4_sup_dup_10,srrA,srrA,1,1,241,241,flye
MRSA_r10.4_sup_dup_10,rluB,rluB,1,1,245,245,flye
MRSA_r10.4_sup_dup_10,scpB,scpB,1,1,180,180,flye
MRSA_r10.4_sup_dup_10,scpA,scpA,1,1,251,251,flye
MRSA_r10.4_sup_dup_10,xerD_2,xerD_2,1,1,295,295,flye
MRSA_r10.4_sup_dup_10,fur,fur,1,1,149,149,flye
MRSA_r10.4_sup_dup_10,nudF,nudF,1,1,180,180,flye
MRSA_r10.4_sup_dup_10,yajO,yajO,1,1,302,302,flye
MRSA_r10.4_sup_dup_10,proC,proC,1,1,271,271,flye
MRSA_r10.4_sup_dup_10,rnz,rnz,1,1,306,306,flye
MRSA_r10.4_sup_dup_10,zwf,zwf,1,1,494,494,flye
MRSA_r10.4_sup_dup_10,malL,malL,1,1,549,549,flye
MRSA_r10.4_sup_dup_10,malR,malR,1,1,339,339,flye
MRSA_r10.4_sup_dup_10,psuK,psuK,1,1,299,299,flye
MRSA_r10.4_sup_dup_10,entS,entS,1,1,369,369,flye
MRSA_r10.4_sup_dup_10,gnd,gnd,1,1,468,468,flye
MRSA_r10.4_sup_dup_10,pepT_2,pepT_2,1,1,377,377,flye
MRSA_r10.4_sup_dup_10,pdhC_2,pdhC_2,1,1,424,424,flye
MRSA_r10.4_sup_dup_10,bfmBAB,bfmBAB,1,1,327,327,flye
MRSA_r10.4_sup_dup_10,bfmBAA,bfmBAA,1,1,330,330,flye
MRSA_r10.4_sup_dup_10,recN,,0,0,559,0,flye
MRSA_r10.4_sup_dup_10,argR_1,argR_2,0,1,150,150,flye
MRSA_r10.4_sup_dup_10,xseB,xseB,1,1,76,76,flye
MRSA_r10.4_sup_dup_10,xseA,xseA,1,1,445,445,flye
MRSA_r10.4_sup_dup_10,nusB,nusB,1,1,129,129,flye
MRSA_r10.4_sup_dup_10,cfiB,cfiB,1,1,451,451,flye
MRSA_r10.4_sup_dup_10,accB_1,accB_1,1,1,154,154,flye
MRSA_r10.4_sup_dup_10,efp,efp,1,1,185,185,flye
MRSA_r10.4_sup_dup_10,ypdF,ypdF,1,1,353,353,flye
MRSA_r10.4_sup_dup_10,lipM,lipM,1,1,276,276,flye
MRSA_r10.4_sup_dup_10,yibN,yibN,1,1,128,128,flye
MRSA_r10.4_sup_dup_10,gcvPB,gcvPB,1,1,490,490,flye
MRSA_r10.4_sup_dup_10,gcvPA,gcvPA,1,1,448,448,flye
MRSA_r10.4_sup_dup_10,gcvT,gcvT,1,1,363,363,flye
MRSA_r10.4_sup_dup_10,aroK,aroK,1,1,174,174,flye
MRSA_r10.4_sup_dup_10,comGC,comGC,1,1,103,103,flye
MRSA_r10.4_sup_dup_10,comGA,comGA,1,1,324,324,flye
MRSA_r10.4_sup_dup_10,glcK,glcK,1,1,328,328,flye
MRSA_r10.4_sup_dup_10,gluP,gluP,1,1,487,487,flye
MRSA_r10.4_sup_dup_10,yqgN,yqgN,1,1,197,197,flye
MRSA_r10.4_sup_dup_10,rpmG2_2,rpmG2_2,1,1,49,49,flye
MRSA_r10.4_sup_dup_10,pbpH,pbpH,1,1,691,691,flye
MRSA_r10.4_sup_dup_10,sodA,sodA,1,1,199,199,flye
MRSA_r10.4_sup_dup_10,zur,zur,1,1,136,136,flye
MRSA_r10.4_sup_dup_10,znuB,znuB,1,1,290,290,flye
MRSA_r10.4_sup_dup_10,btuD_4,btuD_4,1,1,261,261,flye
MRSA_r10.4_sup_dup_10,nfo,nfo,1,1,296,296,flye
MRSA_r10.4_sup_dup_10,cshB,cshB,1,1,448,448,flye
MRSA_r10.4_sup_dup_10,trmK,trmK,1,1,225,225,flye
MRSA_r10.4_sup_dup_10,sigA,sigA,1,1,368,368,flye
MRSA_r10.4_sup_dup_10,dnaG,dnaG,1,1,599,599,flye
MRSA_r10.4_sup_dup_10,yqfL,yqfL,1,1,272,272,flye
MRSA_r10.4_sup_dup_10,ccpN,ccpN,1,1,179,179,flye
MRSA_r10.4_sup_dup_10,glyQS,glyQS,1,1,463,463,flye
MRSA_r10.4_sup_dup_10,recO,recO,1,1,248,248,flye
MRSA_r10.4_sup_dup_10,era,era,1,1,299,299,flye
MRSA_r10.4_sup_dup_10,cdd,cdd,1,1,134,134,flye
MRSA_r10.4_sup_dup_10,dgkA,dgkA,1,1,114,114,flye
MRSA_r10.4_sup_dup_10,ybeY,ybeY,1,1,155,155,flye
MRSA_r10.4_sup_dup_10,rpsU,rpsU,1,1,58,58,flye
MRSA_r10.4_sup_dup_10,mtaB,mtaB,1,1,448,448,flye
MRSA_r10.4_sup_dup_10,rsmE,rsmE,1,1,250,250,flye
MRSA_r10.4_sup_dup_10,prmA,prmA,1,1,312,312,flye
MRSA_r10.4_sup_dup_10,dnaJ,dnaJ,1,1,379,379,flye
MRSA_r10.4_sup_dup_10,dnaK,dnaK,1,1,610,610,flye
MRSA_r10.4_sup_dup_10,grpE,grpE,1,1,208,208,flye
MRSA_r10.4_sup_dup_10,hrcA,hrcA,1,1,325,325,flye
MRSA_r10.4_sup_dup_10,hemW,hemW,1,1,385,385,flye
MRSA_r10.4_sup_dup_10,lepA,lepA,1,1,607,607,flye
MRSA_r10.4_sup_dup_10,rpsT,rpsT,1,1,83,83,flye
MRSA_r10.4_sup_dup_10,yqeN,yqeN,1,1,324,324,flye
MRSA_r10.4_sup_dup_10,comEC,,0,0,733,0,flye
MRSA_r10.4_sup_dup_10,tadA_2,tadA_2,1,1,143,143,flye
MRSA_r10.4_sup_dup_10,comEA,comEA,1,1,225,225,flye
MRSA_r10.4_sup_dup_10,tam,tam,1,1,238,238,flye
MRSA_r10.4_sup_dup_10,rsfS,rsfS,1,1,117,117,flye
MRSA_r10.4_sup_dup_10,nadD,nadD,1,1,189,189,flye
MRSA_r10.4_sup_dup_10,yhbY,yhbY,1,1,96,96,flye
MRSA_r10.4_sup_dup_10,aroE,aroE,1,1,268,268,flye
MRSA_r10.4_sup_dup_10,yqeH,yqeH,1,1,366,366,flye
MRSA_r10.4_sup_dup_10,mtnN,mtnN,1,1,228,228,flye
MRSA_r10.4_sup_dup_10,entA_1,entA_1,1,1,62,62,flye
MRSA_r10.4_sup_dup_10,entA_2,entA_2,1,1,167,167,flye
MRSA_r10.4_sup_dup_10,mntH_2,mntH_2,1,1,410,410,flye
MRSA_r10.4_sup_dup_10,pxpA,pxpA,1,1,250,250,flye
MRSA_r10.4_sup_dup_10,accC,accC,1,1,453,453,flye
MRSA_r10.4_sup_dup_10,accB_2,accB_2,1,1,149,149,flye
MRSA_r10.4_sup_dup_10,pxpC_2,pxpC_2,1,1,336,336,flye
MRSA_r10.4_sup_dup_10,pxpB_2,pxpB_2,1,1,244,244,flye
MRSA_r10.4_sup_dup_10,greA,greA,1,1,158,158,flye
MRSA_r10.4_sup_dup_10,udk,udk,1,1,207,207,flye
MRSA_r10.4_sup_dup_10,rlhA,rlhA,1,1,307,307,flye
MRSA_r10.4_sup_dup_10,trmR,trmR,1,1,212,212,flye
MRSA_r10.4_sup_dup_10,yrrK,yrrK,1,1,142,142,flye
MRSA_r10.4_sup_dup_10,alaS,alaS,1,1,877,877,flye
MRSA_r10.4_sup_dup_10,recD2,recD2,1,1,825,825,flye
MRSA_r10.4_sup_dup_10,yrrB,yrrB,1,1,222,222,flye
MRSA_r10.4_sup_dup_10,mnmA,mnmA,1,1,372,372,flye
MRSA_r10.4_sup_dup_10,iscS_1,iscS_1,1,1,380,380,flye
MRSA_r10.4_sup_dup_10,cymR,cymR,1,1,140,140,flye
MRSA_r10.4_sup_dup_10,aspS,aspS,1,1,588,588,flye
MRSA_r10.4_sup_dup_10,hisS,hisS,1,1,420,420,flye
MRSA_r10.4_sup_dup_10,dtd,dtd,1,1,150,150,flye
MRSA_r10.4_sup_dup_10,relA,relA,1,1,736,736,flye
MRSA_r10.4_sup_dup_10,apt,apt,1,1,172,172,flye
MRSA_r10.4_sup_dup_10,secDF,secDF,1,1,759,759,flye
MRSA_r10.4_sup_dup_10,yajC,yajC,1,1,86,86,flye
MRSA_r10.4_sup_dup_10,tgt,tgt,1,1,379,379,flye
MRSA_r10.4_sup_dup_10,queA,queA,1,1,341,341,flye
MRSA_r10.4_sup_dup_10,ruvB_2,ruvB_2,1,1,334,334,flye
MRSA_r10.4_sup_dup_10,ruvA,ruvA,1,1,200,200,flye
MRSA_r10.4_sup_dup_10,obg,obg,1,1,430,430,flye
MRSA_r10.4_sup_dup_10,rpmA,rpmA,1,1,94,94,flye
MRSA_r10.4_sup_dup_10,rplU,rplU,1,1,102,102,flye
MRSA_r10.4_sup_dup_10,mreC,mreC,1,1,280,280,flye
MRSA_r10.4_sup_dup_10,comC,comC,1,1,235,235,flye
MRSA_r10.4_sup_dup_10,fpgS,fpgS,1,1,423,423,flye
MRSA_r10.4_sup_dup_10,valS,valS,1,1,876,876,flye
MRSA_r10.4_sup_dup_10,tag,tag,1,1,186,186,flye
MRSA_r10.4_sup_dup_10,hemL1,hemL1,1,1,428,428,flye
MRSA_r10.4_sup_dup_10,hemB,hemB,1,1,324,324,flye
MRSA_r10.4_sup_dup_10,hemC,hemC,1,1,308,308,flye
MRSA_r10.4_sup_dup_10,hemA,hemA,1,1,448,448,flye
MRSA_r10.4_sup_dup_10,engB,engB,1,1,196,196,flye
MRSA_r10.4_sup_dup_10,clpX,clpX,1,1,420,420,flye
MRSA_r10.4_sup_dup_10,tig,tig,1,1,433,433,flye
MRSA_r10.4_sup_dup_10,rplT,rplT,1,1,118,118,flye
MRSA_r10.4_sup_dup_10,rpmI,rpmI,1,1,66,66,flye
MRSA_r10.4_sup_dup_10,infC,infC,1,1,186,186,flye
MRSA_r10.4_sup_dup_10,lysP_2,lysP_2,1,1,497,497,flye
MRSA_r10.4_sup_dup_10,thrS,thrS,1,1,645,645,flye
MRSA_r10.4_sup_dup_10,dnaI,dnaI,1,1,306,306,flye
MRSA_r10.4_sup_dup_10,dnaB,dnaB,1,1,466,466,flye
MRSA_r10.4_sup_dup_10,nrdR,nrdR,1,1,156,156,flye
MRSA_r10.4_sup_dup_10,gapA2,gapA2,1,1,341,341,flye
MRSA_r10.4_sup_dup_10,coaE,coaE,1,1,207,207,flye
MRSA_r10.4_sup_dup_10,mutM,mutM,1,1,290,290,flye
MRSA_r10.4_sup_dup_10,polA,polA,1,1,876,876,flye
MRSA_r10.4_sup_dup_10,sasA,sasA,1,1,554,554,flye
MRSA_r10.4_sup_dup_10,phoP,phoP,1,1,233,233,flye
MRSA_r10.4_sup_dup_10,icd,icd,1,1,422,422,flye
MRSA_r10.4_sup_dup_10,citZ,citZ,1,1,373,373,flye
MRSA_r10.4_sup_dup_10,cycA_1,cycA_2,0,1,453,453,flye
MRSA_r10.4_sup_dup_10,pyk,pyk,1,1,585,585,flye
MRSA_r10.4_sup_dup_10,pfkA,pfkA,1,1,322,322,flye
MRSA_r10.4_sup_dup_10,accA,accA,1,1,314,314,flye
MRSA_r10.4_sup_dup_10,accD,accD,1,1,285,285,flye
MRSA_r10.4_sup_dup_10,dnaE,dnaE,1,1,1065,1065,flye
MRSA_r10.4_sup_dup_10,nrnA,nrnA,1,1,313,313,flye
MRSA_r10.4_sup_dup_10,IMPDH,IMPDH,1,1,432,432,flye
MRSA_r10.4_sup_dup_10,ald2,ald2,1,1,372,372,flye
MRSA_r10.4_sup_dup_10,ackA,ackA,1,1,400,400,flye
MRSA_r10.4_sup_dup_10,tpx,tpx,1,1,164,164,flye
MRSA_r10.4_sup_dup_10,yfcA,yfcA,1,1,256,256,flye
MRSA_r10.4_sup_dup_10,thiI,thiI,1,1,407,407,flye
MRSA_r10.4_sup_dup_10,iscS_2,iscS_2,1,1,388,388,flye
MRSA_r10.4_sup_dup_10,ezrA,ezrA,1,1,564,564,flye
MRSA_r10.4_sup_dup_10,msrC,msrC,1,1,154,154,flye
MRSA_r10.4_sup_dup_10,rpsD,rpsD,1,1,200,200,flye
MRSA_r10.4_sup_dup_10,glpQ_2,glpQ_2,1,1,247,247,flye
MRSA_r10.4_sup_dup_10,serA,serA,1,1,534,534,flye
MRSA_r10.4_sup_dup_10,nagP,nagP,1,1,488,488,flye
MRSA_r10.4_sup_dup_10,plsC,plsC,1,1,205,205,flye
MRSA_r10.4_sup_dup_10,tyrS,tyrS,1,1,420,420,flye
MRSA_r10.4_sup_dup_10,mrcA,mrcA,1,1,301,301,flye
MRSA_r10.4_sup_dup_10,isdH_1,isdH_1,1,1,535,535,flye
MRSA_r10.4_sup_dup_10,isdH_2,isdH_2,1,1,278,278,flye
MRSA_r10.4_sup_dup_10,fhs,fhs,1,1,555,555,flye
MRSA_r10.4_sup_dup_10,acsA_1,acsA_2,0,1,568,568,flye
MRSA_r10.4_sup_dup_10,acuA,acuA,1,1,210,210,flye
MRSA_r10.4_sup_dup_10,acuC,acuC,1,1,389,389,flye
MRSA_r10.4_sup_dup_10,ccpA,ccpA,1,1,329,329,flye
MRSA_r10.4_sup_dup_10,aroA_2,aroA_2,1,1,363,363,flye
MRSA_r10.4_sup_dup_10,murC,murC,1,1,437,437,flye
MRSA_r10.4_sup_dup_10,ytpP,ytpP,1,1,103,103,flye
MRSA_r10.4_sup_dup_10,pepA_2,pepA_2,1,1,358,358,flye
MRSA_r10.4_sup_dup_10,ytnP,ytnP,1,1,280,280,flye
MRSA_r10.4_sup_dup_10,hin_2,hin_2,1,1,197,197,flye
MRSA_r10.4_sup_dup_10,blaI,blaI,1,1,126,126,flye
MRSA_r10.4_sup_dup_10,blaR1,blaR1,1,1,585,585,flye
MRSA_r10.4_sup_dup_10,blaZ,blaZ,1,1,281,281,flye
MRSA_r10.4_sup_dup_10,trmB,trmB,1,1,214,214,flye
MRSA_r10.4_sup_dup_10,dat,dat,1,1,282,282,flye
MRSA_r10.4_sup_dup_10,rsuA,rsuA,1,1,231,231,flye
MRSA_r10.4_sup_dup_10,murJ,murJ,1,1,553,553,flye
MRSA_r10.4_sup_dup_10,leuS,leuS,1,1,805,805,flye
MRSA_r10.4_sup_dup_10,mdtH,mdtH,1,1,393,393,flye
MRSA_r10.4_sup_dup_10,rsmH_2,rsmH_2,1,1,187,187,flye
MRSA_r10.4_sup_dup_10,rot,rot,1,1,133,133,flye
MRSA_r10.4_sup_dup_10,ytpA,ytpA,1,1,275,275,flye
MRSA_r10.4_sup_dup_10,putB,putB,1,1,333,333,flye
MRSA_r10.4_sup_dup_10,ribH,ribH,1,1,154,154,flye
MRSA_r10.4_sup_dup_10,ribBA,ribBA,1,1,393,393,flye
MRSA_r10.4_sup_dup_10,ribE,ribE,1,1,210,210,flye
MRSA_r10.4_sup_dup_10,ribD,ribD,1,1,347,347,flye
MRSA_r10.4_sup_dup_10,arsB_2,arsB_2,1,1,430,430,flye
MRSA_r10.4_sup_dup_10,atl_2,atl_3,0,1,284,284,flye
MRSA_r10.4_sup_dup_10,sigS,sigS,1,1,156,156,flye
MRSA_r10.4_sup_dup_10,tal,tal,1,1,237,237,flye
MRSA_r10.4_sup_dup_10,crcB_1,crcB_1,1,1,121,121,flye
MRSA_r10.4_sup_dup_10,crcB_2,crcB_2,1,1,117,117,flye
MRSA_r10.4_sup_dup_10,yvgN,yvgN,1,1,277,277,flye
MRSA_r10.4_sup_dup_10,metK,metK,1,1,397,397,flye
MRSA_r10.4_sup_dup_10,pckA,pckA,1,1,530,530,flye
MRSA_r10.4_sup_dup_10,ytkD,ytkD,1,1,159,159,flye
MRSA_r10.4_sup_dup_10,menC,menC,1,1,333,333,flye
MRSA_r10.4_sup_dup_10,menE_2,menE_2,1,1,492,492,flye
MRSA_r10.4_sup_dup_10,hylB,hylB,1,1,806,806,flye
MRSA_r10.4_sup_dup_10,prmC_1,prmC_2,0,1,518,518,flye
MRSA_r10.4_sup_dup_10,splF_1,splF_1,1,1,183,183,flye
MRSA_r10.4_sup_dup_10,splF_2,splF_2,1,1,41,41,flye
MRSA_r10.4_sup_dup_10,splE_1,splE_1,1,1,238,238,flye
MRSA_r10.4_sup_dup_10,splB_1,splB_1,1,1,74,74,flye
MRSA_r10.4_sup_dup_10,splE_2,splE_2,1,1,113,113,flye
MRSA_r10.4_sup_dup_10,splE_3,splE_3,1,1,238,238,flye
MRSA_r10.4_sup_dup_10,splC,splC,1,1,239,239,flye
MRSA_r10.4_sup_dup_10,splB_2,splB_2,1,1,54,54,flye
MRSA_r10.4_sup_dup_10,entG,entG,1,1,258,258,flye
MRSA_r10.4_sup_dup_10,entA_3,entA_3,1,1,251,251,flye
MRSA_r10.4_sup_dup_10,entB,entB,1,1,261,261,flye
MRSA_r10.4_sup_dup_10,entE,entE,1,1,254,254,flye
MRSA_r10.4_sup_dup_10,ydeN,ydeN,1,1,184,184,flye
MRSA_r10.4_sup_dup_10,hemY,,0,0,466,0,flye
MRSA_r10.4_sup_dup_10,hemH,hemH,1,1,307,307,flye
MRSA_r10.4_sup_dup_10,hemE,hemE,1,1,345,345,flye
MRSA_r10.4_sup_dup_10,traP,traP,1,1,167,167,flye
MRSA_r10.4_sup_dup_10,ecsA,ecsA,1,1,246,246,flye
MRSA_r10.4_sup_dup_10,hit,hit,1,1,140,140,flye
MRSA_r10.4_sup_dup_10,prsA,prsA,1,1,320,320,flye
MRSA_r10.4_sup_dup_10,yhaM,yhaM,1,1,313,313,flye
MRSA_r10.4_sup_dup_10,cpdA_1,cpdA_2,0,1,398,398,flye
MRSA_r10.4_sup_dup_10,liaR,liaR,1,1,207,207,flye
MRSA_r10.4_sup_dup_10,rluD_2,rluD_2,1,1,273,273,flye
MRSA_r10.4_sup_dup_10,fumC,fumC,1,1,461,461,flye
MRSA_r10.4_sup_dup_10,nagB_2,nagB_2,1,1,199,199,flye
MRSA_r10.4_sup_dup_10,trmL,trmL,1,1,156,156,flye
MRSA_r10.4_sup_dup_10,queG,queG,1,1,375,375,flye
MRSA_r10.4_sup_dup_10,tcyC_1,,0,0,242,0,flye
MRSA_r10.4_sup_dup_10,mltF,mltF,1,1,485,485,flye
MRSA_r10.4_sup_dup_10,perR,perR,1,1,148,148,flye
MRSA_r10.4_sup_dup_10,ghrB_2,ghrB_2,1,1,319,319,flye
MRSA_r10.4_sup_dup_10,bcp,bcp,1,1,151,151,flye
MRSA_r10.4_sup_dup_10,hemL2,hemL2,1,1,429,429,flye
MRSA_r10.4_sup_dup_10,mutY,mutY,1,1,345,345,flye
MRSA_r10.4_sup_dup_10,yfhP,yfhP,1,1,325,325,flye
MRSA_r10.4_sup_dup_10,tagH_2,tagH_2,1,1,505,505,flye
MRSA_r10.4_sup_dup_10,yfhH,yfhH,1,1,104,104,flye
MRSA_r10.4_sup_dup_10,recX,recX,1,1,272,272,flye
MRSA_r10.4_sup_dup_10,mgt,mgt,1,1,269,269,flye
MRSA_r10.4_sup_dup_10,pepS,pepS,1,1,415,415,flye
MRSA_r10.4_sup_dup_10,ptpA,ptpA,1,1,154,154,flye
MRSA_r10.4_sup_dup_10,vraR,vraR,1,1,209,209,flye
MRSA_r10.4_sup_dup_10,vraS,vraS,1,1,347,347,flye
MRSA_r10.4_sup_dup_10,map_2,map_3,0,1,252,252,flye
MRSA_r10.4_sup_dup_10,gatD_2,gatD_2,1,1,243,243,flye
MRSA_r10.4_sup_dup_10,murT,murT,1,1,437,437,flye
MRSA_r10.4_sup_dup_10,ftnA,ftnA,1,1,166,166,flye
MRSA_r10.4_sup_dup_10,dinB,dinB,1,1,356,356,flye
MRSA_r10.4_sup_dup_10,rlmCD,rlmCD,1,1,453,453,flye
MRSA_r10.4_sup_dup_10,dagK,dagK,1,1,315,315,flye
MRSA_r10.4_sup_dup_10,gatB_2,gatB_2,1,1,475,475,flye
MRSA_r10.4_sup_dup_10,gatA_2,gatA_2,1,1,485,485,flye
MRSA_r10.4_sup_dup_10,gatC_2,gatC_2,1,1,100,100,flye
MRSA_r10.4_sup_dup_10,putP,putP,1,1,512,512,flye
MRSA_r10.4_sup_dup_10,ligA,ligA,1,1,667,667,flye
MRSA_r10.4_sup_dup_10,pcrA,pcrA,1,1,730,730,flye
MRSA_r10.4_sup_dup_10,pcrB,pcrB,1,1,230,230,flye
MRSA_r10.4_sup_dup_10,purB,purB,1,1,431,431,flye
MRSA_r10.4_sup_dup_10,sspP,sspP,1,1,388,388,flye
MRSA_r10.4_sup_dup_10,nadE,nadE,1,1,273,273,flye
MRSA_r10.4_sup_dup_10,pncB2,pncB2,1,1,489,489,flye
MRSA_r10.4_sup_dup_10,nos,nos,1,1,358,358,flye
MRSA_r10.4_sup_dup_10,pheA,pheA,1,1,264,264,flye
MRSA_r10.4_sup_dup_10,sdcS,sdcS,1,1,520,520,flye
MRSA_r10.4_sup_dup_10,rutB,rutB,1,1,186,186,flye
MRSA_r10.4_sup_dup_10,ppaC,ppaC,1,1,309,309,flye
MRSA_r10.4_sup_dup_10,aldH1,aldH1,1,1,459,459,flye
MRSA_r10.4_sup_dup_10,bcrA_1,bcrA_2,0,1,290,290,flye
MRSA_r10.4_sup_dup_10,btuD_5,btuD_5,1,1,298,298,flye
MRSA_r10.4_sup_dup_10,ytrA,ytrA,1,1,126,126,flye
MRSA_r10.4_sup_dup_10,hisC_2,hisC_3,0,1,428,428,flye
MRSA_r10.4_sup_dup_10,map_3,map_4,0,1,689,689,flye
MRSA_r10.4_sup_dup_10,hlb_1,hlb_1,1,1,66,66,flye
MRSA_r10.4_sup_dup_10,scn_3,scn_3,1,1,116,116,flye
MRSA_r10.4_sup_dup_10,chp,chp,1,1,149,149,flye
MRSA_r10.4_sup_dup_10,sak,sak,1,1,163,163,flye
MRSA_r10.4_sup_dup_10,entA_4,entA_4,1,1,257,257,flye
MRSA_r10.4_sup_dup_10,clpP_3,clpP_3,1,1,245,245,flye
MRSA_r10.4_sup_dup_10,dut,dut,1,1,180,180,flye
MRSA_r10.4_sup_dup_10,ssbA_2,ssbA_3,0,1,156,156,flye
MRSA_r10.4_sup_dup_10,lexA_2,lexA_2,1,1,237,237,flye
MRSA_r10.4_sup_dup_10,dinG_2,dinG_2,1,1,310,310,flye
MRSA_r10.4_sup_dup_10,xerC_8,xerC_8,1,1,345,345,flye
MRSA_r10.4_sup_dup_10,hlb_2,hlb_2,1,1,231,231,flye
MRSA_r10.4_sup_dup_10,dapE,dapE,1,1,407,407,flye
MRSA_r10.4_sup_dup_10,ktrB_2,ktrB_2,1,1,435,435,flye
MRSA_r10.4_sup_dup_10,groL,groL,1,1,538,538,flye
MRSA_r10.4_sup_dup_10,groS,groS,1,1,94,94,flye
MRSA_r10.4_sup_dup_10,MroQ,MroQ,1,1,247,247,flye
MRSA_r10.4_sup_dup_10,yafV,yafV,1,1,261,261,flye
MRSA_r10.4_sup_dup_10,agrB,agrB,1,1,205,205,flye
MRSA_r10.4_sup_dup_10,agrA,agrA,1,1,238,238,flye
MRSA_r10.4_sup_dup_10,scrK,scrK,1,1,319,319,flye
MRSA_r10.4_sup_dup_10,scrB,scrB,1,1,497,497,flye
MRSA_r10.4_sup_dup_10,treR_2,treR_2,1,1,316,316,flye
MRSA_r10.4_sup_dup_10,nrgA,nrgA,1,1,416,416,flye
MRSA_r10.4_sup_dup_10,yeeD,yeeD,1,1,74,74,flye
MRSA_r10.4_sup_dup_10,rex,rex,1,1,211,211,flye
MRSA_r10.4_sup_dup_10,yheS,yheS,1,1,642,642,flye
MRSA_r10.4_sup_dup_10,mutS_2,mutS_2,1,1,536,536,flye
MRSA_r10.4_sup_dup_10,tsaD,tsaD,1,1,341,341,flye
MRSA_r10.4_sup_dup_10,rimI,rimI,1,1,154,154,flye
MRSA_r10.4_sup_dup_10,tsaB,tsaB,1,1,220,220,flye
MRSA_r10.4_sup_dup_10,tsaE,tsaE,1,1,164,164,flye
MRSA_r10.4_sup_dup_10,ilvD,ilvD,1,1,562,562,flye
MRSA_r10.4_sup_dup_10,ilvB,ilvB,1,1,589,589,flye
MRSA_r10.4_sup_dup_10,ilvC,ilvC,1,1,334,334,flye
MRSA_r10.4_sup_dup_10,leuA_2,leuA_2,1,1,509,509,flye
MRSA_r10.4_sup_dup_10,leuB,leuB,1,1,348,348,flye
MRSA_r10.4_sup_dup_10,leuC,leuC,1,1,455,455,flye
MRSA_r10.4_sup_dup_10,leuD,leuD,1,1,190,190,flye
MRSA_r10.4_sup_dup_10,ilvA,ilvA,1,1,422,422,flye
MRSA_r10.4_sup_dup_10,yhgF,yhgF,1,1,712,712,flye
MRSA_r10.4_sup_dup_10,sigB,sigB,1,1,256,256,flye
MRSA_r10.4_sup_dup_10,rsbW,rsbW,1,1,159,159,flye
MRSA_r10.4_sup_dup_10,rsbV,rsbV,1,1,108,108,flye
MRSA_r10.4_sup_dup_10,rsbU,rsbU,1,1,333,333,flye
MRSA_r10.4_sup_dup_10,mazF,mazF,1,1,120,120,flye
MRSA_r10.4_sup_dup_10,mazE,mazE,1,1,56,56,flye
MRSA_r10.4_sup_dup_10,alr1_2,alr1_1,0,1,382,382,flye
MRSA_r10.4_sup_dup_10,acpS,acpS,1,1,119,119,flye
MRSA_r10.4_sup_dup_10,kdpC_3,kdpC_1,0,1,186,186,flye
MRSA_r10.4_sup_dup_10,kdpB_2,kdpB_1,0,1,675,675,flye
MRSA_r10.4_sup_dup_10,kdpA_2,kdpA_1,0,1,558,558,flye
MRSA_r10.4_sup_dup_10,kdpD_2,kdpD_1,0,1,885,885,flye
MRSA_r10.4_sup_dup_10,kdpE_2,kdpE_1,0,1,231,231,flye
MRSA_r10.4_sup_dup_10,cshA,cshA,1,1,506,506,flye
MRSA_r10.4_sup_dup_10,murF,murF,1,1,452,452,flye
MRSA_r10.4_sup_dup_10,ddl,ddl,1,1,356,356,flye
MRSA_r10.4_sup_dup_10,rodA,rodA,1,1,400,400,flye
MRSA_r10.4_sup_dup_10,cls_2,cls_1,0,1,494,494,flye
MRSA_r10.4_sup_dup_10,yedJ,yedJ,1,1,215,215,flye
MRSA_r10.4_sup_dup_10,yidC,yidC,1,1,290,290,flye
MRSA_r10.4_sup_dup_10,thiE,thiE,1,1,213,213,flye
MRSA_r10.4_sup_dup_10,thiM,thiM,1,1,263,263,flye
MRSA_r10.4_sup_dup_10,thiD,thiD,1,1,276,276,flye
MRSA_r10.4_sup_dup_10,tenA,tenA,1,1,229,229,flye
MRSA_r10.4_sup_dup_10,sceD,sceD,1,1,231,231,flye
MRSA_r10.4_sup_dup_10,ssbA_3,ssbA_1,0,1,131,131,flye
MRSA_r10.4_sup_dup_10,fabZ,fabZ,1,1,146,146,flye
MRSA_r10.4_sup_dup_10,murA1,murA1,1,1,421,421,flye
MRSA_r10.4_sup_dup_10,atpC,atpC,1,1,134,134,flye
MRSA_r10.4_sup_dup_10,atpD,atpD,1,1,470,470,flye
MRSA_r10.4_sup_dup_10,atpG,atpG,1,1,288,288,flye
MRSA_r10.4_sup_dup_10,atpA,atpA,1,1,502,502,flye
MRSA_r10.4_sup_dup_10,atpH,atpH,1,1,179,179,flye
MRSA_r10.4_sup_dup_10,atpF,atpF,1,1,173,173,flye
MRSA_r10.4_sup_dup_10,atpE,atpE,1,1,70,70,flye
MRSA_r10.4_sup_dup_10,atpB,atpB,1,1,242,242,flye
MRSA_r10.4_sup_dup_10,mnaA_2,mnaA_1,0,1,376,376,flye
MRSA_r10.4_sup_dup_10,upp,upp,1,1,209,209,flye
MRSA_r10.4_sup_dup_10,glyA,glyA,1,1,412,412,flye
MRSA_r10.4_sup_dup_10,ptpB,ptpB,1,1,139,139,flye
MRSA_r10.4_sup_dup_10,ywlC,ywlC,1,1,348,348,flye
MRSA_r10.4_sup_dup_10,prmC_2,prmC_1,0,1,278,278,flye
MRSA_r10.4_sup_dup_10,prfA,prfA,1,1,358,358,flye
MRSA_r10.4_sup_dup_10,tdk,tdk,1,1,199,199,flye
MRSA_r10.4_sup_dup_10,rpmE2,rpmE2,1,1,84,84,flye
MRSA_r10.4_sup_dup_10,rho,rho,1,1,438,438,flye
MRSA_r10.4_sup_dup_10,yodB,yodB,1,1,111,111,flye
MRSA_r10.4_sup_dup_10,murA2,murA2,1,1,419,419,flye
MRSA_r10.4_sup_dup_10,fba,fba,1,1,286,286,flye
MRSA_r10.4_sup_dup_10,pyrG,pyrG,1,1,536,536,flye
MRSA_r10.4_sup_dup_10,rpoE,rpoE,1,1,176,176,flye
MRSA_r10.4_sup_dup_10,coaW,coaW,1,1,267,267,flye
MRSA_r10.4_sup_dup_10,abgB,abgB,1,1,394,394,flye
MRSA_r10.4_sup_dup_10,luxS,luxS,1,1,156,156,flye
MRSA_r10.4_sup_dup_10,pdp,pdp,1,1,433,433,flye
MRSA_r10.4_sup_dup_10,deoC2,deoC2,1,1,220,220,flye
MRSA_r10.4_sup_dup_10,deoD1,deoD1,1,1,236,236,flye
MRSA_r10.4_sup_dup_10,dps,dps,1,1,147,147,flye
MRSA_r10.4_sup_dup_10,gmuF,gmuF,1,1,312,312,flye
MRSA_r10.4_sup_dup_10,yhfK,yhfK,1,1,221,221,flye
MRSA_r10.4_sup_dup_10,czrA,czrA,1,1,106,106,flye
MRSA_r10.4_sup_dup_10,czcD_2,czcD_1,0,1,326,326,flye
MRSA_r10.4_sup_dup_10,ywtE_2,ywtE_1,0,1,285,285,flye
MRSA_r10.4_sup_dup_10,ylmA,ylmA,1,1,260,260,flye
MRSA_r10.4_sup_dup_10,glmS,glmS,1,1,601,601,flye
MRSA_r10.4_sup_dup_10,mtlA,mtlA,1,1,512,512,flye
MRSA_r10.4_sup_dup_10,mtlF,mtlF,1,1,144,144,flye
MRSA_r10.4_sup_dup_10,mtlD,mtlD,1,1,368,368,flye
MRSA_r10.4_sup_dup_10,glmM,glmM,1,1,451,451,flye
MRSA_r10.4_sup_dup_10,cdaR,cdaR,1,1,310,310,flye
MRSA_r10.4_sup_dup_10,cdaA,cdaA,1,1,269,269,flye
MRSA_r10.4_sup_dup_10,arg,arg,1,1,302,302,flye
MRSA_r10.4_sup_dup_10,salA,salA,1,1,354,354,flye
MRSA_r10.4_sup_dup_10,emrY,emrY,1,1,362,362,flye
MRSA_r10.4_sup_dup_10,ribZ,ribZ,1,1,131,131,flye
MRSA_r10.4_sup_dup_10,sepA,sepA,1,1,155,155,flye
MRSA_r10.4_sup_dup_10,sdrM,sdrM,1,1,447,447,flye
MRSA_r10.4_sup_dup_10,ydjM,ydjM,1,1,171,171,flye
MRSA_r10.4_sup_dup_10,fecD,fecD,1,1,322,322,flye
MRSA_r10.4_sup_dup_10,yfiZ_2,yfiZ_1,0,1,343,343,flye
MRSA_r10.4_sup_dup_10,yfmC_2,yfmC_1,0,1,327,327,flye
MRSA_r10.4_sup_dup_10,orr,orr,1,1,356,356,flye
MRSA_r10.4_sup_dup_10,opuD_2,opuD_1,0,1,520,520,flye
MRSA_r10.4_sup_dup_10,yfmJ,yfmJ,1,1,334,334,flye
MRSA_r10.4_sup_dup_10,lacG,lacG,1,1,470,470,flye
MRSA_r10.4_sup_dup_10,lacE,lacE,1,1,570,570,flye
MRSA_r10.4_sup_dup_10,lacF,lacF,1,1,103,103,flye
MRSA_r10.4_sup_dup_10,lacD,lacD,1,1,326,326,flye
MRSA_r10.4_sup_dup_10,lacC_2,lacC_1,0,1,310,310,flye
MRSA_r10.4_sup_dup_10,lacB,lacB,1,1,171,171,flye
MRSA_r10.4_sup_dup_10,lacA,lacA,1,1,142,142,flye
MRSA_r10.4_sup_dup_10,lacR,lacR,1,1,251,251,flye
MRSA_r10.4_sup_dup_10,cobB,cobB,1,1,246,246,flye
MRSA_r10.4_sup_dup_10,adhR,adhR,1,1,138,138,flye
MRSA_r10.4_sup_dup_10,map_4,map_1,0,1,141,141,flye
MRSA_r10.4_sup_dup_10,aldC_1,aldC_1,1,1,234,234,flye
MRSA_r10.4_sup_dup_10,alsS,alsS,1,1,554,554,flye
MRSA_r10.4_sup_dup_10,rpsI,rpsI,1,1,132,132,flye
MRSA_r10.4_sup_dup_10,rplM,rplM,1,1,145,145,flye
MRSA_r10.4_sup_dup_10,truA,truA,1,1,264,264,flye
MRSA_r10.4_sup_dup_10,ecfT_2,ecfT_1,0,1,268,268,flye
MRSA_r10.4_sup_dup_10,ecfA2,ecfA2,1,1,286,286,flye
MRSA_r10.4_sup_dup_10,ecfA1,ecfA1,1,1,269,269,flye
MRSA_r10.4_sup_dup_10,rplQ,rplQ,1,1,122,122,flye
MRSA_r10.4_sup_dup_10,rpoA,rpoA,1,1,314,314,flye
MRSA_r10.4_sup_dup_10,rpsK,rpsK,1,1,129,129,flye
MRSA_r10.4_sup_dup_10,rpsM,rpsM,1,1,121,121,flye
MRSA_r10.4_sup_dup_10,rpmJ,rpmJ,1,1,37,37,flye
MRSA_r10.4_sup_dup_10,infA,infA,1,1,72,72,flye
MRSA_r10.4_sup_dup_10,adk,adk,1,1,215,215,flye
MRSA_r10.4_sup_dup_10,secY_1,secY_1,1,1,430,430,flye
MRSA_r10.4_sup_dup_10,rplO,rplO,1,1,146,146,flye
MRSA_r10.4_sup_dup_10,rpmD,rpmD,1,1,59,59,flye
MRSA_r10.4_sup_dup_10,rpsE,rpsE,1,1,166,166,flye
MRSA_r10.4_sup_dup_10,rplR,rplR,1,1,119,119,flye
MRSA_r10.4_sup_dup_10,rplF,rplF,1,1,178,178,flye
MRSA_r10.4_sup_dup_10,rpsH,rpsH,1,1,132,132,flye
MRSA_r10.4_sup_dup_10,rpsZ,rpsZ,1,1,61,61,flye
MRSA_r10.4_sup_dup_10,rplE,rplE,1,1,179,179,flye
MRSA_r10.4_sup_dup_10,rplX,rplX,1,1,105,105,flye
MRSA_r10.4_sup_dup_10,rplN,rplN,1,1,122,122,flye
MRSA_r10.4_sup_dup_10,rpsQ,rpsQ,1,1,87,87,flye
MRSA_r10.4_sup_dup_10,rpmC,rpmC,1,1,69,69,flye
MRSA_r10.4_sup_dup_10,rplP,rplP,1,1,144,144,flye
MRSA_r10.4_sup_dup_10,rpsC,rpsC,1,1,217,217,flye
MRSA_r10.4_sup_dup_10,rplV,rplV,1,1,117,117,flye
MRSA_r10.4_sup_dup_10,rpsS,rpsS,1,1,92,92,flye
MRSA_r10.4_sup_dup_10,rplB,rplB,1,1,277,277,flye
MRSA_r10.4_sup_dup_10,rplW,rplW,1,1,91,91,flye
MRSA_r10.4_sup_dup_10,rplD,rplD,1,1,207,207,flye
MRSA_r10.4_sup_dup_10,rplC,rplC,1,1,220,220,flye
MRSA_r10.4_sup_dup_10,rpsJ,rpsJ,1,1,102,102,flye
MRSA_r10.4_sup_dup_10,pbuG,pbuG,1,1,444,444,flye
MRSA_r10.4_sup_dup_10,topB,topB,1,1,711,711,flye
MRSA_r10.4_sup_dup_10,glcU_2,glcU_1,0,1,287,287,flye
MRSA_r10.4_sup_dup_10,swrC,swrC,1,1,1055,1055,flye
MRSA_r10.4_sup_dup_10,femX,femX,1,1,421,421,flye
MRSA_r10.4_sup_dup_10,yfcJ,yfcJ,1,1,403,403,flye
MRSA_r10.4_sup_dup_10,sarV,sarV,1,1,116,116,flye
MRSA_r10.4_sup_dup_10,moaA,moaA,1,1,340,340,flye
MRSA_r10.4_sup_dup_10,mobA,mobA,1,1,199,199,flye
MRSA_r10.4_sup_dup_10,moaD,moaD,1,1,77,77,flye
MRSA_r10.4_sup_dup_10,moaE,moaE,1,1,148,148,flye
MRSA_r10.4_sup_dup_10,moeA,moeA,1,1,419,419,flye
MRSA_r10.4_sup_dup_10,moaC,moaC,1,1,164,164,flye
MRSA_r10.4_sup_dup_10,moaB,moaB,1,1,168,168,flye
MRSA_r10.4_sup_dup_10,cysA,cysA,1,1,201,201,flye
MRSA_r10.4_sup_dup_10,modB,modB,1,1,223,223,flye
MRSA_r10.4_sup_dup_10,modA,modA,1,1,260,260,flye
MRSA_r10.4_sup_dup_10,fdhD,fdhD,1,1,265,265,flye
MRSA_r10.4_sup_dup_10,bioY,bioY,1,1,184,184,flye
MRSA_r10.4_sup_dup_10,rihB,rihB,1,1,313,313,flye
MRSA_r10.4_sup_dup_10,fhuD,fhuD,1,1,302,302,flye
MRSA_r10.4_sup_dup_10,ydbM,ydbM,1,1,390,390,flye
MRSA_r10.4_sup_dup_10,ureA,ureA,1,1,100,100,flye
MRSA_r10.4_sup_dup_10,ureB,ureB,1,1,136,136,flye
MRSA_r10.4_sup_dup_10,ureC,ureC,1,1,571,571,flye
MRSA_r10.4_sup_dup_10,ureE,ureE,1,1,150,150,flye
MRSA_r10.4_sup_dup_10,ureF,ureF,1,1,229,229,flye
MRSA_r10.4_sup_dup_10,ureG,ureG,1,1,204,204,flye
MRSA_r10.4_sup_dup_10,ureD1,ureD1,1,1,278,278,flye
MRSA_r10.4_sup_dup_10,sarR,sarR,1,1,115,115,flye
MRSA_r10.4_sup_dup_10,rhaS_2,rhaS_1,0,1,651,651,flye
MRSA_r10.4_sup_dup_10,ssaA2,ssaA2,1,1,269,269,flye
MRSA_r10.4_sup_dup_10,mleN_1,mleN_1,1,1,465,465,flye
MRSA_r10.4_sup_dup_10,odh,odh,1,1,360,360,flye
MRSA_r10.4_sup_dup_10,auaG,auaG,1,1,374,374,flye
MRSA_r10.4_sup_dup_10,atl_3,atl_1,0,1,258,258,flye
MRSA_r10.4_sup_dup_10,tagU_2,tagU_1,0,1,315,315,flye
MRSA_r10.4_sup_dup_10,cysQ,cysQ,1,1,265,265,flye
MRSA_r10.4_sup_dup_10,ybbH_3,ybbH_1,0,1,290,290,flye
MRSA_r10.4_sup_dup_10,yifK,yifK,1,1,459,459,flye
MRSA_r10.4_sup_dup_10,panS_1,panS_1,1,1,113,113,flye
MRSA_r10.4_sup_dup_10,panS_2,panS_2,1,1,178,178,flye
MRSA_r10.4_sup_dup_10,malP,malP,1,1,534,534,flye
MRSA_r10.4_sup_dup_10,glvR,glvR,1,1,254,254,flye
MRSA_r10.4_sup_dup_10,mleN_2,mleN_2,1,1,436,436,flye
MRSA_r10.4_sup_dup_10,yghA,yghA,1,1,293,293,flye
MRSA_r10.4_sup_dup_10,scmP_4,scmP_1,0,1,302,302,flye
MRSA_r10.4_sup_dup_10,hutI,hutI,1,1,412,412,flye
MRSA_r10.4_sup_dup_10,hutU,hutU,1,1,553,553,flye
MRSA_r10.4_sup_dup_10,hdfR_2,hdfR_1,0,1,294,294,flye
MRSA_r10.4_sup_dup_10,fosB,fosB,1,1,139,139,flye
MRSA_r10.4_sup_dup_10,hutG,hutG,1,1,311,311,flye
MRSA_r10.4_sup_dup_10,lyrA,lyrA,1,1,419,419,flye
MRSA_r10.4_sup_dup_10,rpiA,rpiA,1,1,228,228,flye
MRSA_r10.4_sup_dup_10,yiiM,yiiM,1,1,217,217,flye
MRSA_r10.4_sup_dup_10,mro,mro,1,1,339,339,flye
MRSA_r10.4_sup_dup_10,yhaP,yhaP,1,1,410,410,flye
MRSA_r10.4_sup_dup_10,lnrL_2,lnrL_1,0,1,299,299,flye
MRSA_r10.4_sup_dup_10,gltS,gltS,1,1,402,402,flye
MRSA_r10.4_sup_dup_10,fni,fni,1,1,349,349,flye
MRSA_r10.4_sup_dup_10,zntB,zntB,1,1,315,315,flye
MRSA_r10.4_sup_dup_10,mdtD,mdtD,1,1,645,645,flye
MRSA_r10.4_sup_dup_10,aaeA,aaeA,1,1,215,215,flye
MRSA_r10.4_sup_dup_10,bcr_1,bcr_1,1,1,402,402,flye
MRSA_r10.4_sup_dup_10,tcaA,tcaA,1,1,460,460,flye
MRSA_r10.4_sup_dup_10,tcaR,tcaR,1,1,151,151,flye
MRSA_r10.4_sup_dup_10,hrtA_2,hrtA_1,0,1,221,221,flye
MRSA_r10.4_sup_dup_10,hssR,hssR,1,1,224,224,flye
MRSA_r10.4_sup_dup_10,hssS,hssS,1,1,457,457,flye
MRSA_r10.4_sup_dup_10,lnrL_3,lnrL_2,0,1,242,242,flye
MRSA_r10.4_sup_dup_10,ybhR,ybhR,1,1,360,360,flye
MRSA_r10.4_sup_dup_10,mqo1,mqo1,1,1,492,492,flye
MRSA_r10.4_sup_dup_10,lctP_2,lctP_1,0,1,532,532,flye
MRSA_r10.4_sup_dup_10,paiA,paiA,1,1,171,171,flye
MRSA_r10.4_sup_dup_10,yhfP,yhfP,1,1,334,334,flye
MRSA_r10.4_sup_dup_10,treP_2,,0,0,480,0,flye
MRSA_r10.4_sup_dup_10,ydaG,ydaG,1,1,140,140,flye
MRSA_r10.4_sup_dup_10,gltT,gltT,1,1,425,425,flye
MRSA_r10.4_sup_dup_10,sarZ,sarZ,1,1,148,148,flye
MRSA_r10.4_sup_dup_10,narT,narT,1,1,389,389,flye
MRSA_r10.4_sup_dup_10,mta,mta,1,1,95,95,flye
MRSA_r10.4_sup_dup_10,nreC,nreC,1,1,217,217,flye
MRSA_r10.4_sup_dup_10,nreB,nreB,1,1,344,344,flye
MRSA_r10.4_sup_dup_10,narX,narX,1,1,225,225,flye
MRSA_r10.4_sup_dup_10,narH,narH,1,1,519,519,flye
MRSA_r10.4_sup_dup_10,narG,narG,1,1,1229,1229,flye
MRSA_r10.4_sup_dup_10,cysG,cysG,1,1,325,325,flye
MRSA_r10.4_sup_dup_10,nasE,nasE,1,1,104,104,flye
MRSA_r10.4_sup_dup_10,nasD,nasD,1,1,801,801,flye
MRSA_r10.4_sup_dup_10,sirB,sirB,1,1,250,250,flye
MRSA_r10.4_sup_dup_10,ytmI,ytmI,1,1,178,178,flye
MRSA_r10.4_sup_dup_10,nirC,nirC,1,1,274,274,flye
MRSA_r10.4_sup_dup_10,yoeB,yoeB,1,1,88,88,flye
MRSA_r10.4_sup_dup_10,yefM,yefM,1,1,83,83,flye
MRSA_r10.4_sup_dup_10,bdbD,bdbD,1,1,199,199,flye
MRSA_r10.4_sup_dup_10,femA_3,femA_1,0,1,416,416,flye
MRSA_r10.4_sup_dup_10,tcyC_2,tcyC_1,0,1,243,243,flye
MRSA_r10.4_sup_dup_10,tcyB,tcyB,1,1,242,242,flye
MRSA_r10.4_sup_dup_10,farB_2,farB_1,0,1,479,479,flye
MRSA_r10.4_sup_dup_10,gpmA_2,gpmA_1,0,1,228,228,flye
MRSA_r10.4_sup_dup_10,mneS,mneS,1,1,288,288,flye
MRSA_r10.4_sup_dup_10,sbi,sbi,1,1,437,437,flye
MRSA_r10.4_sup_dup_10,hlgA,hlgA,1,1,321,321,flye
MRSA_r10.4_sup_dup_10,hlgC,hlgC,1,1,315,315,flye
MRSA_r10.4_sup_dup_10,hlgB,hlgB,1,1,325,325,flye
MRSA_r10.4_sup_dup_10,bioW,bioW,1,1,230,230,flye
MRSA_r10.4_sup_dup_10,bioB,bioB,1,1,335,335,flye
MRSA_r10.4_sup_dup_10,bioK,bioK,1,1,452,452,flye
MRSA_r10.4_sup_dup_10,bioD,bioD,1,1,228,228,flye
MRSA_r10.4_sup_dup_10,garK_2,garK_1,0,1,380,380,flye
MRSA_r10.4_sup_dup_10,bcr_2,bcr_2,1,1,403,403,flye
MRSA_r10.4_sup_dup_10,cpdA_2,cpdA_1,0,1,268,268,flye
MRSA_r10.4_sup_dup_10,cycA_2,cycA_1,0,1,469,469,flye
MRSA_r10.4_sup_dup_10,nhaK_2,nhaK_1,0,1,692,692,flye
MRSA_r10.4_sup_dup_10,kimA,kimA,1,1,609,609,flye
MRSA_r10.4_sup_dup_10,flp,flp,1,1,499,499,flye
MRSA_r10.4_sup_dup_10,hldD,hldD,1,1,283,283,flye
MRSA_r10.4_sup_dup_10,panE,panE,1,1,311,311,flye
MRSA_r10.4_sup_dup_10,norB_4,norB_1,0,1,466,466,flye
MRSA_r10.4_sup_dup_10,opuCD,opuCD,1,1,231,231,flye
MRSA_r10.4_sup_dup_10,opuCC,opuCC,1,1,313,313,flye
MRSA_r10.4_sup_dup_10,opuCB,opuCB,1,1,211,211,flye
MRSA_r10.4_sup_dup_10,opuCA,opuCA,1,1,408,408,flye
MRSA_r10.4_sup_dup_10,yveA,yveA,1,1,545,545,flye
MRSA_r10.4_sup_dup_10,pnbA,pnbA,1,1,450,450,flye
MRSA_r10.4_sup_dup_10,pbuE_2,pbuE_1,0,1,395,395,flye
MRSA_r10.4_sup_dup_10,fetB,fetB,1,1,258,258,flye
MRSA_r10.4_sup_dup_10,fetA,fetA,1,1,220,220,flye
MRSA_r10.4_sup_dup_10,ysdC_2,ysdC_1,0,1,358,358,flye
MRSA_r10.4_sup_dup_10,yehR,yehR,1,1,151,151,flye
MRSA_r10.4_sup_dup_10,cntE,cntE,1,1,397,397,flye
MRSA_r10.4_sup_dup_10,cntF,cntF,1,1,249,249,flye
MRSA_r10.4_sup_dup_10,cntD,cntD,1,1,271,271,flye
MRSA_r10.4_sup_dup_10,cntC,cntC,1,1,289,289,flye
MRSA_r10.4_sup_dup_10,cntB,cntB,1,1,311,311,flye
MRSA_r10.4_sup_dup_10,cntA,cntA,1,1,532,532,flye
MRSA_r10.4_sup_dup_10,cntM,cntM,1,1,433,433,flye
MRSA_r10.4_sup_dup_10,cntL,cntL,1,1,272,272,flye
MRSA_r10.4_sup_dup_10,cntK,cntK,1,1,273,273,flye
MRSA_r10.4_sup_dup_10,bacC,bacC,1,1,272,272,flye
MRSA_r10.4_sup_dup_10,abgT,abgT,1,1,512,512,flye
MRSA_r10.4_sup_dup_10,uvrB_2,uvrB_1,0,1,953,953,flye
MRSA_r10.4_sup_dup_10,nudG,nudG,1,1,130,130,flye
MRSA_r10.4_sup_dup_10,pgcA,pgcA,1,1,545,545,flye
MRSA_r10.4_sup_dup_10,gtaB,gtaB,1,1,288,288,flye
MRSA_r10.4_sup_dup_10,fnbA,fnbA,1,1,965,965,flye
MRSA_r10.4_sup_dup_10,gntT,gntT,1,1,452,452,flye
MRSA_r10.4_sup_dup_10,xylB,xylB,1,1,517,517,flye
MRSA_r10.4_sup_dup_10,ywaC,ywaC,1,1,230,230,flye
MRSA_r10.4_sup_dup_10,sauU,,0,0,425,0,flye
MRSA_r10.4_sup_dup_10,argO_2,argO_1,0,1,205,205,flye
MRSA_r10.4_sup_dup_10,norG,norG,1,1,470,470,flye
MRSA_r10.4_sup_dup_10,bcrA_2,bcrA_1,0,1,231,231,flye
MRSA_r10.4_sup_dup_10,fbp,fbp,1,1,654,654,flye
MRSA_r10.4_sup_dup_10,mhqD,mhqD,1,1,197,197,flye
MRSA_r10.4_sup_dup_10,mhqA_3,mhqA_1,0,1,322,322,flye
MRSA_r10.4_sup_dup_10,mhqR,,0,0,144,0,flye
MRSA_r10.4_sup_dup_10,yjdJ,yjdJ,1,1,94,94,flye
MRSA_r10.4_sup_dup_10,catE_2,,0,0,268,0,flye
MRSA_r10.4_sup_dup_10,ldhD_1,ldhD_1,1,1,330,330,flye
MRSA_r10.4_sup_dup_10,ybjI,,0,0,266,0,flye
MRSA_r10.4_sup_dup_10,srtA,,0,0,206,0,flye
MRSA_r10.4_sup_dup_10,pitA,,0,0,163,0,flye
MRSA_r10.4_sup_dup_10,sdhA,sdhA,1,1,299,299,flye
MRSA_r10.4_sup_dup_10,yicL,yicL,1,1,307,307,flye
MRSA_r10.4_sup_dup_10,glcB,glcB,1,1,707,707,flye
MRSA_r10.4_sup_dup_10,ydaP,ydaP,1,1,579,579,flye
MRSA_r10.4_sup_dup_10,cidB,cidB,1,1,229,229,flye
MRSA_r10.4_sup_dup_10,cidA,cidA,1,1,131,131,flye
MRSA_r10.4_sup_dup_10,cynR,cynR,1,1,287,287,flye
MRSA_r10.4_sup_dup_10,mvaA,mvaA,1,1,426,426,flye
MRSA_r10.4_sup_dup_10,mvaS,mvaS,1,1,388,388,flye
MRSA_r10.4_sup_dup_10,ogt,ogt,1,1,173,173,flye
MRSA_r10.4_sup_dup_10,clpL,clpL,1,1,701,701,flye
MRSA_r10.4_sup_dup_10,feoB,feoB,1,1,664,664,flye
MRSA_r10.4_sup_dup_10,ydfJ,ydfJ,1,1,829,829,flye
MRSA_r10.4_sup_dup_10,rocA,rocA,1,1,514,514,flye
MRSA_r10.4_sup_dup_10,copA,copA,1,1,802,802,flye
MRSA_r10.4_sup_dup_10,copZ,copZ,1,1,68,68,flye
MRSA_r10.4_sup_dup_10,ldhD_2,ldhD_2,1,1,342,342,flye
MRSA_r10.4_sup_dup_10,bacF,bacF,1,1,384,384,flye
MRSA_r10.4_sup_dup_10,crtN,crtN,1,1,502,502,flye
MRSA_r10.4_sup_dup_10,crtM_1,crtM_1,1,1,169,169,flye
MRSA_r10.4_sup_dup_10,crtM_2,crtM_2,1,1,94,94,flye
MRSA_r10.4_sup_dup_10,crtQ,crtQ,1,1,375,375,flye
MRSA_r10.4_sup_dup_10,crtP,crtP,1,1,497,497,flye
MRSA_r10.4_sup_dup_10,ssaA,ssaA,1,1,255,255,flye
MRSA_r10.4_sup_dup_10,oatA_2,oatA_1,0,1,603,603,flye
MRSA_r10.4_sup_dup_10,isaA,isaA,1,1,233,233,flye
MRSA_r10.4_sup_dup_10,cpnA,cpnA,1,1,234,234,flye
MRSA_r10.4_sup_dup_10,pyrD,pyrD,1,1,354,354,flye
MRSA_r10.4_sup_dup_10,queH,queH,1,1,240,240,flye
MRSA_r10.4_sup_dup_10,cocE,cocE,1,1,560,560,flye
MRSA_r10.4_sup_dup_10,panD,panD,1,1,127,127,flye
MRSA_r10.4_sup_dup_10,panC,panC,1,1,283,283,flye
MRSA_r10.4_sup_dup_10,panB,panB,1,1,272,272,flye
MRSA_r10.4_sup_dup_10,aldC_2,aldC_2,1,1,234,234,flye
MRSA_r10.4_sup_dup_10,ldh2,ldh2,1,1,319,319,flye
MRSA_r10.4_sup_dup_10,yhdG,yhdG,1,1,482,482,flye
MRSA_r10.4_sup_dup_10,fda,fda,1,1,296,296,flye
MRSA_r10.4_sup_dup_10,mqo2,mqo2,1,1,498,498,flye
MRSA_r10.4_sup_dup_10,acsA_2,acsA_1,0,1,539,539,flye
MRSA_r10.4_sup_dup_10,isdG_2,isdG_1,0,1,147,147,flye
MRSA_r10.4_sup_dup_10,betA,betA,1,1,569,569,flye
MRSA_r10.4_sup_dup_10,gbsA,gbsA,1,1,496,496,flye
MRSA_r10.4_sup_dup_10,opcR,opcR,1,1,187,187,flye
MRSA_r10.4_sup_dup_10,opuD_3,opuD_2,0,1,540,540,flye
MRSA_r10.4_sup_dup_10,nrdD,nrdD,1,1,616,616,flye
MRSA_r10.4_sup_dup_10,citN,citN,1,1,456,456,flye
MRSA_r10.4_sup_dup_10,sirC,sirC,1,1,202,202,flye
MRSA_r10.4_sup_dup_10,cysJ,cysJ,1,1,626,626,flye
MRSA_r10.4_sup_dup_10,bsaA_2,bsaA_1,0,1,165,165,flye
MRSA_r10.4_sup_dup_10,bceB_2,bceB_1,0,1,666,666,flye
MRSA_r10.4_sup_dup_10,yxdL,yxdL,1,1,251,251,flye
MRSA_r10.4_sup_dup_10,graS_2,graS_1,0,1,295,295,flye
MRSA_r10.4_sup_dup_10,graR_2,graR_1,0,1,221,221,flye
MRSA_r10.4_sup_dup_10,phoB,phoB,1,1,457,457,flye
MRSA_r10.4_sup_dup_10,clfB,clfB,1,1,873,873,flye
MRSA_r10.4_sup_dup_10,arcR,arcR,1,1,234,234,flye
MRSA_r10.4_sup_dup_10,arcC2,arcC2,1,1,313,313,flye
MRSA_r10.4_sup_dup_10,arcD,,0,0,476,0,flye
MRSA_r10.4_sup_dup_10,arcB,arcB,1,1,336,336,flye
MRSA_r10.4_sup_dup_10,arcA,arcA,1,1,411,411,flye
MRSA_r10.4_sup_dup_10,argR_2,argR_1,0,1,149,149,flye
MRSA_r10.4_sup_dup_10,aur,aur,1,1,509,509,flye
MRSA_r10.4_sup_dup_10,isaB,isaB,1,1,175,175,flye
MRSA_r10.4_sup_dup_10,manR,manR,1,1,624,624,flye
MRSA_r10.4_sup_dup_10,manP,manP,1,1,650,650,flye
MRSA_r10.4_sup_dup_10,yvyI,yvyI,1,1,312,312,flye
MRSA_r10.4_sup_dup_10,gtfB,gtfB,1,1,452,452,flye
MRSA_r10.4_sup_dup_10,gtfA_3,gtfA_1,0,1,502,502,flye
MRSA_r10.4_sup_dup_10,secA1_2,secA1_1,0,1,796,796,flye
MRSA_r10.4_sup_dup_10,asp2,asp2,1,1,523,523,flye
MRSA_r10.4_sup_dup_10,asp1,asp1,1,1,452,452,flye
MRSA_r10.4_sup_dup_10,secY_2,secY_2,1,1,403,403,flye
MRSA_r10.4_sup_dup_10,sraP,sraP,1,1,1351,1351,flye
MRSA_r10.4_sup_dup_10,msrAB,msrAB,1,1,158,158,flye
MRSA_r10.4_sup_dup_10,ywqE_2,ywqE_1,0,1,255,255,flye
MRSA_r10.4_sup_dup_10,ywqD_2,ywqD_1,0,1,230,230,flye
MRSA_r10.4_sup_dup_10,cap8A_2,cap8A_1,0,1,220,220,flye
MRSA_r10.4_sup_dup_10,icaR,icaR,1,1,186,186,flye
MRSA_r10.4_sup_dup_10,icaA,icaA,1,1,412,412,flye
MRSA_r10.4_sup_dup_10,icaD,icaD,1,1,101,101,flye
MRSA_r10.4_sup_dup_10,icaB,icaB,1,1,290,290,flye
MRSA_r10.4_sup_dup_10,icaC,icaC,1,1,350,350,flye
MRSA_r10.4_sup_dup_10,lipA_2,lipA_1,0,1,681,681,flye
MRSA_r10.4_sup_dup_10,hisI,hisI,1,1,210,210,flye
MRSA_r10.4_sup_dup_10,hisF,hisF,1,1,252,252,flye
MRSA_r10.4_sup_dup_10,hisA,hisA,1,1,234,234,flye
MRSA_r10.4_sup_dup_10,hisH,hisH,1,1,192,192,flye
MRSA_r10.4_sup_dup_10,hisB,hisB,1,1,192,192,flye
MRSA_r10.4_sup_dup_10,hisC_3,hisC_1,0,1,337,337,flye
MRSA_r10.4_sup_dup_10,hisD,hisD,1,1,416,416,flye
MRSA_r10.4_sup_dup_10,hisG,hisG,1,1,204,204,flye
MRSA_r10.4_sup_dup_10,hisZ,hisZ,1,1,272,272,flye
MRSA_r10.4_sup_dup_10,ykoC,ykoC,1,1,277,277,flye
MRSA_r10.4_sup_dup_10,ykoD_2,ykoD_1,0,1,570,570,flye
MRSA_r10.4_sup_dup_10,salL,salL,1,1,282,282,flye
MRSA_r10.4_sup_dup_10,pcp,pcp,1,1,212,212,flye
MRSA_r10.4_sup_dup_10,cna,cna,1,1,1183,1183,flye
MRSA_r10.4_sup_dup_10,yflS,yflS,1,1,472,472,flye
MRSA_r10.4_sup_dup_10,rarD,rarD,1,1,302,302,flye
MRSA_r10.4_sup_dup_10,nixA,nixA,1,1,338,338,flye
MRSA_r10.4_sup_dup_10,nhoA,nhoA,1,1,266,266,flye
MRSA_r10.4_sup_dup_10,bceA_2,bceA_1,0,1,252,252,flye
MRSA_r10.4_sup_dup_10,bceB_3,bceB_2,0,1,626,626,flye
MRSA_r10.4_sup_dup_10,cspLA,cspLA,1,1,66,66,flye
MRSA_r10.4_sup_dup_10,noc,noc,1,1,279,279,flye
MRSA_r10.4_sup_dup_10,rsmG,,0,0,239,0,flye
MRSA_r10.4_sup_dup_10,mnmG,mnmG,1,1,625,625,flye
MRSA_r10.4_sup_dup_10,mnmE,mnmE,1,1,459,459,flye
MRSA_r10.4_sup_dup_10,rnpA,rnpA,1,1,115,115,flye
MRSA_r10.4_sup_dup_10,rpmH,rpmH,1,1,45,45,flye
