Sample name,Ref Gene name,test Gene name,name match,Gene found,Ref gene length (AA),Test gene length (AA),Notes
MRSA_r9,dnaA,dnaA,1,1,453,453,flye
MRSA_r9,dnaN,dnaN,1,1,377,377,flye
MRSA_r9,recF,recF,1,1,370,370,flye
MRSA_r9,gyrB,gyrB,1,1,644,644,flye
MRSA_r9,gyrA,gyrA,1,1,886,886,flye
MRSA_r9,nnrD,nnrD,1,1,270,270,flye
MRSA_r9,hutH,hutH,1,1,504,504,flye
MRSA_r9,serS,serS,1,1,428,428,flye
MRSA_r9,metXA,metXA,1,1,322,322,flye
MRSA_r9,gdpP,gdpP,1,1,655,655,flye
MRSA_r9,rplI,rplI,1,1,148,148,flye
MRSA_r9,dnaC,dnaC,1,1,466,466,flye
MRSA_r9,purA,purA,1,1,427,427,flye
MRSA_r9,walR,,0,0,233,0,flye
MRSA_r9,walK,walK,1,1,608,608,flye
MRSA_r9,yycI,yycI,1,1,262,262,flye
MRSA_r9,yycJ,yycJ,1,1,263,263,flye
MRSA_r9,rlmH,rlmH,1,1,159,159,flye
MRSA_r9,ble,,0,0,134,0,flye
MRSA_r9,knt,knt,1,1,247,247,flye
MRSA_r9,ugpQ,ugpQ,1,1,247,247,flye
MRSA_r9,mecA_1,mecA_2,0,1,668,668,flye
MRSA_r9,mecR1,mecR1,1,1,585,585,flye
MRSA_r9,mecI,mecI,1,1,114,114,flye
MRSA_r9,nagC,nagC,1,1,369,369,flye
MRSA_r9,glpE_1,glpE_2,0,1,101,101,flye
MRSA_r9,gloB,gloB,1,1,312,312,flye
MRSA_r9,glpE_2,glpE_1,0,1,354,354,flye
MRSA_r9,COQ5_3,COQ5_3,1,1,220,220,flye
MRSA_r9,ermA1_2,ermA1_2,1,1,243,243,flye
MRSA_r9,ant1_2,ant1_2,1,1,260,260,flye
MRSA_r9,xerC_6,xerC_8,0,1,630,630,flye
MRSA_r9,xerC_7,xerC_7,1,1,361,361,flye
MRSA_r9,kdpE_1,kdpE_2,0,1,231,231,flye
MRSA_r9,kdpD_1,kdpD_2,0,1,889,889,flye
MRSA_r9,kdpA_1,kdpA_2,0,1,558,558,flye
MRSA_r9,kdpB_1,kdpB_2,0,1,673,673,flye
MRSA_r9,kdpC_1,,0,0,120,0,flye
MRSA_r9,kdpC_2,,0,0,65,0,flye
MRSA_r9,mcrC,mcrC,1,1,346,346,flye
MRSA_r9,farB_1,farB_2,0,1,442,442,flye
MRSA_r9,dus,dus,1,1,328,328,flye
MRSA_r9,plc,plc,1,1,328,328,flye
MRSA_r9,rhaS_1,rhaS_2,0,1,745,745,flye
MRSA_r9,scmP_1,scmP_4,0,1,392,392,flye
MRSA_r9,norB_1,norB_4,0,1,462,462,flye
MRSA_r9,lctP_1,lctP_2,0,1,530,530,flye
MRSA_r9,spa,,0,0,516,0,flye
MRSA_r9,sarS,sarS,1,1,250,250,flye
MRSA_r9,yfhA,yfhA,1,1,332,332,flye
MRSA_r9,yfiZ_1,yfiZ_2,0,1,331,331,flye
MRSA_r9,yfiY,yfiY,1,1,330,330,flye
MRSA_r9,sbnA,,0,0,326,0,flye
MRSA_r9,sbnB,sbnB,1,1,336,336,flye
MRSA_r9,sbnC,sbnC,1,1,584,584,flye
MRSA_r9,sbnD,sbnD,1,1,418,418,flye
MRSA_r9,sbnE,,0,0,578,0,flye
MRSA_r9,sbnF,sbnF,1,1,592,592,flye
MRSA_r9,garL,garL,1,1,258,258,flye
MRSA_r9,sbnH,sbnH,1,1,400,400,flye
MRSA_r9,sbnI,sbnI,1,1,254,254,flye
MRSA_r9,butA,butA,1,1,258,258,flye
MRSA_r9,wbgU,wbgU,1,1,323,323,flye
MRSA_r9,wbnH,wbnH,1,1,388,388,flye
MRSA_r9,sodM,,0,0,199,0,flye
MRSA_r9,deoD,deoD,1,1,235,235,flye
MRSA_r9,tet(38),tet(38),1,1,452,452,flye
MRSA_r9,deoC1,deoC1,1,1,220,220,flye
MRSA_r9,deoB,deoB,1,1,392,392,flye
MRSA_r9,phnE_1,phnE_2,0,1,271,271,flye
MRSA_r9,phnE_2,phnE_1,0,1,266,266,flye
MRSA_r9,glnQ,glnQ,1,1,257,257,flye
MRSA_r9,phnD2,phnD2,1,1,318,318,flye
MRSA_r9,yfkN,yfkN,1,1,511,511,flye
MRSA_r9,adhE,adhE,1,1,869,869,flye
MRSA_r9,cap8A_1,cap8A_1,1,1,222,222,flye
MRSA_r9,ywqD_1,ywqD_1,1,1,228,228,flye
MRSA_r9,ywqE_1,ywqE_1,1,1,254,254,flye
MRSA_r9,pglF,pglF,1,1,607,607,flye
MRSA_r9,capD,,0,0,342,0,flye
MRSA_r9,wbjC,wbjC,1,1,369,369,flye
MRSA_r9,wbpI,wbpI,1,1,374,374,flye
MRSA_r9,dapH_1,dapH_2,0,1,185,185,flye
MRSA_r9,epsL,epsL,1,1,185,185,flye
MRSA_r9,fcl,fcl,1,1,295,295,flye
MRSA_r9,wecC,wecC,1,1,420,420,flye
MRSA_r9,mnaA_1,mnaA_3,0,1,381,381,flye
MRSA_r9,isdI,isdI,1,1,108,108,flye
MRSA_r9,ybaN,ybaN,1,1,127,127,flye
MRSA_r9,aldA,aldA,1,1,495,495,flye
MRSA_r9,czcD_1,czcD_2,0,1,319,319,flye
MRSA_r9,nrtD,nrtD,1,1,246,246,flye
MRSA_r9,ssuC,,0,0,253,0,flye
MRSA_r9,mdrP,mdrP,1,1,416,416,flye
MRSA_r9,dltA_1,dltA_2,0,1,2391,2391,flye
MRSA_r9,yagU,yagU,1,1,164,164,flye
MRSA_r9,argB,argB,1,1,256,256,flye
MRSA_r9,argJ,argJ,1,1,413,413,flye
MRSA_r9,argC,argC,1,1,344,344,flye
MRSA_r9,rocD2_1,rocD2_2,0,1,394,394,flye
MRSA_r9,brnQ_1,brnQ_3,0,1,451,451,flye
MRSA_r9,yecD,yecD,1,1,185,185,flye
MRSA_r9,ipdC,ipdC,1,1,546,546,flye
MRSA_r9,ptsG_1,ptsG_3,0,1,681,681,flye
MRSA_r9,murQ,murQ,1,1,298,298,flye
MRSA_r9,ybbH_1,ybbH_3,0,1,292,292,flye
MRSA_r9,hsdR,hsdR,1,1,929,929,flye
MRSA_r9,gsiA,gsiA,1,1,530,530,flye
MRSA_r9,ggt,ggt,1,1,668,668,flye
MRSA_r9,azoR,azoR,1,1,208,208,flye
MRSA_r9,msmX,msmX,1,1,365,365,flye
MRSA_r9,cycB,cycB,1,1,423,423,flye
MRSA_r9,malG,malG,1,1,279,279,flye
MRSA_r9,gfo,gfo,1,1,358,358,flye
MRSA_r9,iolG,iolG,1,1,346,346,flye
MRSA_r9,uhpT,uhpT,1,1,459,459,flye
MRSA_r9,pflB,pflB,1,1,749,749,flye
MRSA_r9,pflA,pflA,1,1,251,251,flye
MRSA_r9,scn_1,scn_3,0,1,114,114,flye
MRSA_r9,fadA,fadA,1,1,394,394,flye
MRSA_r9,fadN,,0,0,753,0,flye
MRSA_r9,caiA,caiA,1,1,403,403,flye
MRSA_r9,lcfB,lcfB,1,1,501,501,flye
MRSA_r9,carA_1,carA_2,0,1,520,520,flye
MRSA_r9,nikA,nikA,1,1,491,491,flye
MRSA_r9,hmp,hmp,1,1,381,381,flye
MRSA_r9,ldh1,ldh1,1,1,317,317,flye
MRSA_r9,ptsG_2,ptsG_2,1,1,509,509,flye
MRSA_r9,rihA,rihA,1,1,311,311,flye
MRSA_r9,gatA_1,gatA_2,0,1,155,155,flye
MRSA_r9,gatB_1,gatB_2,0,1,92,92,flye
MRSA_r9,gatC_1,gatC_2,0,1,419,419,flye
MRSA_r9,gatD_1,gatD_3,0,1,347,347,flye
MRSA_r9,tarI2,,0,0,238,0,flye
MRSA_r9,tarJ',tarJ',1,1,341,341,flye
MRSA_r9,tarK,tarK,1,1,564,564,flye
MRSA_r9,tarF,tarF,1,1,389,389,flye
MRSA_r9,tarI1,tarI1,1,1,238,238,flye
MRSA_r9,tarJ,tarJ,1,1,341,341,flye
MRSA_r9,tarL,tarL,1,1,562,562,flye
MRSA_r9,tarS,tarS,1,1,574,574,flye
MRSA_r9,scdA,scdA,1,1,224,224,flye
MRSA_r9,ypdA,ypdA,1,1,584,584,flye
MRSA_r9,lytR,lytR,1,1,246,246,flye
MRSA_r9,lrgA,lrgA,1,1,145,145,flye
MRSA_r9,lrgB,lrgB,1,1,233,233,flye
MRSA_r9,yydK,yydK,1,1,234,234,flye
MRSA_r9,ptsG_3,ptsG_1,0,1,263,263,flye
MRSA_r9,bglA,bglA,1,1,478,478,flye
MRSA_r9,COQ5_2,,0,0,253,0,flye
MRSA_r9,rbsK,rbsK,1,1,304,304,flye
MRSA_r9,rbsD,rbsD,1,1,134,134,flye
MRSA_r9,glcU_1,glcU_2,0,1,293,293,flye
MRSA_r9,degA,degA,1,1,332,332,flye
MRSA_r9,norB_2,norB_3,0,1,458,458,flye
MRSA_r9,yxeI,yxeI,1,1,330,330,flye
MRSA_r9,lytM,lytM,1,1,316,316,flye
MRSA_r9,lnrL_1,lnrL_3,0,1,219,219,flye
MRSA_r9,esxA,esxA,1,1,97,97,flye
MRSA_r9,esaA,esaA,1,1,1009,1009,flye
MRSA_r9,esaB,esaB,1,1,80,80,flye
MRSA_r9,essB,essB,1,1,444,444,flye
MRSA_r9,essC,essC,1,1,1482,1482,flye
MRSA_r9,essG_1,essG_4,0,1,166,166,flye
MRSA_r9,essG_2,essG_3,0,1,166,166,flye
MRSA_r9,essG_3,essG_2,0,1,118,118,flye
MRSA_r9,essG_4,essG_1,0,1,90,90,flye
MRSA_r9,focA,focA,1,1,274,274,flye
MRSA_r9,brnQ_2,brnQ_2,1,1,435,435,flye
MRSA_r9,hel,hel,1,1,296,296,flye
MRSA_r9,hrtA_1,hrtA_2,0,1,225,225,flye
MRSA_r9,RBKS,RBKS,1,1,372,372,flye
MRSA_r9,psuG,psuG,1,1,307,307,flye
MRSA_r9,nupC_1,nupC_2,0,1,406,406,flye
MRSA_r9,sglT,sglT,1,1,510,510,flye
MRSA_r9,nanA,nanA,1,1,293,293,flye
MRSA_r9,bglK,bglK,1,1,286,286,flye
MRSA_r9,ybbH_2,ybbH_2,1,1,266,266,flye
MRSA_r9,nanE,nanE,1,1,222,222,flye
MRSA_r9,lip2,lip2,1,1,691,691,flye
MRSA_r9,ulaA,ulaA,1,1,448,448,flye
MRSA_r9,cmtB,cmtB,1,1,147,147,flye
MRSA_r9,slyA_1,slyA_2,0,1,139,139,flye
MRSA_r9,mepA,mepA,1,1,451,451,flye
MRSA_r9,glpT,glpT,1,1,452,452,flye
MRSA_r9,mhqA_1,mhqA_3,0,1,308,308,flye
MRSA_r9,luxA,luxA,1,1,353,353,flye
MRSA_r9,ydaF,ydaF,1,1,181,181,flye
MRSA_r9,efeM,efeM,1,1,284,284,flye
MRSA_r9,efeN,efeN,1,1,409,409,flye
MRSA_r9,tatC2,tatC2,1,1,233,233,flye
MRSA_r9,tatAy,tatAy,1,1,71,71,flye
MRSA_r9,btuD_1,btuD_5,0,1,280,280,flye
MRSA_r9,metE,metE,1,1,742,742,flye
MRSA_r9,yitJ,yitJ,1,1,613,613,flye
MRSA_r9,metC,metC,1,1,386,386,flye
MRSA_r9,metI,metI,1,1,367,367,flye
MRSA_r9,spo0J,spo0J,1,1,281,281,flye
MRSA_r9,mscS,mscS,1,1,293,293,flye
MRSA_r9,ychF,ychF,1,1,365,365,flye
MRSA_r9,rpsF,rpsF,1,1,98,98,flye
MRSA_r9,ssbA_1,ssbA_3,0,1,167,167,flye
MRSA_r9,rpsR,rpsR,1,1,80,80,flye
MRSA_r9,xerC_3,xerC_6,0,1,404,404,flye
MRSA_r9,gpmA_1,gpmA_2,0,1,193,193,flye
MRSA_r9,ahpF,ahpF,1,1,507,507,flye
MRSA_r9,ahpC,,0,0,189,0,flye
MRSA_r9,nfrA,nfrA,1,1,251,251,flye
MRSA_r9,tcyP,tcyP,1,1,462,462,flye
MRSA_r9,xpt,xpt,1,1,192,192,flye
MRSA_r9,pucK,pucK,1,1,422,422,flye
MRSA_r9,guaB,guaB,1,1,488,488,flye
MRSA_r9,guaA,guaA,1,1,513,513,flye
MRSA_r9,qorB,qorB,1,1,281,281,flye
MRSA_r9,ssl1,ssl1,1,1,226,226,flye
MRSA_r9,ssl4_1,ssl4_2,0,1,233,233,flye
MRSA_r9,ssl4_2,ssl4_1,0,1,343,343,flye
MRSA_r9,ssl3,ssl3,1,1,306,306,flye
MRSA_r9,ssl5_1,,0,0,234,0,flye
MRSA_r9,ssl7_1,ssl7_2,0,1,231,231,flye
MRSA_r9,ssl7_2,ssl7_1,0,1,232,232,flye
MRSA_r9,hsdM,hsdM,1,1,518,518,flye
MRSA_r9,ssl5_2,ssl5_1,0,1,232,232,flye
MRSA_r9,lpl2_1,lpl2_6,0,1,270,270,flye
MRSA_r9,lpl2_2,lpl2_5,0,1,257,257,flye
MRSA_r9,lpl2_3,lpl2_4,0,1,136,136,flye
MRSA_r9,lpl2_4,lpl2_3,0,1,123,123,flye
MRSA_r9,lpl2_5,lpl2_2,0,1,256,256,flye
MRSA_r9,lpl2_6,lpl2_1,0,1,267,267,flye
MRSA_r9,yciC_1,yciC_2,0,1,400,400,flye
MRSA_r9,ndhB,ndhB,1,1,494,494,flye
MRSA_r9,est_1,est_2,0,1,244,244,flye
MRSA_r9,mccA,,0,0,311,0,flye
MRSA_r9,mccB,mccB,1,1,380,380,flye
MRSA_r9,metN,metN,1,1,341,341,flye
MRSA_r9,metP_1,metP_2,0,1,219,219,flye
MRSA_r9,metQ_1,metQ_2,0,1,280,280,flye
MRSA_r9,sle1,,0,0,341,0,flye
MRSA_r9,hdfR_1,hdfR_2,0,1,294,294,flye
MRSA_r9,gltA,gltA,1,1,1499,1499,flye
MRSA_r9,gltB,gltB,1,1,487,487,flye
MRSA_r9,treP_1,treP_2,0,1,475,475,flye
MRSA_r9,treA,treA,1,1,546,546,flye
MRSA_r9,treR_1,treR_2,0,1,242,242,flye
MRSA_r9,ruvB_1,ruvB_3,0,1,565,565,flye
MRSA_r9,recR,recR,1,1,198,198,flye
MRSA_r9,speA,speA,1,1,445,445,flye
MRSA_r9,tmk,tmk,1,1,205,205,flye
MRSA_r9,darA,darA,1,1,109,109,flye
MRSA_r9,yabA,yabA,1,1,115,115,flye
MRSA_r9,yfiC,yfiC,1,1,241,241,flye
MRSA_r9,rsmI,rsmI,1,1,279,279,flye
MRSA_r9,metG,,0,0,657,0,flye
MRSA_r9,dtd3,dtd3,1,1,257,257,flye
MRSA_r9,rnmV_1,rnmV,0,1,178,178,flye
MRSA_r9,rsmA,,0,0,297,0,flye
MRSA_r9,veg,veg,1,1,87,87,flye
MRSA_r9,ispE,ispE,1,1,282,282,flye
MRSA_r9,purR,purR,1,1,274,274,flye
MRSA_r9,yabJ,yabJ,1,1,126,126,flye
MRSA_r9,spoVG,spoVG,1,1,100,100,flye
MRSA_r9,glmU,glmU,1,1,450,450,flye
MRSA_r9,prs,prs,1,1,321,321,flye
MRSA_r9,rplY,rplY,1,1,217,217,flye
MRSA_r9,pth,pth,1,1,190,190,flye
MRSA_r9,mfd,mfd,1,1,1168,1168,flye
MRSA_r9,divIC,divIC,1,1,130,130,flye
MRSA_r9,pnp_1,pnp_2,0,1,133,133,flye
MRSA_r9,tilS,tilS,1,1,431,431,flye
MRSA_r9,hpt,hpt,1,1,179,179,flye
MRSA_r9,ftsH,ftsH,1,1,697,697,flye
MRSA_r9,hslO,hslO,1,1,293,293,flye
MRSA_r9,cysK,,0,0,310,0,flye
MRSA_r9,folP,folP,1,1,267,267,flye
MRSA_r9,folB,folB,1,1,121,121,flye
MRSA_r9,folK,folK,1,1,158,158,flye
MRSA_r9,lysS,lysS,1,1,495,495,flye
MRSA_r9,gabR,gabR,1,1,460,460,flye
MRSA_r9,pdxS,pdxS,1,1,295,295,flye
MRSA_r9,pdxT,pdxT,1,1,186,186,flye
MRSA_r9,nupC_2,,0,0,404,0,flye
MRSA_r9,ctsR,ctsR,1,1,156,156,flye
MRSA_r9,mcsA,mcsA,1,1,188,188,flye
MRSA_r9,mcsB,mcsB,1,1,336,336,flye
MRSA_r9,clpC,clpC,1,1,818,818,flye
MRSA_r9,radA,radA,1,1,454,454,flye
MRSA_r9,yacL,yacL,1,1,357,357,flye
MRSA_r9,gltX,gltX,1,1,484,484,flye
MRSA_r9,cysE,cysE,1,1,226,226,flye
MRSA_r9,cysS,cysS,1,1,466,466,flye
MRSA_r9,mrnC,mrnC,1,1,134,134,flye
MRSA_r9,yacP,yacP,1,1,174,174,flye
MRSA_r9,secE,secE,1,1,60,60,flye
MRSA_r9,nusG,nusG,1,1,182,182,flye
MRSA_r9,rplK,rplK,1,1,140,140,flye
MRSA_r9,rplA,rplA,1,1,229,229,flye
MRSA_r9,rplJ,rplJ,1,1,166,166,flye
MRSA_r9,rplL,rplL,1,1,122,122,flye
MRSA_r9,rsmC,rsmC,1,1,202,202,flye
MRSA_r9,rpoB,rpoB,1,1,1183,1183,flye
MRSA_r9,rpoC,,0,0,1207,0,flye
MRSA_r9,rplGB,rplGB,1,1,84,84,flye
MRSA_r9,rpsL,rpsL,1,1,137,137,flye
MRSA_r9,rpsG,rpsG,1,1,156,156,flye
MRSA_r9,fusA,fusA,1,1,693,693,flye
MRSA_r9,tuf,tuf,1,1,394,394,flye
MRSA_r9,scmP_2,scmP_3,0,1,391,391,flye
MRSA_r9,hchA,hchA,1,1,292,292,flye
MRSA_r9,araB,araB,1,1,545,545,flye
MRSA_r9,ilvE,ilvE,1,1,358,358,flye
MRSA_r9,ppaX_1,ppaX_2,0,1,227,227,flye
MRSA_r9,dck,dck,1,1,220,220,flye
MRSA_r9,dgk,dgk,1,1,205,205,flye
MRSA_r9,tadA_1,tadA_2,0,1,156,156,flye
MRSA_r9,ywtE_1,ywtE_2,0,1,289,289,flye
MRSA_r9,azo1,azo1,1,1,188,188,flye
MRSA_r9,bbp,bbp,1,1,1137,1137,flye
MRSA_r9,gtfA_1,gtfA_2,0,1,490,490,flye
MRSA_r9,gtfA_2,gtfA_1,0,1,496,496,flye
MRSA_r9,folE2,folE2,1,1,292,292,flye
MRSA_r9,bshB2,bshB2,1,1,221,221,flye
MRSA_r9,yojF,yojF,1,1,120,120,flye
MRSA_r9,nagB_1,nagB_2,0,1,252,252,flye
MRSA_r9,hxlB,hxlB,1,1,182,182,flye
MRSA_r9,gph,gph,1,1,215,215,flye
MRSA_r9,proP,proP,1,1,466,466,flye
MRSA_r9,menE_1,menE_2,0,1,458,458,flye
MRSA_r9,yhfS,yhfS,1,1,379,379,flye
MRSA_r9,pdxK,pdxK,1,1,276,276,flye
MRSA_r9,ung,ung,1,1,218,218,flye
MRSA_r9,pta,pta,1,1,328,328,flye
MRSA_r9,lipL,lipL,1,1,278,278,flye
MRSA_r9,galK,,0,0,306,0,flye
MRSA_r9,rclA,rclA,1,1,440,440,flye
MRSA_r9,iolS,iolS,1,1,312,312,flye
MRSA_r9,ywqN,ywqN,1,1,178,178,flye
MRSA_r9,adh,adh,1,1,336,336,flye
MRSA_r9,ywiB,ywiB,1,1,138,138,flye
MRSA_r9,argS,argS,1,1,553,553,flye
MRSA_r9,nth_1,nth_2,0,1,211,211,flye
MRSA_r9,btuF,btuF,1,1,295,295,flye
MRSA_r9,hdl IVa,hdl IVa,1,1,239,239,flye
MRSA_r9,pip,pip,1,1,262,262,flye
MRSA_r9,sarA,sarA,1,1,124,124,flye
MRSA_r9,xerD_1,xerD_2,0,1,186,186,flye
MRSA_r9,mrpA,,0,0,800,0,flye
MRSA_r9,mrpB,,0,0,141,0,flye
MRSA_r9,mnhC1_1,,0,0,114,0,flye
MRSA_r9,mnhD1_1,,0,0,498,0,flye
MRSA_r9,mrpE,mrpE,1,1,160,160,flye
MRSA_r9,mrpF,mrpF,1,1,100,100,flye
MRSA_r9,mrpG,mrpG,1,1,120,120,flye
MRSA_r9,nhaK_1,nhaK_2,0,1,680,680,flye
MRSA_r9,pbuE_1,pbuE_2,0,1,382,382,flye
MRSA_r9,ppaX_2,ppaX_1,0,1,82,82,flye
MRSA_r9,mntA,mntA,1,1,309,309,flye
MRSA_r9,mntB,mntB,1,1,278,278,flye
MRSA_r9,scaC,scaC,1,1,247,247,flye
MRSA_r9,mntR,mntR,1,1,214,214,flye
MRSA_r9,tarA,tarA,1,1,254,254,flye
MRSA_r9,tagH_1,tagH_2,0,1,264,264,flye
MRSA_r9,tagG,tagG,1,1,270,270,flye
MRSA_r9,tarB,tarB,1,1,367,367,flye
MRSA_r9,tagX,tagX,1,1,353,353,flye
MRSA_r9,tarD,tarD,1,1,132,132,flye
MRSA_r9,bmrA,bmrA,1,1,575,575,flye
MRSA_r9,nupG,nupG,1,1,409,409,flye
MRSA_r9,fepC,,0,0,265,0,flye
MRSA_r9,feuB,feuB,1,1,334,334,flye
MRSA_r9,feuC,feuC,1,1,338,338,flye
MRSA_r9,dhaK,dhaK,1,1,322,322,flye
MRSA_r9,dhaL,dhaL,1,1,194,194,flye
MRSA_r9,dhaM,dhaM,1,1,120,120,flye
MRSA_r9,aes,aes,1,1,347,347,flye
MRSA_r9,graR_1,,0,0,224,0,flye
MRSA_r9,graS_1,graS_1,1,1,346,346,flye
MRSA_r9,bceA_1,bceA_1,1,1,253,253,flye
MRSA_r9,bceB_1,bceB_1,1,1,629,629,flye
MRSA_r9,rhaR,rhaR,1,1,647,647,flye
MRSA_r9,sarX,sarX,1,1,141,141,flye
MRSA_r9,oxyR,oxyR,1,1,288,288,flye
MRSA_r9,setC,setC,1,1,430,430,flye
MRSA_r9,bin3,bin3,1,1,105,105,flye
MRSA_r9,sdpR,sdpR,1,1,104,104,flye
MRSA_r9,arsB_1,arsB_2,0,1,429,429,flye
MRSA_r9,arsC,arsC,1,1,131,131,flye
MRSA_r9,pre,pre,1,1,108,108,flye
MRSA_r9,bcrR,bcrR,1,1,113,113,flye
MRSA_r9,cysL,cysL,1,1,273,273,flye
MRSA_r9,hin_1,hin_2,0,1,191,191,flye
MRSA_r9,copB,,0,0,681,0,flye
MRSA_r9,mco,mco,1,1,477,477,flye
MRSA_r9,cadA,cadA,1,1,726,726,flye
MRSA_r9,cadC,cadC,1,1,121,121,flye
MRSA_r9,uppP,uppP,1,1,291,291,flye
MRSA_r9,cydD,cydD,1,1,543,543,flye
MRSA_r9,mgrA,mgrA,1,1,147,147,flye
MRSA_r9,yciC_2,yciC_1,0,1,308,308,flye
MRSA_r9,ydhF,ydhF,1,1,302,302,flye
MRSA_r9,phrB,phrB,1,1,457,457,flye
MRSA_r9,tetA,tetA,1,1,388,388,flye
MRSA_r9,ybaK,ybaK,1,1,160,160,flye
MRSA_r9,ydjF,ydjF,1,1,254,254,flye
MRSA_r9,lacC_1,lacC_2,0,1,306,306,flye
MRSA_r9,fruA,fruA,1,1,652,652,flye
MRSA_r9,nagA,nagA,1,1,393,393,flye
MRSA_r9,csbB,csbB,1,1,327,327,flye
MRSA_r9,saeS,saeS,1,1,351,351,flye
MRSA_r9,saeR,saeR,1,1,228,228,flye
MRSA_r9,queE,queE,1,1,237,237,flye
MRSA_r9,queD,queD,1,1,139,139,flye
MRSA_r9,queC,queC,1,1,222,222,flye
MRSA_r9,trpG_1,trpG_2,0,1,197,197,flye
MRSA_r9,menF,menF,1,1,383,383,flye
MRSA_r9,pxpB_1,pxpB_2,0,1,236,236,flye
MRSA_r9,pxpC_1,pxpC_2,0,1,334,334,flye
MRSA_r9,ltaS,ltaS,1,1,646,646,flye
MRSA_r9,ettA,ettA,1,1,625,625,flye
MRSA_r9,recQ_1,recQ_2,0,1,593,593,flye
MRSA_r9,btuD_2,btuD_4,0,1,325,325,flye
MRSA_r9,hisC_1,hisC_2,0,1,352,352,flye
MRSA_r9,dtpT,dtpT,1,1,501,501,flye
MRSA_r9,queF,queF,1,1,166,166,flye
MRSA_r9,cntI,cntI,1,1,288,288,flye
MRSA_r9,nrdI,nrdI,1,1,132,132,flye
MRSA_r9,nrdE,nrdE,1,1,701,701,flye
MRSA_r9,nrdF,,0,0,323,0,flye
MRSA_r9,yclN,yclN,1,1,323,323,flye
MRSA_r9,yclO,yclO,1,1,318,318,flye
MRSA_r9,yclP,yclP,1,1,253,253,flye
MRSA_r9,yclQ,yclQ,1,1,342,342,flye
MRSA_r9,murB,murB,1,1,307,307,flye
MRSA_r9,garK_1,garK_2,0,1,374,374,flye
MRSA_r9,pepT_1,pepT_2,0,1,408,408,flye
MRSA_r9,yjjP,yjjP,1,1,253,253,flye
MRSA_r9,tagO,tagO,1,1,351,351,flye
MRSA_r9,comFA,comFA,1,1,360,360,flye
MRSA_r9,hpf,hpf,1,1,190,190,flye
MRSA_r9,secA1_1,secA1_1,1,1,843,843,flye
MRSA_r9,prfB,prfB,1,1,330,330,flye
MRSA_r9,yfbR,yfbR,1,1,216,216,flye
MRSA_r9,uvrB_1,uvrB_2,0,1,661,661,flye
MRSA_r9,uvrA,uvrA,1,1,948,948,flye
MRSA_r9,hprK,,0,0,310,0,flye
MRSA_r9,lgt,lgt,1,1,280,280,flye
MRSA_r9,maa,maa,1,1,161,161,flye
MRSA_r9,trxB,trxB,1,1,311,311,flye
MRSA_r9,whiA,,0,0,314,0,flye
MRSA_r9,clpP_1,clpP_3,0,1,195,195,flye
MRSA_r9,mleS,,0,0,544,0,flye
MRSA_r9,cggR,cggR,1,1,337,337,flye
MRSA_r9,gapA1,gapA1,1,1,336,336,flye
MRSA_r9,pgk,pgk,1,1,396,396,flye
MRSA_r9,tpiA,tpiA,1,1,253,253,flye
MRSA_r9,gpmI,gpmI,1,1,505,505,flye
MRSA_r9,eno,eno,1,1,434,434,flye
MRSA_r9,secG,secG,1,1,77,77,flye
MRSA_r9,est_2,,0,0,246,0,flye
MRSA_r9,rnr,,0,0,790,0,flye
MRSA_r9,smpB,smpB,1,1,154,154,flye
MRSA_r9,ssp,ssp,1,1,341,341,flye
MRSA_r9,nuc,nuc,1,1,228,228,flye
MRSA_r9,cspA_1,cspA_2,0,1,66,66,flye
MRSA_r9,pspB,pspB,1,1,194,194,flye
MRSA_r9,argO_1,argO_2,0,1,205,205,flye
MRSA_r9,aroD,aroD,1,1,238,238,flye
MRSA_r9,ydbP,ydbP,1,1,106,106,flye
MRSA_r9,mgsR,mgsR,1,1,118,118,flye
MRSA_r9,gcvH,gcvH,1,1,126,126,flye
MRSA_r9,rnmV_2,,0,0,129,0,flye
MRSA_r9,metN2,metN2,1,1,341,341,flye
MRSA_r9,metP_2,metP_1,0,1,231,231,flye
MRSA_r9,metQ_2,metQ_1,0,1,273,273,flye
MRSA_r9,sufC,sufC,1,1,253,253,flye
MRSA_r9,csd,csd,1,1,413,413,flye
MRSA_r9,sufU,sufU,1,1,154,154,flye
MRSA_r9,pnoA,pnoA,1,1,355,355,flye
MRSA_r9,lipA_1,,0,0,305,0,flye
MRSA_r9,yutF,yutF,1,1,259,259,flye
MRSA_r9,ghrB_1,ghrB_2,0,1,319,319,flye
MRSA_r9,dltA_2,dltA_1,0,1,485,485,flye
MRSA_r9,patA,patA,1,1,404,404,flye
MRSA_r9,dltC,dltC,1,1,78,78,flye
MRSA_r9,dltD,dltD,1,1,391,391,flye
MRSA_r9,nfuA,nfuA,1,1,80,80,flye
MRSA_r9,yjlD,yjlD,1,1,354,354,flye
MRSA_r9,pepA_1,pepA_2,0,1,491,491,flye
MRSA_r9,mnhG1,mnhG1,1,1,118,118,flye
MRSA_r9,mnhF1,mnhF1,1,1,97,97,flye
MRSA_r9,mnhE1,mnhE1,1,1,159,159,flye
MRSA_r9,mnhD1_2,mnhD1_1,0,1,498,498,flye
MRSA_r9,mnhC1_2,mnhC1,0,1,113,113,flye
MRSA_r9,mnhB1,mnhB1,1,1,142,142,flye
MRSA_r9,mnhA1,mnhA1,1,1,801,801,flye
MRSA_r9,kapB,kapB,1,1,127,127,flye
MRSA_r9,yugI,yugI,1,1,125,125,flye
MRSA_r9,rocD2_2,rocD2_1,0,1,396,396,flye
MRSA_r9,gluD,gluD,1,1,414,414,flye
MRSA_r9,glpQ_1,glpQ_2,0,1,309,309,flye
MRSA_r9,argH,argH,1,1,459,459,flye
MRSA_r9,argG,argG,1,1,401,401,flye
MRSA_r9,pgi,pgi,1,1,443,443,flye
MRSA_r9,ydjZ,ydjZ,1,1,191,191,flye
MRSA_r9,spsB_1,spsB_2,0,1,174,174,flye
MRSA_r9,spsB_2,spsB_1,0,1,191,191,flye
MRSA_r9,addB,addB,1,1,1158,1158,flye
MRSA_r9,addA,,0,0,1217,0,flye
MRSA_r9,cdr,,0,0,438,0,flye
MRSA_r9,yitU,yitU,1,1,274,274,flye
MRSA_r9,sufT,sufT,1,1,102,102,flye
MRSA_r9,oatA_1,,0,0,604,0,flye
MRSA_r9,clpB,clpB,1,1,869,869,flye
MRSA_r9,ampR,ampR,1,1,289,289,flye
MRSA_r9,leuA_1,,0,0,381,0,flye
MRSA_r9,map_1,map_4,0,1,144,144,flye
MRSA_r9,fabH,fabH,1,1,313,313,flye
MRSA_r9,fabF,fabF,1,1,414,414,flye
MRSA_r9,oppB,oppB,1,1,308,308,flye
MRSA_r9,oppC,oppC,1,1,356,356,flye
MRSA_r9,oppD_1,oppD_2,0,1,360,360,flye
MRSA_r9,oppF_1,oppF_2,0,1,313,313,flye
MRSA_r9,dppE,,0,0,551,0,flye
MRSA_r9,appA,appA,1,1,451,451,flye
MRSA_r9,oppD_2,oppD_1,0,1,328,328,flye
MRSA_r9,oppF_2,oppF_1,0,1,326,326,flye
MRSA_r9,dppC,dppC,1,1,293,293,flye
MRSA_r9,trpS,trpS,1,1,329,329,flye
MRSA_r9,spxA,spxA,1,1,131,131,flye
MRSA_r9,mecA_2,mecA_1,0,1,239,239,flye
MRSA_r9,pepF1_1,pepF1_2,0,1,602,602,flye
MRSA_r9,yjbI,yjbI,1,1,121,121,flye
MRSA_r9,yjbK,yjbK,1,1,197,197,flye
MRSA_r9,yjbM,yjbM,1,1,211,211,flye
MRSA_r9,nadK,nadK,1,1,269,269,flye
MRSA_r9,mgtE,mgtE,1,1,461,461,flye
MRSA_r9,kefB,,0,0,614,0,flye
MRSA_r9,fabI,fabI,1,1,256,256,flye
MRSA_r9,acp,acp,1,1,522,522,flye
MRSA_r9,ltaA,ltaA,1,1,396,396,flye
MRSA_r9,ugtP,ugtP,1,1,391,391,flye
MRSA_r9,murE,murE,1,1,494,494,flye
MRSA_r9,prfC,prfC,1,1,520,520,flye
MRSA_r9,ktrB_1,,0,0,452,0,flye
MRSA_r9,tarM,tarM,1,1,493,493,flye
MRSA_r9,catD,catD,1,1,118,118,flye
MRSA_r9,yfmC_1,yfmC_2,0,1,319,319,flye
MRSA_r9,menA,menA,1,1,312,312,flye
MRSA_r9,pchA,pchA,1,1,453,453,flye
MRSA_r9,menD,menD,1,1,557,557,flye
MRSA_r9,menH,menH,1,1,267,267,flye
MRSA_r9,menB,menB,1,1,273,273,flye
MRSA_r9,sspC,sspC,1,1,109,109,flye
MRSA_r9,sspB,sspB,1,1,393,393,flye
MRSA_r9,sspA,,0,0,357,0,flye
MRSA_r9,dapX,dapX,1,1,384,384,flye
MRSA_r9,slyA_2,slyA_1,0,1,139,139,flye
MRSA_r9,atl_1,atl_3,0,1,1257,1257,flye
MRSA_r9,tagU_1,,0,0,408,0,flye
MRSA_r9,fmtA,fmtA,1,1,397,397,flye
MRSA_r9,qoxD,qoxD,1,1,96,96,flye
MRSA_r9,qoxC,qoxC,1,1,201,201,flye
MRSA_r9,qoxB,,0,0,662,0,flye
MRSA_r9,qoxA,qoxA,1,1,366,366,flye
MRSA_r9,folD,folD,1,1,286,286,flye
MRSA_r9,purE,purE,1,1,160,160,flye
MRSA_r9,purK,purK,1,1,374,374,flye
MRSA_r9,purC,purC,1,1,234,234,flye
MRSA_r9,purS,purS,1,1,87,87,flye
MRSA_r9,purQ,purQ,1,1,223,223,flye
MRSA_r9,purL,,0,0,729,0,flye
MRSA_r9,purF,purF,1,1,494,494,flye
MRSA_r9,purM,,0,0,342,0,flye
MRSA_r9,purN,purN,1,1,188,188,flye
MRSA_r9,purH,purH,1,1,492,492,flye
MRSA_r9,purD,purD,1,1,415,415,flye
MRSA_r9,ecfT_1,ecfT_2,0,1,268,268,flye
MRSA_r9,ykoD_1,ykoD_1,1,1,466,466,flye
MRSA_r9,ykoE,ykoE,1,1,191,191,flye
MRSA_r9,rlmI,rlmI,1,1,390,390,flye
MRSA_r9,ptsH,ptsH,1,1,88,88,flye
MRSA_r9,ptsI,ptsI,1,1,572,572,flye
MRSA_r9,ythA,ythA,1,1,453,453,flye
MRSA_r9,ythB,ythB,1,1,339,339,flye
MRSA_r9,ktrA,ktrA,1,1,220,220,flye
MRSA_r9,rnj1,rnj1,1,1,565,565,flye
MRSA_r9,def,def,1,1,183,183,flye
MRSA_r9,pdhA,pdhA,1,1,370,370,flye
MRSA_r9,pdhB,pdhB,1,1,325,325,flye
MRSA_r9,pdhC_1,pdhC_2,0,1,430,430,flye
MRSA_r9,pdhD,pdhD,1,1,468,468,flye
MRSA_r9,potA,potA,1,1,364,364,flye
MRSA_r9,potB,potB,1,1,265,265,flye
MRSA_r9,ydcV,ydcV,1,1,269,269,flye
MRSA_r9,potD,potD,1,1,357,357,flye
MRSA_r9,mntH_1,mntH_2,0,1,450,450,flye
MRSA_r9,suhB,suhB,1,1,275,275,flye
MRSA_r9,typA,typA,1,1,615,615,flye
MRSA_r9,ftsW,ftsW,1,1,408,408,flye
MRSA_r9,pycA,pycA,1,1,1150,1150,flye
MRSA_r9,ctaA,ctaA,1,1,306,306,flye
MRSA_r9,ctaB2,ctaB2,1,1,303,303,flye
MRSA_r9,rsmD,rsmD,1,1,180,180,flye
MRSA_r9,coaD,coaD,1,1,160,160,flye
MRSA_r9,tmcAL,tmcAL,1,1,379,379,flye
MRSA_r9,rpmF,rpmF,1,1,57,57,flye
MRSA_r9,isdB,isdB,1,1,652,652,flye
MRSA_r9,isdA,isdA,1,1,354,354,flye
MRSA_r9,isdC,,0,0,227,0,flye
MRSA_r9,isdE,isdE,1,1,292,292,flye
MRSA_r9,isdF,isdF,1,1,322,322,flye
MRSA_r9,srtB,srtB,1,1,244,244,flye
MRSA_r9,isdG_1,isdG_1,1,1,107,107,flye
MRSA_r9,pheS,pheS,1,1,352,352,flye
MRSA_r9,pheT,pheT,1,1,800,800,flye
MRSA_r9,rnhC,rnhC,1,1,329,329,flye
MRSA_r9,zapA,zapA,1,1,88,88,flye
MRSA_r9,polX,polX,1,1,570,570,flye
MRSA_r9,mutS2,,0,0,782,0,flye
MRSA_r9,trxA,trxA,1,1,104,104,flye
MRSA_r9,uvrC,uvrC,1,1,593,593,flye
MRSA_r9,sdhC,sdhC,1,1,204,204,flye
MRSA_r9,frdA,frdA,1,1,588,588,flye
MRSA_r9,frdB,frdB,1,1,271,271,flye
MRSA_r9,murI,murI,1,1,266,266,flye
MRSA_r9,fib,fib,1,1,165,165,flye
MRSA_r9,scn_2,scn_2,1,1,116,116,flye
MRSA_r9,hly_1,hly_2,0,1,206,206,flye
MRSA_r9,hly_2,hly_1,0,1,112,112,flye
MRSA_r9,argF,argF,1,1,333,333,flye
MRSA_r9,arcC1,arcC1,1,1,311,311,flye
MRSA_r9,yfnB,yfnB,1,1,228,228,flye
MRSA_r9,bshC,bshC,1,1,537,537,flye
MRSA_r9,mraZ,mraZ,1,1,143,143,flye
MRSA_r9,rsmH_1,rsmH_2,0,1,311,311,flye
MRSA_r9,ftsL,ftsL,1,1,133,133,flye
MRSA_r9,pbpB,,0,0,744,0,flye
MRSA_r9,mraY,mraY,1,1,321,321,flye
MRSA_r9,murD,murD,1,1,449,449,flye
MRSA_r9,divIB,,0,0,439,0,flye
MRSA_r9,ftsA,ftsA,1,1,468,468,flye
MRSA_r9,ftsZ,ftsZ,1,1,390,390,flye
MRSA_r9,yggS,,0,0,222,0,flye
MRSA_r9,sepF,sepF,1,1,187,187,flye
MRSA_r9,divIVA,,0,0,198,0,flye
MRSA_r9,ileS,ileS,1,1,917,917,flye
MRSA_r9,catE_1,catE_2,0,1,265,265,flye
MRSA_r9,lspA,lspA,1,1,163,163,flye
MRSA_r9,rluD_1,rluD_2,0,1,305,305,flye
MRSA_r9,pyrR,pyrR,1,1,175,175,flye
MRSA_r9,pyrP,pyrP,1,1,435,435,flye
MRSA_r9,pyrB,pyrB,1,1,293,293,flye
MRSA_r9,pyrC,pyrC,1,1,425,425,flye
MRSA_r9,carA_2,carA_1,0,1,366,366,flye
MRSA_r9,carB,carB,1,1,1057,1057,flye
MRSA_r9,pyrF,pyrF,1,1,230,230,flye
MRSA_r9,pyrE,pyrE,1,1,203,203,flye
MRSA_r9,rqcH,rqcH,1,1,565,565,flye
MRSA_r9,gmk,,0,0,207,0,flye
MRSA_r9,rpoZ,rpoZ,1,1,72,72,flye
MRSA_r9,coaBC,,0,0,399,0,flye
MRSA_r9,priA,priA,1,1,802,802,flye
MRSA_r9,def1,def1,1,1,162,162,flye
MRSA_r9,fmt,fmt,1,1,311,311,flye
MRSA_r9,rsmB,,0,0,435,0,flye
MRSA_r9,rlmN,rlmN,1,1,364,364,flye
MRSA_r9,stp,stp,1,1,247,247,flye
MRSA_r9,prkC,,0,0,664,0,flye
MRSA_r9,rsgA,,0,0,291,0,flye
MRSA_r9,rpe,rpe,1,1,214,214,flye
MRSA_r9,thiN,thiN,1,1,213,213,flye
MRSA_r9,rpmB,rpmB,1,1,62,62,flye
MRSA_r9,recG,recG,1,1,686,686,flye
MRSA_r9,fapR,fapR,1,1,185,185,flye
MRSA_r9,plsX,plsX,1,1,328,328,flye
MRSA_r9,fabD,fabD,1,1,308,308,flye
MRSA_r9,fabG,fabG,1,1,244,244,flye
MRSA_r9,acpP,,0,0,77,0,flye
MRSA_r9,rnc,rnc,1,1,243,243,flye
MRSA_r9,smc_1,smc_2,0,1,1188,1188,flye
MRSA_r9,ftsY,ftsY,1,1,416,416,flye
MRSA_r9,ffh,ffh,1,1,455,455,flye
MRSA_r9,rpsP,rpsP,1,1,91,91,flye
MRSA_r9,rimM,rimM,1,1,167,167,flye
MRSA_r9,trmD,trmD,1,1,245,245,flye
MRSA_r9,rplS,rplS,1,1,116,116,flye
MRSA_r9,rbgA,,0,0,294,0,flye
MRSA_r9,rnhB,rnhB,1,1,255,255,flye
MRSA_r9,sucC,sucC,1,1,388,388,flye
MRSA_r9,sucD,sucD,1,1,302,302,flye
MRSA_r9,lytN,lytN,1,1,372,372,flye
MRSA_r9,femA_1,femA_3,0,1,414,414,flye
MRSA_r9,topA,topA,1,1,691,691,flye
MRSA_r9,trmFO,trmFO,1,1,435,435,flye
MRSA_r9,xerC_4,xerC_5,0,1,298,298,flye
MRSA_r9,hslV,hslV,1,1,181,181,flye
MRSA_r9,hslU,hslU,1,1,467,467,flye
MRSA_r9,codY,codY,1,1,257,257,flye
MRSA_r9,rpsB,rpsB,1,1,255,255,flye
MRSA_r9,tsf,tsf,1,1,293,293,flye
MRSA_r9,pyrH,pyrH,1,1,240,240,flye
MRSA_r9,frr,frr,1,1,184,184,flye
MRSA_r9,uppS,uppS,1,1,256,256,flye
MRSA_r9,proS,proS,1,1,567,567,flye
MRSA_r9,polC,polC,1,1,1438,1438,flye
MRSA_r9,rimP,rimP,1,1,155,155,flye
MRSA_r9,nusA,nusA,1,1,391,391,flye
MRSA_r9,rplGA,rplGA,1,1,105,105,flye
MRSA_r9,infB_1,infB_2,0,1,705,705,flye
MRSA_r9,rbfA,rbfA,1,1,116,116,flye
MRSA_r9,truB,truB,1,1,305,305,flye
MRSA_r9,ribF,ribF,1,1,323,323,flye
MRSA_r9,rpsO,rpsO,1,1,89,89,flye
MRSA_r9,pnp_2,pnp_1,0,1,698,698,flye
MRSA_r9,rnj2,,0,0,557,0,flye
MRSA_r9,ftsK,,0,0,789,0,flye
MRSA_r9,gamR,gamR,1,1,237,237,flye
MRSA_r9,phaB,phaB,1,1,234,234,flye
MRSA_r9,pgsA,pgsA,1,1,192,192,flye
MRSA_r9,cinA,cinA,1,1,383,383,flye
MRSA_r9,recA,recA,1,1,347,347,flye
MRSA_r9,rny,rny,1,1,519,519,flye
MRSA_r9,ymdB,ymdB,1,1,265,265,flye
MRSA_r9,miaB,,0,0,514,0,flye
MRSA_r9,ymcA,ymcA,1,1,121,121,flye
MRSA_r9,mutS_1,mutS_2,0,1,872,872,flye
MRSA_r9,mutL,,0,0,669,0,flye
MRSA_r9,glpP,glpP,1,1,177,177,flye
MRSA_r9,glpF,glpF,1,1,272,272,flye
MRSA_r9,glpK,glpK,1,1,498,498,flye
MRSA_r9,glpD,glpD,1,1,557,557,flye
MRSA_r9,miaA,miaA,1,1,311,311,flye
MRSA_r9,hfq,hfq,1,1,77,77,flye
MRSA_r9,bsaA_1,,0,0,158,0,flye
MRSA_r9,hflX,hflX,1,1,412,412,flye
MRSA_r9,glnR,glnR,1,1,122,122,flye
MRSA_r9,glnA,glnA,1,1,446,446,flye
MRSA_r9,infB_2,infB_1,0,1,615,615,flye
MRSA_r9,ltaE,ltaE,1,1,341,341,flye
MRSA_r9,cls_1,cls_3,0,1,493,493,flye
MRSA_r9,btuD_3,btuD_3,1,1,299,299,flye
MRSA_r9,desR,desR,1,1,168,168,flye
MRSA_r9,nucH,nucH,1,1,177,177,flye
MRSA_r9,yclM,yclM,1,1,460,460,flye
MRSA_r9,thrC,thrC,1,1,353,353,flye
MRSA_r9,thrB,thrB_1,0,1,304,304,flye
MRSA_r9,lysP_1,lysP_2,0,1,484,484,flye
MRSA_r9,katA,katA,1,1,505,505,flye
MRSA_r9,rpmG2_1,rpmG2_2,0,1,49,49,flye
MRSA_r9,rpsN2,rpsN2,1,1,89,89,flye
MRSA_r9,guaC,guaC,1,1,325,325,flye
MRSA_r9,lexA_1,lexA_2,0,1,207,207,flye
MRSA_r9,tkt,,0,0,662,0,flye
MRSA_r9,sbcD,sbcD,1,1,373,373,flye
MRSA_r9,sbcC,sbcC,1,1,1009,1009,flye
MRSA_r9,mscL,mscL,1,1,120,120,flye
MRSA_r9,opuD_1,opuD_2,0,1,548,548,flye
MRSA_r9,acnA,,0,0,901,0,flye
MRSA_r9,plsY,plsY,1,1,202,202,flye
MRSA_r9,parE,parE,1,1,663,663,flye
MRSA_r9,parC,parC,1,1,800,800,flye
MRSA_r9,alsT,alsT,1,1,486,486,flye
MRSA_r9,glcT,glcT,1,1,283,283,flye
MRSA_r9,mprF,mprF,1,1,840,840,flye
MRSA_r9,msrA1,msrA1,1,1,169,169,flye
MRSA_r9,msrR,msrR,1,1,327,327,flye
MRSA_r9,umuC,,0,0,420,0,flye
MRSA_r9,ysdC_1,ysdC_2,0,1,343,343,flye
MRSA_r9,trpE,trpE,1,1,468,468,flye
MRSA_r9,trpG_2,trpG_1,0,1,188,188,flye
MRSA_r9,trpD2,trpD2,1,1,257,257,flye
MRSA_r9,trpC,trpC,1,1,260,260,flye
MRSA_r9,trpF,trpF,1,1,211,211,flye
MRSA_r9,trpB,trpB,1,1,404,404,flye
MRSA_r9,trpA,trpA,1,1,242,242,flye
MRSA_r9,femA_2,femA_2,1,1,420,420,flye
MRSA_r9,femB,femB,1,1,419,419,flye
MRSA_r9,nikE,nikE,1,1,233,233,flye
MRSA_r9,nikD,nikD,1,1,257,257,flye
MRSA_r9,nikC,nikC,1,1,276,276,flye
MRSA_r9,nikB,nikB,1,1,328,328,flye
MRSA_r9,pepF1_2,pepF1_1,0,1,604,604,flye
MRSA_r9,phoU,phoU,1,1,213,213,flye
MRSA_r9,pstB3,pstB3,1,1,283,283,flye
MRSA_r9,pstA,pstA,1,1,305,305,flye
MRSA_r9,pstS,pstS,1,1,327,327,flye
MRSA_r9,cvfB,cvfB,1,1,300,300,flye
MRSA_r9,ybiT,ybiT,1,1,533,533,flye
MRSA_r9,lysC,lysC,1,1,401,401,flye
MRSA_r9,asd,asd,1,1,329,329,flye
MRSA_r9,dapA,dapA,1,1,295,295,flye
MRSA_r9,dapB,dapB,1,1,240,240,flye
MRSA_r9,dapH_2,dapH_1,0,1,239,239,flye
MRSA_r9,scmP_3,scmP_2,0,1,383,383,flye
MRSA_r9,alr1_1,alr1_2,0,1,361,361,flye
MRSA_r9,lysA,,0,0,421,0,flye
MRSA_r9,cspA_2,cspA_1,0,1,66,66,flye
MRSA_r9,yccX,yccX,1,1,89,89,flye
MRSA_r9,brnQ_3,brnQ_1,0,1,447,447,flye
MRSA_r9,nirQ,nirQ,1,1,263,263,flye
MRSA_r9,mhqA_2,mhqA_2,1,1,269,269,flye
MRSA_r9,odhB,odhB,1,1,423,423,flye
MRSA_r9,odhA,odhA,1,1,932,932,flye
MRSA_r9,arlS,,0,0,451,0,flye
MRSA_r9,arlR,arlR,1,1,219,219,flye
MRSA_r9,murG,murG,1,1,356,356,flye
MRSA_r9,crr,crr,1,1,166,166,flye
MRSA_r9,msrB,msrB,1,1,142,142,flye
MRSA_r9,msrA2,msrA2,1,1,177,177,flye
MRSA_r9,folA,folA,1,1,159,159,flye
MRSA_r9,thyA,thyA,1,1,318,318,flye
MRSA_r9,rnhA,rnhA,1,1,133,133,flye
MRSA_r9,ebh,,0,0,10746,0,flye
MRSA_r9,norB_3,norB_2,0,1,463,463,flye
MRSA_r9,steT,steT,1,1,440,440,flye
MRSA_r9,tdcB,tdcB,1,1,346,346,flye
MRSA_r9,ald1,ald1,1,1,372,372,flye
MRSA_r9,ypcP,ypcP,1,1,292,292,flye
MRSA_r9,der_1,,0,0,1146,0,flye
MRSA_r9,rlmL,rlmL,1,1,381,381,flye
MRSA_r9,gpsB,gpsB,1,1,114,114,flye
MRSA_r9,recU,recU,1,1,208,208,flye
MRSA_r9,ponA,ponA,1,1,716,716,flye
MRSA_r9,nth_2,nth_1,0,1,219,219,flye
MRSA_r9,dnaD,dnaD,1,1,228,228,flye
MRSA_r9,asnS,asnS,1,1,430,430,flye
MRSA_r9,dinG_1,,0,0,897,0,flye
MRSA_r9,birA,birA,1,1,323,323,flye
MRSA_r9,cca,cca,1,1,400,400,flye
MRSA_r9,bshA,bshA,1,1,380,380,flye
MRSA_r9,ypjD,,0,0,105,0,flye
MRSA_r9,bepA,bepA,1,1,414,414,flye
MRSA_r9,aroA_1,,0,0,432,0,flye
MRSA_r9,aroB,aroB,1,1,354,354,flye
MRSA_r9,aroC,,0,0,388,0,flye
MRSA_r9,ndk,ndk,1,1,149,149,flye
MRSA_r9,hepT,,0,0,319,0,flye
MRSA_r9,menG,menG,1,1,241,241,flye
MRSA_r9,hup,hup,1,1,90,90,flye
MRSA_r9,gpsA,gpsA,1,1,332,332,flye
MRSA_r9,der_2,der,0,1,436,436,flye
MRSA_r9,rpsA,rpsA,1,1,391,391,flye
MRSA_r9,cmk,cmk,1,1,219,219,flye
MRSA_r9,ansA,ansA,1,1,322,322,flye
MRSA_r9,ebpS,ebpS,1,1,486,486,flye
MRSA_r9,recQ_2,recQ_1,0,1,459,459,flye
MRSA_r9,ribU,ribU,1,1,181,181,flye
MRSA_r9,smc_2,,0,0,2066,0,flye
MRSA_r9,clpP_2,,0,0,257,0,flye
MRSA_r9,xerC_5,xerC_4,0,1,401,401,flye
MRSA_r9,srrB,srrB,1,1,583,583,flye
MRSA_r9,srrA,srrA,1,1,241,241,flye
MRSA_r9,rluB,rluB,1,1,245,245,flye
MRSA_r9,scpB,scpB,1,1,180,180,flye
MRSA_r9,scpA,scpA,1,1,251,251,flye
MRSA_r9,xerD_2,xerD_1,0,1,295,295,flye
MRSA_r9,fur,fur,1,1,149,149,flye
MRSA_r9,nudF,nudF,1,1,180,180,flye
MRSA_r9,yajO,yajO,1,1,302,302,flye
MRSA_r9,proC,proC,1,1,271,271,flye
MRSA_r9,rnz,rnz,1,1,306,306,flye
MRSA_r9,zwf,zwf,1,1,494,494,flye
MRSA_r9,malL,malL,1,1,549,549,flye
MRSA_r9,malR,malR,1,1,339,339,flye
MRSA_r9,psuK,psuK,1,1,299,299,flye
MRSA_r9,entS,entS,1,1,369,369,flye
MRSA_r9,gnd,gnd,1,1,468,468,flye
MRSA_r9,pepT_2,pepT_1,0,1,377,377,flye
MRSA_r9,pdhC_2,pdhC_1,0,1,424,424,flye
MRSA_r9,bfmBAB,bfmBAB,1,1,327,327,flye
MRSA_r9,bfmBAA,bfmBAA,1,1,330,330,flye
MRSA_r9,recN,recN,1,1,559,559,flye
MRSA_r9,argR_1,argR_1,1,1,150,150,flye
MRSA_r9,xseB,,0,0,76,0,flye
MRSA_r9,xseA,xseA,1,1,445,445,flye
MRSA_r9,nusB,nusB_1,0,1,129,129,flye
MRSA_r9,cfiB,cfiB,1,1,451,451,flye
MRSA_r9,accB_1,accB_2,0,1,154,154,flye
MRSA_r9,efp,efp,1,1,185,185,flye
MRSA_r9,ypdF,ypdF,1,1,353,353,flye
MRSA_r9,lipM,lipM,1,1,276,276,flye
MRSA_r9,yibN,yibN,1,1,128,128,flye
MRSA_r9,gcvPB,gcvPB,1,1,490,490,flye
MRSA_r9,gcvPA,gcvPA,1,1,448,448,flye
MRSA_r9,gcvT,gcvT,1,1,363,363,flye
MRSA_r9,aroK,,0,0,174,0,flye
MRSA_r9,comGC,comGC,1,1,103,103,flye
MRSA_r9,comGA,comGA,1,1,324,324,flye
MRSA_r9,glcK,glcK,1,1,328,328,flye
MRSA_r9,gluP,gluP,1,1,487,487,flye
MRSA_r9,yqgN,yqgN,1,1,197,197,flye
MRSA_r9,rpmG2_2,rpmG2_1,0,1,49,49,flye
MRSA_r9,pbpH,pbpH,1,1,691,691,flye
MRSA_r9,sodA,sodA,1,1,199,199,flye
MRSA_r9,zur,zur,1,1,136,136,flye
MRSA_r9,znuB,,0,0,290,0,flye
MRSA_r9,btuD_4,btuD_2,0,1,261,261,flye
MRSA_r9,nfo,nfo,1,1,296,296,flye
MRSA_r9,cshB,cshB,1,1,448,448,flye
MRSA_r9,trmK,trmK,1,1,225,225,flye
MRSA_r9,sigA,sigA,1,1,368,368,flye
MRSA_r9,dnaG,dnaG,1,1,599,599,flye
MRSA_r9,yqfL,yqfL,1,1,272,272,flye
MRSA_r9,ccpN,,0,0,179,0,flye
MRSA_r9,glyQS,glyQS,1,1,463,463,flye
MRSA_r9,recO,recO,1,1,248,248,flye
MRSA_r9,era,era_1,0,1,299,299,flye
MRSA_r9,cdd,cdd,1,1,134,134,flye
MRSA_r9,dgkA,dgkA,1,1,114,114,flye
MRSA_r9,ybeY,ybeY,1,1,155,155,flye
MRSA_r9,rpsU,rpsU,1,1,58,58,flye
MRSA_r9,mtaB,mtaB,1,1,448,448,flye
MRSA_r9,rsmE,,0,0,250,0,flye
MRSA_r9,prmA,prmA,1,1,312,312,flye
MRSA_r9,dnaJ,dnaJ,1,1,379,379,flye
MRSA_r9,dnaK,dnaK,1,1,610,610,flye
MRSA_r9,grpE,grpE,1,1,208,208,flye
MRSA_r9,hrcA,,0,0,325,0,flye
MRSA_r9,hemW,hemW,1,1,385,385,flye
MRSA_r9,lepA,,0,0,607,0,flye
MRSA_r9,rpsT,rpsT,1,1,83,83,flye
MRSA_r9,yqeN,yqeN,1,1,324,324,flye
MRSA_r9,comEC,comEC,1,1,733,733,flye
MRSA_r9,tadA_2,tadA_1,0,1,143,143,flye
MRSA_r9,comEA,comEA,1,1,225,225,flye
MRSA_r9,tam,tam,1,1,238,238,flye
MRSA_r9,rsfS,rsfS,1,1,117,117,flye
MRSA_r9,nadD,nadD,1,1,189,189,flye
MRSA_r9,yhbY,yhbY,1,1,96,96,flye
MRSA_r9,aroE,,0,0,268,0,flye
MRSA_r9,yqeH,yqeH,1,1,366,366,flye
MRSA_r9,mtnN,mtnN,1,1,228,228,flye
MRSA_r9,entA_1,entA_4,0,1,62,62,flye
MRSA_r9,entA_2,entA_3,0,1,167,167,flye
MRSA_r9,mntH_2,mntH_1,0,1,410,410,flye
MRSA_r9,pxpA,pxpA,1,1,250,250,flye
MRSA_r9,accC,accC,1,1,453,453,flye
MRSA_r9,accB_2,accB_1,0,1,149,149,flye
MRSA_r9,pxpC_2,pxpC_1,0,1,336,336,flye
MRSA_r9,pxpB_2,pxpB_1,0,1,244,244,flye
MRSA_r9,greA,greA,1,1,158,158,flye
MRSA_r9,udk,udk,1,1,207,207,flye
MRSA_r9,rlhA,rlhA,1,1,307,307,flye
MRSA_r9,trmR,,0,0,212,0,flye
MRSA_r9,yrrK,yrrK,1,1,142,142,flye
MRSA_r9,alaS,alaS,1,1,877,877,flye
MRSA_r9,recD2,recD2,1,1,825,825,flye
MRSA_r9,yrrB,yrrB,1,1,222,222,flye
MRSA_r9,mnmA,mnmA,1,1,372,372,flye
MRSA_r9,iscS_1,iscS_2,0,1,380,380,flye
MRSA_r9,cymR,cymR,1,1,140,140,flye
MRSA_r9,aspS,aspS,1,1,588,588,flye
MRSA_r9,hisS,hisS,1,1,420,420,flye
MRSA_r9,dtd,dtd,1,1,150,150,flye
MRSA_r9,relA,relA,1,1,736,736,flye
MRSA_r9,apt,apt,1,1,172,172,flye
MRSA_r9,secDF,secDF,1,1,759,759,flye
MRSA_r9,yajC,yajC,1,1,86,86,flye
MRSA_r9,tgt,tgt,1,1,379,379,flye
MRSA_r9,queA,queA,1,1,341,341,flye
MRSA_r9,ruvB_2,,0,0,334,0,flye
MRSA_r9,ruvA,ruvA,1,1,200,200,flye
MRSA_r9,obg,obg,1,1,430,430,flye
MRSA_r9,rpmA,rpmA,1,1,94,94,flye
MRSA_r9,rplU,rplU,1,1,102,102,flye
MRSA_r9,mreC,mreC,1,1,280,280,flye
MRSA_r9,comC,comC,1,1,235,235,flye
MRSA_r9,fpgS,fpgS,1,1,423,423,flye
MRSA_r9,valS,valS,1,1,876,876,flye
MRSA_r9,tag,tag,1,1,186,186,flye
MRSA_r9,hemL1,hemL1,1,1,428,428,flye
MRSA_r9,hemB,hemB,1,1,324,324,flye
MRSA_r9,hemC,,0,0,308,0,flye
MRSA_r9,hemA,hemA,1,1,448,448,flye
MRSA_r9,engB,engB,1,1,196,196,flye
MRSA_r9,clpX,clpX,1,1,420,420,flye
MRSA_r9,tig,,0,0,433,0,flye
MRSA_r9,rplT,rplT,1,1,118,118,flye
MRSA_r9,rpmI,rpmI,1,1,66,66,flye
MRSA_r9,infC,infC,1,1,186,186,flye
MRSA_r9,lysP_2,,0,0,497,0,flye
MRSA_r9,thrS,thrS,1,1,645,645,flye
MRSA_r9,dnaI,dnaI,1,1,306,306,flye
MRSA_r9,dnaB,dnaB,1,1,466,466,flye
MRSA_r9,nrdR,nrdR,1,1,156,156,flye
MRSA_r9,gapA2,gapA2,1,1,341,341,flye
MRSA_r9,coaE,coaE,1,1,207,207,flye
MRSA_r9,mutM,mutM,1,1,290,290,flye
MRSA_r9,polA,polA,1,1,876,876,flye
MRSA_r9,sasA,sasA,1,1,554,554,flye
MRSA_r9,phoP,phoP,1,1,233,233,flye
MRSA_r9,icd,icd,1,1,422,422,flye
MRSA_r9,citZ,citZ,1,1,373,373,flye
MRSA_r9,cycA_1,cycA_2,0,1,453,453,flye
MRSA_r9,pyk,pyk,1,1,585,585,flye
MRSA_r9,pfkA,pfkA,1,1,322,322,flye
MRSA_r9,accA,accA,1,1,314,314,flye
MRSA_r9,accD,accD,1,1,285,285,flye
MRSA_r9,dnaE,,0,0,1065,0,flye
MRSA_r9,nrnA,nrnA,1,1,313,313,flye
MRSA_r9,IMPDH,IMPDH,1,1,432,432,flye
MRSA_r9,ald2,ald2,1,1,372,372,flye
MRSA_r9,ackA,ackA,1,1,400,400,flye
MRSA_r9,tpx,tpx,1,1,164,164,flye
MRSA_r9,yfcA,yfcA,1,1,256,256,flye
MRSA_r9,thiI,thiI,1,1,407,407,flye
MRSA_r9,iscS_2,,0,0,388,0,flye
MRSA_r9,ezrA,ezrA,1,1,564,564,flye
MRSA_r9,msrC,msrC,1,1,154,154,flye
MRSA_r9,rpsD,rpsD,1,1,200,200,flye
MRSA_r9,glpQ_2,glpQ_1,0,1,247,247,flye
MRSA_r9,serA,serA,1,1,534,534,flye
MRSA_r9,nagP,nagP,1,1,488,488,flye
MRSA_r9,plsC,plsC,1,1,205,205,flye
MRSA_r9,tyrS,tyrS,1,1,420,420,flye
MRSA_r9,mrcA,mrcA,1,1,301,301,flye
MRSA_r9,isdH_1,isdH_2,0,1,535,535,flye
MRSA_r9,isdH_2,isdH_1,0,1,278,278,flye
MRSA_r9,fhs,,0,0,555,0,flye
MRSA_r9,acsA_1,acsA_1,1,1,568,568,flye
MRSA_r9,acuA,acuA,1,1,210,210,flye
MRSA_r9,acuC,acuC,1,1,389,389,flye
MRSA_r9,ccpA,ccpA,1,1,329,329,flye
MRSA_r9,aroA_2,aroA_1,0,1,363,363,flye
MRSA_r9,murC,murC,1,1,437,437,flye
MRSA_r9,ytpP,ytpP,1,1,103,103,flye
MRSA_r9,pepA_2,pepA_1,0,1,358,358,flye
MRSA_r9,ytnP,ytnP,1,1,280,280,flye
MRSA_r9,hin_2,hin_1,0,1,197,197,flye
MRSA_r9,blaI,blaI,1,1,126,126,flye
MRSA_r9,blaR1,,0,0,585,0,flye
MRSA_r9,blaZ,,0,0,281,0,flye
MRSA_r9,trmB,trmB,1,1,214,214,flye
MRSA_r9,dat,,0,0,282,0,flye
MRSA_r9,rsuA,rsuA,1,1,231,231,flye
MRSA_r9,murJ,murJ,1,1,553,553,flye
MRSA_r9,leuS,leuS,1,1,805,805,flye
MRSA_r9,mdtH,mdtH,1,1,393,393,flye
MRSA_r9,rsmH_2,rsmH_1,0,1,187,187,flye
MRSA_r9,rot,rot,1,1,133,133,flye
MRSA_r9,ytpA,ytpA,1,1,275,275,flye
MRSA_r9,putB,putB,1,1,333,333,flye
MRSA_r9,ribH,ribH,1,1,154,154,flye
MRSA_r9,ribBA,,0,0,393,0,flye
MRSA_r9,ribE,ribE,1,1,210,210,flye
MRSA_r9,ribD,ribD,1,1,347,347,flye
MRSA_r9,arsB_2,arsB_1,0,1,430,430,flye
MRSA_r9,atl_2,atl_2,1,1,284,284,flye
MRSA_r9,sigS,sigS,1,1,156,156,flye
MRSA_r9,tal,tal,1,1,237,237,flye
MRSA_r9,crcB_1,crcB_2,0,1,121,121,flye
MRSA_r9,crcB_2,crcB_1,0,1,117,117,flye
MRSA_r9,yvgN,yvgN,1,1,277,277,flye
MRSA_r9,metK,metK,1,1,397,397,flye
MRSA_r9,pckA,pckA,1,1,530,530,flye
MRSA_r9,ytkD,ytkD,1,1,159,159,flye
MRSA_r9,menC,,0,0,333,0,flye
MRSA_r9,menE_2,menE_1,0,1,492,492,flye
MRSA_r9,hylB,,0,0,806,0,flye
MRSA_r9,prmC_1,prmC_2,0,1,518,518,flye
MRSA_r9,splF_1,splF_2,0,1,183,183,flye
MRSA_r9,splF_2,splF_1,0,1,41,41,flye
MRSA_r9,splE_1,splE_3,0,1,238,238,flye
MRSA_r9,splB_1,splB_2,0,1,74,74,flye
MRSA_r9,splE_2,splE_2,1,1,113,113,flye
MRSA_r9,splE_3,splE_1,0,1,238,238,flye
MRSA_r9,splC,splC,1,1,239,239,flye
MRSA_r9,splB_2,splB_1,0,1,54,54,flye
MRSA_r9,entG,entG,1,1,258,258,flye
MRSA_r9,entA_3,entA_2,0,1,251,251,flye
MRSA_r9,entB,entB,1,1,261,261,flye
MRSA_r9,entE,entE,1,1,254,254,flye
MRSA_r9,ydeN,ydeN,1,1,184,184,flye
MRSA_r9,hemY,,0,0,466,0,flye
MRSA_r9,hemH,hemH,1,1,307,307,flye
MRSA_r9,hemE,hemE,1,1,345,345,flye
MRSA_r9,traP,traP,1,1,167,167,flye
MRSA_r9,ecsA,ecsA,1,1,246,246,flye
MRSA_r9,hit,hit,1,1,140,140,flye
MRSA_r9,prsA,prsA,1,1,320,320,flye
MRSA_r9,yhaM,yhaM,1,1,313,313,flye
MRSA_r9,cpdA_1,cpdA_2,0,1,398,398,flye
MRSA_r9,liaR,liaR,1,1,207,207,flye
MRSA_r9,rluD_2,rluD_1,0,1,273,273,flye
MRSA_r9,fumC,fumC,1,1,461,461,flye
MRSA_r9,nagB_2,nagB_1,0,1,199,199,flye
MRSA_r9,trmL,trmL,1,1,156,156,flye
MRSA_r9,queG,queG,1,1,375,375,flye
MRSA_r9,tcyC_1,tcyC_2,0,1,242,242,flye
MRSA_r9,mltF,mltF,1,1,485,485,flye
MRSA_r9,perR,perR,1,1,148,148,flye
MRSA_r9,ghrB_2,ghrB_1,0,1,319,319,flye
MRSA_r9,bcp,,0,0,151,0,flye
MRSA_r9,hemL2,hemL2,1,1,429,429,flye
MRSA_r9,mutY,mutY,1,1,345,345,flye
MRSA_r9,yfhP,yfhP,1,1,325,325,flye
MRSA_r9,tagH_2,tagH_1,0,1,505,505,flye
MRSA_r9,yfhH,yfhH,1,1,104,104,flye
MRSA_r9,recX,,0,0,272,0,flye
MRSA_r9,mgt,,0,0,269,0,flye
MRSA_r9,pepS,pepS,1,1,415,415,flye
MRSA_r9,ptpA,ptpA,1,1,154,154,flye
MRSA_r9,vraR,vraR,1,1,209,209,flye
MRSA_r9,vraS,,0,0,347,0,flye
MRSA_r9,map_2,map_3,0,1,252,252,flye
MRSA_r9,gatD_2,,0,0,243,0,flye
MRSA_r9,murT,murT,1,1,437,437,flye
MRSA_r9,ftnA,ftnA,1,1,166,166,flye
MRSA_r9,dinB,dinB_1,0,1,356,356,flye
MRSA_r9,rlmCD,rlmCD,1,1,453,453,flye
MRSA_r9,dagK,dagK,1,1,315,315,flye
MRSA_r9,gatB_2,gatB_1,0,1,475,475,flye
MRSA_r9,gatA_2,gatA_1,0,1,485,485,flye
MRSA_r9,gatC_2,gatC_1,0,1,100,100,flye
MRSA_r9,putP,putP,1,1,512,512,flye
MRSA_r9,ligA,,0,0,667,0,flye
MRSA_r9,pcrA,,0,0,730,0,flye
MRSA_r9,pcrB,pcrB,1,1,230,230,flye
MRSA_r9,purB,,0,0,431,0,flye
MRSA_r9,sspP,sspP,1,1,388,388,flye
MRSA_r9,nadE,nadE,1,1,273,273,flye
MRSA_r9,pncB2,pncB2,1,1,489,489,flye
MRSA_r9,nos,nos,1,1,358,358,flye
MRSA_r9,pheA,pheA,1,1,264,264,flye
MRSA_r9,sdcS,,0,0,520,0,flye
MRSA_r9,rutB,rutB,1,1,186,186,flye
MRSA_r9,ppaC,ppaC,1,1,309,309,flye
MRSA_r9,aldH1,aldH1,1,1,459,459,flye
MRSA_r9,bcrA_1,bcrA_2,0,1,290,290,flye
MRSA_r9,btuD_5,btuD_1,0,1,298,298,flye
MRSA_r9,ytrA,ytrA,1,1,126,126,flye
MRSA_r9,hisC_2,hisC_1,0,1,428,428,flye
MRSA_r9,map_3,map_2,0,1,689,689,flye
MRSA_r9,hlb_1,hlb_2,0,1,66,66,flye
MRSA_r9,scn_3,scn_1,0,1,116,116,flye
MRSA_r9,chp,chp,1,1,149,149,flye
MRSA_r9,sak,sak,1,1,163,163,flye
MRSA_r9,entA_4,entA_1,0,1,257,257,flye
MRSA_r9,clpP_3,clpP_1,0,1,245,245,flye
MRSA_r9,dut,dut,1,1,180,180,flye
MRSA_r9,ssbA_2,ssbA_2,1,1,156,156,flye
MRSA_r9,lexA_2,lexA_1,0,1,237,237,flye
MRSA_r9,dinG_2,dinG_1,0,1,310,310,flye
MRSA_r9,xerC_8,xerC_1,0,1,345,345,flye
MRSA_r9,hlb_2,hlb_1,0,1,231,231,flye
MRSA_r9,dapE,,0,0,407,0,flye
MRSA_r9,ktrB_2,ktrB_1,0,1,435,435,flye
MRSA_r9,groL,groL,1,1,538,538,flye
MRSA_r9,groS,,0,0,94,0,flye
MRSA_r9,MroQ,MroQ,1,1,247,247,flye
MRSA_r9,yafV,yafV,1,1,261,261,flye
MRSA_r9,agrB,agrB,1,1,205,205,flye
MRSA_r9,agrA,agrA,1,1,238,238,flye
MRSA_r9,scrK,scrK,1,1,319,319,flye
MRSA_r9,scrB,scrB,1,1,497,497,flye
MRSA_r9,treR_2,treR_1,0,1,316,316,flye
MRSA_r9,nrgA,nrgA,1,1,416,416,flye
MRSA_r9,yeeD,yeeD,1,1,74,74,flye
MRSA_r9,rex,rex,1,1,211,211,flye
MRSA_r9,yheS,yheS,1,1,642,642,flye
MRSA_r9,mutS_2,mutS_1,0,1,536,536,flye
MRSA_r9,tsaD,,0,0,341,0,flye
MRSA_r9,rimI,rimI,1,1,154,154,flye
MRSA_r9,tsaB,tsaB,1,1,220,220,flye
MRSA_r9,tsaE,tsaE,1,1,164,164,flye
MRSA_r9,ilvD,ilvD,1,1,562,562,flye
MRSA_r9,ilvB,ilvB,1,1,589,589,flye
MRSA_r9,ilvC,ilvC,1,1,334,334,flye
MRSA_r9,leuA_2,leuA_1,0,1,509,509,flye
MRSA_r9,leuB,leuB,1,1,348,348,flye
MRSA_r9,leuC,leuC,1,1,455,455,flye
MRSA_r9,leuD,leuD,1,1,190,190,flye
MRSA_r9,ilvA,,0,0,422,0,flye
MRSA_r9,yhgF,,0,0,712,0,flye
MRSA_r9,sigB,sigB,1,1,256,256,flye
MRSA_r9,rsbW,rsbW,1,1,159,159,flye
MRSA_r9,rsbV,rsbV,1,1,108,108,flye
MRSA_r9,rsbU,rsbU,1,1,333,333,flye
MRSA_r9,mazF,mazF,1,1,120,120,flye
MRSA_r9,mazE,mazE,1,1,56,56,flye
MRSA_r9,alr1_2,alr1_1,0,1,382,382,flye
MRSA_r9,acpS,acpS,1,1,119,119,flye
MRSA_r9,kdpC_3,kdpC_1,0,1,186,186,flye
MRSA_r9,kdpB_2,kdpB_1,0,1,675,675,flye
MRSA_r9,kdpA_2,kdpA_1,0,1,558,558,flye
MRSA_r9,kdpD_2,kdpD_1,0,1,885,885,flye
MRSA_r9,kdpE_2,kdpE_1,0,1,231,231,flye
MRSA_r9,cshA,cshA,1,1,506,506,flye
MRSA_r9,murF,murF,1,1,452,452,flye
MRSA_r9,ddl,ddl,1,1,356,356,flye
MRSA_r9,rodA,rodA,1,1,400,400,flye
MRSA_r9,cls_2,,0,0,494,0,flye
MRSA_r9,yedJ,yedJ,1,1,215,215,flye
MRSA_r9,yidC,yidC,1,1,290,290,flye
MRSA_r9,thiE,thiE,1,1,213,213,flye
MRSA_r9,thiM,thiM,1,1,263,263,flye
MRSA_r9,thiD,thiD,1,1,276,276,flye
MRSA_r9,tenA,tenA,1,1,229,229,flye
MRSA_r9,sceD,sceD,1,1,231,231,flye
MRSA_r9,ssbA_3,ssbA_1,0,1,131,131,flye
MRSA_r9,fabZ,fabZ,1,1,146,146,flye
MRSA_r9,murA1,murA1,1,1,421,421,flye
MRSA_r9,atpC,atpC,1,1,134,134,flye
MRSA_r9,atpD,atpD,1,1,470,470,flye
MRSA_r9,atpG,atpG,1,1,288,288,flye
MRSA_r9,atpA,atpA,1,1,502,502,flye
MRSA_r9,atpH,atpH,1,1,179,179,flye
MRSA_r9,atpF,atpF,1,1,173,173,flye
MRSA_r9,atpE,atpE,1,1,70,70,flye
MRSA_r9,atpB,atpB,1,1,242,242,flye
MRSA_r9,mnaA_2,,0,0,376,0,flye
MRSA_r9,upp,upp,1,1,209,209,flye
MRSA_r9,glyA,glyA,1,1,412,412,flye
MRSA_r9,ptpB,ptpB,1,1,139,139,flye
MRSA_r9,ywlC,ywlC,1,1,348,348,flye
MRSA_r9,prmC_2,prmC_1,0,1,278,278,flye
MRSA_r9,prfA,prfA,1,1,358,358,flye
MRSA_r9,tdk,tdk,1,1,199,199,flye
MRSA_r9,rpmE2,rpmE2,1,1,84,84,flye
MRSA_r9,rho,rho,1,1,438,438,flye
MRSA_r9,yodB,yodB,1,1,111,111,flye
MRSA_r9,murA2,murA2,1,1,419,419,flye
MRSA_r9,fba,fba,1,1,286,286,flye
MRSA_r9,pyrG,pyrG,1,1,536,536,flye
MRSA_r9,rpoE,rpoE,1,1,176,176,flye
MRSA_r9,coaW,coaW,1,1,267,267,flye
MRSA_r9,abgB,abgB,1,1,394,394,flye
MRSA_r9,luxS,luxS,1,1,156,156,flye
MRSA_r9,pdp,,0,0,433,0,flye
MRSA_r9,deoC2,deoC2,1,1,220,220,flye
MRSA_r9,deoD1,deoD1,1,1,236,236,flye
MRSA_r9,dps,dps,1,1,147,147,flye
MRSA_r9,gmuF,gmuF,1,1,312,312,flye
MRSA_r9,yhfK,yhfK,1,1,221,221,flye
MRSA_r9,czrA,czrA,1,1,106,106,flye
MRSA_r9,czcD_2,czcD_1,0,1,326,326,flye
MRSA_r9,ywtE_2,ywtE_1,0,1,285,285,flye
MRSA_r9,ylmA,ylmA,1,1,260,260,flye
MRSA_r9,glmS,glmS,1,1,601,601,flye
MRSA_r9,mtlA,,0,0,512,0,flye
MRSA_r9,mtlF,mtlF,1,1,144,144,flye
MRSA_r9,mtlD,mtlD,1,1,368,368,flye
MRSA_r9,glmM,,0,0,451,0,flye
MRSA_r9,cdaR,cdaR,1,1,310,310,flye
MRSA_r9,cdaA,,0,0,269,0,flye
MRSA_r9,arg,arg,1,1,302,302,flye
MRSA_r9,salA,salA,1,1,354,354,flye
MRSA_r9,emrY,emrY,1,1,362,362,flye
MRSA_r9,ribZ,ribZ,1,1,131,131,flye
MRSA_r9,sepA,sepA,1,1,155,155,flye
MRSA_r9,sdrM,sdrM,1,1,447,447,flye
MRSA_r9,ydjM,ydjM,1,1,171,171,flye
MRSA_r9,fecD,fecD,1,1,322,322,flye
MRSA_r9,yfiZ_2,yfiZ_1,0,1,343,343,flye
MRSA_r9,yfmC_2,yfmC_1,0,1,327,327,flye
MRSA_r9,orr,orr,1,1,356,356,flye
MRSA_r9,opuD_2,opuD_1,0,1,520,520,flye
MRSA_r9,yfmJ,yfmJ,1,1,334,334,flye
MRSA_r9,lacG,lacG,1,1,470,470,flye
MRSA_r9,lacE,lacE,1,1,570,570,flye
MRSA_r9,lacF,lacF,1,1,103,103,flye
MRSA_r9,lacD,lacD,1,1,326,326,flye
MRSA_r9,lacC_2,lacC_1,0,1,310,310,flye
MRSA_r9,lacB,lacB,1,1,171,171,flye
MRSA_r9,lacA,lacA,1,1,142,142,flye
MRSA_r9,lacR,lacR,1,1,251,251,flye
MRSA_r9,cobB,cobB,1,1,246,246,flye
MRSA_r9,adhR,adhR,1,1,138,138,flye
MRSA_r9,map_4,map_1,0,1,141,141,flye
MRSA_r9,aldC_1,aldC_1,1,1,234,234,flye
MRSA_r9,alsS,alsS,1,1,554,554,flye
MRSA_r9,rpsI,rpsI,1,1,132,132,flye
MRSA_r9,rplM,rplM,1,1,145,145,flye
MRSA_r9,truA,truA,1,1,264,264,flye
MRSA_r9,ecfT_2,ecfT_1,0,1,268,268,flye
MRSA_r9,ecfA2,ecfA2,1,1,286,286,flye
MRSA_r9,ecfA1,ecfA1,1,1,269,269,flye
MRSA_r9,rplQ,rplQ,1,1,122,122,flye
MRSA_r9,rpoA,rpoA,1,1,314,314,flye
MRSA_r9,rpsK,rpsK,1,1,129,129,flye
MRSA_r9,rpsM,rpsM,1,1,121,121,flye
MRSA_r9,rpmJ,rpmJ,1,1,37,37,flye
MRSA_r9,infA,infA,1,1,72,72,flye
MRSA_r9,adk,adk,1,1,215,215,flye
MRSA_r9,secY_1,secY_1,1,1,430,430,flye
MRSA_r9,rplO,rplO,1,1,146,146,flye
MRSA_r9,rpmD,rpmD,1,1,59,59,flye
MRSA_r9,rpsE,rpsE,1,1,166,166,flye
MRSA_r9,rplR,rplR,1,1,119,119,flye
MRSA_r9,rplF,rplF,1,1,178,178,flye
MRSA_r9,rpsH,rpsH,1,1,132,132,flye
MRSA_r9,rpsZ,rpsZ,1,1,61,61,flye
MRSA_r9,rplE,rplE,1,1,179,179,flye
MRSA_r9,rplX,rplX,1,1,105,105,flye
MRSA_r9,rplN,rplN,1,1,122,122,flye
MRSA_r9,rpsQ,rpsQ,1,1,87,87,flye
MRSA_r9,rpmC,rpmC,1,1,69,69,flye
MRSA_r9,rplP,rplP,1,1,144,144,flye
MRSA_r9,rpsC,rpsC,1,1,217,217,flye
MRSA_r9,rplV,rplV,1,1,117,117,flye
MRSA_r9,rpsS,rpsS,1,1,92,92,flye
MRSA_r9,rplB,rplB,1,1,277,277,flye
MRSA_r9,rplW,rplW,1,1,91,91,flye
MRSA_r9,rplD,rplD,1,1,207,207,flye
MRSA_r9,rplC,rplC,1,1,220,220,flye
MRSA_r9,rpsJ,rpsJ,1,1,102,102,flye
MRSA_r9,pbuG,pbuG,1,1,444,444,flye
MRSA_r9,topB,topB,1,1,711,711,flye
MRSA_r9,glcU_2,glcU_1,0,1,287,287,flye
MRSA_r9,swrC,swrC,1,1,1055,1055,flye
MRSA_r9,femX,femX,1,1,421,421,flye
MRSA_r9,yfcJ,yfcJ,1,1,403,403,flye
MRSA_r9,sarV,sarV,1,1,116,116,flye
MRSA_r9,moaA,,0,0,340,0,flye
MRSA_r9,mobA,mobA,1,1,199,199,flye
MRSA_r9,moaD,moaD,1,1,77,77,flye
MRSA_r9,moaE,moaE,1,1,148,148,flye
MRSA_r9,moeA,moeA,1,1,419,419,flye
MRSA_r9,moaC,moaC,1,1,164,164,flye
MRSA_r9,moaB,moaB,1,1,168,168,flye
MRSA_r9,cysA,cysA,1,1,201,201,flye
MRSA_r9,modB,modB,1,1,223,223,flye
MRSA_r9,modA,modA,1,1,260,260,flye
MRSA_r9,fdhD,fdhD,1,1,265,265,flye
MRSA_r9,bioY,bioY,1,1,184,184,flye
MRSA_r9,rihB,rihB,1,1,313,313,flye
MRSA_r9,fhuD,fhuD,1,1,302,302,flye
MRSA_r9,ydbM,,0,0,390,0,flye
MRSA_r9,ureA,ureA,1,1,100,100,flye
MRSA_r9,ureB,ureB,1,1,136,136,flye
MRSA_r9,ureC,ureC,1,1,571,571,flye
MRSA_r9,ureE,ureE,1,1,150,150,flye
MRSA_r9,ureF,ureF,1,1,229,229,flye
MRSA_r9,ureG,ureG,1,1,204,204,flye
MRSA_r9,ureD1,ureD1,1,1,278,278,flye
MRSA_r9,sarR,sarR,1,1,115,115,flye
MRSA_r9,rhaS_2,rhaS_1,0,1,651,651,flye
MRSA_r9,ssaA2,ssaA2,1,1,269,269,flye
MRSA_r9,mleN_1,mleN_2,0,1,465,465,flye
MRSA_r9,odh,odh,1,1,360,360,flye
MRSA_r9,auaG,auaG,1,1,374,374,flye
MRSA_r9,atl_3,atl_1,0,1,258,258,flye
MRSA_r9,tagU_2,tagU_1,0,1,315,315,flye
MRSA_r9,cysQ,cysQ,1,1,265,265,flye
MRSA_r9,ybbH_3,ybbH_1,0,1,290,290,flye
MRSA_r9,yifK,yifK,1,1,459,459,flye
MRSA_r9,panS_1,panS_2,0,1,113,113,flye
MRSA_r9,panS_2,panS_1,0,1,178,178,flye
MRSA_r9,malP,malP,1,1,534,534,flye
MRSA_r9,glvR,glvR,1,1,254,254,flye
MRSA_r9,mleN_2,mleN_1,0,1,436,436,flye
MRSA_r9,yghA,yghA,1,1,293,293,flye
MRSA_r9,scmP_4,scmP_1,0,1,302,302,flye
MRSA_r9,hutI,hutI,1,1,412,412,flye
MRSA_r9,hutU,hutU,1,1,553,553,flye
MRSA_r9,hdfR_2,hdfR_1,0,1,294,294,flye
MRSA_r9,fosB,fosB,1,1,139,139,flye
MRSA_r9,hutG,hutG,1,1,311,311,flye
MRSA_r9,lyrA,lyrA,1,1,419,419,flye
MRSA_r9,rpiA,rpiA,1,1,228,228,flye
MRSA_r9,yiiM,yiiM,1,1,217,217,flye
MRSA_r9,mro,mro,1,1,339,339,flye
MRSA_r9,yhaP,yhaP,1,1,410,410,flye
MRSA_r9,lnrL_2,lnrL_2,1,1,299,299,flye
MRSA_r9,gltS,gltS,1,1,402,402,flye
MRSA_r9,fni,fni,1,1,349,349,flye
MRSA_r9,zntB,zntB,1,1,315,315,flye
MRSA_r9,mdtD,mdtD,1,1,645,645,flye
MRSA_r9,aaeA,aaeA,1,1,215,215,flye
MRSA_r9,bcr_1,bcr_2,0,1,402,402,flye
MRSA_r9,tcaA,tcaA,1,1,460,460,flye
MRSA_r9,tcaR,tcaR,1,1,151,151,flye
MRSA_r9,hrtA_2,hrtA_1,0,1,221,221,flye
MRSA_r9,hssR,hssR,1,1,224,224,flye
MRSA_r9,hssS,hssS,1,1,457,457,flye
MRSA_r9,lnrL_3,lnrL_1,0,1,242,242,flye
MRSA_r9,ybhR,ybhR,1,1,360,360,flye
MRSA_r9,mqo1,mqo1,1,1,492,492,flye
MRSA_r9,lctP_2,lctP_1,0,1,532,532,flye
MRSA_r9,paiA,paiA,1,1,171,171,flye
MRSA_r9,yhfP,yhfP,1,1,334,334,flye
MRSA_r9,treP_2,treP_1,0,1,480,480,flye
MRSA_r9,ydaG,ydaG,1,1,140,140,flye
MRSA_r9,gltT,gltT,1,1,425,425,flye
MRSA_r9,sarZ,sarZ,1,1,148,148,flye
MRSA_r9,narT,narT,1,1,389,389,flye
MRSA_r9,mta,mta,1,1,95,95,flye
MRSA_r9,nreC,nreC,1,1,217,217,flye
MRSA_r9,nreB,nreB,1,1,344,344,flye
MRSA_r9,narX,narX,1,1,225,225,flye
MRSA_r9,narH,,0,0,519,0,flye
MRSA_r9,narG,narG,1,1,1229,1229,flye
MRSA_r9,cysG,cysG,1,1,325,325,flye
MRSA_r9,nasE,nasE,1,1,104,104,flye
MRSA_r9,nasD,nasD,1,1,801,801,flye
MRSA_r9,sirB,sirB,1,1,250,250,flye
MRSA_r9,ytmI,ytmI,1,1,178,178,flye
MRSA_r9,nirC,nirC,1,1,274,274,flye
MRSA_r9,yoeB,yoeB,1,1,88,88,flye
MRSA_r9,yefM,yefM,1,1,83,83,flye
MRSA_r9,bdbD,bdbD,1,1,199,199,flye
MRSA_r9,femA_3,femA_1,0,1,416,416,flye
MRSA_r9,tcyC_2,tcyC_1,0,1,243,243,flye
MRSA_r9,tcyB,,0,0,242,0,flye
MRSA_r9,farB_2,,0,0,479,0,flye
MRSA_r9,gpmA_2,gpmA_1,0,1,228,228,flye
MRSA_r9,mneS,mneS,1,1,288,288,flye
MRSA_r9,sbi,sbi,1,1,437,437,flye
MRSA_r9,hlgA,hlgA,1,1,321,321,flye
MRSA_r9,hlgC,hlgC,1,1,315,315,flye
MRSA_r9,hlgB,hlgB,1,1,325,325,flye
MRSA_r9,bioW,bioW,1,1,230,230,flye
MRSA_r9,bioB,bioB,1,1,335,335,flye
MRSA_r9,bioK,bioK,1,1,452,452,flye
MRSA_r9,bioD,bioD,1,1,228,228,flye
MRSA_r9,garK_2,garK_1,0,1,380,380,flye
MRSA_r9,bcr_2,bcr_1,0,1,403,403,flye
MRSA_r9,cpdA_2,cpdA_1,0,1,268,268,flye
MRSA_r9,cycA_2,cycA_1,0,1,469,469,flye
MRSA_r9,nhaK_2,nhaK_1,0,1,692,692,flye
MRSA_r9,kimA,kimA,1,1,609,609,flye
MRSA_r9,flp,flp,1,1,499,499,flye
MRSA_r9,hldD,hldD,1,1,283,283,flye
MRSA_r9,panE,panE,1,1,311,311,flye
MRSA_r9,norB_4,norB_1,0,1,466,466,flye
MRSA_r9,opuCD,opuCD,1,1,231,231,flye
MRSA_r9,opuCC,opuCC,1,1,313,313,flye
MRSA_r9,opuCB,opuCB,1,1,211,211,flye
MRSA_r9,opuCA,opuCA,1,1,408,408,flye
MRSA_r9,yveA,yveA,1,1,545,545,flye
MRSA_r9,pnbA,,0,0,450,0,flye
MRSA_r9,pbuE_2,pbuE_1,0,1,395,395,flye
MRSA_r9,fetB,fetB,1,1,258,258,flye
MRSA_r9,fetA,fetA,1,1,220,220,flye
MRSA_r9,ysdC_2,ysdC_1,0,1,358,358,flye
MRSA_r9,yehR,yehR,1,1,151,151,flye
MRSA_r9,cntE,cntE,1,1,397,397,flye
MRSA_r9,cntF,cntF,1,1,249,249,flye
MRSA_r9,cntD,cntD,1,1,271,271,flye
MRSA_r9,cntC,cntC,1,1,289,289,flye
MRSA_r9,cntB,cntB,1,1,311,311,flye
MRSA_r9,cntA,cntA,1,1,532,532,flye
MRSA_r9,cntM,cntM,1,1,433,433,flye
MRSA_r9,cntL,cntL,1,1,272,272,flye
MRSA_r9,cntK,cntK,1,1,273,273,flye
MRSA_r9,bacC,bacC,1,1,272,272,flye
MRSA_r9,abgT,abgT,1,1,512,512,flye
MRSA_r9,uvrB_2,uvrB_1,0,1,953,953,flye
MRSA_r9,nudG,nudG,1,1,130,130,flye
MRSA_r9,pgcA,,0,0,545,0,flye
MRSA_r9,gtaB,gtaB,1,1,288,288,flye
MRSA_r9,fnbA,,0,0,965,0,flye
MRSA_r9,gntT,gntT,1,1,452,452,flye
MRSA_r9,xylB,xylB,1,1,517,517,flye
MRSA_r9,ywaC,ywaC,1,1,230,230,flye
MRSA_r9,sauU,sauU,1,1,425,425,flye
MRSA_r9,argO_2,,0,0,205,0,flye
MRSA_r9,norG,,0,0,470,0,flye
MRSA_r9,bcrA_2,bcrA_1,0,1,231,231,flye
MRSA_r9,fbp,fbp,1,1,654,654,flye
MRSA_r9,mhqD,mhqD,1,1,197,197,flye
MRSA_r9,mhqA_3,mhqA_1,0,1,322,322,flye
MRSA_r9,mhqR,mhqR,1,1,144,144,flye
MRSA_r9,yjdJ,yjdJ,1,1,94,94,flye
MRSA_r9,catE_2,catE_1,0,1,268,268,flye
MRSA_r9,ldhD_1,ldhD_2,0,1,330,330,flye
MRSA_r9,ybjI,ybjI,1,1,266,266,flye
MRSA_r9,srtA,srtA,1,1,206,206,flye
MRSA_r9,pitA,pitA,1,1,163,163,flye
MRSA_r9,sdhA,sdhA,1,1,299,299,flye
MRSA_r9,yicL,yicL,1,1,307,307,flye
MRSA_r9,glcB,,0,0,707,0,flye
MRSA_r9,ydaP,ydaP,1,1,579,579,flye
MRSA_r9,cidB,cidB,1,1,229,229,flye
MRSA_r9,cidA,cidA,1,1,131,131,flye
MRSA_r9,cynR,cynR,1,1,287,287,flye
MRSA_r9,mvaA,mvaA,1,1,426,426,flye
MRSA_r9,mvaS,mvaS,1,1,388,388,flye
MRSA_r9,ogt,ogt,1,1,173,173,flye
MRSA_r9,clpL,clpL,1,1,701,701,flye
MRSA_r9,feoB,feoB,1,1,664,664,flye
MRSA_r9,ydfJ,ydfJ,1,1,829,829,flye
MRSA_r9,rocA,rocA,1,1,514,514,flye
MRSA_r9,copA,copA,1,1,802,802,flye
MRSA_r9,copZ,copZ,1,1,68,68,flye
MRSA_r9,ldhD_2,ldhD_1,0,1,342,342,flye
MRSA_r9,bacF,,0,0,384,0,flye
MRSA_r9,crtN,crtN,1,1,502,502,flye
MRSA_r9,crtM_1,crtM_2,0,1,169,169,flye
MRSA_r9,crtM_2,crtM_1,0,1,94,94,flye
MRSA_r9,crtQ,crtQ,1,1,375,375,flye
MRSA_r9,crtP,crtP,1,1,497,497,flye
MRSA_r9,ssaA,ssaA,1,1,255,255,flye
MRSA_r9,oatA_2,oatA_1,0,1,603,603,flye
MRSA_r9,isaA,isaA,1,1,233,233,flye
MRSA_r9,cpnA,cpnA,1,1,234,234,flye
MRSA_r9,pyrD,pyrD,1,1,354,354,flye
MRSA_r9,queH,queH,1,1,240,240,flye
MRSA_r9,cocE,cocE,1,1,560,560,flye
MRSA_r9,panD,,0,0,127,0,flye
MRSA_r9,panC,panC,1,1,283,283,flye
MRSA_r9,panB,panB,1,1,272,272,flye
MRSA_r9,aldC_2,aldC_2,1,1,234,234,flye
MRSA_r9,ldh2,ldh2,1,1,319,319,flye
MRSA_r9,yhdG,yhdG,1,1,482,482,flye
MRSA_r9,fda,fda,1,1,296,296,flye
MRSA_r9,mqo2,mqo2,1,1,498,498,flye
MRSA_r9,acsA_2,acsA_2,1,1,539,539,flye
MRSA_r9,isdG_2,isdG_2,1,1,147,147,flye
MRSA_r9,betA,betA,1,1,569,569,flye
MRSA_r9,gbsA,gbsA,1,1,496,496,flye
MRSA_r9,opcR,opcR,1,1,187,187,flye
MRSA_r9,opuD_3,opuD_3,1,1,540,540,flye
MRSA_r9,nrdD,nrdD,1,1,616,616,flye
MRSA_r9,citN,citN,1,1,456,456,flye
MRSA_r9,sirC,sirC,1,1,202,202,flye
MRSA_r9,cysJ,cysJ,1,1,626,626,flye
MRSA_r9,bsaA_2,bsaA_2,1,1,165,165,flye
MRSA_r9,bceB_2,bceB_3,0,1,666,666,flye
MRSA_r9,yxdL,yxdL,1,1,251,251,flye
MRSA_r9,graS_2,graS_2,1,1,295,295,flye
MRSA_r9,graR_2,,0,0,221,0,flye
MRSA_r9,phoB,phoB,1,1,457,457,flye
MRSA_r9,clfB,,0,0,873,0,flye
MRSA_r9,arcR,arcR,1,1,234,234,flye
MRSA_r9,arcC2,arcC2,1,1,313,313,flye
MRSA_r9,arcD,arcD,1,1,476,476,flye
MRSA_r9,arcB,arcB,1,1,336,336,flye
MRSA_r9,arcA,arcA,1,1,411,411,flye
MRSA_r9,argR_2,argR_2,1,1,149,149,flye
MRSA_r9,aur,aur,1,1,509,509,flye
MRSA_r9,isaB,isaB,1,1,175,175,flye
MRSA_r9,manR,manR,1,1,624,624,flye
MRSA_r9,manP,,0,0,650,0,flye
MRSA_r9,yvyI,yvyI,1,1,312,312,flye
MRSA_r9,gtfB,gtfB,1,1,452,452,flye
MRSA_r9,gtfA_3,gtfA_3,1,1,502,502,flye
MRSA_r9,secA1_2,secA1_2,1,1,796,796,flye
MRSA_r9,asp2,asp2,1,1,523,523,flye
MRSA_r9,asp1,asp1,1,1,452,452,flye
MRSA_r9,secY_2,secY_2,1,1,403,403,flye
MRSA_r9,sraP,,0,0,1351,0,flye
MRSA_r9,msrAB,msrAB,1,1,158,158,flye
MRSA_r9,ywqE_2,,0,0,255,0,flye
MRSA_r9,ywqD_2,ywqD_2,1,1,230,230,flye
MRSA_r9,cap8A_2,cap8A_2,1,1,220,220,flye
MRSA_r9,icaR,,0,0,186,0,flye
MRSA_r9,icaA,icaA,1,1,412,412,flye
MRSA_r9,icaD,icaD,1,1,101,101,flye
MRSA_r9,icaB,icaB,1,1,290,290,flye
MRSA_r9,icaC,icaC,1,1,350,350,flye
MRSA_r9,lipA_2,lipA_2,1,1,681,681,flye
MRSA_r9,hisI,hisI,1,1,210,210,flye
MRSA_r9,hisF,hisF,1,1,252,252,flye
MRSA_r9,hisA,hisA,1,1,234,234,flye
MRSA_r9,hisH,hisH,1,1,192,192,flye
MRSA_r9,hisB,,0,0,192,0,flye
MRSA_r9,hisC_3,hisC_3,1,1,337,337,flye
MRSA_r9,hisD,,0,0,416,0,flye
MRSA_r9,hisG,hisG,1,1,204,204,flye
MRSA_r9,hisZ,,0,0,272,0,flye
MRSA_r9,ykoC,ykoC,1,1,277,277,flye
MRSA_r9,ykoD_2,,0,0,570,0,flye
MRSA_r9,salL,salL,1,1,282,282,flye
MRSA_r9,pcp,pcp,1,1,212,212,flye
MRSA_r9,cna,cna,1,1,1183,1183,flye
MRSA_r9,yflS,yflS,1,1,472,472,flye
MRSA_r9,rarD,rarD,1,1,302,302,flye
MRSA_r9,nixA,nixA,1,1,338,338,flye
MRSA_r9,nhoA,nhoA,1,1,266,266,flye
MRSA_r9,bceA_2,bceA_2,1,1,252,252,flye
MRSA_r9,bceB_3,bceB_2,0,1,626,626,flye
MRSA_r9,cspLA,cspLA,1,1,66,66,flye
MRSA_r9,noc,noc,1,1,279,279,flye
MRSA_r9,rsmG,rsmG,1,1,239,239,flye
MRSA_r9,mnmG,mnmG,1,1,625,625,flye
MRSA_r9,mnmE,mnmE,1,1,459,459,flye
MRSA_r9,rnpA,rnpA,1,1,115,115,flye
MRSA_r9,rpmH,rpmH,1,1,45,45,flye
