Sample name,Ref Gene name,test Gene name,name match,Gene found,Ref gene length (AA),Test gene length (AA),Notes
MRSA_r10.3_SUP_30,dnaA,dnaA,1,1,453,453,flye
MRSA_r10.3_SUP_30,dnaN,dnaN,1,1,377,377,flye
MRSA_r10.3_SUP_30,recF,recF,1,1,370,370,flye
MRSA_r10.3_SUP_30,gyrB,gyrB,1,1,644,644,flye
MRSA_r10.3_SUP_30,gyrA,gyrA,1,1,886,886,flye
MRSA_r10.3_SUP_30,nnrD,nnrD,1,1,270,270,flye
MRSA_r10.3_SUP_30,hutH,hutH,1,1,504,504,flye
MRSA_r10.3_SUP_30,serS,serS,1,1,428,428,flye
MRSA_r10.3_SUP_30,metXA,metXA,1,1,322,322,flye
MRSA_r10.3_SUP_30,gdpP,gdpP,1,1,655,655,flye
MRSA_r10.3_SUP_30,rplI,rplI,1,1,148,148,flye
MRSA_r10.3_SUP_30,dnaC,dnaC,1,1,466,466,flye
MRSA_r10.3_SUP_30,purA,purA,1,1,427,427,flye
MRSA_r10.3_SUP_30,walR,walR,1,1,233,233,flye
MRSA_r10.3_SUP_30,walK,walK,1,1,608,608,flye
MRSA_r10.3_SUP_30,yycI,yycI,1,1,262,262,flye
MRSA_r10.3_SUP_30,yycJ,yycJ,1,1,263,263,flye
MRSA_r10.3_SUP_30,rlmH,rlmH,1,1,159,159,flye
MRSA_r10.3_SUP_30,ble,ble,1,1,134,134,flye
MRSA_r10.3_SUP_30,knt,knt,1,1,247,247,flye
MRSA_r10.3_SUP_30,ugpQ,ugpQ,1,1,247,247,flye
MRSA_r10.3_SUP_30,mecA_1,mecA_1,1,1,668,668,flye
MRSA_r10.3_SUP_30,mecR1,mecR1,1,1,585,585,flye
MRSA_r10.3_SUP_30,mecI,mecI,1,1,114,114,flye
MRSA_r10.3_SUP_30,nagC,nagC,1,1,369,369,flye
MRSA_r10.3_SUP_30,glpE_1,glpE_1,1,1,101,101,flye
MRSA_r10.3_SUP_30,gloB,gloB,1,1,312,312,flye
MRSA_r10.3_SUP_30,glpE_2,glpE_2,1,1,354,354,flye
MRSA_r10.3_SUP_30,COQ5_3,COQ5_2,0,1,220,220,flye
MRSA_r10.3_SUP_30,ermA1_2,ermA1_2,1,1,243,243,flye
MRSA_r10.3_SUP_30,ant1_2,ant1_2,1,1,260,260,flye
MRSA_r10.3_SUP_30,xerC_6,xerC_4,0,1,630,630,flye
MRSA_r10.3_SUP_30,xerC_7,xerC_5,0,1,361,361,flye
MRSA_r10.3_SUP_30,kdpE_1,kdpE_2,0,1,231,231,flye
MRSA_r10.3_SUP_30,kdpD_1,kdpD_2,0,1,889,889,flye
MRSA_r10.3_SUP_30,kdpA_1,kdpA_2,0,1,558,558,flye
MRSA_r10.3_SUP_30,kdpB_1,kdpB_2,0,1,673,673,flye
MRSA_r10.3_SUP_30,kdpC_1,kdpC_2,0,1,120,120,flye
MRSA_r10.3_SUP_30,kdpC_2,kdpC_3,0,1,65,65,flye
MRSA_r10.3_SUP_30,mcrC,mcrC,1,1,346,346,flye
MRSA_r10.3_SUP_30,farB_1,farB_2,0,1,442,442,flye
MRSA_r10.3_SUP_30,dus,dus,1,1,328,328,flye
MRSA_r10.3_SUP_30,plc,plc,1,1,328,328,flye
MRSA_r10.3_SUP_30,rhaS_1,rhaS_2,0,1,745,745,flye
MRSA_r10.3_SUP_30,scmP_1,scmP_2,0,1,392,392,flye
MRSA_r10.3_SUP_30,norB_1,norB_2,0,1,462,462,flye
MRSA_r10.3_SUP_30,lctP_1,lctP_2,0,1,530,530,flye
MRSA_r10.3_SUP_30,spa,spa,1,1,516,516,flye
MRSA_r10.3_SUP_30,sarS,sarS,1,1,250,250,flye
MRSA_r10.3_SUP_30,yfhA,yfhA,1,1,332,332,flye
MRSA_r10.3_SUP_30,yfiZ_1,yfiZ_2,0,1,331,331,flye
MRSA_r10.3_SUP_30,yfiY,,0,0,330,0,flye
MRSA_r10.3_SUP_30,sbnA,sbnA,1,1,326,326,flye
MRSA_r10.3_SUP_30,sbnB,sbnB,1,1,336,336,flye
MRSA_r10.3_SUP_30,sbnC,sbnC,1,1,584,584,flye
MRSA_r10.3_SUP_30,sbnD,sbnD,1,1,418,418,flye
MRSA_r10.3_SUP_30,sbnE,sbnE,1,1,578,578,flye
MRSA_r10.3_SUP_30,sbnF,sbnF,1,1,592,592,flye
MRSA_r10.3_SUP_30,garL,garL,1,1,258,258,flye
MRSA_r10.3_SUP_30,sbnH,sbnH,1,1,400,400,flye
MRSA_r10.3_SUP_30,sbnI,sbnI,1,1,254,254,flye
MRSA_r10.3_SUP_30,butA,butA,1,1,258,258,flye
MRSA_r10.3_SUP_30,wbgU,wbgU,1,1,323,323,flye
MRSA_r10.3_SUP_30,wbnH,wbnH,1,1,388,388,flye
MRSA_r10.3_SUP_30,sodM,sodM,1,1,199,199,flye
MRSA_r10.3_SUP_30,deoD,deoD,1,1,235,235,flye
MRSA_r10.3_SUP_30,tet(38),tet(38),1,1,452,452,flye
MRSA_r10.3_SUP_30,deoC1,deoC1,1,1,220,220,flye
MRSA_r10.3_SUP_30,deoB,deoB,1,1,392,392,flye
MRSA_r10.3_SUP_30,phnE_1,phnE_1,1,1,271,271,flye
MRSA_r10.3_SUP_30,phnE_2,phnE_2,1,1,266,266,flye
MRSA_r10.3_SUP_30,glnQ,glnQ,1,1,257,257,flye
MRSA_r10.3_SUP_30,phnD2,phnD2,1,1,318,318,flye
MRSA_r10.3_SUP_30,yfkN,yfkN,1,1,511,511,flye
MRSA_r10.3_SUP_30,adhE,adhE,1,1,869,869,flye
MRSA_r10.3_SUP_30,cap8A_1,cap8A_2,0,1,222,222,flye
MRSA_r10.3_SUP_30,ywqD_1,ywqD_2,0,1,228,228,flye
MRSA_r10.3_SUP_30,ywqE_1,ywqE_2,0,1,254,254,flye
MRSA_r10.3_SUP_30,pglF,pglF,1,1,607,607,flye
MRSA_r10.3_SUP_30,capD,capD,1,1,342,342,flye
MRSA_r10.3_SUP_30,wbjC,wbjC,1,1,369,369,flye
MRSA_r10.3_SUP_30,wbpI,,0,0,374,0,flye
MRSA_r10.3_SUP_30,dapH_1,dapH_1,1,1,185,185,flye
MRSA_r10.3_SUP_30,epsL,epsL,1,1,185,185,flye
MRSA_r10.3_SUP_30,fcl,fcl,1,1,295,295,flye
MRSA_r10.3_SUP_30,wecC,wecC,1,1,420,420,flye
MRSA_r10.3_SUP_30,mnaA_1,mnaA_2,0,1,381,381,flye
MRSA_r10.3_SUP_30,isdI,isdI,1,1,108,108,flye
MRSA_r10.3_SUP_30,ybaN,ybaN,1,1,127,127,flye
MRSA_r10.3_SUP_30,aldA,aldA,1,1,495,495,flye
MRSA_r10.3_SUP_30,czcD_1,czcD_2,0,1,319,319,flye
MRSA_r10.3_SUP_30,nrtD,nrtD,1,1,246,246,flye
MRSA_r10.3_SUP_30,ssuC,ssuC,1,1,253,253,flye
MRSA_r10.3_SUP_30,mdrP,mdrP,1,1,416,416,flye
MRSA_r10.3_SUP_30,dltA_1,,0,0,2391,0,flye
MRSA_r10.3_SUP_30,yagU,yagU,1,1,164,164,flye
MRSA_r10.3_SUP_30,argB,argB,1,1,256,256,flye
MRSA_r10.3_SUP_30,argJ,argJ,1,1,413,413,flye
MRSA_r10.3_SUP_30,argC,argC,1,1,344,344,flye
MRSA_r10.3_SUP_30,rocD2_1,rocD2_1,1,1,394,394,flye
MRSA_r10.3_SUP_30,brnQ_1,brnQ_1,1,1,451,451,flye
MRSA_r10.3_SUP_30,yecD,yecD,1,1,185,185,flye
MRSA_r10.3_SUP_30,ipdC,ipdC,1,1,546,546,flye
MRSA_r10.3_SUP_30,ptsG_1,ptsG_1,1,1,681,681,flye
MRSA_r10.3_SUP_30,murQ,murQ,1,1,298,298,flye
MRSA_r10.3_SUP_30,ybbH_1,ybbH_2,0,1,292,292,flye
MRSA_r10.3_SUP_30,hsdR,hsdR,1,1,929,929,flye
MRSA_r10.3_SUP_30,gsiA,gsiA,1,1,530,530,flye
MRSA_r10.3_SUP_30,ggt,ggt,1,1,668,668,flye
MRSA_r10.3_SUP_30,azoR,azoR,1,1,208,208,flye
MRSA_r10.3_SUP_30,msmX,msmX,1,1,365,365,flye
MRSA_r10.3_SUP_30,cycB,cycB,1,1,423,423,flye
MRSA_r10.3_SUP_30,malG,malG,1,1,279,279,flye
MRSA_r10.3_SUP_30,gfo,gfo,1,1,358,358,flye
MRSA_r10.3_SUP_30,iolG,iolG,1,1,346,346,flye
MRSA_r10.3_SUP_30,uhpT,,0,0,459,0,flye
MRSA_r10.3_SUP_30,pflB,pflB,1,1,749,749,flye
MRSA_r10.3_SUP_30,pflA,pflA,1,1,251,251,flye
MRSA_r10.3_SUP_30,scn_1,,0,0,114,0,flye
MRSA_r10.3_SUP_30,fadA,fadA,1,1,394,394,flye
MRSA_r10.3_SUP_30,fadN,fadN,1,1,753,753,flye
MRSA_r10.3_SUP_30,caiA,caiA,1,1,403,403,flye
MRSA_r10.3_SUP_30,lcfB,lcfB,1,1,501,501,flye
MRSA_r10.3_SUP_30,carA_1,carA_1,1,1,520,520,flye
MRSA_r10.3_SUP_30,nikA,nikA,1,1,491,491,flye
MRSA_r10.3_SUP_30,hmp,hmp,1,1,381,381,flye
MRSA_r10.3_SUP_30,ldh1,ldh1,1,1,317,317,flye
MRSA_r10.3_SUP_30,ptsG_2,ptsG_2,1,1,509,509,flye
MRSA_r10.3_SUP_30,rihA,rihA,1,1,311,311,flye
MRSA_r10.3_SUP_30,gatA_1,gatA_2,0,1,155,155,flye
MRSA_r10.3_SUP_30,gatB_1,gatB_2,0,1,92,92,flye
MRSA_r10.3_SUP_30,gatC_1,gatC_2,0,1,419,419,flye
MRSA_r10.3_SUP_30,gatD_1,gatD_2,0,1,347,347,flye
MRSA_r10.3_SUP_30,tarI2,tarI2,1,1,238,238,flye
MRSA_r10.3_SUP_30,tarJ',tarJ',1,1,341,341,flye
MRSA_r10.3_SUP_30,tarK,tarK,1,1,564,564,flye
MRSA_r10.3_SUP_30,tarF,tarF,1,1,389,389,flye
MRSA_r10.3_SUP_30,tarI1,tarI1,1,1,238,238,flye
MRSA_r10.3_SUP_30,tarJ,tarJ,1,1,341,341,flye
MRSA_r10.3_SUP_30,tarL,tarL,1,1,562,562,flye
MRSA_r10.3_SUP_30,tarS,tarS,1,1,574,574,flye
MRSA_r10.3_SUP_30,scdA,scdA,1,1,224,224,flye
MRSA_r10.3_SUP_30,ypdA,ypdA,1,1,584,584,flye
MRSA_r10.3_SUP_30,lytR,lytR,1,1,246,246,flye
MRSA_r10.3_SUP_30,lrgA,lrgA,1,1,145,145,flye
MRSA_r10.3_SUP_30,lrgB,lrgB,1,1,233,233,flye
MRSA_r10.3_SUP_30,yydK,yydK,1,1,234,234,flye
MRSA_r10.3_SUP_30,ptsG_3,ptsG_3,1,1,263,263,flye
MRSA_r10.3_SUP_30,bglA,bglA,1,1,478,478,flye
MRSA_r10.3_SUP_30,COQ5_2,COQ5_3,0,1,253,253,flye
MRSA_r10.3_SUP_30,rbsK,rbsK,1,1,304,304,flye
MRSA_r10.3_SUP_30,rbsD,rbsD,1,1,134,134,flye
MRSA_r10.3_SUP_30,glcU_1,glcU_2,0,1,293,293,flye
MRSA_r10.3_SUP_30,degA,degA,1,1,332,332,flye
MRSA_r10.3_SUP_30,norB_2,norB_3,0,1,458,458,flye
MRSA_r10.3_SUP_30,yxeI,yxeI,1,1,330,330,flye
MRSA_r10.3_SUP_30,lytM,lytM,1,1,316,316,flye
MRSA_r10.3_SUP_30,lnrL_1,lnrL_3,0,1,219,219,flye
MRSA_r10.3_SUP_30,esxA,esxA,1,1,97,97,flye
MRSA_r10.3_SUP_30,esaA,esaA,1,1,1009,1009,flye
MRSA_r10.3_SUP_30,esaB,esaB,1,1,80,80,flye
MRSA_r10.3_SUP_30,essB,essB,1,1,444,444,flye
MRSA_r10.3_SUP_30,essC,essC,1,1,1482,1482,flye
MRSA_r10.3_SUP_30,essG_1,essG_1,1,1,166,166,flye
MRSA_r10.3_SUP_30,essG_2,essG_2,1,1,166,166,flye
MRSA_r10.3_SUP_30,essG_3,essG_3,1,1,118,118,flye
MRSA_r10.3_SUP_30,essG_4,essG_4,1,1,90,90,flye
MRSA_r10.3_SUP_30,focA,focA,1,1,274,274,flye
MRSA_r10.3_SUP_30,brnQ_2,brnQ_2,1,1,435,435,flye
MRSA_r10.3_SUP_30,hel,hel,1,1,296,296,flye
MRSA_r10.3_SUP_30,hrtA_1,hrtA_2,0,1,225,225,flye
MRSA_r10.3_SUP_30,RBKS,RBKS,1,1,372,372,flye
MRSA_r10.3_SUP_30,psuG,psuG,1,1,307,307,flye
MRSA_r10.3_SUP_30,nupC_1,nupC_1,1,1,406,406,flye
MRSA_r10.3_SUP_30,sglT,sglT,1,1,510,510,flye
MRSA_r10.3_SUP_30,nanA,nanA,1,1,293,293,flye
MRSA_r10.3_SUP_30,bglK,bglK,1,1,286,286,flye
MRSA_r10.3_SUP_30,ybbH_2,ybbH_3,0,1,266,266,flye
MRSA_r10.3_SUP_30,nanE,nanE,1,1,222,222,flye
MRSA_r10.3_SUP_30,lip2,lip2,1,1,691,691,flye
MRSA_r10.3_SUP_30,ulaA,ulaA,1,1,448,448,flye
MRSA_r10.3_SUP_30,cmtB,cmtB,1,1,147,147,flye
MRSA_r10.3_SUP_30,slyA_1,slyA_1,1,1,139,139,flye
MRSA_r10.3_SUP_30,mepA,mepA,1,1,451,451,flye
MRSA_r10.3_SUP_30,glpT,,0,0,452,0,flye
MRSA_r10.3_SUP_30,mhqA_1,mhqA_2,0,1,308,308,flye
MRSA_r10.3_SUP_30,luxA,luxA,1,1,353,353,flye
MRSA_r10.3_SUP_30,ydaF,ydaF,1,1,181,181,flye
MRSA_r10.3_SUP_30,efeM,efeM,1,1,284,284,flye
MRSA_r10.3_SUP_30,efeN,efeN,1,1,409,409,flye
MRSA_r10.3_SUP_30,tatC2,tatC2,1,1,233,233,flye
MRSA_r10.3_SUP_30,tatAy,tatAy,1,1,71,71,flye
MRSA_r10.3_SUP_30,btuD_1,btuD_2,0,1,280,280,flye
MRSA_r10.3_SUP_30,metE,metE,1,1,742,742,flye
MRSA_r10.3_SUP_30,yitJ,yitJ,1,1,613,613,flye
MRSA_r10.3_SUP_30,metC,metC,1,1,386,386,flye
MRSA_r10.3_SUP_30,metI,metI,1,1,367,367,flye
MRSA_r10.3_SUP_30,spo0J,spo0J,1,1,281,281,flye
MRSA_r10.3_SUP_30,mscS,mscS,1,1,293,293,flye
MRSA_r10.3_SUP_30,ychF,ychF,1,1,365,365,flye
MRSA_r10.3_SUP_30,rpsF,rpsF,1,1,98,98,flye
MRSA_r10.3_SUP_30,ssbA_1,ssbA_3,0,1,167,167,flye
MRSA_r10.3_SUP_30,rpsR,rpsR,1,1,80,80,flye
MRSA_r10.3_SUP_30,xerC_3,xerC_6,0,1,404,404,flye
MRSA_r10.3_SUP_30,gpmA_1,gpmA_2,0,1,193,193,flye
MRSA_r10.3_SUP_30,ahpF,ahpF,1,1,507,507,flye
MRSA_r10.3_SUP_30,ahpC,ahpC,1,1,189,189,flye
MRSA_r10.3_SUP_30,nfrA,nfrA,1,1,251,251,flye
MRSA_r10.3_SUP_30,tcyP,tcyP,1,1,462,462,flye
MRSA_r10.3_SUP_30,xpt,xpt,1,1,192,192,flye
MRSA_r10.3_SUP_30,pucK,pucK,1,1,422,422,flye
MRSA_r10.3_SUP_30,guaB,guaB,1,1,488,488,flye
MRSA_r10.3_SUP_30,guaA,guaA,1,1,513,513,flye
MRSA_r10.3_SUP_30,qorB,qorB,1,1,281,281,flye
MRSA_r10.3_SUP_30,ssl1,ssl1,1,1,226,226,flye
MRSA_r10.3_SUP_30,ssl4_1,ssl4_1,1,1,233,233,flye
MRSA_r10.3_SUP_30,ssl4_2,ssl4_2,1,1,343,343,flye
MRSA_r10.3_SUP_30,ssl3,ssl3,1,1,306,306,flye
MRSA_r10.3_SUP_30,ssl5_1,ssl5_1,1,1,234,234,flye
MRSA_r10.3_SUP_30,ssl7_1,ssl7_1,1,1,231,231,flye
MRSA_r10.3_SUP_30,ssl7_2,ssl7_2,1,1,232,232,flye
MRSA_r10.3_SUP_30,hsdM,hsdM,1,1,518,518,flye
MRSA_r10.3_SUP_30,ssl5_2,ssl5_2,1,1,232,232,flye
MRSA_r10.3_SUP_30,lpl2_1,lpl2_1,1,1,270,270,flye
MRSA_r10.3_SUP_30,lpl2_2,lpl2_2,1,1,257,257,flye
MRSA_r10.3_SUP_30,lpl2_3,lpl2_3,1,1,136,136,flye
MRSA_r10.3_SUP_30,lpl2_4,lpl2_4,1,1,123,123,flye
MRSA_r10.3_SUP_30,lpl2_5,lpl2_5,1,1,256,256,flye
MRSA_r10.3_SUP_30,lpl2_6,lpl2_6,1,1,267,267,flye
MRSA_r10.3_SUP_30,yciC_1,yciC_1,1,1,400,400,flye
MRSA_r10.3_SUP_30,ndhB,ndhB,1,1,494,494,flye
MRSA_r10.3_SUP_30,est_1,est_1,1,1,244,244,flye
MRSA_r10.3_SUP_30,mccA,mccA,1,1,311,311,flye
MRSA_r10.3_SUP_30,mccB,mccB,1,1,380,380,flye
MRSA_r10.3_SUP_30,metN,metN,1,1,341,341,flye
MRSA_r10.3_SUP_30,metP_1,metP_1,1,1,219,219,flye
MRSA_r10.3_SUP_30,metQ_1,metQ_1,1,1,280,280,flye
MRSA_r10.3_SUP_30,sle1,sle1,1,1,341,341,flye
MRSA_r10.3_SUP_30,hdfR_1,hdfR_2,0,1,294,294,flye
MRSA_r10.3_SUP_30,gltA,gltA,1,1,1499,1499,flye
MRSA_r10.3_SUP_30,gltB,gltB,1,1,487,487,flye
MRSA_r10.3_SUP_30,treP_1,treP_2,0,1,475,475,flye
MRSA_r10.3_SUP_30,treA,treA,1,1,546,546,flye
MRSA_r10.3_SUP_30,treR_1,treR_2,0,1,242,242,flye
MRSA_r10.3_SUP_30,ruvB_1,ruvB_1,1,1,565,565,flye
MRSA_r10.3_SUP_30,recR,recR,1,1,198,198,flye
MRSA_r10.3_SUP_30,speA,speA,1,1,445,445,flye
MRSA_r10.3_SUP_30,tmk,tmk,1,1,205,205,flye
MRSA_r10.3_SUP_30,darA,darA,1,1,109,109,flye
MRSA_r10.3_SUP_30,yabA,yabA,1,1,115,115,flye
MRSA_r10.3_SUP_30,yfiC,yfiC,1,1,241,241,flye
MRSA_r10.3_SUP_30,rsmI,rsmI,1,1,279,279,flye
MRSA_r10.3_SUP_30,metG,metG,1,1,657,657,flye
MRSA_r10.3_SUP_30,dtd3,dtd3,1,1,257,257,flye
MRSA_r10.3_SUP_30,rnmV_1,rnmV_1,1,1,178,178,flye
MRSA_r10.3_SUP_30,rsmA,rsmA,1,1,297,297,flye
MRSA_r10.3_SUP_30,veg,veg,1,1,87,87,flye
MRSA_r10.3_SUP_30,ispE,ispE,1,1,282,282,flye
MRSA_r10.3_SUP_30,purR,purR,1,1,274,274,flye
MRSA_r10.3_SUP_30,yabJ,yabJ,1,1,126,126,flye
MRSA_r10.3_SUP_30,spoVG,spoVG,1,1,100,100,flye
MRSA_r10.3_SUP_30,glmU,glmU,1,1,450,450,flye
MRSA_r10.3_SUP_30,prs,prs,1,1,321,321,flye
MRSA_r10.3_SUP_30,rplY,rplY,1,1,217,217,flye
MRSA_r10.3_SUP_30,pth,pth,1,1,190,190,flye
MRSA_r10.3_SUP_30,mfd,mfd,1,1,1168,1168,flye
MRSA_r10.3_SUP_30,divIC,divIC,1,1,130,130,flye
MRSA_r10.3_SUP_30,pnp_1,pnp_1,1,1,133,133,flye
MRSA_r10.3_SUP_30,tilS,tilS,1,1,431,431,flye
MRSA_r10.3_SUP_30,hpt,hpt,1,1,179,179,flye
MRSA_r10.3_SUP_30,ftsH,ftsH,1,1,697,697,flye
MRSA_r10.3_SUP_30,hslO,hslO,1,1,293,293,flye
MRSA_r10.3_SUP_30,cysK,cysK,1,1,310,310,flye
MRSA_r10.3_SUP_30,folP,folP,1,1,267,267,flye
MRSA_r10.3_SUP_30,folB,folB,1,1,121,121,flye
MRSA_r10.3_SUP_30,folK,folK,1,1,158,158,flye
MRSA_r10.3_SUP_30,lysS,lysS,1,1,495,495,flye
MRSA_r10.3_SUP_30,gabR,gabR,1,1,460,460,flye
MRSA_r10.3_SUP_30,pdxS,pdxS,1,1,295,295,flye
MRSA_r10.3_SUP_30,pdxT,pdxT,1,1,186,186,flye
MRSA_r10.3_SUP_30,nupC_2,nupC_2,1,1,404,404,flye
MRSA_r10.3_SUP_30,ctsR,ctsR,1,1,156,156,flye
MRSA_r10.3_SUP_30,mcsA,mcsA,1,1,188,188,flye
MRSA_r10.3_SUP_30,mcsB,mcsB,1,1,336,336,flye
MRSA_r10.3_SUP_30,clpC,clpC,1,1,818,818,flye
MRSA_r10.3_SUP_30,radA,radA,1,1,454,454,flye
MRSA_r10.3_SUP_30,yacL,yacL,1,1,357,357,flye
MRSA_r10.3_SUP_30,gltX,gltX,1,1,484,484,flye
MRSA_r10.3_SUP_30,cysE,cysE,1,1,226,226,flye
MRSA_r10.3_SUP_30,cysS,cysS,1,1,466,466,flye
MRSA_r10.3_SUP_30,mrnC,mrnC,1,1,134,134,flye
MRSA_r10.3_SUP_30,yacP,yacP,1,1,174,174,flye
MRSA_r10.3_SUP_30,secE,secE,1,1,60,60,flye
MRSA_r10.3_SUP_30,nusG,nusG,1,1,182,182,flye
MRSA_r10.3_SUP_30,rplK,rplK,1,1,140,140,flye
MRSA_r10.3_SUP_30,rplA,rplA,1,1,229,229,flye
MRSA_r10.3_SUP_30,rplJ,rplJ,1,1,166,166,flye
MRSA_r10.3_SUP_30,rplL,rplL,1,1,122,122,flye
MRSA_r10.3_SUP_30,rsmC,rsmC,1,1,202,202,flye
MRSA_r10.3_SUP_30,rpoB,rpoB,1,1,1183,1183,flye
MRSA_r10.3_SUP_30,rpoC,rpoC,1,1,1207,1207,flye
MRSA_r10.3_SUP_30,rplGB,rplGB,1,1,84,84,flye
MRSA_r10.3_SUP_30,rpsL,rpsL,1,1,137,137,flye
MRSA_r10.3_SUP_30,rpsG,rpsG,1,1,156,156,flye
MRSA_r10.3_SUP_30,fusA,fusA,1,1,693,693,flye
MRSA_r10.3_SUP_30,tuf,tuf,1,1,394,394,flye
MRSA_r10.3_SUP_30,scmP_2,scmP_3,0,1,391,391,flye
MRSA_r10.3_SUP_30,hchA,hchA,1,1,292,292,flye
MRSA_r10.3_SUP_30,araB,araB,1,1,545,545,flye
MRSA_r10.3_SUP_30,ilvE,ilvE,1,1,358,358,flye
MRSA_r10.3_SUP_30,ppaX_1,ppaX_1,1,1,227,227,flye
MRSA_r10.3_SUP_30,dck,dck,1,1,220,220,flye
MRSA_r10.3_SUP_30,dgk,dgk,1,1,205,205,flye
MRSA_r10.3_SUP_30,tadA_1,tadA_1,1,1,156,156,flye
MRSA_r10.3_SUP_30,ywtE_1,ywtE_2,0,1,289,289,flye
MRSA_r10.3_SUP_30,azo1,azo1,1,1,188,188,flye
MRSA_r10.3_SUP_30,bbp,bbp,1,1,1137,1137,flye
MRSA_r10.3_SUP_30,gtfA_1,gtfA_2,0,1,490,490,flye
MRSA_r10.3_SUP_30,gtfA_2,gtfA_3,0,1,496,496,flye
MRSA_r10.3_SUP_30,folE2,folE2,1,1,292,292,flye
MRSA_r10.3_SUP_30,bshB2,bshB2,1,1,221,221,flye
MRSA_r10.3_SUP_30,yojF,yojF,1,1,120,120,flye
MRSA_r10.3_SUP_30,nagB_1,nagB_2,0,1,252,252,flye
MRSA_r10.3_SUP_30,hxlB,hxlB,1,1,182,182,flye
MRSA_r10.3_SUP_30,gph,gph,1,1,215,215,flye
MRSA_r10.3_SUP_30,proP,proP,1,1,466,466,flye
MRSA_r10.3_SUP_30,menE_1,menE_2,0,1,458,458,flye
MRSA_r10.3_SUP_30,yhfS,yhfS,1,1,379,379,flye
MRSA_r10.3_SUP_30,pdxK,pdxK,1,1,276,276,flye
MRSA_r10.3_SUP_30,ung,ung,1,1,218,218,flye
MRSA_r10.3_SUP_30,pta,pta,1,1,328,328,flye
MRSA_r10.3_SUP_30,lipL,lipL,1,1,278,278,flye
MRSA_r10.3_SUP_30,galK,galK,1,1,306,306,flye
MRSA_r10.3_SUP_30,rclA,rclA,1,1,440,440,flye
MRSA_r10.3_SUP_30,iolS,iolS,1,1,312,312,flye
MRSA_r10.3_SUP_30,ywqN,ywqN,1,1,178,178,flye
MRSA_r10.3_SUP_30,adh,adh,1,1,336,336,flye
MRSA_r10.3_SUP_30,ywiB,ywiB,1,1,138,138,flye
MRSA_r10.3_SUP_30,argS,argS,1,1,553,553,flye
MRSA_r10.3_SUP_30,nth_1,nth_1,1,1,211,211,flye
MRSA_r10.3_SUP_30,btuF,btuF,1,1,295,295,flye
MRSA_r10.3_SUP_30,hdl IVa,hdl IVa,1,1,239,239,flye
MRSA_r10.3_SUP_30,pip,pip,1,1,262,262,flye
MRSA_r10.3_SUP_30,sarA,sarA,1,1,124,124,flye
MRSA_r10.3_SUP_30,xerD_1,xerD_1,1,1,186,186,flye
MRSA_r10.3_SUP_30,mrpA,mrpA,1,1,800,800,flye
MRSA_r10.3_SUP_30,mrpB,mrpB,1,1,141,141,flye
MRSA_r10.3_SUP_30,mnhC1_1,mnhC1_1,1,1,114,114,flye
MRSA_r10.3_SUP_30,mnhD1_1,mnhD1_1,1,1,498,498,flye
MRSA_r10.3_SUP_30,mrpE,mrpE,1,1,160,160,flye
MRSA_r10.3_SUP_30,mrpF,mrpF,1,1,100,100,flye
MRSA_r10.3_SUP_30,mrpG,mrpG,1,1,120,120,flye
MRSA_r10.3_SUP_30,nhaK_1,nhaK_2,0,1,680,680,flye
MRSA_r10.3_SUP_30,pbuE_1,pbuE_2,0,1,382,382,flye
MRSA_r10.3_SUP_30,ppaX_2,ppaX_2,1,1,82,82,flye
MRSA_r10.3_SUP_30,mntA,mntA,1,1,309,309,flye
MRSA_r10.3_SUP_30,mntB,mntB,1,1,278,278,flye
MRSA_r10.3_SUP_30,scaC,scaC,1,1,247,247,flye
MRSA_r10.3_SUP_30,mntR,mntR,1,1,214,214,flye
MRSA_r10.3_SUP_30,tarA,tarA,1,1,254,254,flye
MRSA_r10.3_SUP_30,tagH_1,tagH_2,0,1,264,264,flye
MRSA_r10.3_SUP_30,tagG,tagG,1,1,270,270,flye
MRSA_r10.3_SUP_30,tarB,tarB,1,1,367,367,flye
MRSA_r10.3_SUP_30,tagX,tagX,1,1,353,353,flye
MRSA_r10.3_SUP_30,tarD,tarD,1,1,132,132,flye
MRSA_r10.3_SUP_30,bmrA,bmrA,1,1,575,575,flye
MRSA_r10.3_SUP_30,nupG,nupG,1,1,409,409,flye
MRSA_r10.3_SUP_30,fepC,fepC,1,1,265,265,flye
MRSA_r10.3_SUP_30,feuB,feuB,1,1,334,334,flye
MRSA_r10.3_SUP_30,feuC,feuC,1,1,338,338,flye
MRSA_r10.3_SUP_30,dhaK,dhaK,1,1,322,322,flye
MRSA_r10.3_SUP_30,dhaL,dhaL,1,1,194,194,flye
MRSA_r10.3_SUP_30,dhaM,dhaM,1,1,120,120,flye
MRSA_r10.3_SUP_30,aes,aes,1,1,347,347,flye
MRSA_r10.3_SUP_30,graR_1,graR_3,0,1,224,224,flye
MRSA_r10.3_SUP_30,graS_1,graS_2,0,1,346,346,flye
MRSA_r10.3_SUP_30,bceA_1,bceA_2,0,1,253,253,flye
MRSA_r10.3_SUP_30,bceB_1,bceB_3,0,1,629,629,flye
MRSA_r10.3_SUP_30,rhaR,rhaR,1,1,647,647,flye
MRSA_r10.3_SUP_30,sarX,sarX,1,1,141,141,flye
MRSA_r10.3_SUP_30,oxyR,oxyR,1,1,288,288,flye
MRSA_r10.3_SUP_30,setC,setC,1,1,430,430,flye
MRSA_r10.3_SUP_30,bin3,bin3,1,1,105,105,flye
MRSA_r10.3_SUP_30,sdpR,sdpR,1,1,104,104,flye
MRSA_r10.3_SUP_30,arsB_1,arsB_2,0,1,429,429,flye
MRSA_r10.3_SUP_30,arsC,arsC,1,1,131,131,flye
MRSA_r10.3_SUP_30,pre,pre,1,1,108,108,flye
MRSA_r10.3_SUP_30,bcrR,bcrR,1,1,113,113,flye
MRSA_r10.3_SUP_30,cysL,cysL,1,1,273,273,flye
MRSA_r10.3_SUP_30,hin_1,hin_2,0,1,191,191,flye
MRSA_r10.3_SUP_30,copB,,0,0,681,0,flye
MRSA_r10.3_SUP_30,mco,mco,1,1,477,477,flye
MRSA_r10.3_SUP_30,cadA,cadA,1,1,726,726,flye
MRSA_r10.3_SUP_30,cadC,cadC,1,1,121,121,flye
MRSA_r10.3_SUP_30,uppP,uppP,1,1,291,291,flye
MRSA_r10.3_SUP_30,cydD,cydD,1,1,543,543,flye
MRSA_r10.3_SUP_30,mgrA,mgrA,1,1,147,147,flye
MRSA_r10.3_SUP_30,yciC_2,yciC_2,1,1,308,308,flye
MRSA_r10.3_SUP_30,ydhF,ydhF,1,1,302,302,flye
MRSA_r10.3_SUP_30,phrB,phrB,1,1,457,457,flye
MRSA_r10.3_SUP_30,tetA,tetA,1,1,388,388,flye
MRSA_r10.3_SUP_30,ybaK,ybaK,1,1,160,160,flye
MRSA_r10.3_SUP_30,ydjF,ydjF,1,1,254,254,flye
MRSA_r10.3_SUP_30,lacC_1,lacC_2,0,1,306,306,flye
MRSA_r10.3_SUP_30,fruA,fruA,1,1,652,652,flye
MRSA_r10.3_SUP_30,nagA,nagA,1,1,393,393,flye
MRSA_r10.3_SUP_30,csbB,csbB,1,1,327,327,flye
MRSA_r10.3_SUP_30,saeS,saeS,1,1,351,351,flye
MRSA_r10.3_SUP_30,saeR,saeR,1,1,228,228,flye
MRSA_r10.3_SUP_30,queE,queE,1,1,237,237,flye
MRSA_r10.3_SUP_30,queD,queD,1,1,139,139,flye
MRSA_r10.3_SUP_30,queC,queC,1,1,222,222,flye
MRSA_r10.3_SUP_30,trpG_1,trpG_1,1,1,197,197,flye
MRSA_r10.3_SUP_30,menF,menF,1,1,383,383,flye
MRSA_r10.3_SUP_30,pxpB_1,pxpB_1,1,1,236,236,flye
MRSA_r10.3_SUP_30,pxpC_1,pxpC_1,1,1,334,334,flye
MRSA_r10.3_SUP_30,ltaS,ltaS,1,1,646,646,flye
MRSA_r10.3_SUP_30,ettA,ettA,1,1,625,625,flye
MRSA_r10.3_SUP_30,recQ_1,recQ_1,1,1,593,593,flye
MRSA_r10.3_SUP_30,btuD_2,btuD_3,0,1,325,325,flye
MRSA_r10.3_SUP_30,hisC_1,hisC_3,0,1,352,352,flye
MRSA_r10.3_SUP_30,dtpT,dtpT,1,1,501,501,flye
MRSA_r10.3_SUP_30,queF,queF,1,1,166,166,flye
MRSA_r10.3_SUP_30,cntI,cntI,1,1,288,288,flye
MRSA_r10.3_SUP_30,nrdI,,0,0,132,0,flye
MRSA_r10.3_SUP_30,nrdE,nrdE,1,1,701,701,flye
MRSA_r10.3_SUP_30,nrdF,nrdF,1,1,323,323,flye
MRSA_r10.3_SUP_30,yclN,yclN,1,1,323,323,flye
MRSA_r10.3_SUP_30,yclO,yclO,1,1,318,318,flye
MRSA_r10.3_SUP_30,yclP,yclP,1,1,253,253,flye
MRSA_r10.3_SUP_30,yclQ,yclQ,1,1,342,342,flye
MRSA_r10.3_SUP_30,murB,murB,1,1,307,307,flye
MRSA_r10.3_SUP_30,garK_1,garK_2,0,1,374,374,flye
MRSA_r10.3_SUP_30,pepT_1,pepT_1,1,1,408,408,flye
MRSA_r10.3_SUP_30,yjjP,yjjP,1,1,253,253,flye
MRSA_r10.3_SUP_30,tagO,tagO,1,1,351,351,flye
MRSA_r10.3_SUP_30,comFA,comFA,1,1,360,360,flye
MRSA_r10.3_SUP_30,hpf,hpf,1,1,190,190,flye
MRSA_r10.3_SUP_30,secA1_1,secA1_2,0,1,843,843,flye
MRSA_r10.3_SUP_30,prfB,prfB,1,1,330,330,flye
MRSA_r10.3_SUP_30,yfbR,yfbR,1,1,216,216,flye
MRSA_r10.3_SUP_30,uvrB_1,uvrB_2,0,1,661,661,flye
MRSA_r10.3_SUP_30,uvrA,uvrA,1,1,948,948,flye
MRSA_r10.3_SUP_30,hprK,hprK,1,1,310,310,flye
MRSA_r10.3_SUP_30,lgt,lgt,1,1,280,280,flye
MRSA_r10.3_SUP_30,maa,maa,1,1,161,161,flye
MRSA_r10.3_SUP_30,trxB,trxB,1,1,311,311,flye
MRSA_r10.3_SUP_30,whiA,,0,0,314,0,flye
MRSA_r10.3_SUP_30,clpP_1,clpP_2,0,1,195,195,flye
MRSA_r10.3_SUP_30,mleS,mleS,1,1,544,544,flye
MRSA_r10.3_SUP_30,cggR,cggR,1,1,337,337,flye
MRSA_r10.3_SUP_30,gapA1,gapA1,1,1,336,336,flye
MRSA_r10.3_SUP_30,pgk,pgk,1,1,396,396,flye
MRSA_r10.3_SUP_30,tpiA,tpiA,1,1,253,253,flye
MRSA_r10.3_SUP_30,gpmI,gpmI,1,1,505,505,flye
MRSA_r10.3_SUP_30,eno,eno,1,1,434,434,flye
MRSA_r10.3_SUP_30,secG,secG,1,1,77,77,flye
MRSA_r10.3_SUP_30,est_2,est_2,1,1,246,246,flye
MRSA_r10.3_SUP_30,rnr,rnr,1,1,790,790,flye
MRSA_r10.3_SUP_30,smpB,smpB,1,1,154,154,flye
MRSA_r10.3_SUP_30,ssp,ssp,1,1,341,341,flye
MRSA_r10.3_SUP_30,nuc,nuc,1,1,228,228,flye
MRSA_r10.3_SUP_30,cspA_1,cspA_1,1,1,66,66,flye
MRSA_r10.3_SUP_30,pspB,pspB,1,1,194,194,flye
MRSA_r10.3_SUP_30,argO_1,argO_2,0,1,205,205,flye
MRSA_r10.3_SUP_30,aroD,aroD,1,1,238,238,flye
MRSA_r10.3_SUP_30,ydbP,ydbP,1,1,106,106,flye
MRSA_r10.3_SUP_30,mgsR,mgsR,1,1,118,118,flye
MRSA_r10.3_SUP_30,gcvH,gcvH,1,1,126,126,flye
MRSA_r10.3_SUP_30,rnmV_2,rnmV_2,1,1,129,129,flye
MRSA_r10.3_SUP_30,metN2,metN2,1,1,341,341,flye
MRSA_r10.3_SUP_30,metP_2,metP_2,1,1,231,231,flye
MRSA_r10.3_SUP_30,metQ_2,metQ_2,1,1,273,273,flye
MRSA_r10.3_SUP_30,sufC,sufC,1,1,253,253,flye
MRSA_r10.3_SUP_30,csd,csd,1,1,413,413,flye
MRSA_r10.3_SUP_30,sufU,sufU,1,1,154,154,flye
MRSA_r10.3_SUP_30,pnoA,pnoA,1,1,355,355,flye
MRSA_r10.3_SUP_30,lipA_1,lipA_2,0,1,305,305,flye
MRSA_r10.3_SUP_30,yutF,yutF,1,1,259,259,flye
MRSA_r10.3_SUP_30,ghrB_1,ghrB_2,0,1,319,319,flye
MRSA_r10.3_SUP_30,dltA_2,dltA,0,1,485,485,flye
MRSA_r10.3_SUP_30,patA,patA,1,1,404,404,flye
MRSA_r10.3_SUP_30,dltC,dltC,1,1,78,78,flye
MRSA_r10.3_SUP_30,dltD,dltD,1,1,391,391,flye
MRSA_r10.3_SUP_30,nfuA,nfuA,1,1,80,80,flye
MRSA_r10.3_SUP_30,yjlD,yjlD,1,1,354,354,flye
MRSA_r10.3_SUP_30,pepA_1,pepA_2,0,1,491,491,flye
MRSA_r10.3_SUP_30,mnhG1,mnhG1,1,1,118,118,flye
MRSA_r10.3_SUP_30,mnhF1,mnhF1,1,1,97,97,flye
MRSA_r10.3_SUP_30,mnhE1,mnhE1,1,1,159,159,flye
MRSA_r10.3_SUP_30,mnhD1_2,mnhD1_2,1,1,498,498,flye
MRSA_r10.3_SUP_30,mnhC1_2,mnhC1_2,1,1,113,113,flye
MRSA_r10.3_SUP_30,mnhB1,mnhB1,1,1,142,142,flye
MRSA_r10.3_SUP_30,mnhA1,mnhA1,1,1,801,801,flye
MRSA_r10.3_SUP_30,kapB,kapB,1,1,127,127,flye
MRSA_r10.3_SUP_30,yugI,yugI,1,1,125,125,flye
MRSA_r10.3_SUP_30,rocD2_2,rocD2_2,1,1,396,396,flye
MRSA_r10.3_SUP_30,gluD,gluD,1,1,414,414,flye
MRSA_r10.3_SUP_30,glpQ_1,glpQ_2,0,1,309,309,flye
MRSA_r10.3_SUP_30,argH,argH,1,1,459,459,flye
MRSA_r10.3_SUP_30,argG,argG,1,1,401,401,flye
MRSA_r10.3_SUP_30,pgi,,0,0,443,0,flye
MRSA_r10.3_SUP_30,ydjZ,ydjZ,1,1,191,191,flye
MRSA_r10.3_SUP_30,spsB_1,spsB_1,1,1,174,174,flye
MRSA_r10.3_SUP_30,spsB_2,spsB_2,1,1,191,191,flye
MRSA_r10.3_SUP_30,addB,addB,1,1,1158,1158,flye
MRSA_r10.3_SUP_30,addA,addA,1,1,1217,1217,flye
MRSA_r10.3_SUP_30,cdr,cdr,1,1,438,438,flye
MRSA_r10.3_SUP_30,yitU,yitU,1,1,274,274,flye
MRSA_r10.3_SUP_30,sufT,sufT,1,1,102,102,flye
MRSA_r10.3_SUP_30,oatA_1,oatA_2,0,1,604,604,flye
MRSA_r10.3_SUP_30,clpB,clpB,1,1,869,869,flye
MRSA_r10.3_SUP_30,ampR,ampR,1,1,289,289,flye
MRSA_r10.3_SUP_30,leuA_1,leuA_2,0,1,381,381,flye
MRSA_r10.3_SUP_30,map_1,map_4,0,1,144,144,flye
MRSA_r10.3_SUP_30,fabH,fabH,1,1,313,313,flye
MRSA_r10.3_SUP_30,fabF,fabF,1,1,414,414,flye
MRSA_r10.3_SUP_30,oppB,oppB,1,1,308,308,flye
MRSA_r10.3_SUP_30,oppC,oppC,1,1,356,356,flye
MRSA_r10.3_SUP_30,oppD_1,oppD_1,1,1,360,360,flye
MRSA_r10.3_SUP_30,oppF_1,oppF_1,1,1,313,313,flye
MRSA_r10.3_SUP_30,dppE,dppE,1,1,551,551,flye
MRSA_r10.3_SUP_30,appA,appA,1,1,451,451,flye
MRSA_r10.3_SUP_30,oppD_2,oppD_2,1,1,328,328,flye
MRSA_r10.3_SUP_30,oppF_2,oppF_2,1,1,326,326,flye
MRSA_r10.3_SUP_30,dppC,dppC,1,1,293,293,flye
MRSA_r10.3_SUP_30,trpS,trpS,1,1,329,329,flye
MRSA_r10.3_SUP_30,spxA,spxA,1,1,131,131,flye
MRSA_r10.3_SUP_30,mecA_2,mecA_2,1,1,239,239,flye
MRSA_r10.3_SUP_30,pepF1_1,pepF1_1,1,1,602,602,flye
MRSA_r10.3_SUP_30,yjbI,yjbI,1,1,121,121,flye
MRSA_r10.3_SUP_30,yjbK,yjbK,1,1,197,197,flye
MRSA_r10.3_SUP_30,yjbM,yjbM,1,1,211,211,flye
MRSA_r10.3_SUP_30,nadK,nadK,1,1,269,269,flye
MRSA_r10.3_SUP_30,mgtE,mgtE,1,1,461,461,flye
MRSA_r10.3_SUP_30,kefB,kefB,1,1,614,614,flye
MRSA_r10.3_SUP_30,fabI,fabI,1,1,256,256,flye
MRSA_r10.3_SUP_30,acp,acp,1,1,522,522,flye
MRSA_r10.3_SUP_30,ltaA,ltaA,1,1,396,396,flye
MRSA_r10.3_SUP_30,ugtP,ugtP,1,1,391,391,flye
MRSA_r10.3_SUP_30,murE,murE,1,1,494,494,flye
MRSA_r10.3_SUP_30,prfC,prfC,1,1,520,520,flye
MRSA_r10.3_SUP_30,ktrB_1,,0,0,452,0,flye
MRSA_r10.3_SUP_30,tarM,tarM,1,1,493,493,flye
MRSA_r10.3_SUP_30,catD,catD,1,1,118,118,flye
MRSA_r10.3_SUP_30,yfmC_1,yfmC_2,0,1,319,319,flye
MRSA_r10.3_SUP_30,menA,menA,1,1,312,312,flye
MRSA_r10.3_SUP_30,pchA,pchA,1,1,453,453,flye
MRSA_r10.3_SUP_30,menD,menD,1,1,557,557,flye
MRSA_r10.3_SUP_30,menH,menH,1,1,267,267,flye
MRSA_r10.3_SUP_30,menB,menB,1,1,273,273,flye
MRSA_r10.3_SUP_30,sspC,sspC,1,1,109,109,flye
MRSA_r10.3_SUP_30,sspB,sspB,1,1,393,393,flye
MRSA_r10.3_SUP_30,sspA,sspA,1,1,357,357,flye
MRSA_r10.3_SUP_30,dapX,dapX,1,1,384,384,flye
MRSA_r10.3_SUP_30,slyA_2,slyA_2,1,1,139,139,flye
MRSA_r10.3_SUP_30,atl_1,atl_3,0,1,1257,1257,flye
MRSA_r10.3_SUP_30,tagU_1,tagU_2,0,1,408,408,flye
MRSA_r10.3_SUP_30,fmtA,fmtA,1,1,397,397,flye
MRSA_r10.3_SUP_30,qoxD,qoxD,1,1,96,96,flye
MRSA_r10.3_SUP_30,qoxC,qoxC,1,1,201,201,flye
MRSA_r10.3_SUP_30,qoxB,qoxB,1,1,662,662,flye
MRSA_r10.3_SUP_30,qoxA,qoxA,1,1,366,366,flye
MRSA_r10.3_SUP_30,folD,folD,1,1,286,286,flye
MRSA_r10.3_SUP_30,purE,purE,1,1,160,160,flye
MRSA_r10.3_SUP_30,purK,purK,1,1,374,374,flye
MRSA_r10.3_SUP_30,purC,purC,1,1,234,234,flye
MRSA_r10.3_SUP_30,purS,purS,1,1,87,87,flye
MRSA_r10.3_SUP_30,purQ,purQ,1,1,223,223,flye
MRSA_r10.3_SUP_30,purL,purL,1,1,729,729,flye
MRSA_r10.3_SUP_30,purF,purF,1,1,494,494,flye
MRSA_r10.3_SUP_30,purM,purM,1,1,342,342,flye
MRSA_r10.3_SUP_30,purN,purN,1,1,188,188,flye
MRSA_r10.3_SUP_30,purH,purH,1,1,492,492,flye
MRSA_r10.3_SUP_30,purD,purD,1,1,415,415,flye
MRSA_r10.3_SUP_30,ecfT_1,ecfT_2,0,1,268,268,flye
MRSA_r10.3_SUP_30,ykoD_1,ykoD,0,1,466,466,flye
MRSA_r10.3_SUP_30,ykoE,ykoE,1,1,191,191,flye
MRSA_r10.3_SUP_30,rlmI,rlmI,1,1,390,390,flye
MRSA_r10.3_SUP_30,ptsH,ptsH,1,1,88,88,flye
MRSA_r10.3_SUP_30,ptsI,ptsI,1,1,572,572,flye
MRSA_r10.3_SUP_30,ythA,ythA,1,1,453,453,flye
MRSA_r10.3_SUP_30,ythB,ythB,1,1,339,339,flye
MRSA_r10.3_SUP_30,ktrA,ktrA,1,1,220,220,flye
MRSA_r10.3_SUP_30,rnj1,rnj1,1,1,565,565,flye
MRSA_r10.3_SUP_30,def,def,1,1,183,183,flye
MRSA_r10.3_SUP_30,pdhA,pdhA,1,1,370,370,flye
MRSA_r10.3_SUP_30,pdhB,pdhB,1,1,325,325,flye
MRSA_r10.3_SUP_30,pdhC_1,pdhC_1,1,1,430,430,flye
MRSA_r10.3_SUP_30,pdhD,pdhD,1,1,468,468,flye
MRSA_r10.3_SUP_30,potA,potA,1,1,364,364,flye
MRSA_r10.3_SUP_30,potB,potB,1,1,265,265,flye
MRSA_r10.3_SUP_30,ydcV,ydcV,1,1,269,269,flye
MRSA_r10.3_SUP_30,potD,potD,1,1,357,357,flye
MRSA_r10.3_SUP_30,mntH_1,mntH_1,1,1,450,450,flye
MRSA_r10.3_SUP_30,suhB,suhB,1,1,275,275,flye
MRSA_r10.3_SUP_30,typA,typA,1,1,615,615,flye
MRSA_r10.3_SUP_30,ftsW,ftsW,1,1,408,408,flye
MRSA_r10.3_SUP_30,pycA,pycA,1,1,1150,1150,flye
MRSA_r10.3_SUP_30,ctaA,ctaA,1,1,306,306,flye
MRSA_r10.3_SUP_30,ctaB2,ctaB2,1,1,303,303,flye
MRSA_r10.3_SUP_30,rsmD,rsmD,1,1,180,180,flye
MRSA_r10.3_SUP_30,coaD,coaD,1,1,160,160,flye
MRSA_r10.3_SUP_30,tmcAL,tmcAL,1,1,379,379,flye
MRSA_r10.3_SUP_30,rpmF,rpmF,1,1,57,57,flye
MRSA_r10.3_SUP_30,isdB,isdB,1,1,652,652,flye
MRSA_r10.3_SUP_30,isdA,isdA,1,1,354,354,flye
MRSA_r10.3_SUP_30,isdC,isdC,1,1,227,227,flye
MRSA_r10.3_SUP_30,isdE,isdE,1,1,292,292,flye
MRSA_r10.3_SUP_30,isdF,isdF,1,1,322,322,flye
MRSA_r10.3_SUP_30,srtB,srtB,1,1,244,244,flye
MRSA_r10.3_SUP_30,isdG_1,isdG_2,0,1,107,107,flye
MRSA_r10.3_SUP_30,pheS,pheS,1,1,352,352,flye
MRSA_r10.3_SUP_30,pheT,pheT,1,1,800,800,flye
MRSA_r10.3_SUP_30,rnhC,rnhC,1,1,329,329,flye
MRSA_r10.3_SUP_30,zapA,zapA,1,1,88,88,flye
MRSA_r10.3_SUP_30,polX,polX,1,1,570,570,flye
MRSA_r10.3_SUP_30,mutS2,mutS2,1,1,782,782,flye
MRSA_r10.3_SUP_30,trxA,trxA,1,1,104,104,flye
MRSA_r10.3_SUP_30,uvrC,uvrC,1,1,593,593,flye
MRSA_r10.3_SUP_30,sdhC,sdhC,1,1,204,204,flye
MRSA_r10.3_SUP_30,frdA,frdA,1,1,588,588,flye
MRSA_r10.3_SUP_30,frdB,frdB,1,1,271,271,flye
MRSA_r10.3_SUP_30,murI,murI,1,1,266,266,flye
MRSA_r10.3_SUP_30,fib,fib,1,1,165,165,flye
MRSA_r10.3_SUP_30,scn_2,scn_2,1,1,116,116,flye
MRSA_r10.3_SUP_30,hly_1,hly_1,1,1,206,206,flye
MRSA_r10.3_SUP_30,hly_2,hly_2,1,1,112,112,flye
MRSA_r10.3_SUP_30,argF,argF,1,1,333,333,flye
MRSA_r10.3_SUP_30,arcC1,arcC1,1,1,311,311,flye
MRSA_r10.3_SUP_30,yfnB,yfnB,1,1,228,228,flye
MRSA_r10.3_SUP_30,bshC,bshC,1,1,537,537,flye
MRSA_r10.3_SUP_30,mraZ,mraZ,1,1,143,143,flye
MRSA_r10.3_SUP_30,rsmH_1,rsmH_2,0,1,311,311,flye
MRSA_r10.3_SUP_30,ftsL,ftsL,1,1,133,133,flye
MRSA_r10.3_SUP_30,pbpB,pbpB,1,1,744,744,flye
MRSA_r10.3_SUP_30,mraY,mraY,1,1,321,321,flye
MRSA_r10.3_SUP_30,murD,murD,1,1,449,449,flye
MRSA_r10.3_SUP_30,divIB,divIB,1,1,439,439,flye
MRSA_r10.3_SUP_30,ftsA,ftsA,1,1,468,468,flye
MRSA_r10.3_SUP_30,ftsZ,ftsZ,1,1,390,390,flye
MRSA_r10.3_SUP_30,yggS,yggS,1,1,222,222,flye
MRSA_r10.3_SUP_30,sepF,sepF,1,1,187,187,flye
MRSA_r10.3_SUP_30,divIVA,divIVA,1,1,198,198,flye
MRSA_r10.3_SUP_30,ileS,ileS,1,1,917,917,flye
MRSA_r10.3_SUP_30,catE_1,catE_2,0,1,265,265,flye
MRSA_r10.3_SUP_30,lspA,lspA,1,1,163,163,flye
MRSA_r10.3_SUP_30,rluD_1,rluD_2,0,1,305,305,flye
MRSA_r10.3_SUP_30,pyrR,pyrR,1,1,175,175,flye
MRSA_r10.3_SUP_30,pyrP,pyrP,1,1,435,435,flye
MRSA_r10.3_SUP_30,pyrB,pyrB,1,1,293,293,flye
MRSA_r10.3_SUP_30,pyrC,pyrC,1,1,425,425,flye
MRSA_r10.3_SUP_30,carA_2,carA_2,1,1,366,366,flye
MRSA_r10.3_SUP_30,carB,carB,1,1,1057,1057,flye
MRSA_r10.3_SUP_30,pyrF,pyrF,1,1,230,230,flye
MRSA_r10.3_SUP_30,pyrE,pyrE,1,1,203,203,flye
MRSA_r10.3_SUP_30,rqcH,rqcH,1,1,565,565,flye
MRSA_r10.3_SUP_30,gmk,gmk,1,1,207,207,flye
MRSA_r10.3_SUP_30,rpoZ,rpoZ,1,1,72,72,flye
MRSA_r10.3_SUP_30,coaBC,coaBC,1,1,399,399,flye
MRSA_r10.3_SUP_30,priA,priA,1,1,802,802,flye
MRSA_r10.3_SUP_30,def1,def1,1,1,162,162,flye
MRSA_r10.3_SUP_30,fmt,fmt,1,1,311,311,flye
MRSA_r10.3_SUP_30,rsmB,rsmB,1,1,435,435,flye
MRSA_r10.3_SUP_30,rlmN,rlmN,1,1,364,364,flye
MRSA_r10.3_SUP_30,stp,stp,1,1,247,247,flye
MRSA_r10.3_SUP_30,prkC,prkC,1,1,664,664,flye
MRSA_r10.3_SUP_30,rsgA,rsgA,1,1,291,291,flye
MRSA_r10.3_SUP_30,rpe,rpe,1,1,214,214,flye
MRSA_r10.3_SUP_30,thiN,thiN,1,1,213,213,flye
MRSA_r10.3_SUP_30,rpmB,rpmB,1,1,62,62,flye
MRSA_r10.3_SUP_30,recG,recG,1,1,686,686,flye
MRSA_r10.3_SUP_30,fapR,fapR,1,1,185,185,flye
MRSA_r10.3_SUP_30,plsX,plsX,1,1,328,328,flye
MRSA_r10.3_SUP_30,fabD,fabD,1,1,308,308,flye
MRSA_r10.3_SUP_30,fabG,fabG,1,1,244,244,flye
MRSA_r10.3_SUP_30,acpP,acpP,1,1,77,77,flye
MRSA_r10.3_SUP_30,rnc,rnc,1,1,243,243,flye
MRSA_r10.3_SUP_30,smc_1,smc_1,1,1,1188,1188,flye
MRSA_r10.3_SUP_30,ftsY,ftsY,1,1,416,416,flye
MRSA_r10.3_SUP_30,ffh,ffh,1,1,455,455,flye
MRSA_r10.3_SUP_30,rpsP,rpsP,1,1,91,91,flye
MRSA_r10.3_SUP_30,rimM,rimM,1,1,167,167,flye
MRSA_r10.3_SUP_30,trmD,trmD,1,1,245,245,flye
MRSA_r10.3_SUP_30,rplS,rplS,1,1,116,116,flye
MRSA_r10.3_SUP_30,rbgA,rbgA,1,1,294,294,flye
MRSA_r10.3_SUP_30,rnhB,rnhB,1,1,255,255,flye
MRSA_r10.3_SUP_30,sucC,sucC,1,1,388,388,flye
MRSA_r10.3_SUP_30,sucD,sucD,1,1,302,302,flye
MRSA_r10.3_SUP_30,lytN,lytN,1,1,372,372,flye
MRSA_r10.3_SUP_30,femA_1,femA_2,0,1,414,414,flye
MRSA_r10.3_SUP_30,topA,topA,1,1,691,691,flye
MRSA_r10.3_SUP_30,trmFO,trmFO,1,1,435,435,flye
MRSA_r10.3_SUP_30,xerC_4,xerC_7,0,1,298,298,flye
MRSA_r10.3_SUP_30,hslV,hslV,1,1,181,181,flye
MRSA_r10.3_SUP_30,hslU,hslU,1,1,467,467,flye
MRSA_r10.3_SUP_30,codY,codY,1,1,257,257,flye
MRSA_r10.3_SUP_30,rpsB,rpsB,1,1,255,255,flye
MRSA_r10.3_SUP_30,tsf,tsf,1,1,293,293,flye
MRSA_r10.3_SUP_30,pyrH,pyrH,1,1,240,240,flye
MRSA_r10.3_SUP_30,frr,frr,1,1,184,184,flye
MRSA_r10.3_SUP_30,uppS,uppS,1,1,256,256,flye
MRSA_r10.3_SUP_30,proS,proS,1,1,567,567,flye
MRSA_r10.3_SUP_30,polC,polC,1,1,1438,1438,flye
MRSA_r10.3_SUP_30,rimP,rimP,1,1,155,155,flye
MRSA_r10.3_SUP_30,nusA,,0,0,391,0,flye
MRSA_r10.3_SUP_30,rplGA,rplGA,1,1,105,105,flye
MRSA_r10.3_SUP_30,infB_1,infB_1,1,1,705,705,flye
MRSA_r10.3_SUP_30,rbfA,rbfA,1,1,116,116,flye
MRSA_r10.3_SUP_30,truB,truB,1,1,305,305,flye
MRSA_r10.3_SUP_30,ribF,,0,0,323,0,flye
MRSA_r10.3_SUP_30,rpsO,rpsO,1,1,89,89,flye
MRSA_r10.3_SUP_30,pnp_2,,0,0,698,0,flye
MRSA_r10.3_SUP_30,rnj2,rnj2,1,1,557,557,flye
MRSA_r10.3_SUP_30,ftsK,ftsK,1,1,789,789,flye
MRSA_r10.3_SUP_30,gamR,gamR,1,1,237,237,flye
MRSA_r10.3_SUP_30,phaB,phaB,1,1,234,234,flye
MRSA_r10.3_SUP_30,pgsA,pgsA,1,1,192,192,flye
MRSA_r10.3_SUP_30,cinA,cinA,1,1,383,383,flye
MRSA_r10.3_SUP_30,recA,recA,1,1,347,347,flye
MRSA_r10.3_SUP_30,rny,rny,1,1,519,519,flye
MRSA_r10.3_SUP_30,ymdB,ymdB,1,1,265,265,flye
MRSA_r10.3_SUP_30,miaB,miaB,1,1,514,514,flye
MRSA_r10.3_SUP_30,ymcA,ymcA,1,1,121,121,flye
MRSA_r10.3_SUP_30,mutS_1,mutS_2,0,1,872,872,flye
MRSA_r10.3_SUP_30,mutL,mutL,1,1,669,669,flye
MRSA_r10.3_SUP_30,glpP,glpP,1,1,177,177,flye
MRSA_r10.3_SUP_30,glpF,glpF,1,1,272,272,flye
MRSA_r10.3_SUP_30,glpK,glpK,1,1,498,498,flye
MRSA_r10.3_SUP_30,glpD,glpD,1,1,557,557,flye
MRSA_r10.3_SUP_30,miaA,miaA,1,1,311,311,flye
MRSA_r10.3_SUP_30,hfq,hfq,1,1,77,77,flye
MRSA_r10.3_SUP_30,bsaA_1,bsaA_2,0,1,158,158,flye
MRSA_r10.3_SUP_30,hflX,hflX,1,1,412,412,flye
MRSA_r10.3_SUP_30,glnR,glnR,1,1,122,122,flye
MRSA_r10.3_SUP_30,glnA,glnA,1,1,446,446,flye
MRSA_r10.3_SUP_30,infB_2,infB_2,1,1,615,615,flye
MRSA_r10.3_SUP_30,ltaE,ltaE,1,1,341,341,flye
MRSA_r10.3_SUP_30,cls_1,cls_2,0,1,493,493,flye
MRSA_r10.3_SUP_30,btuD_3,btuD_4,0,1,299,299,flye
MRSA_r10.3_SUP_30,desR,desR,1,1,168,168,flye
MRSA_r10.3_SUP_30,nucH,nucH,1,1,177,177,flye
MRSA_r10.3_SUP_30,yclM,yclM,1,1,460,460,flye
MRSA_r10.3_SUP_30,thrC,thrC,1,1,353,353,flye
MRSA_r10.3_SUP_30,thrB,thrB,1,1,304,304,flye
MRSA_r10.3_SUP_30,lysP_1,lysP_2,0,1,484,484,flye
MRSA_r10.3_SUP_30,katA,katA,1,1,505,505,flye
MRSA_r10.3_SUP_30,rpmG2_1,rpmG2_1,1,1,49,49,flye
MRSA_r10.3_SUP_30,rpsN2,rpsN2,1,1,89,89,flye
MRSA_r10.3_SUP_30,guaC,guaC,1,1,325,325,flye
MRSA_r10.3_SUP_30,lexA_1,lexA_2,0,1,207,207,flye
MRSA_r10.3_SUP_30,tkt,tkt,1,1,662,662,flye
MRSA_r10.3_SUP_30,sbcD,,0,0,373,0,flye
MRSA_r10.3_SUP_30,sbcC,sbcC,1,1,1009,1009,flye
MRSA_r10.3_SUP_30,mscL,mscL,1,1,120,120,flye
MRSA_r10.3_SUP_30,opuD_1,opuD_3,0,1,548,548,flye
MRSA_r10.3_SUP_30,acnA,acnA,1,1,901,901,flye
MRSA_r10.3_SUP_30,plsY,plsY,1,1,202,202,flye
MRSA_r10.3_SUP_30,parE,parE,1,1,663,663,flye
MRSA_r10.3_SUP_30,parC,parC,1,1,800,800,flye
MRSA_r10.3_SUP_30,alsT,alsT,1,1,486,486,flye
MRSA_r10.3_SUP_30,glcT,glcT,1,1,283,283,flye
MRSA_r10.3_SUP_30,mprF,mprF,1,1,840,840,flye
MRSA_r10.3_SUP_30,msrA1,msrA1,1,1,169,169,flye
MRSA_r10.3_SUP_30,msrR,msrR,1,1,327,327,flye
MRSA_r10.3_SUP_30,umuC,umuC,1,1,420,420,flye
MRSA_r10.3_SUP_30,ysdC_1,ysdC_2,0,1,343,343,flye
MRSA_r10.3_SUP_30,trpE,trpE,1,1,468,468,flye
MRSA_r10.3_SUP_30,trpG_2,trpG_2,1,1,188,188,flye
MRSA_r10.3_SUP_30,trpD2,trpD2,1,1,257,257,flye
MRSA_r10.3_SUP_30,trpC,trpC,1,1,260,260,flye
MRSA_r10.3_SUP_30,trpF,trpF,1,1,211,211,flye
MRSA_r10.3_SUP_30,trpB,trpB,1,1,404,404,flye
MRSA_r10.3_SUP_30,trpA,trpA,1,1,242,242,flye
MRSA_r10.3_SUP_30,femA_2,femA_3,0,1,420,420,flye
MRSA_r10.3_SUP_30,femB,femB,1,1,419,419,flye
MRSA_r10.3_SUP_30,nikE,nikE,1,1,233,233,flye
MRSA_r10.3_SUP_30,nikD,nikD,1,1,257,257,flye
MRSA_r10.3_SUP_30,nikC,nikC,1,1,276,276,flye
MRSA_r10.3_SUP_30,nikB,nikB,1,1,328,328,flye
MRSA_r10.3_SUP_30,pepF1_2,pepF1_2,1,1,604,604,flye
MRSA_r10.3_SUP_30,phoU,phoU,1,1,213,213,flye
MRSA_r10.3_SUP_30,pstB3,pstB3,1,1,283,283,flye
MRSA_r10.3_SUP_30,pstA,pstA,1,1,305,305,flye
MRSA_r10.3_SUP_30,pstS,pstS,1,1,327,327,flye
MRSA_r10.3_SUP_30,cvfB,cvfB,1,1,300,300,flye
MRSA_r10.3_SUP_30,ybiT,ybiT,1,1,533,533,flye
MRSA_r10.3_SUP_30,lysC,lysC,1,1,401,401,flye
MRSA_r10.3_SUP_30,asd,asd,1,1,329,329,flye
MRSA_r10.3_SUP_30,dapA,dapA,1,1,295,295,flye
MRSA_r10.3_SUP_30,dapB,dapB,1,1,240,240,flye
MRSA_r10.3_SUP_30,dapH_2,dapH_2,1,1,239,239,flye
MRSA_r10.3_SUP_30,scmP_3,scmP_4,0,1,383,383,flye
MRSA_r10.3_SUP_30,alr1_1,alr1_2,0,1,361,361,flye
MRSA_r10.3_SUP_30,lysA,lysA,1,1,421,421,flye
MRSA_r10.3_SUP_30,cspA_2,cspA_2,1,1,66,66,flye
MRSA_r10.3_SUP_30,yccX,yccX,1,1,89,89,flye
MRSA_r10.3_SUP_30,brnQ_3,brnQ_3,1,1,447,447,flye
MRSA_r10.3_SUP_30,nirQ,nirQ,1,1,263,263,flye
MRSA_r10.3_SUP_30,mhqA_2,mhqA_3,0,1,269,269,flye
MRSA_r10.3_SUP_30,odhB,odhB,1,1,423,423,flye
MRSA_r10.3_SUP_30,odhA,odhA,1,1,932,932,flye
MRSA_r10.3_SUP_30,arlS,arlS,1,1,451,451,flye
MRSA_r10.3_SUP_30,arlR,arlR,1,1,219,219,flye
MRSA_r10.3_SUP_30,murG,murG,1,1,356,356,flye
MRSA_r10.3_SUP_30,crr,crr,1,1,166,166,flye
MRSA_r10.3_SUP_30,msrB,msrB,1,1,142,142,flye
MRSA_r10.3_SUP_30,msrA2,msrA2,1,1,177,177,flye
MRSA_r10.3_SUP_30,folA,folA,1,1,159,159,flye
MRSA_r10.3_SUP_30,thyA,thyA,1,1,318,318,flye
MRSA_r10.3_SUP_30,rnhA,rnhA,1,1,133,133,flye
MRSA_r10.3_SUP_30,ebh,ebh,1,1,10746,10746,flye
MRSA_r10.3_SUP_30,norB_3,norB_4,0,1,463,463,flye
MRSA_r10.3_SUP_30,steT,steT,1,1,440,440,flye
MRSA_r10.3_SUP_30,tdcB,tdcB,1,1,346,346,flye
MRSA_r10.3_SUP_30,ald1,ald1,1,1,372,372,flye
MRSA_r10.3_SUP_30,ypcP,ypcP,1,1,292,292,flye
MRSA_r10.3_SUP_30,der_1,der_1,1,1,1146,1146,flye
MRSA_r10.3_SUP_30,rlmL,rlmL,1,1,381,381,flye
MRSA_r10.3_SUP_30,gpsB,gpsB,1,1,114,114,flye
MRSA_r10.3_SUP_30,recU,recU,1,1,208,208,flye
MRSA_r10.3_SUP_30,ponA,ponA,1,1,716,716,flye
MRSA_r10.3_SUP_30,nth_2,nth_2,1,1,219,219,flye
MRSA_r10.3_SUP_30,dnaD,dnaD,1,1,228,228,flye
MRSA_r10.3_SUP_30,asnS,asnS,1,1,430,430,flye
MRSA_r10.3_SUP_30,dinG_1,dinG_2,0,1,897,897,flye
MRSA_r10.3_SUP_30,birA,birA,1,1,323,323,flye
MRSA_r10.3_SUP_30,cca,cca,1,1,400,400,flye
MRSA_r10.3_SUP_30,bshA,bshA,1,1,380,380,flye
MRSA_r10.3_SUP_30,ypjD,ypjD,1,1,105,105,flye
MRSA_r10.3_SUP_30,bepA,bepA,1,1,414,414,flye
MRSA_r10.3_SUP_30,aroA_1,aroA_2,0,1,432,432,flye
MRSA_r10.3_SUP_30,aroB,aroB,1,1,354,354,flye
MRSA_r10.3_SUP_30,aroC,,0,0,388,0,flye
MRSA_r10.3_SUP_30,ndk,ndk,1,1,149,149,flye
MRSA_r10.3_SUP_30,hepT,hepT,1,1,319,319,flye
MRSA_r10.3_SUP_30,menG,menG,1,1,241,241,flye
MRSA_r10.3_SUP_30,hup,hup,1,1,90,90,flye
MRSA_r10.3_SUP_30,gpsA,gpsA,1,1,332,332,flye
MRSA_r10.3_SUP_30,der_2,der_2,1,1,436,436,flye
MRSA_r10.3_SUP_30,rpsA,rpsA,1,1,391,391,flye
MRSA_r10.3_SUP_30,cmk,cmk,1,1,219,219,flye
MRSA_r10.3_SUP_30,ansA,ansA,1,1,322,322,flye
MRSA_r10.3_SUP_30,ebpS,ebpS,1,1,486,486,flye
MRSA_r10.3_SUP_30,recQ_2,recQ_2,1,1,459,459,flye
MRSA_r10.3_SUP_30,ribU,ribU,1,1,181,181,flye
MRSA_r10.3_SUP_30,smc_2,,0,0,2066,0,flye
MRSA_r10.3_SUP_30,clpP_2,,0,0,257,0,flye
MRSA_r10.3_SUP_30,xerC_5,xerC_8,0,1,401,401,flye
MRSA_r10.3_SUP_30,srrB,,0,0,583,0,flye
MRSA_r10.3_SUP_30,srrA,srrA,1,1,241,241,flye
MRSA_r10.3_SUP_30,rluB,rluB,1,1,245,245,flye
MRSA_r10.3_SUP_30,scpB,scpB,1,1,180,180,flye
MRSA_r10.3_SUP_30,scpA,scpA,1,1,251,251,flye
MRSA_r10.3_SUP_30,xerD_2,xerD_2,1,1,295,295,flye
MRSA_r10.3_SUP_30,fur,fur,1,1,149,149,flye
MRSA_r10.3_SUP_30,nudF,nudF,1,1,180,180,flye
MRSA_r10.3_SUP_30,yajO,yajO,1,1,302,302,flye
MRSA_r10.3_SUP_30,proC,proC,1,1,271,271,flye
MRSA_r10.3_SUP_30,rnz,rnz,1,1,306,306,flye
MRSA_r10.3_SUP_30,zwf,zwf,1,1,494,494,flye
MRSA_r10.3_SUP_30,malL,malL,1,1,549,549,flye
MRSA_r10.3_SUP_30,malR,malR,1,1,339,339,flye
MRSA_r10.3_SUP_30,psuK,psuK,1,1,299,299,flye
MRSA_r10.3_SUP_30,entS,entS,1,1,369,369,flye
MRSA_r10.3_SUP_30,gnd,gnd,1,1,468,468,flye
MRSA_r10.3_SUP_30,pepT_2,pepT_2,1,1,377,377,flye
MRSA_r10.3_SUP_30,pdhC_2,pdhC_2,1,1,424,424,flye
MRSA_r10.3_SUP_30,bfmBAB,bfmBAB,1,1,327,327,flye
MRSA_r10.3_SUP_30,bfmBAA,bfmBAA,1,1,330,330,flye
MRSA_r10.3_SUP_30,recN,recN,1,1,559,559,flye
MRSA_r10.3_SUP_30,argR_1,argR_2,0,1,150,150,flye
MRSA_r10.3_SUP_30,xseB,xseB,1,1,76,76,flye
MRSA_r10.3_SUP_30,xseA,xseA,1,1,445,445,flye
MRSA_r10.3_SUP_30,nusB,nusB,1,1,129,129,flye
MRSA_r10.3_SUP_30,cfiB,cfiB,1,1,451,451,flye
MRSA_r10.3_SUP_30,accB_1,accB_1,1,1,154,154,flye
MRSA_r10.3_SUP_30,efp,efp,1,1,185,185,flye
MRSA_r10.3_SUP_30,ypdF,ypdF,1,1,353,353,flye
MRSA_r10.3_SUP_30,lipM,lipM,1,1,276,276,flye
MRSA_r10.3_SUP_30,yibN,yibN,1,1,128,128,flye
MRSA_r10.3_SUP_30,gcvPB,gcvPB,1,1,490,490,flye
MRSA_r10.3_SUP_30,gcvPA,gcvPA,1,1,448,448,flye
MRSA_r10.3_SUP_30,gcvT,gcvT,1,1,363,363,flye
MRSA_r10.3_SUP_30,aroK,aroK,1,1,174,174,flye
MRSA_r10.3_SUP_30,comGC,comGC,1,1,103,103,flye
MRSA_r10.3_SUP_30,comGA,comGA,1,1,324,324,flye
MRSA_r10.3_SUP_30,glcK,glcK,1,1,328,328,flye
MRSA_r10.3_SUP_30,gluP,gluP,1,1,487,487,flye
MRSA_r10.3_SUP_30,yqgN,yqgN,1,1,197,197,flye
MRSA_r10.3_SUP_30,rpmG2_2,rpmG2_2,1,1,49,49,flye
MRSA_r10.3_SUP_30,pbpH,pbpH,1,1,691,691,flye
MRSA_r10.3_SUP_30,sodA,sodA,1,1,199,199,flye
MRSA_r10.3_SUP_30,zur,zur,1,1,136,136,flye
MRSA_r10.3_SUP_30,znuB,znuB,1,1,290,290,flye
MRSA_r10.3_SUP_30,btuD_4,btuD_5,0,1,261,261,flye
MRSA_r10.3_SUP_30,nfo,nfo,1,1,296,296,flye
MRSA_r10.3_SUP_30,cshB,cshB,1,1,448,448,flye
MRSA_r10.3_SUP_30,trmK,trmK,1,1,225,225,flye
MRSA_r10.3_SUP_30,sigA,sigA,1,1,368,368,flye
MRSA_r10.3_SUP_30,dnaG,dnaG,1,1,599,599,flye
MRSA_r10.3_SUP_30,yqfL,yqfL,1,1,272,272,flye
MRSA_r10.3_SUP_30,ccpN,ccpN,1,1,179,179,flye
MRSA_r10.3_SUP_30,glyQS,glyQS,1,1,463,463,flye
MRSA_r10.3_SUP_30,recO,recO,1,1,248,248,flye
MRSA_r10.3_SUP_30,era,era,1,1,299,299,flye
MRSA_r10.3_SUP_30,cdd,cdd,1,1,134,134,flye
MRSA_r10.3_SUP_30,dgkA,dgkA,1,1,114,114,flye
MRSA_r10.3_SUP_30,ybeY,ybeY,1,1,155,155,flye
MRSA_r10.3_SUP_30,rpsU,rpsU,1,1,58,58,flye
MRSA_r10.3_SUP_30,mtaB,,0,0,448,0,flye
MRSA_r10.3_SUP_30,rsmE,rsmE,1,1,250,250,flye
MRSA_r10.3_SUP_30,prmA,prmA,1,1,312,312,flye
MRSA_r10.3_SUP_30,dnaJ,dnaJ,1,1,379,379,flye
MRSA_r10.3_SUP_30,dnaK,dnaK,1,1,610,610,flye
MRSA_r10.3_SUP_30,grpE,grpE,1,1,208,208,flye
MRSA_r10.3_SUP_30,hrcA,,0,0,325,0,flye
MRSA_r10.3_SUP_30,hemW,hemW,1,1,385,385,flye
MRSA_r10.3_SUP_30,lepA,lepA,1,1,607,607,flye
MRSA_r10.3_SUP_30,rpsT,rpsT,1,1,83,83,flye
MRSA_r10.3_SUP_30,yqeN,yqeN,1,1,324,324,flye
MRSA_r10.3_SUP_30,comEC,,0,0,733,0,flye
MRSA_r10.3_SUP_30,tadA_2,tadA_2,1,1,143,143,flye
MRSA_r10.3_SUP_30,comEA,comEA,1,1,225,225,flye
MRSA_r10.3_SUP_30,tam,tam,1,1,238,238,flye
MRSA_r10.3_SUP_30,rsfS,rsfS,1,1,117,117,flye
MRSA_r10.3_SUP_30,nadD,nadD,1,1,189,189,flye
MRSA_r10.3_SUP_30,yhbY,yhbY,1,1,96,96,flye
MRSA_r10.3_SUP_30,aroE,aroE,1,1,268,268,flye
MRSA_r10.3_SUP_30,yqeH,yqeH,1,1,366,366,flye
MRSA_r10.3_SUP_30,mtnN,mtnN,1,1,228,228,flye
MRSA_r10.3_SUP_30,entA_1,entA_3,0,1,62,62,flye
MRSA_r10.3_SUP_30,entA_2,entA_4,0,1,167,167,flye
MRSA_r10.3_SUP_30,mntH_2,mntH_2,1,1,410,410,flye
MRSA_r10.3_SUP_30,pxpA,pxpA,1,1,250,250,flye
MRSA_r10.3_SUP_30,accC,accC,1,1,453,453,flye
MRSA_r10.3_SUP_30,accB_2,accB_2,1,1,149,149,flye
MRSA_r10.3_SUP_30,pxpC_2,pxpC_2,1,1,336,336,flye
MRSA_r10.3_SUP_30,pxpB_2,pxpB_2,1,1,244,244,flye
MRSA_r10.3_SUP_30,greA,greA,1,1,158,158,flye
MRSA_r10.3_SUP_30,udk,udk,1,1,207,207,flye
MRSA_r10.3_SUP_30,rlhA,rlhA,1,1,307,307,flye
MRSA_r10.3_SUP_30,trmR,trmR,1,1,212,212,flye
MRSA_r10.3_SUP_30,yrrK,yrrK,1,1,142,142,flye
MRSA_r10.3_SUP_30,alaS,alaS,1,1,877,877,flye
MRSA_r10.3_SUP_30,recD2,recD2,1,1,825,825,flye
MRSA_r10.3_SUP_30,yrrB,yrrB,1,1,222,222,flye
MRSA_r10.3_SUP_30,mnmA,mnmA,1,1,372,372,flye
MRSA_r10.3_SUP_30,iscS_1,iscS_2,0,1,380,380,flye
MRSA_r10.3_SUP_30,cymR,cymR,1,1,140,140,flye
MRSA_r10.3_SUP_30,aspS,aspS,1,1,588,588,flye
MRSA_r10.3_SUP_30,hisS,hisS,1,1,420,420,flye
MRSA_r10.3_SUP_30,dtd,dtd,1,1,150,150,flye
MRSA_r10.3_SUP_30,relA,relA,1,1,736,736,flye
MRSA_r10.3_SUP_30,apt,apt,1,1,172,172,flye
MRSA_r10.3_SUP_30,secDF,secDF,1,1,759,759,flye
MRSA_r10.3_SUP_30,yajC,yajC,1,1,86,86,flye
MRSA_r10.3_SUP_30,tgt,tgt,1,1,379,379,flye
MRSA_r10.3_SUP_30,queA,queA,1,1,341,341,flye
MRSA_r10.3_SUP_30,ruvB_2,ruvB_2,1,1,334,334,flye
MRSA_r10.3_SUP_30,ruvA,ruvA,1,1,200,200,flye
MRSA_r10.3_SUP_30,obg,obg,1,1,430,430,flye
MRSA_r10.3_SUP_30,rpmA,rpmA,1,1,94,94,flye
MRSA_r10.3_SUP_30,rplU,rplU,1,1,102,102,flye
MRSA_r10.3_SUP_30,mreC,mreC,1,1,280,280,flye
MRSA_r10.3_SUP_30,comC,comC,1,1,235,235,flye
MRSA_r10.3_SUP_30,fpgS,fpgS,1,1,423,423,flye
MRSA_r10.3_SUP_30,valS,valS,1,1,876,876,flye
MRSA_r10.3_SUP_30,tag,tag,1,1,186,186,flye
MRSA_r10.3_SUP_30,hemL1,hemL1,1,1,428,428,flye
MRSA_r10.3_SUP_30,hemB,hemB,1,1,324,324,flye
MRSA_r10.3_SUP_30,hemC,hemC,1,1,308,308,flye
MRSA_r10.3_SUP_30,hemA,hemA,1,1,448,448,flye
MRSA_r10.3_SUP_30,engB,engB,1,1,196,196,flye
MRSA_r10.3_SUP_30,clpX,clpX,1,1,420,420,flye
MRSA_r10.3_SUP_30,tig,tig,1,1,433,433,flye
MRSA_r10.3_SUP_30,rplT,rplT,1,1,118,118,flye
MRSA_r10.3_SUP_30,rpmI,rpmI,1,1,66,66,flye
MRSA_r10.3_SUP_30,infC,infC,1,1,186,186,flye
MRSA_r10.3_SUP_30,lysP_2,lysP_1,0,1,497,497,flye
MRSA_r10.3_SUP_30,thrS,thrS,1,1,645,645,flye
MRSA_r10.3_SUP_30,dnaI,dnaI,1,1,306,306,flye
MRSA_r10.3_SUP_30,dnaB,dnaB,1,1,466,466,flye
MRSA_r10.3_SUP_30,nrdR,nrdR,1,1,156,156,flye
MRSA_r10.3_SUP_30,gapA2,gapA2,1,1,341,341,flye
MRSA_r10.3_SUP_30,coaE,coaE,1,1,207,207,flye
MRSA_r10.3_SUP_30,mutM,mutM,1,1,290,290,flye
MRSA_r10.3_SUP_30,polA,polA,1,1,876,876,flye
MRSA_r10.3_SUP_30,sasA,sasA,1,1,554,554,flye
MRSA_r10.3_SUP_30,phoP,phoP,1,1,233,233,flye
MRSA_r10.3_SUP_30,icd,icd,1,1,422,422,flye
MRSA_r10.3_SUP_30,citZ,citZ,1,1,373,373,flye
MRSA_r10.3_SUP_30,cycA_1,cycA_1,1,1,453,453,flye
MRSA_r10.3_SUP_30,pyk,pyk,1,1,585,585,flye
MRSA_r10.3_SUP_30,pfkA,pfkA,1,1,322,322,flye
MRSA_r10.3_SUP_30,accA,accA,1,1,314,314,flye
MRSA_r10.3_SUP_30,accD,accD,1,1,285,285,flye
MRSA_r10.3_SUP_30,dnaE,dnaE,1,1,1065,1065,flye
MRSA_r10.3_SUP_30,nrnA,nrnA,1,1,313,313,flye
MRSA_r10.3_SUP_30,IMPDH,IMPDH,1,1,432,432,flye
MRSA_r10.3_SUP_30,ald2,ald2,1,1,372,372,flye
MRSA_r10.3_SUP_30,ackA,ackA,1,1,400,400,flye
MRSA_r10.3_SUP_30,tpx,tpx,1,1,164,164,flye
MRSA_r10.3_SUP_30,yfcA,yfcA,1,1,256,256,flye
MRSA_r10.3_SUP_30,thiI,thiI,1,1,407,407,flye
MRSA_r10.3_SUP_30,iscS_2,iscS_1,0,1,388,388,flye
MRSA_r10.3_SUP_30,ezrA,ezrA,1,1,564,564,flye
MRSA_r10.3_SUP_30,msrC,msrC,1,1,154,154,flye
MRSA_r10.3_SUP_30,rpsD,rpsD,1,1,200,200,flye
MRSA_r10.3_SUP_30,glpQ_2,glpQ_1,0,1,247,247,flye
MRSA_r10.3_SUP_30,serA,serA,1,1,534,534,flye
MRSA_r10.3_SUP_30,nagP,nagP,1,1,488,488,flye
MRSA_r10.3_SUP_30,plsC,plsC,1,1,205,205,flye
MRSA_r10.3_SUP_30,tyrS,tyrS,1,1,420,420,flye
MRSA_r10.3_SUP_30,mrcA,mrcA,1,1,301,301,flye
MRSA_r10.3_SUP_30,isdH_1,isdH_1,1,1,535,535,flye
MRSA_r10.3_SUP_30,isdH_2,isdH_2,1,1,278,278,flye
MRSA_r10.3_SUP_30,fhs,fhs,1,1,555,555,flye
MRSA_r10.3_SUP_30,acsA_1,acsA_1,1,1,568,568,flye
MRSA_r10.3_SUP_30,acuA,acuA,1,1,210,210,flye
MRSA_r10.3_SUP_30,acuC,acuC,1,1,389,389,flye
MRSA_r10.3_SUP_30,ccpA,ccpA,1,1,329,329,flye
MRSA_r10.3_SUP_30,aroA_2,aroA_1,0,1,363,363,flye
MRSA_r10.3_SUP_30,murC,murC,1,1,437,437,flye
MRSA_r10.3_SUP_30,ytpP,ytpP,1,1,103,103,flye
MRSA_r10.3_SUP_30,pepA_2,pepA_1,0,1,358,358,flye
MRSA_r10.3_SUP_30,ytnP,ytnP,1,1,280,280,flye
MRSA_r10.3_SUP_30,hin_2,hin_1,0,1,197,197,flye
MRSA_r10.3_SUP_30,blaI,blaI,1,1,126,126,flye
MRSA_r10.3_SUP_30,blaR1,blaR1,1,1,585,585,flye
MRSA_r10.3_SUP_30,blaZ,blaZ,1,1,281,281,flye
MRSA_r10.3_SUP_30,trmB,trmB,1,1,214,214,flye
MRSA_r10.3_SUP_30,dat,dat,1,1,282,282,flye
MRSA_r10.3_SUP_30,rsuA,rsuA,1,1,231,231,flye
MRSA_r10.3_SUP_30,murJ,murJ,1,1,553,553,flye
MRSA_r10.3_SUP_30,leuS,leuS,1,1,805,805,flye
MRSA_r10.3_SUP_30,mdtH,mdtH,1,1,393,393,flye
MRSA_r10.3_SUP_30,rsmH_2,rsmH_1,0,1,187,187,flye
MRSA_r10.3_SUP_30,rot,rot,1,1,133,133,flye
MRSA_r10.3_SUP_30,ytpA,ytpA,1,1,275,275,flye
MRSA_r10.3_SUP_30,putB,putB,1,1,333,333,flye
MRSA_r10.3_SUP_30,ribH,ribH,1,1,154,154,flye
MRSA_r10.3_SUP_30,ribBA,ribBA,1,1,393,393,flye
MRSA_r10.3_SUP_30,ribE,ribE,1,1,210,210,flye
MRSA_r10.3_SUP_30,ribD,ribD,1,1,347,347,flye
MRSA_r10.3_SUP_30,arsB_2,arsB_1,0,1,430,430,flye
MRSA_r10.3_SUP_30,atl_2,atl_1,0,1,284,284,flye
MRSA_r10.3_SUP_30,sigS,sigS,1,1,156,156,flye
MRSA_r10.3_SUP_30,tal,tal,1,1,237,237,flye
MRSA_r10.3_SUP_30,crcB_1,crcB_1,1,1,121,121,flye
MRSA_r10.3_SUP_30,crcB_2,crcB_2,1,1,117,117,flye
MRSA_r10.3_SUP_30,yvgN,yvgN,1,1,277,277,flye
MRSA_r10.3_SUP_30,metK,metK,1,1,397,397,flye
MRSA_r10.3_SUP_30,pckA,pckA,1,1,530,530,flye
MRSA_r10.3_SUP_30,ytkD,ytkD,1,1,159,159,flye
MRSA_r10.3_SUP_30,menC,menC,1,1,333,333,flye
MRSA_r10.3_SUP_30,menE_2,menE_1,0,1,492,492,flye
MRSA_r10.3_SUP_30,hylB,hylB,1,1,806,806,flye
MRSA_r10.3_SUP_30,prmC_1,prmC_1,1,1,518,518,flye
MRSA_r10.3_SUP_30,splF_1,splF_1,1,1,183,183,flye
MRSA_r10.3_SUP_30,splF_2,splF_2,1,1,41,41,flye
MRSA_r10.3_SUP_30,splE_1,splE_1,1,1,238,238,flye
MRSA_r10.3_SUP_30,splB_1,splB_1,1,1,74,74,flye
MRSA_r10.3_SUP_30,splE_2,splE_2,1,1,113,113,flye
MRSA_r10.3_SUP_30,splE_3,splE_3,1,1,238,238,flye
MRSA_r10.3_SUP_30,splC,splC,1,1,239,239,flye
MRSA_r10.3_SUP_30,splB_2,splB_2,1,1,54,54,flye
MRSA_r10.3_SUP_30,entG,entG,1,1,258,258,flye
MRSA_r10.3_SUP_30,entA_3,entA_1,0,1,251,251,flye
MRSA_r10.3_SUP_30,entB,entB,1,1,261,261,flye
MRSA_r10.3_SUP_30,entE,entE,1,1,254,254,flye
MRSA_r10.3_SUP_30,ydeN,ydeN,1,1,184,184,flye
MRSA_r10.3_SUP_30,hemY,,0,0,466,0,flye
MRSA_r10.3_SUP_30,hemH,hemH,1,1,307,307,flye
MRSA_r10.3_SUP_30,hemE,hemE,1,1,345,345,flye
MRSA_r10.3_SUP_30,traP,traP,1,1,167,167,flye
MRSA_r10.3_SUP_30,ecsA,ecsA,1,1,246,246,flye
MRSA_r10.3_SUP_30,hit,hit,1,1,140,140,flye
MRSA_r10.3_SUP_30,prsA,prsA,1,1,320,320,flye
MRSA_r10.3_SUP_30,yhaM,yhaM,1,1,313,313,flye
MRSA_r10.3_SUP_30,cpdA_1,cpdA_1,1,1,398,398,flye
MRSA_r10.3_SUP_30,liaR,liaR,1,1,207,207,flye
MRSA_r10.3_SUP_30,rluD_2,,0,0,273,0,flye
MRSA_r10.3_SUP_30,fumC,fumC,1,1,461,461,flye
MRSA_r10.3_SUP_30,nagB_2,nagB_1,0,1,199,199,flye
MRSA_r10.3_SUP_30,trmL,trmL,1,1,156,156,flye
MRSA_r10.3_SUP_30,queG,,0,0,375,0,flye
MRSA_r10.3_SUP_30,tcyC_1,tcyC_1,1,1,242,242,flye
MRSA_r10.3_SUP_30,mltF,mltF,1,1,485,485,flye
MRSA_r10.3_SUP_30,perR,perR,1,1,148,148,flye
MRSA_r10.3_SUP_30,ghrB_2,ghrB_1,0,1,319,319,flye
MRSA_r10.3_SUP_30,bcp,bcp,1,1,151,151,flye
MRSA_r10.3_SUP_30,hemL2,hemL2,1,1,429,429,flye
MRSA_r10.3_SUP_30,mutY,mutY,1,1,345,345,flye
MRSA_r10.3_SUP_30,yfhP,yfhP,1,1,325,325,flye
MRSA_r10.3_SUP_30,tagH_2,,0,0,505,0,flye
MRSA_r10.3_SUP_30,yfhH,yfhH,1,1,104,104,flye
MRSA_r10.3_SUP_30,recX,recX,1,1,272,272,flye
MRSA_r10.3_SUP_30,mgt,mgt,1,1,269,269,flye
MRSA_r10.3_SUP_30,pepS,pepS,1,1,415,415,flye
MRSA_r10.3_SUP_30,ptpA,ptpA,1,1,154,154,flye
MRSA_r10.3_SUP_30,vraR,vraR,1,1,209,209,flye
MRSA_r10.3_SUP_30,vraS,vraS,1,1,347,347,flye
MRSA_r10.3_SUP_30,map_2,map_1,0,1,252,252,flye
MRSA_r10.3_SUP_30,gatD_2,gatD_1,0,1,243,243,flye
MRSA_r10.3_SUP_30,murT,murT,1,1,437,437,flye
MRSA_r10.3_SUP_30,ftnA,ftnA,1,1,166,166,flye
MRSA_r10.3_SUP_30,dinB,dinB,1,1,356,356,flye
MRSA_r10.3_SUP_30,rlmCD,rlmCD,1,1,453,453,flye
MRSA_r10.3_SUP_30,dagK,dagK,1,1,315,315,flye
MRSA_r10.3_SUP_30,gatB_2,gatB_1,0,1,475,475,flye
MRSA_r10.3_SUP_30,gatA_2,gatA_1,0,1,485,485,flye
MRSA_r10.3_SUP_30,gatC_2,gatC_1,0,1,100,100,flye
MRSA_r10.3_SUP_30,putP,putP,1,1,512,512,flye
MRSA_r10.3_SUP_30,ligA,ligA,1,1,667,667,flye
MRSA_r10.3_SUP_30,pcrA,pcrA,1,1,730,730,flye
MRSA_r10.3_SUP_30,pcrB,pcrB,1,1,230,230,flye
MRSA_r10.3_SUP_30,purB,purB,1,1,431,431,flye
MRSA_r10.3_SUP_30,sspP,sspP,1,1,388,388,flye
MRSA_r10.3_SUP_30,nadE,nadE,1,1,273,273,flye
MRSA_r10.3_SUP_30,pncB2,pncB2,1,1,489,489,flye
MRSA_r10.3_SUP_30,nos,nos,1,1,358,358,flye
MRSA_r10.3_SUP_30,pheA,pheA,1,1,264,264,flye
MRSA_r10.3_SUP_30,sdcS,sdcS,1,1,520,520,flye
MRSA_r10.3_SUP_30,rutB,rutB,1,1,186,186,flye
MRSA_r10.3_SUP_30,ppaC,ppaC,1,1,309,309,flye
MRSA_r10.3_SUP_30,aldH1,aldH1,1,1,459,459,flye
MRSA_r10.3_SUP_30,bcrA_1,bcrA_1,1,1,290,290,flye
MRSA_r10.3_SUP_30,btuD_5,,0,0,298,0,flye
MRSA_r10.3_SUP_30,ytrA,ytrA,1,1,126,126,flye
MRSA_r10.3_SUP_30,hisC_2,hisC_1,0,1,428,428,flye
MRSA_r10.3_SUP_30,map_3,map_2,0,1,689,689,flye
MRSA_r10.3_SUP_30,hlb_1,hlb_1,1,1,66,66,flye
MRSA_r10.3_SUP_30,scn_3,scn_1,0,1,116,116,flye
MRSA_r10.3_SUP_30,chp,chp,1,1,149,149,flye
MRSA_r10.3_SUP_30,sak,sak,1,1,163,163,flye
MRSA_r10.3_SUP_30,entA_4,entA_2,0,1,257,257,flye
MRSA_r10.3_SUP_30,clpP_3,clpP_1,0,1,245,245,flye
MRSA_r10.3_SUP_30,dut,dut,1,1,180,180,flye
MRSA_r10.3_SUP_30,ssbA_2,ssbA_1,0,1,156,156,flye
MRSA_r10.3_SUP_30,lexA_2,lexA_1,0,1,237,237,flye
MRSA_r10.3_SUP_30,dinG_2,dinG_1,0,1,310,310,flye
MRSA_r10.3_SUP_30,xerC_8,xerC_3,0,1,345,345,flye
MRSA_r10.3_SUP_30,hlb_2,hlb_2,1,1,231,231,flye
MRSA_r10.3_SUP_30,dapE,dapE,1,1,407,407,flye
MRSA_r10.3_SUP_30,ktrB_2,,0,0,435,0,flye
MRSA_r10.3_SUP_30,groL,groL,1,1,538,538,flye
MRSA_r10.3_SUP_30,groS,groS,1,1,94,94,flye
MRSA_r10.3_SUP_30,MroQ,MroQ,1,1,247,247,flye
MRSA_r10.3_SUP_30,yafV,yafV,1,1,261,261,flye
MRSA_r10.3_SUP_30,agrB,agrB,1,1,205,205,flye
MRSA_r10.3_SUP_30,agrA,agrA,1,1,238,238,flye
MRSA_r10.3_SUP_30,scrK,scrK,1,1,319,319,flye
MRSA_r10.3_SUP_30,scrB,scrB,1,1,497,497,flye
MRSA_r10.3_SUP_30,treR_2,treR_1,0,1,316,316,flye
MRSA_r10.3_SUP_30,nrgA,nrgA,1,1,416,416,flye
MRSA_r10.3_SUP_30,yeeD,yeeD,1,1,74,74,flye
MRSA_r10.3_SUP_30,rex,rex,1,1,211,211,flye
MRSA_r10.3_SUP_30,yheS,,0,0,642,0,flye
MRSA_r10.3_SUP_30,mutS_2,mutS_1,0,1,536,536,flye
MRSA_r10.3_SUP_30,tsaD,tsaD,1,1,341,341,flye
MRSA_r10.3_SUP_30,rimI,rimI,1,1,154,154,flye
MRSA_r10.3_SUP_30,tsaB,tsaB,1,1,220,220,flye
MRSA_r10.3_SUP_30,tsaE,tsaE,1,1,164,164,flye
MRSA_r10.3_SUP_30,ilvD,ilvD,1,1,562,562,flye
MRSA_r10.3_SUP_30,ilvB,ilvB,1,1,589,589,flye
MRSA_r10.3_SUP_30,ilvC,ilvC,1,1,334,334,flye
MRSA_r10.3_SUP_30,leuA_2,leuA_1,0,1,509,509,flye
MRSA_r10.3_SUP_30,leuB,leuB,1,1,348,348,flye
MRSA_r10.3_SUP_30,leuC,leuC,1,1,455,455,flye
MRSA_r10.3_SUP_30,leuD,leuD,1,1,190,190,flye
MRSA_r10.3_SUP_30,ilvA,ilvA,1,1,422,422,flye
MRSA_r10.3_SUP_30,yhgF,yhgF,1,1,712,712,flye
MRSA_r10.3_SUP_30,sigB,sigB,1,1,256,256,flye
MRSA_r10.3_SUP_30,rsbW,rsbW,1,1,159,159,flye
MRSA_r10.3_SUP_30,rsbV,rsbV,1,1,108,108,flye
MRSA_r10.3_SUP_30,rsbU,rsbU,1,1,333,333,flye
MRSA_r10.3_SUP_30,mazF,mazF,1,1,120,120,flye
MRSA_r10.3_SUP_30,mazE,mazE,1,1,56,56,flye
MRSA_r10.3_SUP_30,alr1_2,alr1_1,0,1,382,382,flye
MRSA_r10.3_SUP_30,acpS,acpS,1,1,119,119,flye
MRSA_r10.3_SUP_30,kdpC_3,kdpC_1,0,1,186,186,flye
MRSA_r10.3_SUP_30,kdpB_2,kdpB_1,0,1,675,675,flye
MRSA_r10.3_SUP_30,kdpA_2,kdpA_1,0,1,558,558,flye
MRSA_r10.3_SUP_30,kdpD_2,kdpD_1,0,1,885,885,flye
MRSA_r10.3_SUP_30,kdpE_2,kdpE_1,0,1,231,231,flye
MRSA_r10.3_SUP_30,cshA,cshA,1,1,506,506,flye
MRSA_r10.3_SUP_30,murF,murF,1,1,452,452,flye
MRSA_r10.3_SUP_30,ddl,ddl,1,1,356,356,flye
MRSA_r10.3_SUP_30,rodA,rodA,1,1,400,400,flye
MRSA_r10.3_SUP_30,cls_2,cls_1,0,1,494,494,flye
MRSA_r10.3_SUP_30,yedJ,yedJ,1,1,215,215,flye
MRSA_r10.3_SUP_30,yidC,yidC,1,1,290,290,flye
MRSA_r10.3_SUP_30,thiE,thiE,1,1,213,213,flye
MRSA_r10.3_SUP_30,thiM,thiM,1,1,263,263,flye
MRSA_r10.3_SUP_30,thiD,thiD,1,1,276,276,flye
MRSA_r10.3_SUP_30,tenA,tenA,1,1,229,229,flye
MRSA_r10.3_SUP_30,sceD,sceD,1,1,231,231,flye
MRSA_r10.3_SUP_30,ssbA_3,ssbA_2,0,1,131,131,flye
MRSA_r10.3_SUP_30,fabZ,fabZ,1,1,146,146,flye
MRSA_r10.3_SUP_30,murA1,murA1,1,1,421,421,flye
MRSA_r10.3_SUP_30,atpC,atpC,1,1,134,134,flye
MRSA_r10.3_SUP_30,atpD,atpD,1,1,470,470,flye
MRSA_r10.3_SUP_30,atpG,atpG,1,1,288,288,flye
MRSA_r10.3_SUP_30,atpA,atpA,1,1,502,502,flye
MRSA_r10.3_SUP_30,atpH,atpH,1,1,179,179,flye
MRSA_r10.3_SUP_30,atpF,atpF,1,1,173,173,flye
MRSA_r10.3_SUP_30,atpE,atpE,1,1,70,70,flye
MRSA_r10.3_SUP_30,atpB,atpB,1,1,242,242,flye
MRSA_r10.3_SUP_30,mnaA_2,mnaA_1,0,1,376,376,flye
MRSA_r10.3_SUP_30,upp,upp,1,1,209,209,flye
MRSA_r10.3_SUP_30,glyA,glyA,1,1,412,412,flye
MRSA_r10.3_SUP_30,ptpB,ptpB,1,1,139,139,flye
MRSA_r10.3_SUP_30,ywlC,ywlC,1,1,348,348,flye
MRSA_r10.3_SUP_30,prmC_2,prmC_2,1,1,278,278,flye
MRSA_r10.3_SUP_30,prfA,prfA,1,1,358,358,flye
MRSA_r10.3_SUP_30,tdk,tdk,1,1,199,199,flye
MRSA_r10.3_SUP_30,rpmE2,rpmE2,1,1,84,84,flye
MRSA_r10.3_SUP_30,rho,rho,1,1,438,438,flye
MRSA_r10.3_SUP_30,yodB,yodB,1,1,111,111,flye
MRSA_r10.3_SUP_30,murA2,murA2,1,1,419,419,flye
MRSA_r10.3_SUP_30,fba,fba,1,1,286,286,flye
MRSA_r10.3_SUP_30,pyrG,pyrG,1,1,536,536,flye
MRSA_r10.3_SUP_30,rpoE,rpoE,1,1,176,176,flye
MRSA_r10.3_SUP_30,coaW,coaW,1,1,267,267,flye
MRSA_r10.3_SUP_30,abgB,abgB,1,1,394,394,flye
MRSA_r10.3_SUP_30,luxS,luxS,1,1,156,156,flye
MRSA_r10.3_SUP_30,pdp,pdp,1,1,433,433,flye
MRSA_r10.3_SUP_30,deoC2,deoC2,1,1,220,220,flye
MRSA_r10.3_SUP_30,deoD1,deoD1,1,1,236,236,flye
MRSA_r10.3_SUP_30,dps,dps,1,1,147,147,flye
MRSA_r10.3_SUP_30,gmuF,gmuF,1,1,312,312,flye
MRSA_r10.3_SUP_30,yhfK,yhfK,1,1,221,221,flye
MRSA_r10.3_SUP_30,czrA,czrA,1,1,106,106,flye
MRSA_r10.3_SUP_30,czcD_2,czcD_1,0,1,326,326,flye
MRSA_r10.3_SUP_30,ywtE_2,ywtE_1,0,1,285,285,flye
MRSA_r10.3_SUP_30,ylmA,ylmA,1,1,260,260,flye
MRSA_r10.3_SUP_30,glmS,glmS,1,1,601,601,flye
MRSA_r10.3_SUP_30,mtlA,,0,0,512,0,flye
MRSA_r10.3_SUP_30,mtlF,mtlF,1,1,144,144,flye
MRSA_r10.3_SUP_30,mtlD,mtlD,1,1,368,368,flye
MRSA_r10.3_SUP_30,glmM,glmM,1,1,451,451,flye
MRSA_r10.3_SUP_30,cdaR,cdaR,1,1,310,310,flye
MRSA_r10.3_SUP_30,cdaA,cdaA,1,1,269,269,flye
MRSA_r10.3_SUP_30,arg,arg,1,1,302,302,flye
MRSA_r10.3_SUP_30,salA,salA,1,1,354,354,flye
MRSA_r10.3_SUP_30,emrY,emrY,1,1,362,362,flye
MRSA_r10.3_SUP_30,ribZ,ribZ,1,1,131,131,flye
MRSA_r10.3_SUP_30,sepA,sepA,1,1,155,155,flye
MRSA_r10.3_SUP_30,sdrM,sdrM,1,1,447,447,flye
MRSA_r10.3_SUP_30,ydjM,ydjM,1,1,171,171,flye
MRSA_r10.3_SUP_30,fecD,fecD,1,1,322,322,flye
MRSA_r10.3_SUP_30,yfiZ_2,yfiZ_1,0,1,343,343,flye
MRSA_r10.3_SUP_30,yfmC_2,yfmC_1,0,1,327,327,flye
MRSA_r10.3_SUP_30,orr,orr,1,1,356,356,flye
MRSA_r10.3_SUP_30,opuD_2,opuD_1,0,1,520,520,flye
MRSA_r10.3_SUP_30,yfmJ,yfmJ,1,1,334,334,flye
MRSA_r10.3_SUP_30,lacG,lacG,1,1,470,470,flye
MRSA_r10.3_SUP_30,lacE,lacE,1,1,570,570,flye
MRSA_r10.3_SUP_30,lacF,lacF,1,1,103,103,flye
MRSA_r10.3_SUP_30,lacD,lacD,1,1,326,326,flye
MRSA_r10.3_SUP_30,lacC_2,lacC_1,0,1,310,310,flye
MRSA_r10.3_SUP_30,lacB,lacB,1,1,171,171,flye
MRSA_r10.3_SUP_30,lacA,lacA,1,1,142,142,flye
MRSA_r10.3_SUP_30,lacR,lacR,1,1,251,251,flye
MRSA_r10.3_SUP_30,cobB,,0,0,246,0,flye
MRSA_r10.3_SUP_30,adhR,adhR,1,1,138,138,flye
MRSA_r10.3_SUP_30,map_4,map_3,0,1,141,141,flye
MRSA_r10.3_SUP_30,aldC_1,aldC_1,1,1,234,234,flye
MRSA_r10.3_SUP_30,alsS,alsS,1,1,554,554,flye
MRSA_r10.3_SUP_30,rpsI,rpsI,1,1,132,132,flye
MRSA_r10.3_SUP_30,rplM,rplM,1,1,145,145,flye
MRSA_r10.3_SUP_30,truA,truA,1,1,264,264,flye
MRSA_r10.3_SUP_30,ecfT_2,ecfT_1,0,1,268,268,flye
MRSA_r10.3_SUP_30,ecfA2,ecfA2,1,1,286,286,flye
MRSA_r10.3_SUP_30,ecfA1,ecfA1_1,0,1,269,269,flye
MRSA_r10.3_SUP_30,rplQ,rplQ,1,1,122,122,flye
MRSA_r10.3_SUP_30,rpoA,rpoA,1,1,314,314,flye
MRSA_r10.3_SUP_30,rpsK,rpsK,1,1,129,129,flye
MRSA_r10.3_SUP_30,rpsM,rpsM,1,1,121,121,flye
MRSA_r10.3_SUP_30,rpmJ,rpmJ,1,1,37,37,flye
MRSA_r10.3_SUP_30,infA,infA,1,1,72,72,flye
MRSA_r10.3_SUP_30,adk,adk,1,1,215,215,flye
MRSA_r10.3_SUP_30,secY_1,secY_1,1,1,430,430,flye
MRSA_r10.3_SUP_30,rplO,rplO,1,1,146,146,flye
MRSA_r10.3_SUP_30,rpmD,rpmD,1,1,59,59,flye
MRSA_r10.3_SUP_30,rpsE,rpsE,1,1,166,166,flye
MRSA_r10.3_SUP_30,rplR,rplR,1,1,119,119,flye
MRSA_r10.3_SUP_30,rplF,rplF,1,1,178,178,flye
MRSA_r10.3_SUP_30,rpsH,rpsH,1,1,132,132,flye
MRSA_r10.3_SUP_30,rpsZ,rpsZ,1,1,61,61,flye
MRSA_r10.3_SUP_30,rplE,rplE,1,1,179,179,flye
MRSA_r10.3_SUP_30,rplX,rplX,1,1,105,105,flye
MRSA_r10.3_SUP_30,rplN,rplN,1,1,122,122,flye
MRSA_r10.3_SUP_30,rpsQ,rpsQ,1,1,87,87,flye
MRSA_r10.3_SUP_30,rpmC,rpmC,1,1,69,69,flye
MRSA_r10.3_SUP_30,rplP,rplP,1,1,144,144,flye
MRSA_r10.3_SUP_30,rpsC,rpsC,1,1,217,217,flye
MRSA_r10.3_SUP_30,rplV,rplV,1,1,117,117,flye
MRSA_r10.3_SUP_30,rpsS,rpsS,1,1,92,92,flye
MRSA_r10.3_SUP_30,rplB,rplB,1,1,277,277,flye
MRSA_r10.3_SUP_30,rplW,rplW,1,1,91,91,flye
MRSA_r10.3_SUP_30,rplD,rplD,1,1,207,207,flye
MRSA_r10.3_SUP_30,rplC,rplC,1,1,220,220,flye
MRSA_r10.3_SUP_30,rpsJ,rpsJ,1,1,102,102,flye
MRSA_r10.3_SUP_30,pbuG,pbuG,1,1,444,444,flye
MRSA_r10.3_SUP_30,topB,topB,1,1,711,711,flye
MRSA_r10.3_SUP_30,glcU_2,glcU_1,0,1,287,287,flye
MRSA_r10.3_SUP_30,swrC,swrC,1,1,1055,1055,flye
MRSA_r10.3_SUP_30,femX,femX,1,1,421,421,flye
MRSA_r10.3_SUP_30,yfcJ,yfcJ,1,1,403,403,flye
MRSA_r10.3_SUP_30,sarV,sarV,1,1,116,116,flye
MRSA_r10.3_SUP_30,moaA,,0,0,340,0,flye
MRSA_r10.3_SUP_30,mobA,mobA,1,1,199,199,flye
MRSA_r10.3_SUP_30,moaD,moaD,1,1,77,77,flye
MRSA_r10.3_SUP_30,moaE,moaE,1,1,148,148,flye
MRSA_r10.3_SUP_30,moeA,moeA,1,1,419,419,flye
MRSA_r10.3_SUP_30,moaC,moaC,1,1,164,164,flye
MRSA_r10.3_SUP_30,moaB,,0,0,168,0,flye
MRSA_r10.3_SUP_30,cysA,cysA,1,1,201,201,flye
MRSA_r10.3_SUP_30,modB,modB,1,1,223,223,flye
MRSA_r10.3_SUP_30,modA,modA,1,1,260,260,flye
MRSA_r10.3_SUP_30,fdhD,fdhD,1,1,265,265,flye
MRSA_r10.3_SUP_30,bioY,bioY,1,1,184,184,flye
MRSA_r10.3_SUP_30,rihB,rihB,1,1,313,313,flye
MRSA_r10.3_SUP_30,fhuD,fhuD,1,1,302,302,flye
MRSA_r10.3_SUP_30,ydbM,ydbM,1,1,390,390,flye
MRSA_r10.3_SUP_30,ureA,ureA,1,1,100,100,flye
MRSA_r10.3_SUP_30,ureB,ureB,1,1,136,136,flye
MRSA_r10.3_SUP_30,ureC,ureC,1,1,571,571,flye
MRSA_r10.3_SUP_30,ureE,ureE,1,1,150,150,flye
MRSA_r10.3_SUP_30,ureF,ureF,1,1,229,229,flye
MRSA_r10.3_SUP_30,ureG,ureG,1,1,204,204,flye
MRSA_r10.3_SUP_30,ureD1,ureD1,1,1,278,278,flye
MRSA_r10.3_SUP_30,sarR,sarR,1,1,115,115,flye
MRSA_r10.3_SUP_30,rhaS_2,rhaS_1,0,1,651,651,flye
MRSA_r10.3_SUP_30,ssaA2,ssaA2,1,1,269,269,flye
MRSA_r10.3_SUP_30,mleN_1,mleN_1,1,1,465,465,flye
MRSA_r10.3_SUP_30,odh,odh,1,1,360,360,flye
MRSA_r10.3_SUP_30,auaG,auaG,1,1,374,374,flye
MRSA_r10.3_SUP_30,atl_3,atl_2,0,1,258,258,flye
MRSA_r10.3_SUP_30,tagU_2,tagU_1,0,1,315,315,flye
MRSA_r10.3_SUP_30,cysQ,cysQ,1,1,265,265,flye
MRSA_r10.3_SUP_30,ybbH_3,ybbH_1,0,1,290,290,flye
MRSA_r10.3_SUP_30,yifK,yifK,1,1,459,459,flye
MRSA_r10.3_SUP_30,panS_1,panS_1,1,1,113,113,flye
MRSA_r10.3_SUP_30,panS_2,panS_2,1,1,178,178,flye
MRSA_r10.3_SUP_30,malP,malP,1,1,534,534,flye
MRSA_r10.3_SUP_30,glvR,glvR,1,1,254,254,flye
MRSA_r10.3_SUP_30,mleN_2,mleN_2,1,1,436,436,flye
MRSA_r10.3_SUP_30,yghA,yghA,1,1,293,293,flye
MRSA_r10.3_SUP_30,scmP_4,scmP_1,0,1,302,302,flye
MRSA_r10.3_SUP_30,hutI,hutI,1,1,412,412,flye
MRSA_r10.3_SUP_30,hutU,hutU,1,1,553,553,flye
MRSA_r10.3_SUP_30,hdfR_2,hdfR_1,0,1,294,294,flye
MRSA_r10.3_SUP_30,fosB,fosB,1,1,139,139,flye
MRSA_r10.3_SUP_30,hutG,hutG,1,1,311,311,flye
MRSA_r10.3_SUP_30,lyrA,lyrA,1,1,419,419,flye
MRSA_r10.3_SUP_30,rpiA,rpiA,1,1,228,228,flye
MRSA_r10.3_SUP_30,yiiM,yiiM,1,1,217,217,flye
MRSA_r10.3_SUP_30,mro,mro,1,1,339,339,flye
MRSA_r10.3_SUP_30,yhaP,yhaP,1,1,410,410,flye
MRSA_r10.3_SUP_30,lnrL_2,lnrL_1,0,1,299,299,flye
MRSA_r10.3_SUP_30,gltS,gltS,1,1,402,402,flye
MRSA_r10.3_SUP_30,fni,fni,1,1,349,349,flye
MRSA_r10.3_SUP_30,zntB,zntB,1,1,315,315,flye
MRSA_r10.3_SUP_30,mdtD,mdtD,1,1,645,645,flye
MRSA_r10.3_SUP_30,aaeA,aaeA,1,1,215,215,flye
MRSA_r10.3_SUP_30,bcr_1,bcr_1,1,1,402,402,flye
MRSA_r10.3_SUP_30,tcaA,tcaA,1,1,460,460,flye
MRSA_r10.3_SUP_30,tcaR,tcaR,1,1,151,151,flye
MRSA_r10.3_SUP_30,hrtA_2,hrtA_1,0,1,221,221,flye
MRSA_r10.3_SUP_30,hssR,hssR,1,1,224,224,flye
MRSA_r10.3_SUP_30,hssS,hssS,1,1,457,457,flye
MRSA_r10.3_SUP_30,lnrL_3,lnrL_2,0,1,242,242,flye
MRSA_r10.3_SUP_30,ybhR,ybhR,1,1,360,360,flye
MRSA_r10.3_SUP_30,mqo1,mqo1,1,1,492,492,flye
MRSA_r10.3_SUP_30,lctP_2,lctP_1,0,1,532,532,flye
MRSA_r10.3_SUP_30,paiA,paiA,1,1,171,171,flye
MRSA_r10.3_SUP_30,yhfP,yhfP,1,1,334,334,flye
MRSA_r10.3_SUP_30,treP_2,treP_1,0,1,480,480,flye
MRSA_r10.3_SUP_30,ydaG,ydaG,1,1,140,140,flye
MRSA_r10.3_SUP_30,gltT,gltT,1,1,425,425,flye
MRSA_r10.3_SUP_30,sarZ,sarZ,1,1,148,148,flye
MRSA_r10.3_SUP_30,narT,narT,1,1,389,389,flye
MRSA_r10.3_SUP_30,mta,mta,1,1,95,95,flye
MRSA_r10.3_SUP_30,nreC,nreC,1,1,217,217,flye
MRSA_r10.3_SUP_30,nreB,nreB,1,1,344,344,flye
MRSA_r10.3_SUP_30,narX,narX,1,1,225,225,flye
MRSA_r10.3_SUP_30,narH,narH,1,1,519,519,flye
MRSA_r10.3_SUP_30,narG,narG,1,1,1229,1229,flye
MRSA_r10.3_SUP_30,cysG,cysG,1,1,325,325,flye
MRSA_r10.3_SUP_30,nasE,nasE,1,1,104,104,flye
MRSA_r10.3_SUP_30,nasD,nasD,1,1,801,801,flye
MRSA_r10.3_SUP_30,sirB,sirB,1,1,250,250,flye
MRSA_r10.3_SUP_30,ytmI,ytmI,1,1,178,178,flye
MRSA_r10.3_SUP_30,nirC,nirC,1,1,274,274,flye
MRSA_r10.3_SUP_30,yoeB,yoeB,1,1,88,88,flye
MRSA_r10.3_SUP_30,yefM,yefM,1,1,83,83,flye
MRSA_r10.3_SUP_30,bdbD,bdbD,1,1,199,199,flye
MRSA_r10.3_SUP_30,femA_3,femA_1,0,1,416,416,flye
MRSA_r10.3_SUP_30,tcyC_2,tcyC_2,1,1,243,243,flye
MRSA_r10.3_SUP_30,tcyB,tcyB,1,1,242,242,flye
MRSA_r10.3_SUP_30,farB_2,farB_1,0,1,479,479,flye
MRSA_r10.3_SUP_30,gpmA_2,gpmA_1,0,1,228,228,flye
MRSA_r10.3_SUP_30,mneS,mneS,1,1,288,288,flye
MRSA_r10.3_SUP_30,sbi,sbi,1,1,437,437,flye
MRSA_r10.3_SUP_30,hlgA,hlgA,1,1,321,321,flye
MRSA_r10.3_SUP_30,hlgC,hlgC,1,1,315,315,flye
MRSA_r10.3_SUP_30,hlgB,,0,0,325,0,flye
MRSA_r10.3_SUP_30,bioW,bioW,1,1,230,230,flye
MRSA_r10.3_SUP_30,bioB,bioB,1,1,335,335,flye
MRSA_r10.3_SUP_30,bioK,bioK,1,1,452,452,flye
MRSA_r10.3_SUP_30,bioD,bioD,1,1,228,228,flye
MRSA_r10.3_SUP_30,garK_2,garK_1,0,1,380,380,flye
MRSA_r10.3_SUP_30,bcr_2,bcr_2,1,1,403,403,flye
MRSA_r10.3_SUP_30,cpdA_2,cpdA_2,1,1,268,268,flye
MRSA_r10.3_SUP_30,cycA_2,cycA_2,1,1,469,469,flye
MRSA_r10.3_SUP_30,nhaK_2,nhaK_1,0,1,692,692,flye
MRSA_r10.3_SUP_30,kimA,kimA,1,1,609,609,flye
MRSA_r10.3_SUP_30,flp,flp,1,1,499,499,flye
MRSA_r10.3_SUP_30,hldD,hldD,1,1,283,283,flye
MRSA_r10.3_SUP_30,panE,panE,1,1,311,311,flye
MRSA_r10.3_SUP_30,norB_4,norB_1,0,1,466,466,flye
MRSA_r10.3_SUP_30,opuCD,opuCD,1,1,231,231,flye
MRSA_r10.3_SUP_30,opuCC,opuCC,1,1,313,313,flye
MRSA_r10.3_SUP_30,opuCB,opuCB,1,1,211,211,flye
MRSA_r10.3_SUP_30,opuCA,opuCA,1,1,408,408,flye
MRSA_r10.3_SUP_30,yveA,yveA,1,1,545,545,flye
MRSA_r10.3_SUP_30,pnbA,pnbA,1,1,450,450,flye
MRSA_r10.3_SUP_30,pbuE_2,pbuE_1,0,1,395,395,flye
MRSA_r10.3_SUP_30,fetB,fetB,1,1,258,258,flye
MRSA_r10.3_SUP_30,fetA,fetA,1,1,220,220,flye
MRSA_r10.3_SUP_30,ysdC_2,ysdC_1,0,1,358,358,flye
MRSA_r10.3_SUP_30,yehR,yehR,1,1,151,151,flye
MRSA_r10.3_SUP_30,cntE,cntE,1,1,397,397,flye
MRSA_r10.3_SUP_30,cntF,cntF,1,1,249,249,flye
MRSA_r10.3_SUP_30,cntD,cntD,1,1,271,271,flye
MRSA_r10.3_SUP_30,cntC,cntC,1,1,289,289,flye
MRSA_r10.3_SUP_30,cntB,cntB,1,1,311,311,flye
MRSA_r10.3_SUP_30,cntA,cntA,1,1,532,532,flye
MRSA_r10.3_SUP_30,cntM,cntM,1,1,433,433,flye
MRSA_r10.3_SUP_30,cntL,cntL,1,1,272,272,flye
MRSA_r10.3_SUP_30,cntK,cntK,1,1,273,273,flye
MRSA_r10.3_SUP_30,bacC,bacC,1,1,272,272,flye
MRSA_r10.3_SUP_30,abgT,abgT,1,1,512,512,flye
MRSA_r10.3_SUP_30,uvrB_2,uvrB_1,0,1,953,953,flye
MRSA_r10.3_SUP_30,nudG,nudG,1,1,130,130,flye
MRSA_r10.3_SUP_30,pgcA,pgcA,1,1,545,545,flye
MRSA_r10.3_SUP_30,gtaB,gtaB,1,1,288,288,flye
MRSA_r10.3_SUP_30,fnbA,fnbA,1,1,965,965,flye
MRSA_r10.3_SUP_30,gntT,gntT,1,1,452,452,flye
MRSA_r10.3_SUP_30,xylB,xylB,1,1,517,517,flye
MRSA_r10.3_SUP_30,ywaC,ywaC,1,1,230,230,flye
MRSA_r10.3_SUP_30,sauU,sauU,1,1,425,425,flye
MRSA_r10.3_SUP_30,argO_2,,0,0,205,0,flye
MRSA_r10.3_SUP_30,norG,norG,1,1,470,470,flye
MRSA_r10.3_SUP_30,bcrA_2,bcrA_2,1,1,231,231,flye
MRSA_r10.3_SUP_30,fbp,fbp,1,1,654,654,flye
MRSA_r10.3_SUP_30,mhqD,mhqD,1,1,197,197,flye
MRSA_r10.3_SUP_30,mhqA_3,mhqA_1,0,1,322,322,flye
MRSA_r10.3_SUP_30,mhqR,mhqR,1,1,144,144,flye
MRSA_r10.3_SUP_30,yjdJ,yjdJ,1,1,94,94,flye
MRSA_r10.3_SUP_30,catE_2,catE_1,0,1,268,268,flye
MRSA_r10.3_SUP_30,ldhD_1,,0,0,330,0,flye
MRSA_r10.3_SUP_30,ybjI,ybjI,1,1,266,266,flye
MRSA_r10.3_SUP_30,srtA,srtA,1,1,206,206,flye
MRSA_r10.3_SUP_30,pitA,pitA,1,1,163,163,flye
MRSA_r10.3_SUP_30,sdhA,sdhA,1,1,299,299,flye
MRSA_r10.3_SUP_30,yicL,yicL,1,1,307,307,flye
MRSA_r10.3_SUP_30,glcB,glcB,1,1,707,707,flye
MRSA_r10.3_SUP_30,ydaP,ydaP,1,1,579,579,flye
MRSA_r10.3_SUP_30,cidB,cidB,1,1,229,229,flye
MRSA_r10.3_SUP_30,cidA,cidA,1,1,131,131,flye
MRSA_r10.3_SUP_30,cynR,cynR,1,1,287,287,flye
MRSA_r10.3_SUP_30,mvaA,mvaA,1,1,426,426,flye
MRSA_r10.3_SUP_30,mvaS,mvaS,1,1,388,388,flye
MRSA_r10.3_SUP_30,ogt,ogt,1,1,173,173,flye
MRSA_r10.3_SUP_30,clpL,clpL,1,1,701,701,flye
MRSA_r10.3_SUP_30,feoB,feoB,1,1,664,664,flye
MRSA_r10.3_SUP_30,ydfJ,ydfJ,1,1,829,829,flye
MRSA_r10.3_SUP_30,rocA,rocA,1,1,514,514,flye
MRSA_r10.3_SUP_30,copA,copA,1,1,802,802,flye
MRSA_r10.3_SUP_30,copZ,copZ,1,1,68,68,flye
MRSA_r10.3_SUP_30,ldhD_2,ldhD_2,1,1,342,342,flye
MRSA_r10.3_SUP_30,bacF,bacF,1,1,384,384,flye
MRSA_r10.3_SUP_30,crtN,crtN,1,1,502,502,flye
MRSA_r10.3_SUP_30,crtM_1,crtM_1,1,1,169,169,flye
MRSA_r10.3_SUP_30,crtM_2,crtM_2,1,1,94,94,flye
MRSA_r10.3_SUP_30,crtQ,crtQ,1,1,375,375,flye
MRSA_r10.3_SUP_30,crtP,crtP,1,1,497,497,flye
MRSA_r10.3_SUP_30,ssaA,ssaA,1,1,255,255,flye
MRSA_r10.3_SUP_30,oatA_2,oatA_1,0,1,603,603,flye
MRSA_r10.3_SUP_30,isaA,isaA,1,1,233,233,flye
MRSA_r10.3_SUP_30,cpnA,cpnA,1,1,234,234,flye
MRSA_r10.3_SUP_30,pyrD,pyrD,1,1,354,354,flye
MRSA_r10.3_SUP_30,queH,queH,1,1,240,240,flye
MRSA_r10.3_SUP_30,cocE,cocE,1,1,560,560,flye
MRSA_r10.3_SUP_30,panD,panD,1,1,127,127,flye
MRSA_r10.3_SUP_30,panC,panC,1,1,283,283,flye
MRSA_r10.3_SUP_30,panB,panB,1,1,272,272,flye
MRSA_r10.3_SUP_30,aldC_2,aldC_2,1,1,234,234,flye
MRSA_r10.3_SUP_30,ldh2,ldh2,1,1,319,319,flye
MRSA_r10.3_SUP_30,yhdG,yhdG,1,1,482,482,flye
MRSA_r10.3_SUP_30,fda,fda,1,1,296,296,flye
MRSA_r10.3_SUP_30,mqo2,mqo2,1,1,498,498,flye
MRSA_r10.3_SUP_30,acsA_2,acsA_2,1,1,539,539,flye
MRSA_r10.3_SUP_30,isdG_2,isdG_1,0,1,147,147,flye
MRSA_r10.3_SUP_30,betA,betA,1,1,569,569,flye
MRSA_r10.3_SUP_30,gbsA,gbsA,1,1,496,496,flye
MRSA_r10.3_SUP_30,opcR,opcR,1,1,187,187,flye
MRSA_r10.3_SUP_30,opuD_3,opuD_2,0,1,540,540,flye
MRSA_r10.3_SUP_30,nrdD,nrdD,1,1,616,616,flye
MRSA_r10.3_SUP_30,citN,citN,1,1,456,456,flye
MRSA_r10.3_SUP_30,sirC,sirC,1,1,202,202,flye
MRSA_r10.3_SUP_30,cysJ,cysJ,1,1,626,626,flye
MRSA_r10.3_SUP_30,bsaA_2,bsaA_1,0,1,165,165,flye
MRSA_r10.3_SUP_30,bceB_2,bceB_1,0,1,666,666,flye
MRSA_r10.3_SUP_30,yxdL,yxdL,1,1,251,251,flye
MRSA_r10.3_SUP_30,graS_2,graS_1,0,1,295,295,flye
MRSA_r10.3_SUP_30,graR_2,,0,0,221,0,flye
MRSA_r10.3_SUP_30,phoB,phoB,1,1,457,457,flye
MRSA_r10.3_SUP_30,clfB,clfB,1,1,873,873,flye
MRSA_r10.3_SUP_30,arcR,arcR,1,1,234,234,flye
MRSA_r10.3_SUP_30,arcC2,arcC2,1,1,313,313,flye
MRSA_r10.3_SUP_30,arcD,arcD,1,1,476,476,flye
MRSA_r10.3_SUP_30,arcB,arcB,1,1,336,336,flye
MRSA_r10.3_SUP_30,arcA,arcA,1,1,411,411,flye
MRSA_r10.3_SUP_30,argR_2,argR_1,0,1,149,149,flye
MRSA_r10.3_SUP_30,aur,aur,1,1,509,509,flye
MRSA_r10.3_SUP_30,isaB,isaB,1,1,175,175,flye
MRSA_r10.3_SUP_30,manR,manR,1,1,624,624,flye
MRSA_r10.3_SUP_30,manP,manP,1,1,650,650,flye
MRSA_r10.3_SUP_30,yvyI,,0,0,312,0,flye
MRSA_r10.3_SUP_30,gtfB,gtfB,1,1,452,452,flye
MRSA_r10.3_SUP_30,gtfA_3,gtfA_1,0,1,502,502,flye
MRSA_r10.3_SUP_30,secA1_2,secA1_1,0,1,796,796,flye
MRSA_r10.3_SUP_30,asp2,asp2,1,1,523,523,flye
MRSA_r10.3_SUP_30,asp1,asp1,1,1,452,452,flye
MRSA_r10.3_SUP_30,secY_2,secY_2,1,1,403,403,flye
MRSA_r10.3_SUP_30,sraP,sraP,1,1,1351,1351,flye
MRSA_r10.3_SUP_30,msrAB,msrAB,1,1,158,158,flye
MRSA_r10.3_SUP_30,ywqE_2,ywqE_1,0,1,255,255,flye
MRSA_r10.3_SUP_30,ywqD_2,ywqD_1,0,1,230,230,flye
MRSA_r10.3_SUP_30,cap8A_2,cap8A_1,0,1,220,220,flye
MRSA_r10.3_SUP_30,icaR,icaR,1,1,186,186,flye
MRSA_r10.3_SUP_30,icaA,,0,0,412,0,flye
MRSA_r10.3_SUP_30,icaD,icaD,1,1,101,101,flye
MRSA_r10.3_SUP_30,icaB,icaB,1,1,290,290,flye
MRSA_r10.3_SUP_30,icaC,icaC,1,1,350,350,flye
MRSA_r10.3_SUP_30,lipA_2,lipA_1,0,1,681,681,flye
MRSA_r10.3_SUP_30,hisI,hisI,1,1,210,210,flye
MRSA_r10.3_SUP_30,hisF,hisF,1,1,252,252,flye
MRSA_r10.3_SUP_30,hisA,hisA,1,1,234,234,flye
MRSA_r10.3_SUP_30,hisH,hisH,1,1,192,192,flye
MRSA_r10.3_SUP_30,hisB,hisB,1,1,192,192,flye
MRSA_r10.3_SUP_30,hisC_3,hisC_2,0,1,337,337,flye
MRSA_r10.3_SUP_30,hisD,hisD,1,1,416,416,flye
MRSA_r10.3_SUP_30,hisG,hisG,1,1,204,204,flye
MRSA_r10.3_SUP_30,hisZ,hisZ,1,1,272,272,flye
MRSA_r10.3_SUP_30,ykoC,ykoC,1,1,277,277,flye
MRSA_r10.3_SUP_30,ykoD_2,,0,0,570,0,flye
MRSA_r10.3_SUP_30,salL,salL,1,1,282,282,flye
MRSA_r10.3_SUP_30,pcp,pcp,1,1,212,212,flye
MRSA_r10.3_SUP_30,cna,cna,1,1,1183,1183,flye
MRSA_r10.3_SUP_30,yflS,yflS,1,1,472,472,flye
MRSA_r10.3_SUP_30,rarD,rarD,1,1,302,302,flye
MRSA_r10.3_SUP_30,nixA,nixA,1,1,338,338,flye
MRSA_r10.3_SUP_30,nhoA,nhoA,1,1,266,266,flye
MRSA_r10.3_SUP_30,bceA_2,bceA_1,0,1,252,252,flye
MRSA_r10.3_SUP_30,bceB_3,bceB_2,0,1,626,626,flye
MRSA_r10.3_SUP_30,cspLA,cspLA,1,1,66,66,flye
MRSA_r10.3_SUP_30,noc,noc,1,1,279,279,flye
MRSA_r10.3_SUP_30,rsmG,rsmG,1,1,239,239,flye
MRSA_r10.3_SUP_30,mnmG,mnmG,1,1,625,625,flye
MRSA_r10.3_SUP_30,mnmE,mnmE,1,1,459,459,flye
MRSA_r10.3_SUP_30,rnpA,rnpA,1,1,115,115,flye
MRSA_r10.3_SUP_30,rpmH,rpmH,1,1,45,45,flye
