index	1
STUDY	PRJEB51164
SAMPLE	ERS10770984
NAME	Ecoli_r10.3_SUP
PLATFORM	OXFORD_NANOPORE
INSTRUMENT	GridION
LIBRARY_SOURCE	GENOMIC
LIBRARY_SELECTION	PCR
LIBRARY_STRATEGY	WGS
DESCRIPTION	NA
FASTQ	Ecoli_r10.3_SUP.fastq.gz
