index	18
STUDY	PRJEB51164
SAMPLE	ERS10771001
NAME	Kpneumo_r10.4_plex
PLATFORM	OXFORD_NANOPORE
INSTRUMENT	GridION
LIBRARY_SOURCE	GENOMIC
LIBRARY_SELECTION	PCR
LIBRARY_STRATEGY	WGS
DESCRIPTION	NA
FASTQ	Kpneumo_r10.4_plex.fastq.gz
