index	14
STUDY	PRJEB51164
SAMPLE	ERS10770997
NAME	Kpneumo_r9_sup
PLATFORM	OXFORD_NANOPORE
INSTRUMENT	GridION
LIBRARY_SOURCE	GENOMIC
LIBRARY_SELECTION	PCR
LIBRARY_STRATEGY	WGS
DESCRIPTION	NA
FASTQ	Kpneumo_r9_sup.fastq.gz
