index	26
STUDY	PRJEB51164
SAMPLE	ERS10771009
NAME	MRSA_r10.4
PLATFORM	OXFORD_NANOPORE
INSTRUMENT	GridION
LIBRARY_SOURCE	GENOMIC
LIBRARY_SELECTION	PCR
LIBRARY_STRATEGY	WGS
DESCRIPTION	NA
FASTQ	MRSA_r10.4.fastq.gz
