index	32
STUDY	PRJEB51164
SAMPLE	ERS10771015
NAME	MRSA_r10.4_plex_sup_simp
PLATFORM	OXFORD_NANOPORE
INSTRUMENT	GridION
LIBRARY_SOURCE	GENOMIC
LIBRARY_SELECTION	PCR
LIBRARY_STRATEGY	WGS
DESCRIPTION	NA
FASTQ	MRSA_r10.4_plex_sup_simp.fastq.gz
