Checklist	ERC000011	ENA default sample checklist		
tax_id	scientific_name	sample_alias	sample_title	sample_description
562	Escherichia coli 	Ecoli_r10	Ecoli CFT073 isolate ONT sequenced with r10.3 using model Rerio	Ecoli CFT073 isolate ONT sequenced with r10.3 using model Rerio
562	Escherichia coli 	Ecoli_r10.3_SUP	Ecoli CFT073 isolate ONT sequenced with r10.3 using model SUP	Ecoli CFT073 isolate ONT sequenced with r10.3 using model SUP
562	Escherichia coli 	Ecoli_r9	Ecoli CFT073 isolate ONT sequenced with r9.4.1 using model HAC	Ecoli CFT073 isolate ONT sequenced with r9.4.1 using model HAC
562	Escherichia coli 	Ecoli_r9_sup	Ecoli CFT073 isolate ONT sequenced with r9.4.1 using model SUP	Ecoli CFT073 isolate ONT sequenced with r9.4.1 using model SUP
562	Escherichia coli 	Ecoli_r10.4	Ecoli CFT073 isolate ONT sequenced with r10.4 using model HAC	Ecoli CFT073 isolate ONT sequenced with r10.4 using model HAC
562	Escherichia coli 	Ecoli_r10.4_sup	Ecoli CFT073 isolate ONT sequenced with r10.4 using model SUP	Ecoli CFT073 isolate ONT sequenced with r10.4 using model SUP
562	Escherichia coli 	Ecoli_r10.4_sup_dup	Ecoli CFT073 isolate ONT sequenced with r10.4 using model DUPLEX	Ecoli CFT073 isolate ONT sequenced with r10.4 using model DUPLEX
562	Escherichia coli 	Ecoli_r10.4_plex	Ecoli CFT073 isolate ONT sequenced with r10.4 using model HAC	Ecoli CFT073 isolate ONT sequenced with r10.4 using model HAC
562	Escherichia coli 	Ecoli_r10.4_plex_sup_dup	Ecoli CFT073 isolate ONT sequenced with r10.4 using model DUPLEX	Ecoli CFT073 isolate ONT sequenced with r10.4 using model DUPLEX
562	Escherichia coli 	Ecoli_r10.4_plex_sup_dup_hybrid	Ecoli CFT073 isolate ONT sequenced with r10.4 using model DUPLEX+SIMPLEX	Ecoli CFT073 isolate ONT sequenced with r10.4 using model DUPLEX+SIMPLEX
562	Escherichia coli 	Ecoli_r10.4_plex_sup_simp	Ecoli CFT073 isolate ONT sequenced with r10.4 using model SUP	Ecoli CFT073 isolate ONT sequenced with r10.4 using model SUP
573	Klebsiella pneumoniae	Kpneumo_r10	Klebsiella pneumoniae MGH 78578 isolate ONT sequenced with r10.3 using model Rerio	Klebsiella pneumoniae MGH 78578 isolate ONT sequenced with r10.3 using model Rerio
573	Klebsiella pneumoniae	Kpneumo_r10.3_SUP	Klebsiella pneumoniae MGH 78578 isolate ONT sequenced with r10.3 using model SUP	Klebsiella pneumoniae MGH 78578 isolate ONT sequenced with r10.3 using model SUP
573	Klebsiella pneumoniae	Kpneumo_r9	Klebsiella pneumoniae MGH 78578 isolate ONT sequenced with r9.4.1 using model HAC	Klebsiella pneumoniae MGH 78578 isolate ONT sequenced with r9.4.1 using model HAC
573	Klebsiella pneumoniae	Kpneumo_r9_sup	Klebsiella pneumoniae MGH 78578 isolate ONT sequenced with r9.4.1 using model SUP	Klebsiella pneumoniae MGH 78578 isolate ONT sequenced with r9.4.1 using model SUP
573	Klebsiella pneumoniae	Kpneumo_r10.4	Klebsiella pneumoniae MGH 78578 isolate ONT sequenced with r10.4 using model HAC	Klebsiella pneumoniae MGH 78578 isolate ONT sequenced with r10.4 using model HAC
573	Klebsiella pneumoniae	Kpneumo_r10.4_sup	Klebsiella pneumoniae MGH 78578 isolate ONT sequenced with r10.4 using model SUP	Klebsiella pneumoniae MGH 78578 isolate ONT sequenced with r10.4 using model SUP
573	Klebsiella pneumoniae	Kpneumo_r10.4_sup_dup	Klebsiella pneumoniae MGH 78578 isolate ONT sequenced with r10.4 using model DUPLEX	Klebsiella pneumoniae MGH 78578 isolate ONT sequenced with r10.4 using model DUPLEX
573	Klebsiella pneumoniae	Kpneumo_r10.4_plex	Klebsiella pneumoniae MGH 78578 isolate ONT sequenced with r10.4 using model HAC	Klebsiella pneumoniae MGH 78578 isolate ONT sequenced with r10.4 using model HAC
573	Klebsiella pneumoniae	Kpneumo_r10.4_plex_sup_dup	Klebsiella pneumoniae MGH 78578 isolate ONT sequenced with r10.4 using model DUPLEX	Klebsiella pneumoniae MGH 78578 isolate ONT sequenced with r10.4 using model DUPLEX
573	Klebsiella pneumoniae	Kpneumo_r10.4_plex_sup_dup_hybrid	Klebsiella pneumoniae MGH 78578 isolate ONT sequenced with r10.4 using model DUPLEX+SIMPLEX	Klebsiella pneumoniae MGH 78578 isolate ONT sequenced with r10.4 using model DUPLEX+SIMPLEX
573	Klebsiella pneumoniae	Kpneumo_r10.4_plex_sup_simp	Klebsiella pneumoniae MGH 78578 isolate ONT sequenced with r10.4 using model SUP	Klebsiella pneumoniae MGH 78578 isolate ONT sequenced with r10.4 using model SUP
1280	Staphylococcus aureus	MRSA_r10	MRSA 252 isolate ONT sequenced with r10.3 using model Rerio	MRSA 252 isolate ONT sequenced with r10.3 using model Rerio
1280	Staphylococcus aureus	MRSA_r10.3_SUP	MRSA 252 isolate ONT sequenced with r10.3 using model SUP	MRSA 252 isolate ONT sequenced with r10.3 using model SUP
1280	Staphylococcus aureus	MRSA_r9	MRSA 252 isolate ONT sequenced with r9.4.1 using model HAC	MRSA 252 isolate ONT sequenced with r9.4.1 using model HAC
1280	Staphylococcus aureus	MRSA_r9_sup	MRSA 252 isolate ONT sequenced with r9.4.1 using model SUP	MRSA 252 isolate ONT sequenced with r9.4.1 using model SUP
1280	Staphylococcus aureus	MRSA_r10.4	MRSA 252 isolate ONT sequenced with r10.4 using model HAC	MRSA 252 isolate ONT sequenced with r10.4 using model HAC
1280	Staphylococcus aureus	MRSA_r10.4_sup	MRSA 252 isolate ONT sequenced with r10.4 using model SUP	MRSA 252 isolate ONT sequenced with r10.4 using model SUP
1280	Staphylococcus aureus	MRSA_r10.4_sup_dup	MRSA 252 isolate ONT sequenced with r10.4 using model DUPLEX	MRSA 252 isolate ONT sequenced with r10.4 using model DUPLEX
1280	Staphylococcus aureus	MRSA_r10.4_plex	MRSA 252 isolate ONT sequenced with r10.4 using model HAC	MRSA 252 isolate ONT sequenced with r10.4 using model HAC
1280	Staphylococcus aureus	MRSA_r10.4_plex_sup_dup	MRSA 252 isolate ONT sequenced with r10.4 using model DUPLEX	MRSA 252 isolate ONT sequenced with r10.4 using model DUPLEX
1280	Staphylococcus aureus	MRSA_r10.4_plex_sup_dup_hybrid	MRSA 252 isolate ONT sequenced with r10.4 using model DUPLEX+SIMPLEX	MRSA 252 isolate ONT sequenced with r10.4 using model DUPLEX+SIMPLEX
1280	Staphylococcus aureus	MRSA_r10.4_plex_sup_simp	MRSA 252 isolate ONT sequenced with r10.4 using model SUP	MRSA 252 isolate ONT sequenced with r10.4 using model SUP
287	Pseudomonas aeruginosa	Pa01_r10	MRSA 252 isolate ONT sequenced with r10.3 using model Rerio	MRSA 252 isolate ONT sequenced with r10.3 using model Rerio
287	Pseudomonas aeruginosa	Pa01_r10.3_SUP	Pseudomonas aeruginosa PAO1 isolate ONT sequenced with r10.3 using model SUP	Pseudomonas aeruginosa PAO1 isolate ONT sequenced with r10.3 using model SUP
287	Pseudomonas aeruginosa	Pa01_r9	Pseudomonas aeruginosa PAO1 isolate ONT sequenced with r9.4.1 using model HAC	Pseudomonas aeruginosa PAO1 isolate ONT sequenced with r9.4.1 using model HAC
287	Pseudomonas aeruginosa	Pa01_r9_sup	Pseudomonas aeruginosa PAO1 isolate ONT sequenced with r9.4.1 using model SUP	Pseudomonas aeruginosa PAO1 isolate ONT sequenced with r9.4.1 using model SUP
287	Pseudomonas aeruginosa	Pa01_r10.4	Pseudomonas aeruginosa PAO1 isolate ONT sequenced with r10.4 using model HAC	Pseudomonas aeruginosa PAO1 isolate ONT sequenced with r10.4 using model HAC
287	Pseudomonas aeruginosa	Pa01_r10.4_sup	Pseudomonas aeruginosa PAO1 isolate ONT sequenced with r10.4 using model SUP	Pseudomonas aeruginosa PAO1 isolate ONT sequenced with r10.4 using model SUP
287	Pseudomonas aeruginosa	Pa01_r10.4_sup_dup	Pseudomonas aeruginosa PAO1 isolate ONT sequenced with r10.4 using model DUPLEX	Pseudomonas aeruginosa PAO1 isolate ONT sequenced with r10.4 using model DUPLEX
287	Pseudomonas aeruginosa	Pa01_r10.4_plex	Pseudomonas aeruginosa PAO1 isolate ONT sequenced with r10.4 using model HAC	Pseudomonas aeruginosa PAO1 isolate ONT sequenced with r10.4 using model HAC
287	Pseudomonas aeruginosa	Pa01_r10.4_plex_sup_dup	Pseudomonas aeruginosa PAO1 isolate ONT sequenced with r10.4 using model DUPLEX	Pseudomonas aeruginosa PAO1 isolate ONT sequenced with r10.4 using model DUPLEX
287	Pseudomonas aeruginosa	Pa01_r10.4_plex_sup_dup_hybrid	Pseudomonas aeruginosa PAO1 isolate ONT sequenced with r10.4 using model DUPLEX+SIMPLEX	Pseudomonas aeruginosa PAO1 isolate ONT sequenced with r10.4 using model DUPLEX+SIMPLEX
287	Pseudomonas aeruginosa	Pa01_r10.4_plex_sup_simp	Pseudomonas aeruginosa PAO1 isolate ONT sequenced with r10.4 using model SUP	Pseudomonas aeruginosa PAO1 isolate ONT sequenced with r10.4 using model SUP