﻿TYPE,ACCESSION,ALIAS,refname,library_strategy,library_source,library_selection,instrument_model,center_name,Study,file,md5
SAMPLE,ERS10853301,Ecoli_r10.3_F5,q20 analysis,WGS,GENOMIC,PCR,GridION,University of Oxford,PRJEB51164,Ecoli_r10.3.tar.gz,0d303900761a1872ef7b20ea7e6b051e
SAMPLE,ERS10853302,Ecoli_r9_F5,q20 analysis,WGS,GENOMIC,PCR,GridION,University of Oxford,PRJEB51164,ecoli_r9.tar.gz,fd6eb9f5d887b8e5f24ddacafc370fc6
SAMPLE,ERS10853303,Ecoli_r10.4_F5,q20 analysis,WGS,GENOMIC,PCR,GridION,University of Oxford,PRJEB51164,Ecoli_r10.4.tar.gz,3612e6a6b8e99623f02f1df5678a6c64
SAMPLE,ERS10853304,Kpneumo_r10.3_F5,q20 analysis,WGS,GENOMIC,PCR,GridION,University of Oxford,PRJEB51164,Kpneumo_r10.3.tar.gz,8c780830915aaa2592db7895d05f2647
SAMPLE,ERS10853305,Kpneumo_r9_F5,q20 analysis,WGS,GENOMIC,PCR,GridION,University of Oxford,PRJEB51164,Kpneu_r9.tar.gz,1aadaf4a70c4cc89e7c851ccf84fc66d
SAMPLE,ERS10853306,Kpneumo_r10.4_F5,q20 analysis,WGS,GENOMIC,PCR,GridION,University of Oxford,PRJEB51164,Kpneu_r10.4.tar.gz,bd1502faf45e4dcb3af6c76bea000408
SAMPLE,ERS10853307,MRSA_r10.3_F5,q20 analysis,WGS,GENOMIC,PCR,GridION,University of Oxford,PRJEB51164,MRSA_r10.3.tar.gz,d97a4b16793e9cf3d46a8494c423c780
SAMPLE,ERS10853308,MRSA_r10.4_F5,q20 analysis,WGS,GENOMIC,PCR,GridION,University of Oxford,PRJEB51164,MRSA_r10.4.tar.gz,ded45bb06440902b8afe99a0ec5ec3e9
SAMPLE,ERS10853309,MRSA_r9_F5,q20 analysis,WGS,GENOMIC,PCR,GridION,University of Oxford,PRJEB51164,MRSA_r9.tar.gz,49a7814193e7e30f662fdd4b7facbe5a
SAMPLE,ERS10853310,Pa01_r10_F5,q20 analysis,WGS,GENOMIC,PCR,GridION,University of Oxford,PRJEB51164,Pa01_r10.3.tar.gz,71a0bbbbf38a6a65ac8238e1c2bf90df
SAMPLE,ERS10853311,Pa01_r9_F5,q20 analysis,WGS,GENOMIC,PCR,GridION,University of Oxford,PRJEB51164,Pa01_r9.tar.gz,73b4e5a8e8b3a19121edaea20ddaa429
SAMPLE,ERS10853312,Pa01_r10.4_F5,q20 analysis,WGS,GENOMIC,PCR,GridION,University of Oxford,PRJEB51164,Pa01_r10.4.tar.gz,3596e11cd19927edc1747bb5171e2d35